xof 0302txt 0032
template Header {
 <3D82AB43-62DA-11cf-AB39-0020AF71E433>
 WORD major;
 WORD minor;
 DWORD flags;
}

template Vector {
 <3D82AB5E-62DA-11cf-AB39-0020AF71E433>
 FLOAT x;
 FLOAT y;
 FLOAT z;
}

template Coords2d {
 <F6F23F44-7686-11cf-8F52-0040333594A3>
 FLOAT u;
 FLOAT v;
}

template Matrix4x4 {
 <F6F23F45-7686-11cf-8F52-0040333594A3>
 array FLOAT matrix[16];
}

template ColorRGBA {
 <35FF44E0-6C7C-11cf-8F52-0040333594A3>
 FLOAT red;
 FLOAT green;
 FLOAT blue;
 FLOAT alpha;
}

template ColorRGB {
 <D3E16E81-7835-11cf-8F52-0040333594A3>
 FLOAT red;
 FLOAT green;
 FLOAT blue;
}

template TextureFilename {
 <A42790E1-7810-11cf-8F52-0040333594A3>
 STRING filename;
}

template Material {
 <3D82AB4D-62DA-11cf-AB39-0020AF71E433>
 ColorRGBA faceColor;
 FLOAT power;
 ColorRGB specularColor;
 ColorRGB emissiveColor;
 [...]
}

template MeshFace {
 <3D82AB5F-62DA-11cf-AB39-0020AF71E433>
 DWORD nFaceVertexIndices;
 array DWORD faceVertexIndices[nFaceVertexIndices];
}

template MeshTextureCoords {
 <F6F23F40-7686-11cf-8F52-0040333594A3>
 DWORD nTextureCoords;
 array Coords2d textureCoords[nTextureCoords];
}

template MeshMaterialList {
 <F6F23F42-7686-11cf-8F52-0040333594A3>
 DWORD nMaterials;
 DWORD nFaceIndexes;
 array DWORD faceIndexes[nFaceIndexes];
 [Material]
}

template MeshNormals {
 <F6F23F43-7686-11cf-8F52-0040333594A3>
 DWORD nNormals;
 array Vector normals[nNormals];
 DWORD nFaceNormals;
 array MeshFace faceNormals[nFaceNormals];
}

template Mesh {
 <3D82AB44-62DA-11cf-AB39-0020AF71E433>
 DWORD nVertices;
 array Vector vertices[nVertices];
 DWORD nFaces;
 array MeshFace faces[nFaces];
 [...]
}

template FrameTransformMatrix {
 <F6F23F41-7686-11cf-8F52-0040333594A3>
 Matrix4x4 frameMatrix;
}

template Frame {
 <3D82AB46-62DA-11cf-AB39-0020AF71E433>
 [...]
}
template FloatKeys {
 <10DD46A9-775B-11cf-8F52-0040333594A3>
 DWORD nValues;
 array FLOAT values[nValues];
}

template TimedFloatKeys {
 <F406B180-7B3B-11cf-8F52-0040333594A3>
 DWORD time;
 FloatKeys tfkeys;
}

template AnimationKey {
 <10DD46A8-775B-11cf-8F52-0040333594A3>
 DWORD keyType;
 DWORD nKeys;
 array TimedFloatKeys keys[nKeys];
}

template AnimationOptions {
 <E2BF56C0-840F-11cf-8F52-0040333594A3>
 DWORD openclosed;
 DWORD positionquality;
}

template Animation {
 <3D82AB4F-62DA-11cf-AB39-0020AF71E433>
 [...]
}

template AnimationSet {
 <3D82AB50-62DA-11cf-AB39-0020AF71E433>
 [Animation]
}

Header {
 1;
 0;
 1;
}

Frame frm-sphere3 {
  FrameTransformMatrix {
1.000000,0.000000,0.000000,0.000000,
0.000000,1.000000,0.000000,0.000000,
0.000000,0.000000,1.000000,0.000000,
0.000000,0.000000,0.000000,1.000000;;
 }
Mesh sphere3 {
 33;
 2029.485047;6929.096451;2029.485047;,
 3749.999642;5303.301206;3749.999642;,
 5303.300858;0.000328;5303.300858;,
 4899.610877;2870.126178;4899.610877;,
 0.000000;6929.096451;2870.125294;,
 0.000000;5303.301206;5303.300142;,
 0.000000;0.000328;7500.000000;,
 0.000000;2870.126178;6929.095745;,
 -2029.485047;6929.096451;2029.485047;,
 -3749.999285;5303.301206;3749.999285;,
 -5303.300858;0.000328;5303.300858;,
 -4899.610162;2870.126178;4899.610162;,
 -2870.125294;6929.096451;0.000000;,
 -5303.299785;5303.301206;0.000000;,
 -7500.000000;0.000328;0.000000;,
 -6929.095745;2870.126178;0.000000;,
 -2029.485047;6929.096451;-2029.485047;,
 -3749.999285;5303.301206;-3749.999285;,
 -5303.300858;0.000328;-5303.300858;,
 -4899.610162;2870.126178;-4899.610162;,
 0.000000;6929.096451;-2870.125294;,
 0.000000;5303.301206;-5303.299785;,
 0.000000;0.000328;-7500.000000;,
 0.000000;2870.126178;-6929.095745;,
 0.000000;7499.999990;0.000000;,
 2870.125294;6929.096451;0.000000;,
 2029.485047;6929.096451;-2029.485047;,
 5303.300142;5303.301206;0.000000;,
 3749.999285;5303.301206;-3749.999285;,
 5303.300858;0.000328;-5303.300858;,
 7500.000000;0.000328;0.000000;,
 6929.096460;2870.126178;0.000000;,
 4899.610162;2870.126178;-4899.610162;;

 32;
 4;29,30,31,32;,
 4;32,31,27,28;,
 4;28,27,25,26;,
 3;24,26,25;,
 4;22,29,32,23;,
 4;23,32,28,21;,
 4;21,28,26,20;,
 3;24,20,26;,
 4;18,22,23,19;,
 4;19,23,21,17;,
 4;17,21,20,16;,
 3;24,16,20;,
 4;14,18,19,15;,
 4;15,19,17,13;,
 4;13,17,16,12;,
 3;24,12,16;,
 4;10,14,15,11;,
 4;11,15,13,9;,
 4;9,13,12,8;,
 3;24,8,12;,
 4;6,10,11,7;,
 4;7,11,9,5;,
 4;5,9,8,4;,
 3;24,4,8;,
 4;2,6,7,3;,
 4;3,7,5,1;,
 4;1,5,4,0;,
 3;24,0,4;,
 4;30,2,3,31;,
 4;31,3,1,27;,
 4;27,1,0,25;,
 3;24,25,0;;

 MeshMaterialList {
  1;
  32;
  0,
  0,
  0,
  0,
  0,
  0,
  0,
  0,
  0,
  0,
  0,
  0,
  0,
  0,
  0,
  0,
  0,
  0,
  0,
  0,
  0,
  0,
  0,
  0,
  0,
  0,
  0,
  0,
  0,
  0,
  0,
  0;
Material {
 1.000000;1.000000;1.000000;1.000000;;
 50.000000;
 1.000000;1.000000;1.000000;;
 0.0; 0.0; 0.0;;
 TextureFilename {
  "fullsphere.ppm";
 }
 }
}
 MeshNormals {
  33;
  -0.269132;-0.924735;-0.269132;,
  -0.498494;-0.709230;-0.498494;,
  -0.693520;-0.195090;-0.693520;,
  -0.652733;-0.384551;-0.652733;,
  0.000000;-0.924735;-0.380611;,
  0.000000;-0.709230;-0.704977;,
  0.000000;-0.195091;-0.980785;,
  0.000000;-0.384551;-0.923104;,
  0.269133;-0.924735;-0.269132;,
  0.498494;-0.709230;-0.498494;,
  0.693520;-0.195091;-0.693520;,
  0.652733;-0.384551;-0.652733;,
  0.380611;-0.924735;-0.000000;,
  0.704977;-0.709230;-0.000000;,
  0.980785;-0.195091;0.000000;,
  0.923104;-0.384551;0.000000;,
  0.269132;-0.924735;0.269133;,
  0.498494;-0.709230;0.498494;,
  0.693520;-0.195091;0.693520;,
  0.652733;-0.384551;0.652733;,
  0.000000;-0.924735;0.380611;,
  0.000000;-0.709230;0.704977;,
  0.000000;-0.195091;0.980785;,
  0.000000;-0.384551;0.923104;,
  -0.000000;-1.000000;0.000000;,
  -0.380611;-0.924735;0.000000;,
  -0.269133;-0.924735;0.269132;,
  -0.704977;-0.709230;0.000000;,
  -0.498494;-0.709230;0.498494;,
  -0.693520;-0.195091;0.693520;,
  -0.980785;-0.195090;0.000000;,
  -0.923104;-0.384551;0.000000;,
  -0.652733;-0.384551;0.652733;;

  32;
  4;29,30,31,32;,
  4;32,31,27,28;,
  4;28,27,25,26;,
  3;24,26,25;,
  4;22,29,32,23;,
  4;23,32,28,21;,
  4;21,28,26,20;,
  3;24,20,26;,
  4;18,22,23,19;,
  4;19,23,21,17;,
  4;17,21,20,16;,
  3;24,16,20;,
  4;14,18,19,15;,
  4;15,19,17,13;,
  4;13,17,16,12;,
  3;24,12,16;,
  4;10,14,15,11;,
  4;11,15,13,9;,
  4;9,13,12,8;,
  3;24,8,12;,
  4;6,10,11,7;,
  4;7,11,9,5;,
  4;5,9,8,4;,
  3;24,4,8;,
  4;2,6,7,3;,
  4;3,7,5,1;,
  4;1,5,4,0;,
  3;24,0,4;,
  4;30,2,3,31;,
  4;31,3,1,27;,
  4;27,1,0,25;,
  3;24,25,0;;
 }
 MeshTextureCoords { 
 33;
 0.627064;0.627064;,
 0.734784;0.734784;,
 0.998333;0.998333;,
 0.806760;0.806760;,
 0.500000;0.679696;,
 0.500000;0.832035;,
 0.501667;0.998333;,
 0.500000;0.933824;,
 0.372936;0.627064;,
 0.265216;0.734784;,
 0.001667;0.998333;,
 0.193240;0.806760;,
 0.320304;0.500000;,
 0.167965;0.500000;,
 0.001667;0.498333;,
 0.066176;0.500000;,
 0.372936;0.372936;,
 0.265216;0.265216;,
 0.001667;0.001667;,
 0.193240;0.193240;,
 0.500000;0.320304;,
 0.500000;0.167965;,
 0.501667;0.001667;,
 0.500000;0.066176;,
 0.500000;0.500000;,
 0.679696;0.500000;,
 0.627064;0.372936;,
 0.832035;0.500000;,
 0.734784;0.265216;,
 0.998333;0.001667;,
 0.998333;0.498333;,
 0.933824;0.500000;,
 0.806760;0.193240;;
 }
}
Frame frm-sphere4 {
  FrameTransformMatrix {
1500.000000,0.000000,0.000000,0.000000,
0.000000,1500.000000,0.000000,0.000000,
0.000000,0.000000,1500.000000,0.000000,
0.000000,10.000000,0.000000,1.000000;;
 }
Mesh sphere4 {
 33;
 1.352990;-4.626064;1.352990;,
 2.500000;-3.542201;2.500000;,
 3.535534;-0.006666;3.535534;,
 3.266407;-1.920084;3.266407;,
 0.000000;-4.626064;1.913417;,
 0.000000;-3.542201;3.535534;,
 0.000000;-0.006666;5.000000;,
 0.000000;-1.920084;4.619397;,
 -1.352990;-4.626064;1.352990;,
 -2.500000;-3.542201;2.500000;,
 -3.535534;-0.006666;3.535534;,
 -3.266407;-1.920084;3.266407;,
 -1.913417;-4.626064;0.000000;,
 -3.535534;-3.542201;0.000000;,
 -5.000000;-0.006666;0.000000;,
 -4.619397;-1.920084;0.000000;,
 -1.352990;-4.626064;-1.352990;,
 -2.500000;-3.542201;-2.500000;,
 -3.535534;-0.006666;-3.535534;,
 -3.266407;-1.920084;-3.266407;,
 0.000000;-4.626064;-1.913417;,
 0.000000;-3.542201;-3.535534;,
 0.000000;-0.006666;-5.000000;,
 0.000000;-1.920084;-4.619397;,
 0.000000;-5.006667;0.000000;,
 1.913417;-4.626064;0.000000;,
 1.352990;-4.626064;-1.352990;,
 3.535534;-3.542201;0.000000;,
 2.500000;-3.542201;-2.500000;,
 3.535534;-0.006666;-3.535534;,
 5.000000;-0.006666;0.000000;,
 4.619398;-1.920084;0.000000;,
 3.266407;-1.920084;-3.266407;;

 32;
 4;32,31,30,29;,
 4;28,27,31,32;,
 4;26,25,27,28;,
 3;25,26,24;,
 4;23,32,29,22;,
 4;21,28,32,23;,
 4;20,26,28,21;,
 3;26,20,24;,
 4;19,23,22,18;,
 4;17,21,23,19;,
 4;16,20,21,17;,
 3;20,16,24;,
 4;15,19,18,14;,
 4;13,17,19,15;,
 4;12,16,17,13;,
 3;16,12,24;,
 4;11,15,14,10;,
 4;9,13,15,11;,
 4;8,12,13,9;,
 3;12,8,24;,
 4;7,11,10,6;,
 4;5,9,11,7;,
 4;4,8,9,5;,
 3;8,4,24;,
 4;3,7,6,2;,
 4;1,5,7,3;,
 4;0,4,5,1;,
 3;4,0,24;,
 4;31,3,2,30;,
 4;27,1,3,31;,
 4;25,0,1,27;,
 3;0,25,24;;

 MeshMaterialList {
  1;
  32;
  0,
  0,
  0,
  0,
  0,
  0,
  0,
  0,
  0,
  0,
  0,
  0,
  0,
  0,
  0,
  0,
  0,
  0,
  0,
  0,
  0,
  0,
  0,
  0,
  0,
  0,
  0,
  0,
  0,
  0,
  0,
  0;
Material {
 1.000000;1.000000;1.000000;1.000000;;
 50.000000;
 1.000000;1.000000;1.000000;;
 0.0; 0.0; 0.0;;
 TextureFilename {
  "fullsphere.ppm";
 }
 }
}
 MeshNormals {
  33;
  -0.269132;0.924735;-0.269132;,
  -0.498494;0.709230;-0.498494;,
  -0.693520;0.195090;-0.693520;,
  -0.652733;0.384551;-0.652733;,
  0.000000;0.924735;-0.380611;,
  0.000000;0.709230;-0.704977;,
  0.000000;0.195091;-0.980785;,
  0.000000;0.384551;-0.923104;,
  0.269132;0.924735;-0.269132;,
  0.498494;0.709230;-0.498494;,
  0.693520;0.195091;-0.693520;,
  0.652733;0.384551;-0.652733;,
  0.380611;0.924735;0.000000;,
  0.704977;0.709230;0.000000;,
  0.980785;0.195091;0.000000;,
  0.923104;0.384551;0.000000;,
  0.269132;0.924735;0.269132;,
  0.498494;0.709230;0.498494;,
  0.693520;0.195091;0.693520;,
  0.652733;0.384551;0.652733;,
  0.000000;0.924735;0.380611;,
  0.000000;0.709230;0.704977;,
  0.000000;0.195091;0.980785;,
  0.000000;0.384551;0.923104;,
  0.000000;1.000000;0.000000;,
  -0.380611;0.924735;0.000000;,
  -0.269132;0.924735;0.269132;,
  -0.704977;0.709230;0.000000;,
  -0.498494;0.709230;0.498494;,
  -0.693520;0.195091;0.693520;,
  -0.980785;0.195090;0.000000;,
  -0.923104;0.384551;0.000000;,
  -0.652733;0.384551;0.652733;;

  32;
  4;32,31,30,29;,
  4;28,27,31,32;,
  4;26,25,27,28;,
  3;25,26,24;,
  4;23,32,29,22;,
  4;21,28,32,23;,
  4;20,26,28,21;,
  3;26,20,24;,
  4;19,23,22,18;,
  4;17,21,23,19;,
  4;16,20,21,17;,
  3;20,16,24;,
  4;15,19,18,14;,
  4;13,17,19,15;,
  4;12,16,17,13;,
  3;16,12,24;,
  4;11,15,14,10;,
  4;9,13,15,11;,
  4;8,12,13,9;,
  3;12,8,24;,
  4;7,11,10,6;,
  4;5,9,11,7;,
  4;4,8,9,5;,
  3;8,4,24;,
  4;3,7,6,2;,
  4;1,5,7,3;,
  4;0,4,5,1;,
  3;4,0,24;,
  4;31,3,2,30;,
  4;27,1,3,31;,
  4;25,0,1,27;,
  3;0,25,24;;
 }
 MeshTextureCoords { 
 33;
 0.627064;0.627064;,
 0.734784;0.734784;,
 0.998333;0.998333;,
 0.806760;0.806760;,
 0.500000;0.679696;,
 0.500000;0.832035;,
 0.501667;0.998333;,
 0.500000;0.933824;,
 0.372936;0.627064;,
 0.265216;0.734784;,
 0.001667;0.998333;,
 0.193240;0.806760;,
 0.320304;0.500000;,
 0.167965;0.500000;,
 0.001667;0.498333;,
 0.066176;0.500000;,
 0.372936;0.372936;,
 0.265216;0.265216;,
 0.001667;0.001667;,
 0.193240;0.193240;,
 0.500000;0.320304;,
 0.500000;0.167965;,
 0.501667;0.001667;,
 0.500000;0.066176;,
 0.500000;0.500000;,
 0.679696;0.500000;,
 0.627064;0.372936;,
 0.832035;0.500000;,
 0.734784;0.265216;,
 0.998333;0.001667;,
 0.998333;0.498333;,
 0.933824;0.500000;,
 0.806760;0.193240;;
 }
}
}
}
AnimationSet {
 Animation anim-sphere4 {
  {frm-sphere4}
  AnimationKey {
  1;
  2;
  0; 3; 1500.000000, 1500.000000, 1500.000000;;,
  30; 3; 1500.000000, 1500.000000, 1500.000000;;;
  }
  AnimationKey {
  2;
  2;
  0; 3; 0.000000, 10.000000, 0.000000;;,
  30; 3; 0.000000, 10.000000, 0.000000;;;
  }
 }
}
