xof 0302txt 0032
template Header {
 <3D82AB43-62DA-11cf-AB39-0020AF71E433>
 WORD major;
 WORD minor;
 DWORD flags;
}

template Vector {
 <3D82AB5E-62DA-11cf-AB39-0020AF71E433>
 FLOAT x;
 FLOAT y;
 FLOAT z;
}

template Coords2d {
 <F6F23F44-7686-11cf-8F52-0040333594A3>
 FLOAT u;
 FLOAT v;
}

template Matrix4x4 {
 <F6F23F45-7686-11cf-8F52-0040333594A3>
 array FLOAT matrix[16];
}

template ColorRGBA {
 <35FF44E0-6C7C-11cf-8F52-0040333594A3>
 FLOAT red;
 FLOAT green;
 FLOAT blue;
 FLOAT alpha;
}

template ColorRGB {
 <D3E16E81-7835-11cf-8F52-0040333594A3>
 FLOAT red;
 FLOAT green;
 FLOAT blue;
}

template TextureFilename {
 <A42790E1-7810-11cf-8F52-0040333594A3>
 STRING filename;
}

template Material {
 <3D82AB4D-62DA-11cf-AB39-0020AF71E433>
 ColorRGBA faceColor;
 FLOAT power;
 ColorRGB specularColor;
 ColorRGB emissiveColor;
 [...]
}

template MeshFace {
 <3D82AB5F-62DA-11cf-AB39-0020AF71E433>
 DWORD nFaceVertexIndices;
 array DWORD faceVertexIndices[nFaceVertexIndices];
}

template MeshTextureCoords {
 <F6F23F40-7686-11cf-8F52-0040333594A3>
 DWORD nTextureCoords;
 array Coords2d textureCoords[nTextureCoords];
}

template MeshMaterialList {
 <F6F23F42-7686-11cf-8F52-0040333594A3>
 DWORD nMaterials;
 DWORD nFaceIndexes;
 array DWORD faceIndexes[nFaceIndexes];
 [Material]
}

template MeshNormals {
 <F6F23F43-7686-11cf-8F52-0040333594A3>
 DWORD nNormals;
 array Vector normals[nNormals];
 DWORD nFaceNormals;
 array MeshFace faceNormals[nFaceNormals];
}

template Mesh {
 <3D82AB44-62DA-11cf-AB39-0020AF71E433>
 DWORD nVertices;
 array Vector vertices[nVertices];
 DWORD nFaces;
 array MeshFace faces[nFaces];
 [...]
}

template FrameTransformMatrix {
 <F6F23F41-7686-11cf-8F52-0040333594A3>
 Matrix4x4 frameMatrix;
}

template Frame {
 <3D82AB46-62DA-11cf-AB39-0020AF71E433>
 [...]
}
template FloatKeys {
 <10DD46A9-775B-11cf-8F52-0040333594A3>
 DWORD nValues;
 array FLOAT values[nValues];
}

template TimedFloatKeys {
 <F406B180-7B3B-11cf-8F52-0040333594A3>
 DWORD time;
 FloatKeys tfkeys;
}

template AnimationKey {
 <10DD46A8-775B-11cf-8F52-0040333594A3>
 DWORD keyType;
 DWORD nKeys;
 array TimedFloatKeys keys[nKeys];
}

template AnimationOptions {
 <E2BF56C0-840F-11cf-8F52-0040333594A3>
 DWORD openclosed;
 DWORD positionquality;
}

template Animation {
 <3D82AB4F-62DA-11cf-AB39-0020AF71E433>
 [...]
}

template AnimationSet {
 <3D82AB50-62DA-11cf-AB39-0020AF71E433>
 [Animation]
}

Header {
 1;
 0;
 1;
}

Frame frm-step3_1 {
  FrameTransformMatrix {
1.000000,0.000000,0.000000,0.000000,
0.000000,1.000000,0.000000,0.000000,
0.000000,0.000000,1.000000,0.000000,
0.000000,0.000000,0.000000,1.000000;;
 }
Mesh step3_1 {
 66;
 1.618165;-4.085807;-2.351036;,
 1.618165;-4.085807;-2.351036;,
 2.132904;-2.756389;-3.724478;,
 2.132904;-2.756389;-3.724478;,
 3.363102;0.720044;-3.346561;,
 3.363102;0.720044;-3.346561;,
 2.744204;3.267910;-2.827038;,
 2.744204;3.267910;-2.827038;,
 1.948103;4.627346;-2.081103;,
 1.948103;4.627346;-2.081103;,
 -0.006262;-4.917552;-0.005452;,
 -0.006262;-4.917552;-0.005452;,
 -0.006262;-4.917552;-0.005452;,
 -0.006262;-4.917552;-0.005452;,
 -0.006262;-4.917552;-0.005452;,
 -0.006262;-4.917552;-0.005452;,
 -0.006262;-4.917552;-0.005452;,
 -0.009324;5.629588;-0.006823;,
 -0.009324;5.629588;-0.006823;,
 -0.009324;5.629588;-0.006823;,
 -0.009324;5.629588;-0.006823;,
 -0.009324;5.629588;-0.006823;,
 -0.009324;5.629588;-0.006823;,
 -0.009324;5.629588;-0.006823;,
 -0.009324;5.629588;-0.006823;,
 -0.006262;-4.917552;-0.005452;,
 0.170400;4.883877;-3.068321;,
 0.477065;3.159425;-4.342327;,
 0.055469;-0.815079;-5.384727;,
 -0.177817;-2.781469;-5.239058;,
 -0.068078;-4.022352;-3.292897;,
 -2.051747;4.734987;-2.481163;,
 -2.798878;2.556835;-3.969885;,
 -3.594312;-1.442811;-4.337502;,
 -2.731248;-2.847243;-3.494911;,
 -1.881964;-3.967939;-2.193157;,
 -2.939833;4.478755;-0.045440;,
 -4.121664;2.236634;-0.202312;,
 -5.090482;-0.789598;-0.746815;,
 -4.384199;-2.360965;-0.541966;,
 -2.903721;-3.808090;-0.180048;,
 -2.113298;4.608075;2.070311;,
 -3.042922;2.604908;2.969120;,
 -3.563439;-1.051606;4.141642;,
 -3.111493;-2.686841;3.282138;,
 -2.042815;-3.905774;2.089665;,
 -0.656860;4.559915;3.165095;,
 -1.712743;2.838460;4.726831;,
 -0.415109;-0.550339;4.736502;,
 -0.330782;-2.559974;4.759593;,
 -0.138122;-3.934443;3.138163;,
 1.764859;4.344455;2.312440;,
 2.440878;2.800903;3.843367;,
 3.087358;-0.946492;3.497485;,
 1.944652;-2.625813;3.075434;,
 1.603631;-3.939885;2.093480;,
 2.726012;4.270623;-0.110921;,
 3.887092;2.441822;-0.069019;,
 4.639307;-0.844240;0.507140;,
 3.424808;-2.997391;-0.362853;,
 2.532424;-4.099161;-0.208893;,
 1.948103;4.627346;-2.081103;,
 2.744204;3.267910;-2.827038;,
 3.363102;0.720044;-3.346561;,
 2.132904;-2.756389;-3.724478;,
 1.618165;-4.085807;-2.351036;;

 48;
 3;1,60,16;,
 4;3,59,60,0;,
 4;5,58,59,2;,
 4;7,57,58,4;,
 4;9,56,57,6;,
 3;23,56,8;,
 3;60,55,15;,
 4;59,54,55,60;,
 4;58,53,54,59;,
 4;57,52,53,58;,
 4;56,51,52,57;,
 3;22,51,56;,
 3;55,50,14;,
 4;54,49,50,55;,
 4;53,48,49,54;,
 4;52,47,48,53;,
 4;51,46,47,52;,
 3;21,46,51;,
 3;50,45,13;,
 4;49,44,45,50;,
 4;48,43,44,49;,
 4;47,42,43,48;,
 4;46,41,42,47;,
 3;20,41,46;,
 3;45,40,12;,
 4;44,39,40,45;,
 4;43,38,39,44;,
 4;42,37,38,43;,
 4;41,36,37,42;,
 3;19,36,41;,
 3;40,35,11;,
 4;39,34,35,40;,
 4;38,33,34,39;,
 4;37,32,33,38;,
 4;36,31,32,37;,
 3;18,31,36;,
 3;35,30,10;,
 4;34,29,30,35;,
 4;33,28,29,34;,
 4;32,27,28,33;,
 4;31,26,27,32;,
 3;17,26,31;,
 3;30,65,25;,
 4;29,64,65,30;,
 4;28,63,64,29;,
 4;27,62,63,28;,
 4;26,61,62,27;,
 3;24,61,26;;

 MeshMaterialList {
  1;
  48;
  0,
  0,
  0,
  0,
  0,
  0,
  0,
  0,
  0,
  0,
  0,
  0,
  0,
  0,
  0,
  0,
  0,
  0,
  0,
  0,
  0,
  0,
  0,
  0,
  0,
  0,
  0,
  0,
  0,
  0,
  0,
  0,
  0,
  0,
  0,
  0,
  0,
  0,
  0,
  0,
  0,
  0,
  0,
  0,
  0,
  0,
  0,
  0;
Material {
 1.000000;1.000000;1.000000;1.000000;;
 50.000000;
 1.000000;1.000000;1.000000;;
 0.0; 0.0; 0.0;;
 TextureFilename {
  "bgrnd52.ppm";
 }
 }
}
 MeshNormals {
  66;
  0.382552;-0.862357;-0.331653;,
  0.382552;-0.862357;-0.331653;,
  0.670659;-0.483860;-0.562225;,
  0.670659;-0.483860;-0.562225;,
  0.774226;0.007709;-0.632863;,
  0.774226;0.007709;-0.632863;,
  0.725465;0.428414;-0.538668;,
  0.725465;0.428414;-0.538668;,
  0.524094;0.799324;-0.293951;,
  0.524094;0.799324;-0.293951;,
  -0.022253;-0.999616;0.016484;,
  -0.022253;-0.999616;0.016484;,
  -0.022253;-0.999616;0.016484;,
  -0.022253;-0.999616;0.016484;,
  -0.022253;-0.999616;0.016484;,
  -0.022253;-0.999616;0.016484;,
  -0.022253;-0.999616;0.016484;,
  0.041954;0.997928;0.048785;,
  0.041954;0.997928;0.048785;,
  0.041954;0.997928;0.048785;,
  0.041954;0.997928;0.048785;,
  0.041954;0.997928;0.048785;,
  0.041954;0.997928;0.048785;,
  0.041954;0.997928;0.048785;,
  0.041954;0.997928;0.048785;,
  -0.022253;-0.999616;0.016484;,
  0.095589;0.845608;-0.525175;,
  0.127918;0.436762;-0.890436;,
  0.125236;-0.004393;-0.992117;,
  0.060929;-0.589665;-0.805346;,
  -0.015683;-0.912098;-0.409673;,
  -0.434973;0.821295;-0.369151;,
  -0.616022;0.427841;-0.661414;,
  -0.673811;-0.110397;-0.730610;,
  -0.567749;-0.643370;-0.513553;,
  -0.382048;-0.879951;-0.282356;,
  -0.655606;0.754966;0.014403;,
  -0.925477;0.378513;-0.014856;,
  -0.993415;-0.111611;-0.025860;,
  -0.788258;-0.614896;-0.023503;,
  -0.522706;-0.852354;-0.016458;,
  -0.523439;0.795611;0.304984;,
  -0.758459;0.387212;0.524220;,
  -0.736918;-0.085708;0.670527;,
  -0.601745;-0.586507;0.542137;,
  -0.392057;-0.870180;0.298459;,
  -0.089181;0.857441;0.506795;,
  -0.162985;0.414559;0.895308;,
  -0.020445;-0.095759;0.995195;,
  0.073466;-0.527978;0.846074;,
  0.035887;-0.876425;0.480199;,
  0.442550;0.804304;0.396541;,
  0.622751;0.409294;0.666828;,
  0.659211;-0.161750;0.734355;,
  0.618583;-0.514244;0.594061;,
  0.445958;-0.801872;0.397647;,
  0.654435;0.754237;0.053308;,
  0.915145;0.400047;0.049724;,
  0.990842;-0.131677;0.029893;,
  0.839309;-0.543560;0.010160;,
  0.571518;-0.820009;0.030860;,
  0.524094;0.799324;-0.293951;,
  0.725465;0.428414;-0.538668;,
  0.774226;0.007709;-0.632863;,
  0.670659;-0.483860;-0.562225;,
  0.382552;-0.862357;-0.331653;;

  48;
  3;1,60,16;,
  4;3,59,60,0;,
  4;5,58,59,2;,
  4;7,57,58,4;,
  4;9,56,57,6;,
  3;23,56,8;,
  3;60,55,15;,
  4;59,54,55,60;,
  4;58,53,54,59;,
  4;57,52,53,58;,
  4;56,51,52,57;,
  3;22,51,56;,
  3;55,50,14;,
  4;54,49,50,55;,
  4;53,48,49,54;,
  4;52,47,48,53;,
  4;51,46,47,52;,
  3;21,46,51;,
  3;50,45,13;,
  4;49,44,45,50;,
  4;48,43,44,49;,
  4;47,42,43,48;,
  4;46,41,42,47;,
  3;20,41,46;,
  3;45,40,12;,
  4;44,39,40,45;,
  4;43,38,39,44;,
  4;42,37,38,43;,
  4;41,36,37,42;,
  3;19,36,41;,
  3;40,35,11;,
  4;39,34,35,40;,
  4;38,33,34,39;,
  4;37,32,33,38;,
  4;36,31,32,37;,
  3;18,31,36;,
  3;35,30,10;,
  4;34,29,30,35;,
  4;33,28,29,34;,
  4;32,27,28,33;,
  4;31,26,27,32;,
  3;17,26,31;,
  3;30,65,25;,
  4;29,64,65,30;,
  4;28,63,64,29;,
  4;27,62,63,28;,
  4;26,61,62,27;,
  3;24,61,26;;
 }
 MeshTextureCoords { 
 66;
 0.000000;0.830241;,
 0.000000;0.830241;,
 0.000000;0.691539;,
 0.000000;0.691539;,
 0.000000;0.541269;,
 0.000000;0.541269;,
 0.000000;0.352066;,
 0.000000;0.352066;,
 0.000000;0.199302;,
 0.000000;0.199302;,
 0.755102;1.000000;,
 0.628633;1.000000;,
 0.499057;1.000000;,
 0.375975;1.000000;,
 0.250316;1.000000;,
 0.124540;1.000000;,
 0.000000;1.000000;,
 0.879532;0.000000;,
 0.755102;0.000000;,
 0.628633;0.000000;,
 0.499057;0.000000;,
 0.375975;0.000000;,
 0.250316;0.000000;,
 0.124540;0.000000;,
 1.000000;0.000000;,
 0.879532;1.000000;,
 0.879532;0.199302;,
 0.879532;0.352066;,
 0.879532;0.541269;,
 0.879532;0.691539;,
 0.879532;0.830241;,
 0.755102;0.199302;,
 0.755102;0.352066;,
 0.755102;0.541269;,
 0.755102;0.691539;,
 0.755102;0.830241;,
 0.628633;0.199302;,
 0.628633;0.352066;,
 0.628633;0.541269;,
 0.628633;0.691539;,
 0.628633;0.830241;,
 0.499057;0.199302;,
 0.499057;0.352066;,
 0.499057;0.541269;,
 0.499057;0.691539;,
 0.499057;0.830241;,
 0.375975;0.199302;,
 0.375975;0.352066;,
 0.375975;0.541269;,
 0.375975;0.691539;,
 0.375975;0.830241;,
 0.250316;0.199302;,
 0.250316;0.352066;,
 0.250316;0.541269;,
 0.250316;0.691539;,
 0.250316;0.830241;,
 0.124540;0.199302;,
 0.124540;0.352066;,
 0.124540;0.541269;,
 0.124540;0.691539;,
 0.124540;0.830241;,
 1.000000;0.199302;,
 1.000000;0.352066;,
 1.000000;0.541269;,
 1.000000;0.691539;,
 1.000000;0.830241;;
 }
}
}
