xof 0302txt 0032
template Header {
 <3D82AB43-62DA-11cf-AB39-0020AF71E433>
 WORD major;
 WORD minor;
 DWORD flags;
}

template Vector {
 <3D82AB5E-62DA-11cf-AB39-0020AF71E433>
 FLOAT x;
 FLOAT y;
 FLOAT z;
}

template Coords2d {
 <F6F23F44-7686-11cf-8F52-0040333594A3>
 FLOAT u;
 FLOAT v;
}

template Matrix4x4 {
 <F6F23F45-7686-11cf-8F52-0040333594A3>
 array FLOAT matrix[16];
}

template ColorRGBA {
 <35FF44E0-6C7C-11cf-8F52-0040333594A3>
 FLOAT red;
 FLOAT green;
 FLOAT blue;
 FLOAT alpha;
}

template ColorRGB {
 <D3E16E81-7835-11cf-8F52-0040333594A3>
 FLOAT red;
 FLOAT green;
 FLOAT blue;
}

template TextureFilename {
 <A42790E1-7810-11cf-8F52-0040333594A3>
 STRING filename;
}

template Material {
 <3D82AB4D-62DA-11cf-AB39-0020AF71E433>
 ColorRGBA faceColor;
 FLOAT power;
 ColorRGB specularColor;
 ColorRGB emissiveColor;
 [...]
}

template MeshFace {
 <3D82AB5F-62DA-11cf-AB39-0020AF71E433>
 DWORD nFaceVertexIndices;
 array DWORD faceVertexIndices[nFaceVertexIndices];
}

template MeshTextureCoords {
 <F6F23F40-7686-11cf-8F52-0040333594A3>
 DWORD nTextureCoords;
 array Coords2d textureCoords[nTextureCoords];
}

template MeshMaterialList {
 <F6F23F42-7686-11cf-8F52-0040333594A3>
 DWORD nMaterials;
 DWORD nFaceIndexes;
 array DWORD faceIndexes[nFaceIndexes];
 [Material]
}

template MeshNormals {
 <F6F23F43-7686-11cf-8F52-0040333594A3>
 DWORD nNormals;
 array Vector normals[nNormals];
 DWORD nFaceNormals;
 array MeshFace faceNormals[nFaceNormals];
}

template Mesh {
 <3D82AB44-62DA-11cf-AB39-0020AF71E433>
 DWORD nVertices;
 array Vector vertices[nVertices];
 DWORD nFaces;
 array MeshFace faces[nFaces];
 [...]
}

template FrameTransformMatrix {
 <F6F23F41-7686-11cf-8F52-0040333594A3>
 Matrix4x4 frameMatrix;
}

template Frame {
 <3D82AB46-62DA-11cf-AB39-0020AF71E433>
 [...]
}
template FloatKeys {
 <10DD46A9-775B-11cf-8F52-0040333594A3>
 DWORD nValues;
 array FLOAT values[nValues];
}

template TimedFloatKeys {
 <F406B180-7B3B-11cf-8F52-0040333594A3>
 DWORD time;
 FloatKeys tfkeys;
}

template AnimationKey {
 <10DD46A8-775B-11cf-8F52-0040333594A3>
 DWORD keyType;
 DWORD nKeys;
 array TimedFloatKeys keys[nKeys];
}

template AnimationOptions {
 <E2BF56C0-840F-11cf-8F52-0040333594A3>
 DWORD openclosed;
 DWORD positionquality;
}

template Animation {
 <3D82AB4F-62DA-11cf-AB39-0020AF71E433>
 [...]
}

template AnimationSet {
 <3D82AB50-62DA-11cf-AB39-0020AF71E433>
 [Animation]
}

Header {
 1;
 0;
 1;
}

Frame frm-dummyRoot {
  FrameTransformMatrix {
1.000000,0.000000,0.000000,0.000000,
0.000000,1.000000,0.000000,0.000000,
0.000000,0.000000,1.000000,0.000000,
0.000000,0.000000,0.000000,1.000000;;
 }
Frame frm-rfuselg {
  FrameTransformMatrix {
-0.866025,-0.500000,-0.000000,0.000000,
-0.500000,0.866025,0.000000,0.000000,
0.000000,0.000000,-1.000000,0.000000,
-0.000000,-0.423402,0.912362,1.000000;;
 }
Mesh rfuselg {
 144;
 0.184884;0.682232;1.476372;,
 0.184884;0.682232;1.476372;,
 0.184884;0.682232;1.476372;,
 0.184884;0.682232;1.476372;,
 0.184884;0.682232;1.476372;,
 0.320229;0.968083;0.944380;,
 0.320229;0.968083;0.944380;,
 0.320229;0.968083;0.944380;,
 0.320229;0.968083;0.944380;,
 0.369769;1.015111;0.475324;,
 0.369769;1.015111;0.475324;,
 0.369769;1.015111;0.475324;,
 0.369769;1.015111;0.475324;,
 0.369769;1.015111;0.475324;,
 0.369769;1.015111;0.475324;,
 0.256183;0.968083;0.006271;,
 0.256183;0.968083;0.006271;,
 0.369769;0.964433;0.475324;,
 0.369769;0.964433;0.475324;,
 0.369769;0.964433;0.475324;,
 0.369769;0.964433;0.475324;,
 0.369769;0.964433;0.475324;,
 0.320229;0.917405;0.944380;,
 0.320229;0.917405;0.944380;,
 0.320229;0.917405;0.944380;,
 0.320229;0.917405;0.944380;,
 0.320229;0.917405;0.944380;,
 0.184884;0.631555;1.430572;,
 0.184884;0.631555;1.430572;,
 0.184884;0.631555;1.430572;,
 0.184884;0.631555;1.430572;,
 0.184884;0.631555;1.430572;,
 0.256183;0.917405;0.006271;,
 0.256183;0.917405;0.006271;,
 0.256183;0.917405;0.006271;,
 0.256183;0.917405;0.006271;,
 0.397501;0.522241;1.476372;,
 0.397501;0.522241;1.476372;,
 0.397501;0.522241;1.476372;,
 0.397501;0.522241;1.476372;,
 0.688492;0.808093;0.944380;,
 0.688492;0.808093;0.944380;,
 0.688492;0.808093;0.944380;,
 0.688492;0.808093;0.944380;,
 0.688492;0.808093;0.944380;,
 0.667802;0.855120;0.475324;,
 0.667802;0.855120;0.475324;,
 0.667802;0.855120;0.475324;,
 0.667802;0.855120;0.475324;,
 0.550794;0.808093;0.006271;,
 0.550794;0.808093;0.006271;,
 0.550794;0.808093;0.006271;,
 0.550794;0.808093;0.006271;,
 0.550794;0.808093;0.006271;,
 0.550794;0.808093;0.006271;,
 0.550794;0.808093;0.006271;,
 0.667802;0.804442;0.475324;,
 0.667802;0.804442;0.475324;,
 0.667802;0.804442;0.475324;,
 0.667802;0.804442;0.475324;,
 0.667802;0.804442;0.475324;,
 0.688492;0.757415;0.944380;,
 0.688492;0.757415;0.944380;,
 0.688492;0.757415;0.944380;,
 0.688492;0.757415;0.944380;,
 0.688492;0.757415;0.944380;,
 0.688492;0.757415;0.944380;,
 0.373835;0.480724;1.445839;,
 0.373835;0.480724;1.445839;,
 0.373835;0.480724;1.445839;,
 0.520367;0.757415;0.006271;,
 0.520367;0.757415;0.006271;,
 0.520367;0.757415;0.006271;,
 0.520367;0.757415;0.006271;,
 0.435711;0.214398;1.476372;,
 0.435711;0.214398;1.476372;,
 0.435711;0.214398;1.476372;,
 0.435711;0.214398;1.476372;,
 0.847523;0.500249;0.944380;,
 0.847523;0.500249;0.944380;,
 0.847523;0.500249;0.944380;,
 0.847523;0.500249;0.944380;,
 0.847523;0.500249;0.944380;,
 0.847523;0.500249;0.944380;,
 0.838534;0.547276;0.475324;,
 0.838534;0.547276;0.475324;,
 0.838534;0.547276;0.475324;,
 0.838534;0.547276;0.475324;,
 0.838534;0.547276;0.475324;,
 0.652652;0.500249;0.006271;,
 0.652652;0.500249;0.006271;,
 0.652652;0.500249;0.006271;,
 0.804456;0.532704;0.475324;,
 0.804456;0.532704;0.475324;,
 0.804456;0.532704;0.475324;,
 0.804456;0.532704;0.475324;,
 0.804456;0.532704;0.475324;,
 0.806953;0.485677;0.944380;,
 0.806953;0.485677;0.944380;,
 0.806953;0.485677;0.944380;,
 0.806953;0.485677;0.944380;,
 0.395142;0.199826;1.430572;,
 0.395142;0.199826;1.430572;,
 0.395142;0.199826;1.430572;,
 0.395142;0.199826;1.430572;,
 0.395142;0.199826;1.430572;,
 0.612082;0.485677;0.006271;,
 0.612082;0.485677;0.006271;,
 0.612082;0.485677;0.006271;,
 0.612082;0.485677;0.006271;,
 -0.000000;0.050475;1.704061;,
 -0.000000;0.050475;1.704061;,
 -0.000000;0.050475;1.704061;,
 -0.000000;0.050475;1.704061;,
 -0.000000;-0.000202;1.658262;,
 -0.000000;-0.000202;1.658262;,
 -0.000000;-0.000202;1.658262;,
 -0.000000;-0.000202;1.658262;,
 -0.000000;-0.000202;1.658262;,
 -0.000000;0.050475;1.704061;,
 0.612082;0.485677;0.006271;,
 0.395142;0.199826;1.430572;,
 0.806953;0.485677;0.944380;,
 0.804456;0.532704;0.475324;,
 0.652652;0.500249;0.006271;,
 0.838534;0.547276;0.475324;,
 0.847523;0.500249;0.944380;,
 0.435711;0.214398;1.476372;,
 0.520367;0.757415;0.006271;,
 0.373835;0.480724;1.445839;,
 0.688492;0.757415;0.944380;,
 0.667802;0.804442;0.475324;,
 0.550794;0.808093;0.006271;,
 0.667802;0.855120;0.475324;,
 0.688492;0.808093;0.944380;,
 0.397501;0.522241;1.476372;,
 0.256183;0.917405;0.006271;,
 0.184884;0.631555;1.430572;,
 0.320229;0.917405;0.944380;,
 0.369769;0.964433;0.475324;,
 0.256183;0.968083;0.006271;,
 0.369769;1.015111;0.475324;,
 0.320229;0.968083;0.944380;,
 0.184884;0.682232;1.476372;;

 48;
 3;105,117,69;,
 3;113,77,39;,
 3;109,96,60;,
 3;108,59,73;,
 3;35,16,55;,
 3;72,34,54;,
 3;107,71,53;,
 3;91,106,52;,
 3;66,100,104;,
 3;38,76,83;,
 3;4,37,44;,
 3;88,90,51;,
 3;87,50,48;,
 3;86,82,99;,
 3;85,98,95;,
 3;103,68,65;,
 3;81,75,102;,
 3;80,101,97;,
 3;79,43,36;,
 3;89,84,94;,
 3;124,93,120;,
 3;92,122,64;,
 3;123,63,58;,
 3;74,112,116;,
 3;127,115,121;,
 3;78,125,47;,
 3;126,46,42;,
 3;111,135,3;,
 3;49,15,14;,
 3;45,132,13;,
 3;62,31,26;,
 3;41,133,12;,
 3;40,11,8;,
 3;134,7,2;,
 3;70,57,21;,
 3;128,20,33;,
 3;56,61,25;,
 3;131,24,19;,
 3;67,114,30;,
 3;130,129,29;,
 3;10,140,32;,
 3;18,9,136;,
 3;6,141,17;,
 3;23,5,139;,
 3;1,142,22;,
 3;28,0,138;,
 3;110,143,27;,
 3;118,119,137;;

 MeshMaterialList {
  3;
  48;
  0,
  1,
  0,
  0,
  2,
  2,
  2,
  2,
  0,
  1,
  1,
  1,
  1,
  2,
  2,
  0,
  2,
  2,
  1,
  2,
  2,
  0,
  0,
  2,
  2,
  1,
  1,
  1,
  1,
  1,
  0,
  1,
  1,
  1,
  0,
  0,
  0,
  0,
  0,
  0,
  2,
  2,
  2,
  2,
  2,
  2,
  2,
  2;
Material {
 1.000000;1.000000;1.000000;1.000000;;
 0.000000;
 1.000000;1.000000;1.000000;;
 0.0; 0.0; 0.0;;
 TextureFilename {
  "utl02.ppm";
 }
 }
Material {
 1.000000;1.000000;1.000000;1.000000;;
 0.000000;
 1.000000;1.000000;1.000000;;
 0.0; 0.0; 0.0;;
 TextureFilename {
  "utl02.ppm";
 }
 }
Material {
 1.000000;1.000000;1.000000;1.000000;;
 0.000000;
 1.000000;1.000000;1.000000;;
 0.0; 0.0; 0.0;;
 TextureFilename {
  "utl02.ppm";
 }
 }
}
 MeshNormals {
  144;
  -0.559534;0.685428;0.465951;,
  -0.559534;0.685428;0.465951;,
  -0.559534;0.685428;0.465951;,
  -0.559534;0.685428;0.465951;,
  -0.559534;0.685428;0.465951;,
  -0.760867;0.645642;0.065018;,
  -0.760867;0.645642;0.065018;,
  -0.760867;0.645642;0.065018;,
  -0.760867;0.645642;0.065018;,
  -0.317135;0.946926;0.052502;,
  -0.317135;0.946926;0.052502;,
  -0.317135;0.946926;0.052502;,
  -0.317135;0.946926;0.052502;,
  -0.317135;0.946926;0.052502;,
  -0.317135;0.946926;0.052502;,
  -0.364418;0.620209;-0.694651;,
  -0.364418;0.620209;-0.694651;,
  -0.790572;-0.604034;0.100694;,
  -0.790572;-0.604034;0.100694;,
  -0.790572;-0.604034;0.100694;,
  -0.790572;-0.604034;0.100694;,
  -0.790572;-0.604034;0.100694;,
  -0.833558;-0.493799;-0.247675;,
  -0.833558;-0.493799;-0.247675;,
  -0.833558;-0.493799;-0.247675;,
  -0.833558;-0.493799;-0.247675;,
  -0.833558;-0.493799;-0.247675;,
  -0.776559;-0.265405;-0.571416;,
  -0.776559;-0.265405;-0.571416;,
  -0.776559;-0.265405;-0.571416;,
  -0.776559;-0.265405;-0.571416;,
  -0.776559;-0.265405;-0.571416;,
  -0.797241;-0.457216;-0.394158;,
  -0.797241;-0.457216;-0.394158;,
  -0.797241;-0.457216;-0.394158;,
  -0.797241;-0.457216;-0.394158;,
  0.551603;0.303700;0.776853;,
  0.551603;0.303700;0.776853;,
  0.551603;0.303700;0.776853;,
  0.551603;0.303700;0.776853;,
  0.591396;0.728912;0.344874;,
  0.591396;0.728912;0.344874;,
  0.591396;0.728912;0.344874;,
  0.591396;0.728912;0.344874;,
  0.591396;0.728912;0.344874;,
  0.743578;0.664523;-0.074172;,
  0.743578;0.664523;-0.074172;,
  0.743578;0.664523;-0.074172;,
  0.743578;0.664523;-0.074172;,
  0.476938;0.355015;-0.804049;,
  0.476938;0.355015;-0.804049;,
  0.476938;0.355015;-0.804049;,
  0.476938;0.355015;-0.804049;,
  0.476938;0.355015;-0.804049;,
  0.476938;0.355015;-0.804049;,
  0.476938;0.355015;-0.804049;,
  -0.711136;-0.691498;0.126952;,
  -0.711136;-0.691498;0.126952;,
  -0.711136;-0.691498;0.126952;,
  -0.711136;-0.691498;0.126952;,
  -0.711136;-0.691498;0.126952;,
  -0.718038;-0.561587;-0.411146;,
  -0.718038;-0.561587;-0.411146;,
  -0.718038;-0.561587;-0.411146;,
  -0.718038;-0.561587;-0.411146;,
  -0.718038;-0.561587;-0.411146;,
  -0.718038;-0.561587;-0.411146;,
  -0.526936;-0.258188;-0.809739;,
  -0.526936;-0.258188;-0.809739;,
  -0.526936;-0.258188;-0.809739;,
  -0.628194;-0.676078;-0.385086;,
  -0.628194;-0.676078;-0.385086;,
  -0.628194;-0.676078;-0.385086;,
  -0.628194;-0.676078;-0.385086;,
  0.662978;-0.560738;0.496018;,
  0.662978;-0.560738;0.496018;,
  0.662978;-0.560738;0.496018;,
  0.662978;-0.560738;0.496018;,
  0.949067;-0.257541;0.181507;,
  0.949067;-0.257541;0.181507;,
  0.949067;-0.257541;0.181507;,
  0.949067;-0.257541;0.181507;,
  0.949067;-0.257541;0.181507;,
  0.949067;-0.257541;0.181507;,
  0.908124;-0.362030;-0.210345;,
  0.908124;-0.362030;-0.210345;,
  0.908124;-0.362030;-0.210345;,
  0.908124;-0.362030;-0.210345;,
  0.908124;-0.362030;-0.210345;,
  0.597560;-0.582088;-0.551449;,
  0.597560;-0.582088;-0.551449;,
  0.597560;-0.582088;-0.551449;,
  -0.359107;-0.932697;0.033446;,
  -0.359107;-0.932697;0.033446;,
  -0.359107;-0.932697;0.033446;,
  -0.359107;-0.932697;0.033446;,
  -0.359107;-0.932697;0.033446;,
  -0.164176;-0.928066;-0.334275;,
  -0.164176;-0.928066;-0.334275;,
  -0.164176;-0.928066;-0.334275;,
  -0.164176;-0.928066;-0.334275;,
  -0.203917;-0.737522;-0.643801;,
  -0.203917;-0.737522;-0.643801;,
  -0.203917;-0.737522;-0.643801;,
  -0.203917;-0.737522;-0.643801;,
  -0.203917;-0.737522;-0.643801;,
  -0.545558;-0.650762;-0.528086;,
  -0.545558;-0.650762;-0.528086;,
  -0.545558;-0.650762;-0.528086;,
  -0.545558;-0.650762;-0.528086;,
  -0.259102;0.063635;0.963751;,
  -0.259102;0.063635;0.963751;,
  -0.259102;0.063635;0.963751;,
  -0.259102;0.063635;0.963751;,
  -0.255116;-0.727607;-0.636792;,
  -0.255116;-0.727607;-0.636792;,
  -0.255116;-0.727607;-0.636792;,
  -0.255116;-0.727607;-0.636792;,
  -0.255116;-0.727607;-0.636792;,
  -0.259102;0.063635;0.963751;,
  -0.545558;-0.650762;-0.528086;,
  -0.203917;-0.737522;-0.643801;,
  -0.164176;-0.928066;-0.334275;,
  -0.359107;-0.932697;0.033446;,
  0.597560;-0.582088;-0.551449;,
  0.908124;-0.362030;-0.210345;,
  0.949067;-0.257541;0.181507;,
  0.662978;-0.560738;0.496018;,
  -0.628194;-0.676078;-0.385086;,
  -0.526936;-0.258188;-0.809739;,
  -0.718038;-0.561587;-0.411146;,
  -0.711136;-0.691498;0.126952;,
  0.476938;0.355015;-0.804049;,
  0.743578;0.664523;-0.074172;,
  0.591396;0.728912;0.344874;,
  0.551603;0.303700;0.776853;,
  -0.797241;-0.457216;-0.394158;,
  -0.776559;-0.265405;-0.571416;,
  -0.833558;-0.493799;-0.247675;,
  -0.790572;-0.604034;0.100694;,
  -0.364418;0.620209;-0.694651;,
  -0.317135;0.946926;0.052502;,
  -0.760867;0.645642;0.065018;,
  -0.559534;0.685428;0.465951;;

  48;
  3;105,117,69;,
  3;113,77,39;,
  3;109,96,60;,
  3;108,59,73;,
  3;35,16,55;,
  3;72,34,54;,
  3;107,71,53;,
  3;91,106,52;,
  3;66,100,104;,
  3;38,76,83;,
  3;4,37,44;,
  3;88,90,51;,
  3;87,50,48;,
  3;86,82,99;,
  3;85,98,95;,
  3;103,68,65;,
  3;81,75,102;,
  3;80,101,97;,
  3;79,43,36;,
  3;89,84,94;,
  3;124,93,120;,
  3;92,122,64;,
  3;123,63,58;,
  3;74,112,116;,
  3;127,115,121;,
  3;78,125,47;,
  3;126,46,42;,
  3;111,135,3;,
  3;49,15,14;,
  3;45,132,13;,
  3;62,31,26;,
  3;41,133,12;,
  3;40,11,8;,
  3;134,7,2;,
  3;70,57,21;,
  3;128,20,33;,
  3;56,61,25;,
  3;131,24,19;,
  3;67,114,30;,
  3;130,129,29;,
  3;10,140,32;,
  3;18,9,136;,
  3;6,141,17;,
  3;23,5,139;,
  3;1,142,22;,
  3;28,0,138;,
  3;110,143,27;,
  3;118,119,137;;
 }
 MeshTextureCoords { 
 144;
 0.346712;0.961118;,
 0.346712;0.961118;,
 0.383486;0.647241;,
 0.383486;0.647241;,
 0.383486;0.647241;,
 0.433669;0.944305;,
 0.433669;0.944305;,
 0.466810;0.623773;,
 0.466810;0.623773;,
 0.509724;0.941406;,
 0.509724;0.941406;,
 0.528152;0.625661;,
 0.528152;0.625661;,
 0.528152;0.625661;,
 0.528152;0.625661;,
 0.569806;0.627125;,
 0.583721;0.945888;,
 0.509806;0.944103;,
 0.509806;0.944103;,
 0.707436;0.349080;,
 0.707436;0.349080;,
 0.707436;0.349080;,
 0.433751;0.947002;,
 0.433751;0.947002;,
 0.636010;0.349887;,
 0.636010;0.349887;,
 0.636010;0.349887;,
 0.354161;0.963847;,
 0.354161;0.963847;,
 0.571446;0.366345;,
 0.571446;0.366345;,
 0.571446;0.366345;,
 0.583802;0.948585;,
 0.763128;0.348808;,
 0.583802;0.948585;,
 0.583802;0.948585;,
 0.379179;0.770972;,
 0.379179;0.770972;,
 0.379179;0.770972;,
 0.379179;0.770972;,
 0.474437;0.760529;,
 0.474437;0.760529;,
 0.474437;0.760529;,
 0.474437;0.760529;,
 0.474437;0.760529;,
 0.539965;0.751829;,
 0.539965;0.751829;,
 0.539965;0.751829;,
 0.539965;0.751829;,
 0.588523;0.730713;,
 0.588523;0.730713;,
 0.588523;0.730713;,
 0.587969;0.950113;,
 0.587969;0.950113;,
 0.587969;0.950113;,
 0.587969;0.950113;,
 0.712829;0.498584;,
 0.712829;0.498584;,
 0.712829;0.498584;,
 0.712829;0.498584;,
 0.712829;0.498584;,
 0.646691;0.523469;,
 0.646691;0.523469;,
 0.646691;0.523469;,
 0.646691;0.523469;,
 0.646691;0.523469;,
 0.646691;0.523469;,
 0.569545;0.501801;,
 0.569545;0.501801;,
 0.569545;0.501801;,
 0.777304;0.453403;,
 0.587638;0.953253;,
 0.587638;0.953253;,
 0.777304;0.453403;,
 0.350862;0.982362;,
 0.350862;0.982362;,
 0.373137;0.888196;,
 0.373137;0.888196;,
 0.478238;0.888115;,
 0.478238;0.888115;,
 0.441565;0.961524;,
 0.441565;0.961524;,
 0.441565;0.961524;,
 0.478238;0.888115;,
 0.516827;0.959478;,
 0.516827;0.959478;,
 0.516827;0.959478;,
 0.532187;0.865353;,
 0.532187;0.865353;,
 0.589844;0.965012;,
 0.578547;0.840369;,
 0.589844;0.965012;,
 0.710378;0.594780;,
 0.516389;0.960749;,
 0.516389;0.960749;,
 0.516389;0.960749;,
 0.710378;0.594780;,
 0.441039;0.962890;,
 0.441039;0.962890;,
 0.441039;0.962890;,
 0.643264;0.615638;,
 0.357704;0.983760;,
 0.357704;0.983760;,
 0.556702;0.612103;,
 0.556702;0.612103;,
 0.556702;0.612103;,
 0.589318;0.966378;,
 0.589318;0.966378;,
 0.769278;0.565194;,
 0.769278;0.565194;,
 0.308594;0.997271;,
 0.316392;0.790303;,
 0.308594;0.997271;,
 0.316392;0.790303;,
 0.515971;0.497493;,
 0.316043;1.000000;,
 0.316043;1.000000;,
 0.515971;0.497493;,
 0.316043;1.000000;,
 0.308594;0.997271;,
 0.589318;0.966378;,
 0.357704;0.983760;,
 0.643264;0.615638;,
 0.710378;0.594780;,
 0.589844;0.965012;,
 0.532187;0.865353;,
 0.478238;0.888115;,
 0.350862;0.982362;,
 0.777304;0.453403;,
 0.569545;0.501801;,
 0.646691;0.523469;,
 0.712829;0.498584;,
 0.588523;0.730713;,
 0.539965;0.751829;,
 0.474437;0.760529;,
 0.379179;0.770972;,
 0.583802;0.948585;,
 0.354161;0.963847;,
 0.433751;0.947002;,
 0.509806;0.944103;,
 0.583721;0.945888;,
 0.509724;0.941406;,
 0.433669;0.944305;,
 0.346712;0.961118;;
 }
}
}
Frame frm-lfuselg {
  FrameTransformMatrix {
-0.866025,0.500000,-0.000000,0.000000,
0.500000,0.866025,0.000000,0.000000,
0.000000,-0.000000,-1.000000,0.000000,
-0.000000,-0.424731,0.912362,1.000000;;
 }
Mesh lfuselg {
 144;
 -0.184884;0.683562;1.476372;,
 -0.184884;0.683562;1.476372;,
 -0.184884;0.683562;1.476372;,
 -0.184884;0.683562;1.476372;,
 -0.184884;0.683562;1.476372;,
 -0.320229;0.969413;0.944380;,
 -0.320229;0.969413;0.944380;,
 -0.320229;0.969413;0.944380;,
 -0.320229;0.969413;0.944380;,
 -0.369769;1.016441;0.475324;,
 -0.369769;1.016441;0.475324;,
 -0.369769;1.016441;0.475324;,
 -0.369769;1.016441;0.475324;,
 -0.369769;1.016441;0.475324;,
 -0.256183;0.969413;0.006271;,
 -0.256183;0.969413;0.006271;,
 -0.256183;0.969413;0.006271;,
 -0.256183;0.969413;0.006271;,
 -0.256183;0.969413;0.006271;,
 -0.369769;0.965762;0.475324;,
 -0.369769;0.965762;0.475324;,
 -0.369769;0.965762;0.475324;,
 -0.369769;0.965762;0.475324;,
 -0.369769;0.965762;0.475324;,
 -0.320229;0.918735;0.944380;,
 -0.320229;0.918735;0.944380;,
 -0.320229;0.918735;0.944380;,
 -0.320229;0.918735;0.944380;,
 -0.320229;0.918735;0.944380;,
 -0.184884;0.632884;1.430572;,
 -0.184884;0.632884;1.430572;,
 -0.184884;0.632884;1.430572;,
 -0.184884;0.632884;1.430572;,
 -0.184884;0.632884;1.430572;,
 -0.256183;0.918735;0.006271;,
 -0.256183;0.918735;0.006271;,
 -0.397501;0.523571;1.476372;,
 -0.397501;0.523571;1.476372;,
 -0.397501;0.523571;1.476372;,
 -0.397501;0.523571;1.476372;,
 -0.688492;0.809422;0.944380;,
 -0.688492;0.809422;0.944380;,
 -0.688492;0.809422;0.944380;,
 -0.688492;0.809422;0.944380;,
 -0.688492;0.809422;0.944380;,
 -0.667802;0.856450;0.475324;,
 -0.667802;0.856450;0.475324;,
 -0.667802;0.856450;0.475324;,
 -0.667802;0.856450;0.475324;,
 -0.667802;0.856450;0.475324;,
 -0.550794;0.809422;0.006271;,
 -0.550794;0.809422;0.006271;,
 -0.550794;0.809422;0.006271;,
 -0.550794;0.809422;0.006271;,
 -0.667802;0.805771;0.475324;,
 -0.667802;0.805771;0.475324;,
 -0.667802;0.805771;0.475324;,
 -0.667802;0.805771;0.475324;,
 -0.667802;0.805771;0.475324;,
 -0.688492;0.758744;0.944380;,
 -0.688492;0.758744;0.944380;,
 -0.688492;0.758744;0.944380;,
 -0.688492;0.758744;0.944380;,
 -0.688492;0.758744;0.944380;,
 -0.688492;0.758744;0.944380;,
 -0.373835;0.482053;1.445839;,
 -0.373835;0.482053;1.445839;,
 -0.373835;0.482053;1.445839;,
 -0.520367;0.758744;0.006271;,
 -0.520367;0.758744;0.006271;,
 -0.520367;0.758744;0.006271;,
 -0.520367;0.758744;0.006271;,
 -0.520367;0.758744;0.006271;,
 -0.520367;0.758744;0.006271;,
 -0.435711;0.215727;1.476372;,
 -0.435711;0.215727;1.476372;,
 -0.435711;0.215727;1.476372;,
 -0.435711;0.215727;1.476372;,
 -0.847523;0.501579;0.944380;,
 -0.847523;0.501579;0.944380;,
 -0.847523;0.501579;0.944380;,
 -0.847523;0.501579;0.944380;,
 -0.847523;0.501579;0.944380;,
 -0.847523;0.501579;0.944380;,
 -0.838534;0.548606;0.475324;,
 -0.838534;0.548606;0.475324;,
 -0.838534;0.548606;0.475324;,
 -0.838534;0.548606;0.475324;,
 -0.838534;0.548606;0.475324;,
 -0.652652;0.501579;0.006271;,
 -0.652652;0.501579;0.006271;,
 -0.652652;0.501579;0.006271;,
 -0.652652;0.501579;0.006271;,
 -0.804456;0.534034;0.475324;,
 -0.804456;0.534034;0.475324;,
 -0.804456;0.534034;0.475324;,
 -0.804456;0.534034;0.475324;,
 -0.804456;0.534034;0.475324;,
 -0.806953;0.487006;0.944380;,
 -0.806953;0.487006;0.944380;,
 -0.806953;0.487006;0.944380;,
 -0.806953;0.487006;0.944380;,
 -0.395142;0.201155;1.430572;,
 -0.395142;0.201155;1.430572;,
 -0.395142;0.201155;1.430572;,
 -0.395142;0.201155;1.430572;,
 -0.395142;0.201155;1.430572;,
 -0.612082;0.487006;0.006271;,
 -0.612082;0.487006;0.006271;,
 -0.612082;0.487006;0.006271;,
 0.000000;0.051805;1.704061;,
 0.000000;0.051805;1.704061;,
 0.000000;0.051805;1.704061;,
 0.000000;0.001127;1.658262;,
 0.000000;0.001127;1.658262;,
 0.000000;0.001127;1.658262;,
 0.000000;0.001127;1.658262;,
 0.000000;0.001127;1.658262;,
 0.000000;0.001127;1.658262;,
 0.000000;0.051805;1.704061;,
 -0.612082;0.487006;0.006271;,
 -0.395142;0.201155;1.430572;,
 -0.806953;0.487006;0.944380;,
 -0.804456;0.534034;0.475324;,
 -0.652652;0.501579;0.006271;,
 -0.838534;0.548606;0.475324;,
 -0.847523;0.501579;0.944380;,
 -0.435711;0.215727;1.476372;,
 -0.520367;0.758744;0.006271;,
 -0.373835;0.482053;1.445839;,
 -0.688492;0.758744;0.944380;,
 -0.667802;0.805771;0.475324;,
 -0.550794;0.809422;0.006271;,
 -0.667802;0.856450;0.475324;,
 -0.688492;0.809422;0.944380;,
 -0.397501;0.523571;1.476372;,
 -0.256183;0.918735;0.006271;,
 -0.184884;0.632884;1.430572;,
 -0.320229;0.918735;0.944380;,
 -0.369769;0.965762;0.475324;,
 -0.256183;0.969413;0.006271;,
 -0.369769;1.016441;0.475324;,
 -0.320229;0.969413;0.944380;,
 -0.184884;0.683562;1.476372;;

 48;
 3;67,117,106;,
 3;39,77,112;,
 3;58,97,109;,
 3;73,57,108;,
 3;72,107,92;,
 3;18,35,71;,
 3;53,17,70;,
 3;91,52,69;,
 3;105,101,64;,
 3;83,76,38;,
 3;44,37,4;,
 3;51,90,88;,
 3;49,50,87;,
 3;100,82,86;,
 3;96,99,85;,
 3;63,66,104;,
 3;103,75,81;,
 3;98,102,80;,
 3;36,43,79;,
 3;95,84,89;,
 3;120,94,124;,
 3;62,122,93;,
 3;56,61,123;,
 3;116,111,74;,
 3;121,115,127;,
 3;48,125,78;,
 3;42,47,126;,
 3;3,135,110;,
 3;16,132,46;,
 3;13,15,45;,
 3;28,33,60;,
 3;12,133,41;,
 3;8,11,40;,
 3;2,7,134;,
 3;23,55,68;,
 3;34,22,128;,
 3;27,59,54;,
 3;21,26,131;,
 3;32,114,65;,
 3;31,129,130;,
 3;1,119,113;,
 3;30,0,118;,
 3;6,143,29;,
 3;25,5,137;,
 3;10,142,24;,
 3;20,9,138;,
 3;14,141,19;,
 3;136,140,139;;

 MeshMaterialList {
  3;
  48;
  0,
  1,
  0,
  0,
  2,
  2,
  2,
  2,
  0,
  1,
  1,
  1,
  1,
  2,
  2,
  0,
  2,
  2,
  1,
  2,
  2,
  0,
  0,
  2,
  2,
  1,
  1,
  1,
  1,
  1,
  0,
  1,
  1,
  1,
  0,
  0,
  0,
  0,
  0,
  0,
  2,
  2,
  2,
  2,
  2,
  2,
  2,
  2;
Material {
 1.000000;1.000000;1.000000;1.000000;;
 0.000000;
 1.000000;1.000000;1.000000;;
 0.0; 0.0; 0.0;;
 TextureFilename {
  "utl02.ppm";
 }
 }
Material {
 1.000000;1.000000;1.000000;1.000000;;
 0.000000;
 1.000000;1.000000;1.000000;;
 0.0; 0.0; 0.0;;
 TextureFilename {
  "utl02.ppm";
 }
 }
Material {
 1.000000;1.000000;1.000000;1.000000;;
 0.000000;
 1.000000;1.000000;1.000000;;
 0.0; 0.0; 0.0;;
 TextureFilename {
  "utl02.ppm";
 }
 }
}
 MeshNormals {
  144;
  0.559534;0.685428;0.465951;,
  0.559534;0.685428;0.465951;,
  0.559534;0.685428;0.465951;,
  0.559534;0.685428;0.465951;,
  0.559534;0.685428;0.465951;,
  0.760867;0.645642;0.065018;,
  0.760867;0.645642;0.065018;,
  0.760867;0.645642;0.065018;,
  0.760867;0.645642;0.065018;,
  0.522268;0.850457;0.062916;,
  0.522268;0.850457;0.062916;,
  0.522268;0.850457;0.062916;,
  0.522268;0.850457;0.062916;,
  0.522268;0.850457;0.062916;,
  0.364418;0.620209;-0.694651;,
  0.364418;0.620209;-0.694651;,
  0.364418;0.620209;-0.694651;,
  0.364418;0.620209;-0.694651;,
  0.364418;0.620209;-0.694651;,
  0.790572;-0.604034;0.100694;,
  0.790572;-0.604034;0.100694;,
  0.790572;-0.604034;0.100694;,
  0.790572;-0.604034;0.100694;,
  0.790572;-0.604034;0.100694;,
  0.833558;-0.493799;-0.247675;,
  0.833558;-0.493799;-0.247675;,
  0.833558;-0.493799;-0.247675;,
  0.833558;-0.493799;-0.247675;,
  0.833558;-0.493799;-0.247675;,
  0.776559;-0.265405;-0.571416;,
  0.776559;-0.265405;-0.571416;,
  0.776559;-0.265405;-0.571416;,
  0.776559;-0.265405;-0.571416;,
  0.776559;-0.265405;-0.571416;,
  0.840233;-0.481871;-0.248614;,
  0.840233;-0.481871;-0.248614;,
  -0.551603;0.303700;0.776853;,
  -0.551603;0.303700;0.776853;,
  -0.551603;0.303700;0.776853;,
  -0.551603;0.303700;0.776853;,
  -0.591396;0.728912;0.344874;,
  -0.591396;0.728912;0.344874;,
  -0.591396;0.728912;0.344874;,
  -0.591396;0.728912;0.344874;,
  -0.591396;0.728912;0.344874;,
  -0.743578;0.664523;-0.074172;,
  -0.743578;0.664523;-0.074172;,
  -0.743578;0.664523;-0.074172;,
  -0.743578;0.664523;-0.074172;,
  -0.743578;0.664523;-0.074172;,
  -0.566168;0.421434;-0.708412;,
  -0.566168;0.421434;-0.708412;,
  -0.566168;0.421434;-0.708412;,
  -0.566168;0.421434;-0.708412;,
  0.711136;-0.691498;0.126952;,
  0.711136;-0.691498;0.126952;,
  0.711136;-0.691498;0.126952;,
  0.711136;-0.691498;0.126952;,
  0.711136;-0.691498;0.126952;,
  0.718038;-0.561587;-0.411146;,
  0.718038;-0.561587;-0.411146;,
  0.718038;-0.561587;-0.411146;,
  0.718038;-0.561587;-0.411146;,
  0.718038;-0.561587;-0.411146;,
  0.718038;-0.561587;-0.411146;,
  0.526936;-0.258188;-0.809739;,
  0.526936;-0.258188;-0.809739;,
  0.526936;-0.258188;-0.809739;,
  0.455948;-0.490703;-0.742511;,
  0.455948;-0.490703;-0.742511;,
  0.455948;-0.490703;-0.742511;,
  0.455948;-0.490703;-0.742511;,
  0.455948;-0.490703;-0.742511;,
  0.455948;-0.490703;-0.742511;,
  -0.662978;-0.560738;0.496018;,
  -0.662978;-0.560738;0.496018;,
  -0.662978;-0.560738;0.496018;,
  -0.662978;-0.560738;0.496018;,
  -0.949067;-0.257541;0.181507;,
  -0.949067;-0.257541;0.181507;,
  -0.949067;-0.257541;0.181507;,
  -0.949067;-0.257541;0.181507;,
  -0.949067;-0.257541;0.181507;,
  -0.949067;-0.257541;0.181507;,
  -0.908124;-0.362030;-0.210345;,
  -0.908124;-0.362030;-0.210345;,
  -0.908124;-0.362030;-0.210345;,
  -0.908124;-0.362030;-0.210345;,
  -0.908124;-0.362030;-0.210345;,
  -0.480389;-0.467951;-0.741787;,
  -0.480389;-0.467951;-0.741787;,
  -0.480389;-0.467951;-0.741787;,
  -0.480389;-0.467951;-0.741787;,
  0.359107;-0.932697;0.033446;,
  0.359107;-0.932697;0.033446;,
  0.359107;-0.932697;0.033446;,
  0.359107;-0.932697;0.033446;,
  0.359107;-0.932697;0.033446;,
  0.164176;-0.928066;-0.334275;,
  0.164176;-0.928066;-0.334275;,
  0.164176;-0.928066;-0.334275;,
  0.164176;-0.928066;-0.334275;,
  0.203917;-0.737522;-0.643801;,
  0.203917;-0.737522;-0.643801;,
  0.203917;-0.737522;-0.643801;,
  0.203917;-0.737522;-0.643801;,
  0.203917;-0.737522;-0.643801;,
  0.634310;-0.756627;-0.158639;,
  0.634310;-0.756627;-0.158639;,
  0.634310;-0.756627;-0.158639;,
  -0.140476;-0.020575;0.989870;,
  -0.140476;-0.020575;0.989870;,
  -0.140476;-0.020575;0.989870;,
  0.563764;-0.544797;-0.620779;,
  0.563764;-0.544797;-0.620779;,
  0.563764;-0.544797;-0.620779;,
  0.563764;-0.544797;-0.620779;,
  0.563764;-0.544797;-0.620779;,
  0.563764;-0.544797;-0.620779;,
  -0.140476;-0.020575;0.989870;,
  0.634310;-0.756627;-0.158639;,
  0.203917;-0.737522;-0.643801;,
  0.164176;-0.928066;-0.334275;,
  0.359107;-0.932697;0.033446;,
  -0.480389;-0.467951;-0.741787;,
  -0.908124;-0.362030;-0.210345;,
  -0.949067;-0.257541;0.181507;,
  -0.662978;-0.560738;0.496018;,
  0.455948;-0.490703;-0.742511;,
  0.526936;-0.258188;-0.809739;,
  0.718038;-0.561587;-0.411146;,
  0.711136;-0.691498;0.126952;,
  -0.566168;0.421434;-0.708412;,
  -0.743578;0.664523;-0.074172;,
  -0.591396;0.728912;0.344874;,
  -0.551603;0.303700;0.776853;,
  0.840233;-0.481871;-0.248614;,
  0.776559;-0.265405;-0.571416;,
  0.833558;-0.493799;-0.247675;,
  0.790572;-0.604034;0.100694;,
  0.364418;0.620209;-0.694651;,
  0.522268;0.850457;0.062916;,
  0.760867;0.645642;0.065018;,
  0.559534;0.685428;0.465951;;

  48;
  3;67,117,106;,
  3;39,77,112;,
  3;58,97,109;,
  3;73,57,108;,
  3;72,107,92;,
  3;18,35,71;,
  3;53,17,70;,
  3;91,52,69;,
  3;105,101,64;,
  3;83,76,38;,
  3;44,37,4;,
  3;51,90,88;,
  3;49,50,87;,
  3;100,82,86;,
  3;96,99,85;,
  3;63,66,104;,
  3;103,75,81;,
  3;98,102,80;,
  3;36,43,79;,
  3;95,84,89;,
  3;120,94,124;,
  3;62,122,93;,
  3;56,61,123;,
  3;116,111,74;,
  3;121,115,127;,
  3;48,125,78;,
  3;42,47,126;,
  3;3,135,110;,
  3;16,132,46;,
  3;13,15,45;,
  3;28,33,60;,
  3;12,133,41;,
  3;8,11,40;,
  3;2,7,134;,
  3;23,55,68;,
  3;34,22,128;,
  3;27,59,54;,
  3;21,26,131;,
  3;32,114,65;,
  3;31,129,130;,
  3;1,119,113;,
  3;30,0,118;,
  3;6,143,29;,
  3;25,5,137;,
  3;10,142,24;,
  3;20,9,138;,
  3;14,141,19;,
  3;136,140,139;;
 }
 MeshTextureCoords { 
 144;
 0.533471;0.954468;,
 0.533471;0.954468;,
 0.398646;0.637951;,
 0.398646;0.637951;,
 0.398646;0.637951;,
 0.442593;0.945313;,
 0.442593;0.945313;,
 0.480365;0.630006;,
 0.480365;0.630006;,
 0.372980;0.952474;,
 0.372980;0.952474;,
 0.538707;0.627886;,
 0.538707;0.627886;,
 0.538707;0.627886;,
 0.310547;0.968892;,
 0.573067;0.635263;,
 0.573067;0.635263;,
 0.310547;0.968892;,
 0.310547;0.968892;,
 0.375269;0.955941;,
 0.375269;0.955941;,
 0.695916;0.347069;,
 0.695916;0.347069;,
 0.695916;0.347069;,
 0.444882;0.948780;,
 0.444882;0.948780;,
 0.614709;0.351033;,
 0.614709;0.351033;,
 0.614709;0.351033;,
 0.529257;0.959032;,
 0.529257;0.959032;,
 0.539830;0.393969;,
 0.539830;0.393969;,
 0.539830;0.393969;,
 0.763584;0.348980;,
 0.312836;0.972360;,
 0.384897;0.739261;,
 0.384897;0.739261;,
 0.384897;0.739261;,
 0.384897;0.739261;,
 0.470882;0.756121;,
 0.470882;0.756121;,
 0.470882;0.756121;,
 0.470882;0.756121;,
 0.470882;0.756121;,
 0.533017;0.747081;,
 0.533017;0.747081;,
 0.533017;0.747081;,
 0.533017;0.747081;,
 0.533017;0.747081;,
 0.585937;0.734189;,
 0.585937;0.734189;,
 0.312481;0.974742;,
 0.312481;0.974742;,
 0.696744;0.469844;,
 0.696744;0.469844;,
 0.696744;0.469844;,
 0.696744;0.469844;,
 0.696744;0.469844;,
 0.617186;0.475223;,
 0.617186;0.475223;,
 0.617186;0.475223;,
 0.617186;0.475223;,
 0.617186;0.475223;,
 0.617186;0.475223;,
 0.546724;0.515142;,
 0.546724;0.515142;,
 0.546724;0.515142;,
 0.779342;0.452095;,
 0.315316;0.978736;,
 0.315316;0.978736;,
 0.315316;0.978736;,
 0.315316;0.978736;,
 0.779342;0.452095;,
 0.550096;0.982137;,
 0.550096;0.982137;,
 0.359889;0.815714;,
 0.359889;0.815714;,
 0.468867;0.886719;,
 0.468867;0.886719;,
 0.454251;0.968199;,
 0.454251;0.968199;,
 0.454251;0.968199;,
 0.468867;0.886719;,
 0.385690;0.976373;,
 0.385690;0.976373;,
 0.385690;0.976373;,
 0.523902;0.868354;,
 0.523902;0.868354;,
 0.324555;0.994042;,
 0.572932;0.839966;,
 0.324555;0.994042;,
 0.324555;0.994042;,
 0.696639;0.603745;,
 0.386960;0.977959;,
 0.386960;0.977959;,
 0.386960;0.977959;,
 0.696639;0.603745;,
 0.455638;0.969897;,
 0.455638;0.969897;,
 0.455638;0.969897;,
 0.625270;0.615357;,
 0.544980;0.984933;,
 0.544980;0.984933;,
 0.548169;0.609411;,
 0.548169;0.609411;,
 0.548169;0.609411;,
 0.325943;0.995741;,
 0.769419;0.564642;,
 0.769419;0.564642;,
 0.316263;0.704855;,
 0.597656;0.995436;,
 0.316263;0.704855;,
 0.593442;1.000000;,
 0.504199;0.519358;,
 0.593442;1.000000;,
 0.593442;1.000000;,
 0.504199;0.519358;,
 0.593442;1.000000;,
 0.597656;0.995436;,
 0.325943;0.995741;,
 0.544980;0.984933;,
 0.625270;0.615357;,
 0.696639;0.603745;,
 0.324555;0.994042;,
 0.523902;0.868354;,
 0.468867;0.886719;,
 0.550096;0.982137;,
 0.779342;0.452095;,
 0.546724;0.515142;,
 0.617186;0.475223;,
 0.696744;0.469844;,
 0.585937;0.734189;,
 0.533017;0.747081;,
 0.470882;0.756121;,
 0.384897;0.739261;,
 0.312836;0.972360;,
 0.529257;0.959032;,
 0.444882;0.948780;,
 0.375269;0.955941;,
 0.310547;0.968892;,
 0.372980;0.952474;,
 0.442593;0.945313;,
 0.533471;0.954468;;
 }
}
}
Frame frm-tfuselg {
  FrameTransformMatrix {
-1.000000,0.000000,-0.000000,0.000000,
0.000000,0.500000,-0.866025,0.000000,
0.000000,-0.866025,-0.500000,0.000000,
-0.000000,0.592086,0.422254,1.000000;;
 }
Mesh tfuselg {
 66;
 0.184883;-0.336309;0.986260;,
 0.184883;-0.336309;0.986260;,
 0.184883;-0.336309;0.986260;,
 0.184883;-0.336309;0.986260;,
 0.184883;-0.336309;0.986260;,
 0.320227;-0.047406;0.454270;,
 0.320227;-0.047406;0.454270;,
 0.320227;-0.047406;0.454270;,
 0.320227;-0.047406;0.454270;,
 0.320227;-0.047406;0.454270;,
 0.369767;-0.000379;-0.000031;,
 -0.184883;-0.336309;0.986260;,
 -0.184883;-0.336309;0.986260;,
 -0.184883;-0.336309;0.986260;,
 -0.184883;-0.336309;0.986260;,
 -0.320227;-0.047406;0.454270;,
 -0.320227;-0.047406;0.454270;,
 -0.320227;-0.047406;0.454270;,
 -0.320227;-0.047406;0.454270;,
 -0.320227;-0.047406;0.454270;,
 -0.369767;-0.000379;-0.000031;,
 -0.369767;-0.000379;-0.000031;,
 -0.369767;-0.000379;-0.000031;,
 -0.000000;-0.968059;1.213949;,
 -0.000000;-0.968059;1.213949;,
 -0.000000;-0.968059;1.213949;,
 -0.369767;-0.053606;-0.000031;,
 -0.320227;-0.098083;0.454270;,
 -0.320227;-0.098083;0.454270;,
 -0.320227;-0.098083;0.454270;,
 -0.320227;-0.098083;0.454270;,
 -0.320227;-0.098083;0.454270;,
 0.369767;-0.053606;-0.000031;,
 0.369767;-0.053606;-0.000031;,
 0.369767;-0.053606;-0.000031;,
 0.320227;-0.098083;0.454270;,
 0.320227;-0.098083;0.454270;,
 0.320227;-0.098083;0.454270;,
 0.320227;-0.098083;0.454270;,
 0.320227;-0.098083;0.454270;,
 -0.184883;-0.383932;0.940460;,
 -0.184883;-0.383932;0.940460;,
 -0.184883;-0.383932;0.940460;,
 -0.184883;-0.383932;0.940460;,
 -0.184883;-0.383932;0.940460;,
 0.184883;-0.383932;0.940460;,
 0.184883;-0.383932;0.940460;,
 0.184883;-0.383932;0.940460;,
 0.184883;-0.383932;0.940460;,
 -0.000000;-1.015683;1.168150;,
 -0.000000;-1.015683;1.168150;,
 -0.000000;-1.015683;1.168150;,
 -0.000000;-1.015683;1.168150;,
 0.184883;-0.383932;0.940460;,
 -0.184883;-0.383932;0.940460;,
 0.320227;-0.098083;0.454270;,
 0.369767;-0.053606;-0.000031;,
 -0.320227;-0.098083;0.454270;,
 -0.369767;-0.053606;-0.000031;,
 -0.000000;-0.968059;1.213949;,
 -0.369767;-0.000379;-0.000031;,
 -0.320227;-0.047406;0.454270;,
 -0.184883;-0.336309;0.986260;,
 0.369767;-0.000379;-0.000031;,
 0.320227;-0.047406;0.454270;,
 0.184883;-0.336309;0.986260;;

 22;
 3;10,22,9;,
 3;21,19,8;,
 3;31,26,34;,
 3;39,30,33;,
 3;44,29,38;,
 3;48,43,37;,
 3;42,47,51;,
 3;20,58,28;,
 3;18,60,27;,
 3;7,36,32;,
 3;63,6,56;,
 3;17,57,41;,
 3;14,16,40;,
 3;4,46,35;,
 3;5,3,55;,
 3;64,15,2;,
 3;61,13,1;,
 3;0,12,25;,
 3;24,11,50;,
 3;62,54,49;,
 3;65,23,45;,
 3;59,52,53;;

 MeshMaterialList {
  3;
  22;
  0,
  0,
  1,
  1,
  1,
  1,
  1,
  2,
  2,
  2,
  2,
  2,
  2,
  2,
  2,
  0,
  0,
  0,
  2,
  2,
  2,
  2;
Material {
 1.000000;1.000000;1.000000;1.000000;;
 0.000000;
 1.000000;1.000000;1.000000;;
 0.0; 0.0; 0.0;;
 TextureFilename {
  "utl02.ppm";
 }
 }
Material {
 1.000000;1.000000;1.000000;1.000000;;
 0.000000;
 1.000000;1.000000;1.000000;;
 0.0; 0.0; 0.0;;
 TextureFilename {
  "utl02.ppm";
 }
 }
Material {
 1.000000;1.000000;1.000000;1.000000;;
 0.000000;
 1.000000;1.000000;1.000000;;
 0.0; 0.0; 0.0;;
 TextureFilename {
  "utl02.ppm";
 }
 }
}
 MeshNormals {
  66;
  0.668866;0.380966;0.638344;,
  0.668866;0.380966;0.638344;,
  0.668866;0.380966;0.638344;,
  0.668866;0.380966;0.638344;,
  0.668866;0.380966;0.638344;,
  0.686375;0.675847;0.268553;,
  0.686375;0.675847;0.268553;,
  0.686375;0.675847;0.268553;,
  0.686375;0.675847;0.268553;,
  0.686375;0.675847;0.268553;,
  0.699049;0.699456;0.148632;,
  -0.788326;0.258535;0.558303;,
  -0.788326;0.258535;0.558303;,
  -0.788326;0.258535;0.558303;,
  -0.788326;0.258535;0.558303;,
  -0.689030;0.618089;0.378422;,
  -0.689030;0.618089;0.378422;,
  -0.689030;0.618089;0.378422;,
  -0.689030;0.618089;0.378422;,
  -0.689030;0.618089;0.378422;,
  -0.699049;0.699456;0.148632;,
  -0.699049;0.699456;0.148632;,
  -0.699049;0.699456;0.148632;,
  0.513181;-0.145708;0.845822;,
  0.513181;-0.145708;0.845822;,
  0.513181;-0.145708;0.845822;,
  -0.706682;-0.707489;0.007795;,
  -0.711666;-0.700338;-0.055296;,
  -0.711666;-0.700338;-0.055296;,
  -0.711666;-0.700338;-0.055296;,
  -0.711666;-0.700338;-0.055296;,
  -0.711666;-0.700338;-0.055296;,
  0.706682;-0.707488;0.007795;,
  0.706682;-0.707488;0.007795;,
  0.706682;-0.707488;0.007795;,
  0.700258;-0.699301;-0.143587;,
  0.700258;-0.699301;-0.143587;,
  0.700258;-0.699301;-0.143587;,
  0.700258;-0.699301;-0.143587;,
  0.700258;-0.699301;-0.143587;,
  -0.701077;-0.604325;-0.378527;,
  -0.701077;-0.604325;-0.378527;,
  -0.701077;-0.604325;-0.378527;,
  -0.701077;-0.604325;-0.378527;,
  -0.701077;-0.604325;-0.378527;,
  0.823293;-0.515729;-0.237091;,
  0.823293;-0.515729;-0.237091;,
  0.823293;-0.515729;-0.237091;,
  0.823293;-0.515729;-0.237091;,
  -0.691864;-0.687233;-0.221440;,
  -0.691864;-0.687233;-0.221440;,
  -0.691864;-0.687233;-0.221440;,
  -0.691864;-0.687233;-0.221440;,
  0.823293;-0.515729;-0.237091;,
  -0.701077;-0.604325;-0.378527;,
  0.700258;-0.699301;-0.143587;,
  0.706682;-0.707488;0.007795;,
  -0.711666;-0.700338;-0.055296;,
  -0.706682;-0.707489;0.007795;,
  0.513181;-0.145708;0.845822;,
  -0.699049;0.699456;0.148632;,
  -0.689030;0.618089;0.378422;,
  -0.788326;0.258535;0.558303;,
  0.699049;0.699456;0.148632;,
  0.686375;0.675847;0.268553;,
  0.668866;0.380966;0.638344;;

  22;
  3;10,22,9;,
  3;21,19,8;,
  3;31,26,34;,
  3;39,30,33;,
  3;44,29,38;,
  3;48,43,37;,
  3;42,47,51;,
  3;20,58,28;,
  3;18,60,27;,
  3;7,36,32;,
  3;63,6,56;,
  3;17,57,41;,
  3;14,16,40;,
  3;4,46,35;,
  3;5,3,55;,
  3;64,15,2;,
  3;61,13,1;,
  3;0,12,25;,
  3;24,11,50;,
  3;62,54,49;,
  3;65,23,45;,
  3;59,52,53;;
 }
 MeshTextureCoords { 
 66;
 0.072403;0.705078;,
 0.072403;0.705078;,
 0.072403;0.705078;,
 0.401327;0.951990;,
 0.401327;0.951990;,
 0.514211;0.947815;,
 0.514211;0.947815;,
 0.514211;0.947815;,
 0.189918;0.745527;,
 0.189918;0.745527;,
 0.293938;0.783961;,
 0.402297;0.941919;,
 0.072403;0.576172;,
 0.072403;0.576172;,
 0.402297;0.941919;,
 0.191373;0.528989;,
 0.516151;0.941406;,
 0.516151;0.941406;,
 0.516151;0.941406;,
 0.191373;0.528989;,
 0.595703;0.960883;,
 0.292969;0.495365;,
 0.292969;0.495365;,
 0.311504;0.954362;,
 0.308594;0.992814;,
 0.019060;0.639663;,
 0.208984;0.804688;,
 0.511665;0.946460;,
 0.511665;0.946460;,
 0.144665;0.815154;,
 0.144665;0.815154;,
 0.144665;0.815154;,
 0.595357;0.990911;,
 0.208984;0.960938;,
 0.208984;0.960938;,
 0.515060;0.990406;,
 0.515060;0.990406;,
 0.144665;0.950471;,
 0.144665;0.950471;,
 0.144665;0.950471;,
 0.405682;0.949106;,
 0.405682;0.949106;,
 0.075830;0.843750;,
 0.075830;0.843750;,
 0.075830;0.843750;,
 0.401802;0.990304;,
 0.401802;0.990304;,
 0.075830;0.921875;,
 0.075830;0.921875;,
 0.311979;1.000000;,
 0.311979;1.000000;,
 0.043594;0.882813;,
 0.312464;0.992676;,
 0.401802;0.990304;,
 0.405682;0.949106;,
 0.515060;0.990406;,
 0.595357;0.990911;,
 0.511665;0.946460;,
 0.590992;0.966192;,
 0.311504;0.954362;,
 0.595703;0.960883;,
 0.191373;0.528989;,
 0.402297;0.941919;,
 0.594733;0.948982;,
 0.189918;0.745527;,
 0.401327;0.951990;;
 }
}
}
Frame frm-cube1 {
  FrameTransformMatrix {
1.000000,0.000000,0.000000,0.000000,
0.000000,1.000000,0.000000,0.000000,
0.000000,0.000000,1.000000,0.000000,
0.000000,0.239317,0.228439,1.000000;;
 }
Mesh cube1 {
 45;
 -0.033438;-0.117382;-0.221643;,
 -0.033438;-0.117382;-0.221643;,
 -0.033438;-0.117382;-0.221643;,
 -0.118047;0.012852;-0.229005;,
 -0.118047;0.012852;-0.229005;,
 -0.118047;0.012852;-0.229005;,
 -0.147228;0.152223;0.212762;,
 -0.168297;-0.143110;0.243567;,
 0.020783;0.111452;-0.233877;,
 0.020783;0.111452;-0.233877;,
 0.020783;0.111452;-0.233877;,
 0.118368;-0.012871;-0.223909;,
 0.118368;-0.012871;-0.223909;,
 0.118368;-0.012871;-0.223909;,
 0.170178;-0.183479;0.232877;,
 0.172779;0.165385;0.215701;,
 -0.063516;0.028542;-0.701031;,
 -0.063516;0.028542;-0.701031;,
 -0.063516;0.028542;-0.701031;,
 -0.047207;-0.062948;-0.709956;,
 -0.047207;-0.062948;-0.709956;,
 0.002798;-0.018664;-1.176828;,
 -0.046448;0.003989;-1.180557;,
 0.024526;-0.009691;-1.166317;,
 0.003716;0.036057;-1.156421;,
 0.061335;-0.061555;-0.696279;,
 0.061335;-0.061555;-0.696279;,
 0.074733;0.075644;-0.678761;,
 0.074733;0.075644;-0.678761;,
 0.074733;0.075644;-0.678761;,
 0.061335;-0.061555;-0.696279;,
 0.003716;0.036057;-1.156421;,
 0.024526;-0.009691;-1.166317;,
 -0.046448;0.003989;-1.180557;,
 0.002798;-0.018664;-1.176828;,
 -0.047207;-0.062948;-0.709956;,
 -0.063516;0.028542;-0.701031;,
 0.172779;0.165385;0.215701;,
 0.170178;-0.183479;0.232877;,
 0.118368;-0.012871;-0.223909;,
 0.020783;0.111452;-0.233877;,
 -0.168297;-0.143110;0.243567;,
 -0.147228;0.152223;0.212762;,
 -0.118047;0.012852;-0.229005;,
 -0.033438;-0.117382;-0.221643;;

 12;
 4;7,6,5,2;,
 4;15,14,13,10;,
 4;4,9,28,18;,
 4;38,41,1,12;,
 4;42,37,8,3;,
 4;22,21,20,17;,
 4;0,43,16,19;,
 4;24,33,36,27;,
 4;23,31,29,26;,
 4;40,11,25,29;,
 4;34,32,30,35;,
 4;39,44,35,30;;

 MeshMaterialList {
  1;
  12;
  0,
  0,
  0,
  0,
  0,
  0,
  0,
  0,
  0,
  0,
  0,
  0;
Material {
 1.000000;1.000000;1.000000;1.000000;;
 50.000000;
 1.000000;1.000000;1.000000;;
 0.0; 0.0; 0.0;;
 TextureFilename {
  "utl02.ppm";
 }
 }
}
 MeshNormals {
  45;
  -0.481326;-0.862089;-0.158520;,
  -0.481326;-0.862089;-0.158520;,
  -0.481326;-0.862089;-0.158520;,
  -0.885467;0.435234;-0.162845;,
  -0.885467;0.435234;-0.162845;,
  -0.885467;0.435234;-0.162845;,
  -0.813770;0.536601;-0.223246;,
  -0.583701;-0.775283;-0.241309;,
  0.455191;0.872567;-0.177279;,
  0.455191;0.872567;-0.177279;,
  0.455191;0.872567;-0.177279;,
  0.850970;-0.500120;-0.160406;,
  0.850970;-0.500120;-0.160406;,
  0.850970;-0.500120;-0.160406;,
  0.776546;-0.565187;-0.278461;,
  0.520863;0.812179;-0.262808;,
  -0.941262;0.324958;-0.091809;,
  -0.941262;0.324958;-0.091809;,
  -0.941262;0.324958;-0.091809;,
  -0.412933;-0.906516;-0.087840;,
  -0.412933;-0.906516;-0.087840;,
  -0.457527;-0.883290;-0.102313;,
  -0.941688;0.325583;-0.084974;,
  0.751288;-0.643520;-0.146454;,
  0.525422;0.840723;-0.130828;,
  0.837283;-0.538269;-0.096042;,
  0.837283;-0.538269;-0.096042;,
  0.454829;0.884325;-0.105352;,
  0.454829;0.884325;-0.105352;,
  0.454829;0.884325;-0.105352;,
  0.837283;-0.538269;-0.096042;,
  0.525422;0.840723;-0.130828;,
  0.751288;-0.643520;-0.146454;,
  -0.941688;0.325583;-0.084974;,
  -0.457527;-0.883290;-0.102313;,
  -0.412933;-0.906516;-0.087840;,
  -0.941262;0.324958;-0.091809;,
  0.520863;0.812179;-0.262808;,
  0.776546;-0.565187;-0.278461;,
  0.850970;-0.500120;-0.160406;,
  0.455191;0.872567;-0.177279;,
  -0.583701;-0.775283;-0.241309;,
  -0.813770;0.536601;-0.223246;,
  -0.885467;0.435234;-0.162845;,
  -0.481326;-0.862089;-0.158520;;

  12;
  4;7,6,5,2;,
  4;15,14,13,10;,
  4;4,9,28,18;,
  4;38,41,1,12;,
  4;42,37,8,3;,
  4;22,21,20,17;,
  4;0,43,16,19;,
  4;24,33,36,27;,
  4;23,31,29,26;,
  4;40,11,25,29;,
  4;34,32,30,35;,
  4;39,44,35,30;;
 }
 MeshTextureCoords { 
 45;
 0.867588;0.635457;,
 0.867588;0.746053;,
 0.867588;0.635457;,
 0.867588;0.635457;,
 0.867588;0.635457;,
 0.867588;0.746053;,
 0.997957;0.774699;,
 0.998608;0.609416;,
 0.867588;0.746053;,
 0.867588;0.746053;,
 0.867588;0.635457;,
 0.867588;0.746053;,
 0.867588;0.635457;,
 0.867588;0.746053;,
 0.997957;0.774699;,
 0.998608;0.609416;,
 0.776930;0.802043;,
 0.776930;0.802043;,
 0.779535;0.608114;,
 0.779535;0.608114;,
 0.779535;0.608114;,
 0.704543;0.687541;,
 0.703892;0.713501;,
 0.703892;0.713501;,
 0.703892;0.713501;,
 0.776930;0.802043;,
 0.776930;0.802043;,
 0.776930;0.802043;,
 0.776930;0.802043;,
 0.779535;0.608114;,
 0.779535;0.608114;,
 0.704543;0.687541;,
 0.704543;0.687541;,
 0.704543;0.687541;,
 0.703892;0.713501;,
 0.776930;0.802043;,
 0.779535;0.608114;,
 0.997957;0.774699;,
 0.998608;0.609416;,
 0.867588;0.635457;,
 0.867588;0.635457;,
 0.997957;0.774699;,
 0.998608;0.609416;,
 0.867588;0.746053;,
 0.867588;0.746053;;
 }
}
Frame frm-tetra1 {
  FrameTransformMatrix {
1.000000,0.000000,0.000000,0.000000,
0.000000,1.000000,0.000000,0.000000,
0.000000,0.000000,1.000000,0.000000,
0.000000,0.001913,-1.219826,1.000000;;
 }
Mesh tetra1 {
 7;
 -0.011246;-0.001362;-0.129820;,
 0.011066;0.061708;-0.031808;,
 -0.022132;-0.000000;-0.031808;,
 0.089968;-0.000000;0.027270;,
 -0.000000;-0.000000;0.095425;,
 -0.044984;0.123416;0.027269;,
 -0.044984;-0.123417;0.027269;;

 10;
 3;5,4,3;,
 3;6,3,4;,
 3;0,1,3;,
 3;5,2,6;,
 3;0,2,5;,
 3;5,1,0;,
 3;6,2,0;,
 3;3,6,0;,
 3;3,1,5;,
 3;6,4,5;;

 MeshMaterialList {
  1;
  10;
  0,
  0,
  0,
  0,
  0,
  0,
  0,
  0,
  0,
  0;
Material {
 1.000000;1.000000;1.000000;1.000000;;
 50.000000;
 1.000000;1.000000;1.000000;;
 0.0; 0.0; 0.0;;
 TextureFilename {
  "utl02.ppm";
 }
 }
}
 MeshNormals {
  7;
  -0.154833;0.334754;-0.929498;,
  0.597097;0.687865;-0.412694;,
  -0.980506;-0.000575;-0.196486;,
  0.980047;0.158922;0.119378;,
  0.091690;-0.000000;0.995788;,
  -0.479215;0.875414;0.063274;,
  -0.768782;-0.603992;0.210164;;

  10;
  3;5,4,3;,
  3;6,3,4;,
  3;0,1,3;,
  3;5,2,6;,
  3;0,2,5;,
  3;5,1,0;,
  3;6,2,0;,
  3;3,6,0;,
  3;3,1,5;,
  3;6,4,5;;
 }
 MeshTextureCoords { 
 7;
 0.708363;0.967697;,
 0.661785;0.905675;,
 0.705083;0.898363;,
 0.548344;0.882707;,
 0.653528;0.816345;,
 0.724352;0.852983;,
 0.724352;0.852983;;
 }
}
}
}
Frame frm-fuselg {
  FrameTransformMatrix {
-1.000000,0.000000,-0.000000,0.000000,
0.000000,1.000000,0.000000,0.000000,
0.000000,0.000000,-1.000000,0.000000,
0.000000,0.000000,0.000000,1.000000;;
 }
Mesh fuselg {
 216;
 -0.388723;0.352682;-1.275384;,
 -0.388723;0.352682;-1.275384;,
 -0.388723;0.352682;-1.275384;,
 0.139397;-0.943210;0.121841;,
 0.139397;-0.943210;0.121841;,
 0.139397;-0.943210;0.121841;,
 0.667451;0.214914;-0.004727;,
 0.667451;0.214914;-0.004727;,
 0.667451;0.214914;-0.004727;,
 0.667451;0.214914;-0.004727;,
 -0.139397;-0.943210;0.121841;,
 -0.139397;-0.943210;0.121841;,
 -0.139397;-0.943210;0.121841;,
 0.388723;0.214470;-1.275384;,
 0.388723;0.214470;-1.275384;,
 0.388723;0.214470;-1.275384;,
 0.388723;0.214470;-1.275384;,
 0.388723;0.214470;-1.275384;,
 0.388723;0.214470;-1.275384;,
 0.388723;0.214470;-1.275384;,
 0.360589;0.663754;-0.421830;,
 0.360589;0.663754;-0.421830;,
 0.360589;0.663754;-0.421830;,
 0.360589;0.663754;-0.421830;,
 -0.245503;0.621936;-0.898825;,
 -0.245503;0.621936;-0.898825;,
 -0.245503;0.621936;-0.898825;,
 -0.245503;0.621936;-0.898825;,
 -0.245503;0.621936;-0.898825;,
 -0.245503;0.621936;-0.898825;,
 0.360589;0.525542;-0.421830;,
 0.360589;0.525542;-0.421830;,
 0.360589;0.525542;-0.421830;,
 0.360589;0.525542;-0.421830;,
 0.360589;0.525542;-0.421830;,
 0.360589;0.525542;-0.421830;,
 0.360589;0.525542;-0.421830;,
 0.360589;0.525542;-0.421830;,
 0.245503;0.483724;-0.898825;,
 0.245503;0.483724;-0.898825;,
 0.245503;0.483724;-0.898825;,
 0.245503;0.621936;-0.898825;,
 0.245503;0.621936;-0.898825;,
 0.245503;0.621936;-0.898825;,
 0.245503;0.621936;-0.898825;,
 -0.360589;0.663754;-0.421830;,
 -0.360589;0.663754;-0.421830;,
 -0.360589;0.663754;-0.421830;,
 -0.360589;0.525542;-0.421830;,
 -0.360589;0.525542;-0.421830;,
 -0.360589;0.525542;-0.421830;,
 -0.360589;0.525542;-0.421830;,
 -0.360589;0.525542;-0.421830;,
 -0.360589;0.525542;-0.421830;,
 -0.245503;0.483724;-0.898825;,
 -0.245503;0.483724;-0.898825;,
 -0.245503;0.483724;-0.898825;,
 0.388723;0.352682;-1.275384;,
 0.388723;0.352682;-1.275384;,
 0.388723;0.352682;-1.275384;,
 0.388723;0.352682;-1.275384;,
 -0.667451;0.214914;-0.004727;,
 -0.667451;0.214914;-0.004727;,
 -0.667451;0.214914;-0.004727;,
 -0.667451;0.214914;-0.004727;,
 -0.667451;0.214914;-0.004727;,
 0.156791;-0.939106;0.576335;,
 0.156791;-0.939106;0.576335;,
 0.156791;-0.939106;0.576335;,
 0.156791;-0.939106;0.576335;,
 -0.388723;0.214470;-1.275384;,
 -0.388723;0.214470;-1.275384;,
 -0.388723;0.214470;-1.275384;,
 -0.388723;0.214470;-1.275384;,
 -0.388723;0.214470;-1.275384;,
 -0.388723;0.214470;-1.275384;,
 -0.388723;0.214470;-1.275384;,
 -0.388723;0.214470;-1.275384;,
 -0.219651;-0.285279;0.609443;,
 -0.219651;-0.285279;0.609443;,
 -0.219651;-0.285279;0.609443;,
 -0.219651;-0.285279;0.609443;,
 -0.219651;-0.285279;0.609443;,
 0.427168;-0.174707;-0.995396;,
 0.427168;-0.174707;-0.995396;,
 0.427168;-0.174707;-0.995396;,
 0.427168;-0.174707;-0.995396;,
 -0.739877;-0.174845;-0.051258;,
 -0.739877;-0.174845;-0.051258;,
 -0.739877;-0.174845;-0.051258;,
 -0.739877;-0.174845;-0.051258;,
 -0.739877;-0.174845;-0.051258;,
 -0.427168;-0.174707;-0.995396;,
 -0.427168;-0.174707;-0.995396;,
 -0.427168;-0.174707;-0.995396;,
 -0.427168;-0.174707;-0.995396;,
 -0.199523;-0.484241;0.588836;,
 -0.199523;-0.484241;0.588836;,
 -0.199523;-0.484241;0.588836;,
 -0.199523;-0.484241;0.588836;,
 -0.199523;-0.484241;0.588836;,
 -0.199523;-0.484241;0.588836;,
 0.739878;-0.174845;-0.051258;,
 0.739878;-0.174845;-0.051258;,
 0.739878;-0.174845;-0.051258;,
 0.739878;-0.174845;-0.051258;,
 0.739878;-0.174845;-0.051258;,
 0.345584;-0.452042;-0.221313;,
 0.345584;-0.452042;-0.221313;,
 0.345584;-0.452042;-0.221313;,
 0.345584;-0.452042;-0.221313;,
 0.345584;-0.452042;-0.221313;,
 0.345584;-0.452042;-0.221313;,
 0.345584;-0.452042;-0.221313;,
 -0.345584;-0.452042;-0.221313;,
 -0.345584;-0.452042;-0.221313;,
 -0.345584;-0.452042;-0.221313;,
 -0.345584;-0.452042;-0.221313;,
 -0.345584;-0.452042;-0.221313;,
 0.199523;-0.484241;0.588836;,
 0.199523;-0.484241;0.588836;,
 0.199523;-0.484241;0.588836;,
 0.199523;-0.484241;0.588836;,
 0.219651;-0.285279;0.609443;,
 0.219651;-0.285279;0.609443;,
 0.219651;-0.285279;0.609443;,
 0.219651;-0.285279;0.609443;,
 0.219651;-0.285279;0.609443;,
 0.219651;-0.285279;0.609443;,
 0.219651;-0.285279;0.609443;,
 -0.156791;-0.939106;0.576335;,
 -0.156791;-0.939106;0.576335;,
 -0.156791;-0.939106;0.576335;,
 -0.156791;-0.939106;0.576335;,
 0.574008;0.212372;-0.001320;,
 0.574008;0.212372;-0.001320;,
 0.574008;0.212372;-0.001320;,
 0.574008;0.212372;-0.001320;,
 0.574008;0.212372;-0.001320;,
 0.574008;0.212372;-0.001320;,
 -0.574008;0.212372;-0.001338;,
 -0.574008;0.212372;-0.001338;,
 -0.574008;0.212372;-0.001338;,
 -0.574008;0.212372;-0.001338;,
 -0.574008;0.212372;-0.001338;,
 -0.310107;0.479345;-0.360163;,
 -0.310107;0.479345;-0.360163;,
 -0.310107;0.479345;-0.360163;,
 -0.310107;0.479345;-0.360163;,
 -0.310107;0.479345;-0.360163;,
 -0.310107;0.479345;-0.360163;,
 0.310107;0.479345;-0.360158;,
 0.310107;0.479345;-0.360158;,
 0.310107;0.479345;-0.360158;,
 -0.310107;-0.177392;-0.360163;,
 -0.310107;-0.177392;-0.360163;,
 -0.310107;-0.177392;-0.360163;,
 0.310107;-0.177392;-0.360158;,
 0.310107;-0.177392;-0.360158;,
 0.310107;-0.177392;-0.360158;,
 0.310107;-0.177392;-0.360158;,
 0.310107;-0.177392;-0.360158;,
 -0.206873;-0.573348;-0.001338;,
 -0.206873;-0.573348;-0.001338;,
 -0.206873;-0.573348;-0.001338;,
 -0.206873;-0.573348;-0.001338;,
 0.206873;-0.573348;-0.001320;,
 0.206873;-0.573348;-0.001320;,
 0.206873;-0.573348;-0.001320;,
 0.206873;-0.573348;-0.001320;,
 0.188900;-0.307046;0.540296;,
 0.188900;-0.307046;0.540296;,
 0.188900;-0.307046;0.540296;,
 -0.188900;-0.307046;0.540296;,
 -0.188900;-0.307046;0.540296;,
 -0.188900;-0.307046;0.540296;,
 -0.188900;-0.307046;0.540296;,
 -0.188900;-0.307046;0.540296;,
 -0.188900;-0.307046;0.540296;,
 0.188900;-0.307046;0.540296;,
 0.206873;-0.573348;-0.001320;,
 -0.206873;-0.573348;-0.001338;,
 0.310107;-0.177392;-0.360158;,
 -0.310107;-0.177392;-0.360163;,
 0.310107;0.479345;-0.360158;,
 -0.310107;0.479345;-0.360163;,
 -0.574008;0.212372;-0.001338;,
 0.574008;0.212372;-0.001320;,
 -0.156791;-0.939106;0.576335;,
 0.219651;-0.285279;0.609443;,
 0.199523;-0.484241;0.588836;,
 -0.345584;-0.452042;-0.221313;,
 0.345584;-0.452042;-0.221313;,
 0.739878;-0.174845;-0.051258;,
 -0.199523;-0.484241;0.588836;,
 -0.427168;-0.174707;-0.995396;,
 -0.739877;-0.174845;-0.051258;,
 0.427168;-0.174707;-0.995396;,
 -0.219651;-0.285279;0.609443;,
 -0.388723;0.214470;-1.275384;,
 0.156791;-0.939106;0.576335;,
 -0.667451;0.214914;-0.004727;,
 0.388723;0.352682;-1.275384;,
 -0.245503;0.483724;-0.898825;,
 -0.360589;0.525542;-0.421830;,
 -0.360589;0.663754;-0.421830;,
 0.245503;0.621936;-0.898825;,
 0.245503;0.483724;-0.898825;,
 0.360589;0.525542;-0.421830;,
 -0.245503;0.621936;-0.898825;,
 0.360589;0.663754;-0.421830;,
 0.388723;0.214470;-1.275384;,
 -0.139397;-0.943210;0.121841;,
 0.667451;0.214914;-0.004727;,
 0.139397;-0.943210;0.121841;,
 -0.388723;0.352682;-1.275384;;

 72;
 3;47,53,37;,
 3;23,46,36;,
 3;177,172,169;,
 3;165,176,168;,
 3;101,82,91;,
 3;118,100,90;,
 3;19,40,35;,
 3;18,9,106;,
 3;44,39,17;,
 3;60,43,16;,
 3;133,99,117;,
 3;12,132,116;,
 3;11,115,113;,
 3;5,10,112;,
 3;98,122,129;,
 3;81,97,128;,
 3;131,212,4;,
 3;69,130,3;,
 3;29,45,22;,
 3;42,28,21;,
 3;89,80,65;,
 3;27,56,52;,
 3;205,26,51;,
 3;77,15,86;,
 3;95,76,85;,
 3;20,34,38;,
 3;41,210,207;,
 3;68,121,96;,
 3;188,67,194;,
 3;75,64,50;,
 3;111,84,105;,
 3;74,94,88;,
 3;104,127,120;,
 3;110,103,119;,
 3;2,73,55;,
 3;25,1,54;,
 3;66,214,109;,
 3;161,156,164;,
 3;167,160,163;,
 3;59,14,72;,
 3;0,58,71;,
 3;24,206,57;,
 3;215,209,202;,
 3;108,114,93;,
 3;83,107,92;,
 3;102,8,126;,
 3;87,195,191;,
 3;175,79,125;,
 3;171,174,124;,
 3;139,170,123;,
 3;7,138,189;,
 3;173,162,144;,
 3;143,63,78;,
 3;178,142,198;,
 3;150,49,62;,
 3;141,149,61;,
 3;137,6,33;,
 3;153,136,32;,
 3;148,152,31;,
 3;48,147,30;,
 3;166,179,135;,
 3;159,151,146;,
 3;155,158,145;,
 3;154,185,140;,
 3;181,183,186;,
 3;157,180,134;,
 3;192,190,200;,
 3;196,201,70;,
 3;193,197,13;,
 3;204,203,199;,
 3;208,213,211;,
 3;187,184,182;;

 MeshMaterialList {
  7;
  72;
  0,
  0,
  1,
  1,
  2,
  2,
  2,
  2,
  2,
  2,
  2,
  2,
  3,
  3,
  4,
  4,
  4,
  4,
  5,
  5,
  2,
  2,
  2,
  3,
  3,
  2,
  2,
  4,
  4,
  2,
  2,
  2,
  2,
  2,
  2,
  2,
  2,
  1,
  1,
  3,
  3,
  3,
  3,
  3,
  3,
  2,
  2,
  6,
  6,
  6,
  6,
  1,
  6,
  6,
  6,
  6,
  6,
  6,
  6,
  6,
  1,
  1,
  1,
  1,
  1,
  1,
  2,
  2,
  2,
  2,
  2,
  1;
Material {
 1.000000;1.000000;1.000000;1.000000;;
 0.000000;
 1.000000;1.000000;1.000000;;
 0.0; 0.0; 0.0;;
 TextureFilename {
  "utl02.ppm";
 }
 }
Material {
 1.000000;1.000000;1.000000;1.000000;;
 0.000000;
 1.000000;1.000000;1.000000;;
 0.0; 0.0; 0.0;;
 TextureFilename {
  "utl02.ppm";
 }
 }
Material {
 1.000000;1.000000;1.000000;1.000000;;
 0.000000;
 1.000000;1.000000;1.000000;;
 0.0; 0.0; 0.0;;
 TextureFilename {
  "utl02.ppm";
 }
 }
Material {
 1.000000;1.000000;1.000000;1.000000;;
 0.000000;
 1.000000;1.000000;1.000000;;
 0.0; 0.0; 0.0;;
 TextureFilename {
  "utl02.ppm";
 }
 }
Material {
 1.000000;1.000000;1.000000;1.000000;;
 0.000000;
 1.000000;1.000000;1.000000;;
 0.0; 0.0; 0.0;;
 TextureFilename {
  "utl02.ppm";
 }
 }
Material {
 1.000000;1.000000;1.000000;1.000000;;
 0.000000;
 1.000000;1.000000;1.000000;;
 0.0; 0.0; 0.0;;
 TextureFilename {
  "utl02.ppm";
 }
 }
Material {
 1.000000;1.000000;1.000000;1.000000;;
 0.000000;
 1.000000;1.000000;1.000000;;
 0.0; 0.0; 0.0;;
 TextureFilename {
  "utl02.ppm";
 }
 }
}
 MeshNormals {
  216;
  -0.799212;0.391074;-0.456423;,
  -0.799212;0.391074;-0.456423;,
  -0.799212;0.391074;-0.456423;,
  0.259676;-0.929310;-0.262585;,
  0.259676;-0.929310;-0.262585;,
  0.259676;-0.929310;-0.262585;,
  0.697545;0.615526;0.366821;,
  0.697545;0.615526;0.366821;,
  0.697545;0.615526;0.366821;,
  0.697545;0.615526;0.366821;,
  -0.263186;-0.804846;-0.531937;,
  -0.263186;-0.804846;-0.531937;,
  -0.263186;-0.804846;-0.531937;,
  0.929902;0.134481;-0.342342;,
  0.929902;0.134481;-0.342342;,
  0.929902;0.134481;-0.342342;,
  0.929902;0.134481;-0.342342;,
  0.929902;0.134481;-0.342342;,
  0.929902;0.134481;-0.342342;,
  0.929902;0.134481;-0.342342;,
  0.692757;0.709912;0.126935;,
  0.692757;0.709912;0.126935;,
  0.692757;0.709912;0.126935;,
  0.692757;0.709912;0.126935;,
  -0.595638;0.745492;-0.299095;,
  -0.595638;0.745492;-0.299095;,
  -0.595638;0.745492;-0.299095;,
  -0.595638;0.745492;-0.299095;,
  -0.595638;0.745492;-0.299095;,
  -0.595638;0.745492;-0.299095;,
  0.377381;0.701964;0.604011;,
  0.377381;0.701964;0.604011;,
  0.377381;0.701964;0.604011;,
  0.377381;0.701964;0.604011;,
  0.377381;0.701964;0.604011;,
  0.377381;0.701964;0.604011;,
  0.377381;0.701964;0.604011;,
  0.377381;0.701964;0.604011;,
  0.977787;0.187706;-0.093270;,
  0.977787;0.187706;-0.093270;,
  0.977787;0.187706;-0.093270;,
  0.843213;0.534628;-0.056253;,
  0.843213;0.534628;-0.056253;,
  0.843213;0.534628;-0.056253;,
  0.843213;0.534628;-0.056253;,
  -0.445871;0.456912;0.769695;,
  -0.445871;0.456912;0.769695;,
  -0.445871;0.456912;0.769695;,
  -0.728978;0.616086;0.298379;,
  -0.728978;0.616086;0.298379;,
  -0.728978;0.616086;0.298379;,
  -0.728978;0.616086;0.298379;,
  -0.728978;0.616086;0.298379;,
  -0.728978;0.616086;0.298379;,
  -0.979347;0.189997;0.069138;,
  -0.979347;0.189997;0.069138;,
  -0.979347;0.189997;0.069138;,
  0.245705;0.480917;-0.841634;,
  0.245705;0.480917;-0.841634;,
  0.245705;0.480917;-0.841634;,
  0.245705;0.480917;-0.841634;,
  -0.587051;0.684236;0.432658;,
  -0.587051;0.684236;0.432658;,
  -0.587051;0.684236;0.432658;,
  -0.587051;0.684236;0.432658;,
  -0.587051;0.684236;0.432658;,
  0.586616;-0.476511;0.654843;,
  0.586616;-0.476511;0.654843;,
  0.586616;-0.476511;0.654843;,
  0.586616;-0.476511;0.654843;,
  -0.730460;0.033243;-0.682146;,
  -0.730460;0.033243;-0.682146;,
  -0.730460;0.033243;-0.682146;,
  -0.730460;0.033243;-0.682146;,
  -0.730460;0.033243;-0.682146;,
  -0.730460;0.033243;-0.682146;,
  -0.730460;0.033243;-0.682146;,
  -0.730460;0.033243;-0.682146;,
  -0.212559;0.647464;0.731853;,
  -0.212559;0.647464;0.731853;,
  -0.212559;0.647464;0.731853;,
  -0.212559;0.647464;0.731853;,
  -0.212559;0.647464;0.731853;,
  0.372635;-0.715189;-0.591310;,
  0.372635;-0.715189;-0.591310;,
  0.372635;-0.715189;-0.591310;,
  0.372635;-0.715189;-0.591310;,
  -0.940068;-0.321435;0.113805;,
  -0.940068;-0.321435;0.113805;,
  -0.940068;-0.321435;0.113805;,
  -0.940068;-0.321435;0.113805;,
  -0.940068;-0.321435;0.113805;,
  -0.371119;-0.797213;-0.476154;,
  -0.371119;-0.797213;-0.476154;,
  -0.371119;-0.797213;-0.476154;,
  -0.371119;-0.797213;-0.476154;,
  -0.421041;-0.240841;0.874483;,
  -0.421041;-0.240841;0.874483;,
  -0.421041;-0.240841;0.874483;,
  -0.421041;-0.240841;0.874483;,
  -0.421041;-0.240841;0.874483;,
  -0.421041;-0.240841;0.874483;,
  0.940068;-0.321435;0.113805;,
  0.940068;-0.321435;0.113805;,
  0.940068;-0.321435;0.113805;,
  0.940068;-0.321435;0.113805;,
  0.940068;-0.321435;0.113805;,
  0.479613;-0.799684;-0.361216;,
  0.479613;-0.799684;-0.361216;,
  0.479613;-0.799684;-0.361216;,
  0.479613;-0.799684;-0.361216;,
  0.479613;-0.799684;-0.361216;,
  0.479613;-0.799684;-0.361216;,
  0.479613;-0.799684;-0.361216;,
  -0.629988;-0.739577;-0.236942;,
  -0.629988;-0.739577;-0.236942;,
  -0.629988;-0.739577;-0.236942;,
  -0.629988;-0.739577;-0.236942;,
  -0.629988;-0.739577;-0.236942;,
  0.602879;-0.310997;0.734722;,
  0.602879;-0.310997;0.734722;,
  0.602879;-0.310997;0.734722;,
  0.602879;-0.310997;0.734722;,
  0.169489;0.681192;0.712216;,
  0.169489;0.681192;0.712216;,
  0.169489;0.681192;0.712216;,
  0.169489;0.681192;0.712216;,
  0.169489;0.681192;0.712216;,
  0.169489;0.681192;0.712216;,
  0.169489;0.681192;0.712216;,
  -0.568266;-0.748217;0.342411;,
  -0.568266;-0.748217;0.342411;,
  -0.568266;-0.748217;0.342411;,
  -0.568266;-0.748217;0.342411;,
  -0.583028;0.681909;0.441677;,
  -0.583028;0.681909;0.441677;,
  -0.583028;0.681909;0.441677;,
  -0.583028;0.681909;0.441677;,
  -0.583028;0.681909;0.441677;,
  -0.583028;0.681909;0.441677;,
  0.674997;0.626574;0.389595;,
  0.674997;0.626574;0.389595;,
  0.674997;0.626574;0.389595;,
  0.674997;0.626574;0.389595;,
  0.674997;0.626574;0.389595;,
  0.135065;0.535597;0.833602;,
  0.135065;0.535597;0.833602;,
  0.135065;0.535597;0.833602;,
  0.135065;0.535597;0.833602;,
  0.135065;0.535597;0.833602;,
  0.135065;0.535597;0.833602;,
  -0.243650;0.482862;0.841118;,
  -0.243650;0.482862;0.841118;,
  -0.243650;0.482862;0.841118;,
  0.523043;0.335574;0.783464;,
  0.523043;0.335574;0.783464;,
  0.523043;0.335574;0.783464;,
  -0.343815;0.356955;0.868547;,
  -0.343815;0.356955;0.868547;,
  -0.343815;0.356955;0.868547;,
  -0.343815;0.356955;0.868547;,
  -0.343815;0.356955;0.868547;,
  0.487118;0.829996;0.271703;,
  0.487118;0.829996;0.271703;,
  0.487118;0.829996;0.271703;,
  0.487118;0.829996;0.271703;,
  -0.479323;0.876462;-0.045426;,
  -0.479323;0.876462;-0.045426;,
  -0.479323;0.876462;-0.045426;,
  -0.479323;0.876462;-0.045426;,
  -0.468017;0.848254;-0.247841;,
  -0.468017;0.848254;-0.247841;,
  -0.468017;0.848254;-0.247841;,
  0.305386;0.903149;-0.301765;,
  0.305386;0.903149;-0.301765;,
  0.305386;0.903149;-0.301765;,
  0.305386;0.903149;-0.301765;,
  0.305386;0.903149;-0.301765;,
  0.305386;0.903149;-0.301765;,
  -0.468017;0.848254;-0.247841;,
  -0.479323;0.876462;-0.045426;,
  0.487118;0.829996;0.271703;,
  -0.343815;0.356955;0.868547;,
  0.523043;0.335574;0.783464;,
  -0.243650;0.482862;0.841118;,
  0.135065;0.535597;0.833602;,
  0.674997;0.626574;0.389595;,
  -0.583028;0.681909;0.441677;,
  -0.568266;-0.748217;0.342411;,
  0.169489;0.681192;0.712216;,
  0.602879;-0.310997;0.734722;,
  -0.629988;-0.739577;-0.236942;,
  0.479613;-0.799684;-0.361216;,
  0.940068;-0.321435;0.113805;,
  -0.421041;-0.240841;0.874483;,
  -0.371119;-0.797213;-0.476154;,
  -0.940068;-0.321435;0.113805;,
  0.372635;-0.715189;-0.591310;,
  -0.212559;0.647464;0.731853;,
  -0.730460;0.033243;-0.682146;,
  0.586616;-0.476511;0.654843;,
  -0.587051;0.684236;0.432658;,
  0.245705;0.480917;-0.841634;,
  -0.979347;0.189997;0.069138;,
  -0.728978;0.616086;0.298379;,
  -0.445871;0.456912;0.769695;,
  0.843213;0.534628;-0.056253;,
  0.977787;0.187706;-0.093270;,
  0.377381;0.701964;0.604011;,
  -0.595638;0.745492;-0.299095;,
  0.692757;0.709912;0.126935;,
  0.929902;0.134481;-0.342342;,
  -0.263186;-0.804846;-0.531937;,
  0.697545;0.615526;0.366821;,
  0.259676;-0.929310;-0.262585;,
  -0.799212;0.391074;-0.456423;;

  72;
  3;47,53,37;,
  3;23,46,36;,
  3;177,172,169;,
  3;165,176,168;,
  3;101,82,91;,
  3;118,100,90;,
  3;19,40,35;,
  3;18,9,106;,
  3;44,39,17;,
  3;60,43,16;,
  3;133,99,117;,
  3;12,132,116;,
  3;11,115,113;,
  3;5,10,112;,
  3;98,122,129;,
  3;81,97,128;,
  3;131,212,4;,
  3;69,130,3;,
  3;29,45,22;,
  3;42,28,21;,
  3;89,80,65;,
  3;27,56,52;,
  3;205,26,51;,
  3;77,15,86;,
  3;95,76,85;,
  3;20,34,38;,
  3;41,210,207;,
  3;68,121,96;,
  3;188,67,194;,
  3;75,64,50;,
  3;111,84,105;,
  3;74,94,88;,
  3;104,127,120;,
  3;110,103,119;,
  3;2,73,55;,
  3;25,1,54;,
  3;66,214,109;,
  3;161,156,164;,
  3;167,160,163;,
  3;59,14,72;,
  3;0,58,71;,
  3;24,206,57;,
  3;215,209,202;,
  3;108,114,93;,
  3;83,107,92;,
  3;102,8,126;,
  3;87,195,191;,
  3;175,79,125;,
  3;171,174,124;,
  3;139,170,123;,
  3;7,138,189;,
  3;173,162,144;,
  3;143,63,78;,
  3;178,142,198;,
  3;150,49,62;,
  3;141,149,61;,
  3;137,6,33;,
  3;153,136,32;,
  3;148,152,31;,
  3;48,147,30;,
  3;166,179,135;,
  3;159,151,146;,
  3;155,158,145;,
  3;154,185,140;,
  3;181,183,186;,
  3;157,180,134;,
  3;192,190,200;,
  3;196,201,70;,
  3;193,197,13;,
  3;204,203,199;,
  3;208,213,211;,
  3;187,184,182;;
 }
 MeshTextureCoords { 
 216;
 0.019481;0.107071;,
 0.648438;0.125899;,
 0.648438;0.125899;,
 0.193881;0.032422;,
 0.193881;0.032422;,
 0.112423;0.518511;,
 0.478398;0.961737;,
 0.478398;0.961737;,
 0.416698;0.176468;,
 0.416698;0.176468;,
 0.063359;0.518511;,
 0.063359;0.518511;,
 0.393615;0.601563;,
 0.648437;0.176631;,
 0.156301;0.150953;,
 0.156301;0.150953;,
 0.648437;0.176631;,
 0.648437;0.176631;,
 0.648437;0.176631;,
 0.648437;0.176631;,
 0.492768;0.011719;,
 0.359139;0.228200;,
 0.359139;0.228200;,
 0.148637;0.023848;,
 0.044685;0.021584;,
 0.579762;0.027068;,
 0.579762;0.027068;,
 0.579762;0.027068;,
 0.285671;0.011105;,
 0.285671;0.011105;,
 0.585639;0.971066;,
 0.585639;0.971066;,
 0.585639;0.971066;,
 0.585639;0.971066;,
 0.492768;0.062450;,
 0.492768;0.062450;,
 0.155068;0.069709;,
 0.155068;0.069709;,
 0.579762;0.077800;,
 0.579762;0.077800;,
 0.579762;0.077800;,
 0.579762;0.027068;,
 0.345188;0.011105;,
 0.579762;0.027068;,
 0.579762;0.027068;,
 0.271721;0.228200;,
 0.029741;0.022556;,
 0.029741;0.022556;,
 0.585639;0.971066;,
 0.585639;0.971066;,
 0.492768;0.062450;,
 0.492768;0.062450;,
 0.492768;0.062450;,
 0.019451;0.069709;,
 0.579762;0.077800;,
 0.579762;0.077800;,
 0.579762;0.077800;,
 0.156301;0.107071;,
 0.156301;0.107071;,
 0.156301;0.107071;,
 0.648437;0.125899;,
 0.478398;0.961737;,
 0.478398;0.961737;,
 0.478398;0.961737;,
 0.416698;0.176468;,
 0.416698;0.176468;,
 0.310726;0.600056;,
 0.191671;0.147232;,
 0.191671;0.147232;,
 0.191671;0.147232;,
 0.648438;0.176631;,
 0.019481;0.150953;,
 0.019481;0.150953;,
 0.648438;0.176631;,
 0.648438;0.176631;,
 0.648438;0.176631;,
 0.019481;0.150953;,
 0.019481;0.150953;,
 0.314948;0.963790;,
 0.314948;0.963790;,
 0.304688;0.360066;,
 0.245359;0.277934;,
 0.304688;0.360066;,
 0.163066;0.274515;,
 0.597374;0.319480;,
 0.163066;0.274515;,
 0.163066;0.274515;,
 0.425185;0.319531;,
 0.425185;0.319531;,
 0.425185;0.319531;,
 0.425185;0.319531;,
 0.425185;0.319531;,
 0.012715;0.274515;,
 0.012715;0.274515;,
 0.597374;0.319480;,
 0.012715;0.274515;,
 0.242473;0.213781;,
 0.242473;0.213781;,
 0.242473;0.213781;,
 0.308446;0.433096;,
 0.308446;0.433096;,
 0.308446;0.433096;,
 0.425185;0.319531;,
 0.425185;0.319531;,
 0.425185;0.319531;,
 0.425185;0.319531;,
 0.425185;0.319531;,
 0.148709;0.362567;,
 0.148709;0.362567;,
 0.456199;0.421277;,
 0.456199;0.421277;,
 0.456199;0.421277;,
 0.148709;0.362567;,
 0.148709;0.362567;,
 0.027073;0.362567;,
 0.027073;0.362567;,
 0.456199;0.421277;,
 0.456199;0.421277;,
 0.456199;0.421277;,
 0.308446;0.433096;,
 0.308446;0.433096;,
 0.185261;0.213781;,
 0.185261;0.213781;,
 0.314948;0.963790;,
 0.314948;0.963790;,
 0.314948;0.963790;,
 0.304688;0.360066;,
 0.304688;0.360066;,
 0.182375;0.277934;,
 0.182375;0.277934;,
 0.236630;0.147232;,
 0.236630;0.147232;,
 0.310726;0.600056;,
 0.310726;0.600056;,
 0.989961;0.217118;,
 0.989961;0.217118;,
 0.477521;0.961662;,
 0.477521;0.961662;,
 0.477521;0.961662;,
 0.477521;0.961662;,
 0.746368;0.217111;,
 0.477524;0.961668;,
 0.477524;0.961668;,
 0.477524;0.961668;,
 0.746368;0.217111;,
 0.802364;0.012624;,
 0.802364;0.012624;,
 0.569749;0.969787;,
 0.569749;0.969787;,
 0.569749;0.969787;,
 0.569749;0.969787;,
 0.933964;0.012626;,
 0.569748;0.969786;,
 0.569748;0.969786;,
 0.802364;0.202550;,
 0.802364;0.202550;,
 0.802364;0.202550;,
 0.933964;0.202552;,
 0.933964;0.202552;,
 0.933964;0.202552;,
 0.933964;0.202552;,
 0.933964;0.202552;,
 0.824268;0.444339;,
 0.824268;0.444339;,
 0.824268;0.444339;,
 0.824268;0.444339;,
 0.912060;0.444345;,
 0.912060;0.444345;,
 0.912060;0.444345;,
 0.912060;0.444345;,
 0.323244;0.992363;,
 0.323244;0.992363;,
 0.908246;0.559450;,
 0.828082;0.559450;,
 0.323244;0.992363;,
 0.323244;0.992363;,
 0.828082;0.559450;,
 0.828082;0.559450;,
 0.323244;0.992363;,
 0.908246;0.559450;,
 0.912060;0.444345;,
 0.824268;0.444339;,
 0.933964;0.202552;,
 0.802364;0.202550;,
 0.933964;0.012626;,
 0.802364;0.012624;,
 0.746368;0.217111;,
 0.989961;0.217118;,
 0.236630;0.147232;,
 0.314948;0.963790;,
 0.308446;0.433096;,
 0.456199;0.421277;,
 0.456199;0.421277;,
 0.425185;0.319531;,
 0.242473;0.213781;,
 0.597374;0.319480;,
 0.425185;0.319531;,
 0.597374;0.319480;,
 0.314948;0.963790;,
 0.648438;0.176631;,
 0.310726;0.600056;,
 0.416698;0.176468;,
 0.156301;0.107071;,
 0.579762;0.077800;,
 0.492768;0.062450;,
 0.492768;0.011719;,
 0.131096;0.021584;,
 0.579762;0.077800;,
 0.492768;0.062450;,
 0.044685;0.021584;,
 0.492768;0.011719;,
 0.648437;0.176631;,
 0.233853;0.032422;,
 0.416698;0.176468;,
 0.393615;0.601563;,
 0.019481;0.107071;;
 }
}
Frame frm-bfuselg4 {
  FrameTransformMatrix {
1.000000,0.000000,0.000000,0.000000,
0.000000,1.000000,0.000000,0.000000,
0.000000,0.000000,1.000000,0.000000,
-0.000000,-0.322545,-0.361596,1.000000;;
 }
Mesh bfuselg4 {
 42;
 0.265745;-0.101958;-0.365957;,
 0.265745;-0.101958;-0.365957;,
 0.265745;-0.101958;-0.365957;,
 0.292028;0.101958;-0.505806;,
 0.292028;0.101958;-0.505806;,
 0.531490;-0.101958;0.094326;,
 0.531490;-0.101958;0.094326;,
 0.531490;-0.101958;0.094326;,
 0.531490;-0.101958;0.094326;,
 0.531490;-0.101958;0.094326;,
 0.531490;-0.101958;0.094326;,
 0.584055;0.101958;0.000000;,
 0.584055;0.101958;0.000000;,
 0.265745;-0.101958;0.554610;,
 0.356273;0.101958;0.505806;,
 -0.265745;-0.101958;0.554610;,
 -0.265745;-0.101958;0.554610;,
 -0.265745;-0.101958;0.554610;,
 -0.531490;-0.101958;0.094326;,
 -0.531490;-0.101958;0.094326;,
 -0.531490;-0.101958;0.094326;,
 -0.531490;-0.101958;0.094326;,
 -0.584055;0.101958;-0.000000;,
 -0.584055;0.101958;-0.000000;,
 -0.265745;-0.101958;-0.365957;,
 -0.265745;-0.101958;-0.365957;,
 -0.265745;-0.101958;-0.365957;,
 -0.265745;-0.101958;-0.365957;,
 -0.292027;0.101958;-0.505806;,
 -0.292027;0.101958;-0.505806;,
 -0.292027;0.101958;-0.505806;,
 -0.265745;-0.101958;-0.365957;,
 -0.584055;0.101958;-0.000000;,
 -0.531490;-0.101958;0.094326;,
 -0.356273;0.101958;0.505806;,
 -0.265745;-0.101958;0.554610;,
 0.356273;0.101958;0.505806;,
 0.265745;-0.101958;0.554610;,
 0.584055;0.101958;0.000000;,
 0.531490;-0.101958;0.094326;,
 0.292028;0.101958;-0.505806;,
 0.265745;-0.101958;-0.365957;;

 14;
 3;29,27,21;,
 3;23,28,20;,
 3;14,13,10;,
 3;12,36,9;,
 3;11,8,2;,
 3;4,38,1;,
 3;22,19,17;,
 3;34,32,16;,
 3;3,0,26;,
 3;30,40,25;,
 3;7,18,24;,
 3;6,37,15;,
 3;31,41,5;,
 3;35,33,39;;

 MeshMaterialList {
  2;
  14;
  0,
  0,
  0,
  0,
  0,
  0,
  0,
  0,
  0,
  0,
  1,
  1,
  1,
  1;
Material {
 1.000000;1.000000;1.000000;1.000000;;
 0.000000;
 1.000000;1.000000;1.000000;;
 0.0; 0.0; 0.0;;
 TextureFilename {
  "utl02.ppm";
 }
 }
Material {
 1.000000;1.000000;1.000000;1.000000;;
 0.000000;
 1.000000;1.000000;1.000000;;
 0.0; 0.0; 0.0;;
 TextureFilename {
  "utl02.ppm";
 }
 }
}
 MeshNormals {
  42;
  0.470659;-0.714329;-0.517894;,
  0.470659;-0.714329;-0.517894;,
  0.470659;-0.714329;-0.517894;,
  0.289089;-0.566497;-0.771692;,
  0.289089;-0.566497;-0.771692;,
  0.508139;-0.856786;0.087818;,
  0.508139;-0.856786;0.087818;,
  0.508139;-0.856786;0.087818;,
  0.508139;-0.856786;0.087818;,
  0.508139;-0.856786;0.087818;,
  0.508139;-0.856786;0.087818;,
  0.927091;-0.325205;-0.186399;,
  0.927091;-0.325205;-0.186399;,
  0.528212;-0.792458;0.304963;,
  0.880128;-0.151569;0.449890;,
  -0.581818;-0.756428;0.298839;,
  -0.581818;-0.756428;0.298839;,
  -0.581818;-0.756428;0.298839;,
  -0.650884;-0.751261;-0.109348;,
  -0.650884;-0.751261;-0.109348;,
  -0.650884;-0.751261;-0.109348;,
  -0.650884;-0.751261;-0.109348;,
  -0.950441;-0.261966;0.167435;,
  -0.950441;-0.261966;0.167435;,
  -0.187835;-0.844576;-0.501407;,
  -0.187835;-0.844576;-0.501407;,
  -0.187835;-0.844576;-0.501407;,
  -0.187835;-0.844576;-0.501407;,
  -0.578177;-0.510838;-0.636204;,
  -0.578177;-0.510838;-0.636204;,
  -0.578177;-0.510838;-0.636204;,
  -0.187835;-0.844576;-0.501407;,
  -0.950441;-0.261966;0.167435;,
  -0.650884;-0.751261;-0.109348;,
  -0.871773;-0.293063;0.392588;,
  -0.581818;-0.756428;0.298839;,
  0.880128;-0.151569;0.449890;,
  0.528212;-0.792458;0.304963;,
  0.927091;-0.325205;-0.186399;,
  0.508139;-0.856786;0.087818;,
  0.289089;-0.566497;-0.771692;,
  0.470659;-0.714329;-0.517894;;

  14;
  3;29,27,21;,
  3;23,28,20;,
  3;14,13,10;,
  3;12,36,9;,
  3;11,8,2;,
  3;4,38,1;,
  3;22,19,17;,
  3;34,32,16;,
  3;3,0,26;,
  3;30,40,25;,
  3;7,18,24;,
  3;6,37,15;,
  3;31,41,5;,
  3;35,33,39;;
 }
 MeshTextureCoords { 
 42;
 0.549361;1.000000;,
 0.549361;1.000000;,
 0.549361;1.000000;,
 0.585938;0.941406;,
 0.585938;0.941406;,
 0.695121;0.484835;,
 0.695121;0.484835;,
 0.695121;0.484835;,
 0.428977;1.000000;,
 0.428977;1.000000;,
 0.428977;1.000000;,
 0.453648;0.941406;,
 0.453648;0.941406;,
 0.308594;1.000000;,
 0.321358;0.941406;,
 0.564718;0.587711;,
 0.308594;1.000000;,
 0.308594;1.000000;,
 0.521251;0.484835;,
 0.428977;1.000000;,
 0.428977;1.000000;,
 0.428977;1.000000;,
 0.453648;0.941406;,
 0.453648;0.941406;,
 0.567036;0.398834;,
 0.549361;1.000000;,
 0.549361;1.000000;,
 0.549361;1.000000;,
 0.585938;0.941406;,
 0.585938;0.941406;,
 0.585938;0.941406;,
 0.567036;0.398834;,
 0.453648;0.941406;,
 0.521251;0.484835;,
 0.321358;0.941406;,
 0.564718;0.587711;,
 0.321358;0.941406;,
 0.651654;0.587711;,
 0.453648;0.941406;,
 0.695121;0.484835;,
 0.585938;0.941406;,
 0.651654;0.381959;;
 }
}
}
Frame frm-bfuselg1 {
  FrameTransformMatrix {
1.000000,0.000000,0.000000,0.000000,
0.000000,1.000000,0.000000,0.000000,
0.000000,0.000000,1.000000,0.000000,
-0.000000,-0.693578,-0.064105,1.000000;;
 }
Mesh bfuselg1 {
 54;
 0.193994;-0.101958;-0.241681;,
 0.193994;-0.101958;-0.241681;,
 0.193994;-0.101958;-0.241681;,
 0.213180;0.101958;-0.369239;,
 0.213180;0.101958;-0.369239;,
 0.213180;0.101958;-0.369239;,
 0.213180;0.101958;-0.369239;,
 0.387988;-0.101958;0.094326;,
 0.387988;-0.101958;0.094326;,
 0.387988;-0.101958;0.094326;,
 0.387988;-0.101958;0.094326;,
 0.387988;-0.101958;0.094326;,
 0.387988;-0.101958;0.094326;,
 0.426360;0.101958;0.000000;,
 0.426360;0.101958;0.000000;,
 0.426360;0.101958;0.000000;,
 0.426360;0.101958;0.000000;,
 0.193994;-0.101958;0.430334;,
 0.213180;0.101958;0.369239;,
 0.213180;0.101958;0.369239;,
 0.213180;0.101958;0.369239;,
 -0.193994;-0.101958;0.430334;,
 -0.193994;-0.101958;0.430334;,
 -0.193994;-0.101958;0.430334;,
 -0.213180;0.101958;0.369239;,
 -0.387988;-0.101958;0.094326;,
 -0.387988;-0.101958;0.094326;,
 -0.387988;-0.101958;0.094326;,
 -0.387988;-0.101958;0.094326;,
 -0.426360;0.101958;-0.000000;,
 -0.426360;0.101958;-0.000000;,
 -0.426360;0.101958;-0.000000;,
 -0.426360;0.101958;-0.000000;,
 -0.426360;0.101958;-0.000000;,
 -0.426360;0.101958;-0.000000;,
 -0.193994;-0.101958;-0.241681;,
 -0.193994;-0.101958;-0.241681;,
 -0.193994;-0.101958;-0.241681;,
 -0.193994;-0.101958;-0.241681;,
 -0.213180;0.101958;-0.369239;,
 -0.213180;0.101958;-0.369239;,
 -0.213180;0.101958;-0.369239;,
 -0.213180;0.101958;-0.369239;,
 -0.193994;-0.101958;-0.241681;,
 -0.426360;0.101958;-0.000000;,
 -0.387988;-0.101958;0.094326;,
 -0.213180;0.101958;0.369239;,
 -0.193994;-0.101958;0.430334;,
 0.213180;0.101958;0.369239;,
 0.193994;-0.101958;0.430334;,
 0.426360;0.101958;0.000000;,
 0.387988;-0.101958;0.094326;,
 0.213180;0.101958;-0.369239;,
 0.193994;-0.101958;-0.241681;;

 18;
 3;41,38,28;,
 3;34,40,27;,
 3;20,17,12;,
 3;16,19,11;,
 3;15,10,2;,
 3;6,14,1;,
 3;33,26,23;,
 3;24,32,22;,
 3;5,0,37;,
 3;39,4,36;,
 3;31,46,18;,
 3;9,49,21;,
 3;35,53,8;,
 3;3,42,30;,
 3;48,13,29;,
 3;44,50,52;,
 3;7,25,43;,
 3;47,45,51;;

 MeshMaterialList {
  3;
  18;
  0,
  0,
  0,
  0,
  0,
  0,
  0,
  0,
  0,
  0,
  1,
  2,
  2,
  1,
  1,
  1,
  2,
  2;
Material {
 1.000000;1.000000;1.000000;1.000000;;
 0.000000;
 1.000000;1.000000;1.000000;;
 0.0; 0.0; 0.0;;
 TextureFilename {
  "utl02.ppm";
 }
 }
Material {
 1.000000;1.000000;1.000000;1.000000;;
 0.000000;
 1.000000;1.000000;1.000000;;
 0.0; 0.0; 0.0;;
 TextureFilename {
  "utl02.ppm";
 }
 }
Material {
 1.000000;1.000000;1.000000;1.000000;;
 0.000000;
 1.000000;1.000000;1.000000;;
 0.0; 0.0; 0.0;;
 TextureFilename {
  "utl02.ppm";
 }
 }
}
 MeshNormals {
  54;
  0.488438;-0.686238;-0.538986;,
  0.488438;-0.686238;-0.538986;,
  0.488438;-0.686238;-0.538986;,
  0.344708;0.162854;-0.924476;,
  0.344708;0.162854;-0.924476;,
  0.344708;0.162854;-0.924476;,
  0.344708;0.162854;-0.924476;,
  0.510843;-0.852943;0.107367;,
  0.510843;-0.852943;0.107367;,
  0.510843;-0.852943;0.107367;,
  0.510843;-0.852943;0.107367;,
  0.510843;-0.852943;0.107367;,
  0.510843;-0.852943;0.107367;,
  0.870034;0.469086;-0.151653;,
  0.870034;0.469086;-0.151653;,
  0.870034;0.469086;-0.151653;,
  0.870034;0.469086;-0.151653;,
  0.632899;-0.682583;0.365404;,
  0.591134;0.730808;0.341291;,
  0.591134;0.730808;0.341291;,
  0.591134;0.730808;0.341291;,
  -0.632899;-0.682583;0.365404;,
  -0.632899;-0.682583;0.365404;,
  -0.632899;-0.682583;0.365404;,
  -0.591134;0.730808;0.341291;,
  -0.675765;-0.727645;-0.117791;,
  -0.675765;-0.727645;-0.117791;,
  -0.675765;-0.727645;-0.117791;,
  -0.675765;-0.727645;-0.117791;,
  -0.554051;0.824298;0.116448;,
  -0.554051;0.824298;0.116448;,
  -0.554051;0.824298;0.116448;,
  -0.554051;0.824298;0.116448;,
  -0.554051;0.824298;0.116448;,
  -0.554051;0.824298;0.116448;,
  -0.195030;-0.829685;-0.523055;,
  -0.195030;-0.829685;-0.523055;,
  -0.195030;-0.829685;-0.523055;,
  -0.195030;-0.829685;-0.523055;,
  -0.664079;-0.148304;-0.732806;,
  -0.664079;-0.148304;-0.732806;,
  -0.664079;-0.148304;-0.732806;,
  -0.664079;-0.148304;-0.732806;,
  -0.195030;-0.829685;-0.523055;,
  -0.554051;0.824298;0.116448;,
  -0.675765;-0.727645;-0.117791;,
  -0.591134;0.730808;0.341291;,
  -0.632899;-0.682583;0.365404;,
  0.591134;0.730808;0.341291;,
  0.632899;-0.682583;0.365404;,
  0.870034;0.469086;-0.151653;,
  0.510843;-0.852943;0.107367;,
  0.344708;0.162854;-0.924476;,
  0.488438;-0.686238;-0.538986;;

  18;
  3;41,38,28;,
  3;34,40,27;,
  3;20,17,12;,
  3;16,19,11;,
  3;15,10,2;,
  3;6,14,1;,
  3;33,26,23;,
  3;24,32,22;,
  3;5,0,37;,
  3;39,4,36;,
  3;31,46,18;,
  3;9,49,21;,
  3;35,53,8;,
  3;3,42,30;,
  3;48,13,29;,
  3;44,50,52;,
  3;7,25,43;,
  3;47,45,51;;
 }
 MeshTextureCoords { 
 54;
 0.546617;1.000000;,
 0.546617;1.000000;,
 0.546617;1.000000;,
 0.669434;0.386719;,
 0.591797;0.941406;,
 0.591797;0.941406;,
 0.591797;0.941406;,
 0.268576;0.883394;,
 0.268576;0.883394;,
 0.268576;0.883394;,
 0.427605;1.000000;,
 0.427605;1.000000;,
 0.427605;1.000000;,
 0.714844;0.487736;,
 0.461015;0.941406;,
 0.461015;0.941406;,
 0.461015;0.941406;,
 0.308594;1.000000;,
 0.669434;0.588754;,
 0.330233;0.941406;,
 0.330233;0.941406;,
 0.138173;0.948292;,
 0.308594;1.000000;,
 0.308594;1.000000;,
 0.330233;0.941406;,
 0.094705;0.883394;,
 0.427605;1.000000;,
 0.427605;1.000000;,
 0.427605;1.000000;,
 0.533203;0.487736;,
 0.533203;0.487736;,
 0.533203;0.487736;,
 0.461015;0.941406;,
 0.461015;0.941406;,
 0.461015;0.941406;,
 0.138173;0.818496;,
 0.546617;1.000000;,
 0.546617;1.000000;,
 0.546617;1.000000;,
 0.591797;0.941406;,
 0.591797;0.941406;,
 0.591797;0.941406;,
 0.578613;0.386719;,
 0.138173;0.818496;,
 0.533203;0.487736;,
 0.094705;0.883394;,
 0.578613;0.588754;,
 0.138173;0.948292;,
 0.669434;0.588754;,
 0.225108;0.948292;,
 0.714844;0.487736;,
 0.268576;0.883394;,
 0.669434;0.386719;,
 0.225108;0.818496;;
 }
}
}
Frame frm-bfuselg2 {
  FrameTransformMatrix {
1.000000,0.000000,0.000000,0.000000,
0.000000,0.980060,0.198700,0.000000,
0.000000,-0.198700,0.980060,0.000000,
0.000000,-0.543137,0.283982,1.000000;;
 }
Mesh bfuselg2 {
 48;
 0.000000;-0.805933;0.187989;,
 0.000000;-0.805933;0.187989;,
 0.000000;-0.805933;0.187989;,
 0.000000;-1.119642;0.000000;,
 0.000000;-1.119642;0.000000;,
 0.000000;-1.119642;0.000000;,
 0.115527;0.001767;-0.013002;,
 0.093924;-0.539647;0.000000;,
 0.093924;-0.539647;0.000000;,
 0.093924;-0.539647;0.000000;,
 0.093924;-0.539647;0.000000;,
 0.093924;-0.539647;0.000000;,
 0.093924;-0.539647;0.000000;,
 0.093924;-0.539647;0.000000;,
 0.000000;-0.539647;0.080925;,
 0.000000;-0.539647;0.080925;,
 0.000000;-0.539647;0.080925;,
 -0.000000;0.032134;-0.181245;,
 -0.000000;0.032134;-0.181245;,
 -0.000000;0.032134;-0.181245;,
 -0.000000;-0.539647;-0.080925;,
 -0.000000;-0.539647;-0.080925;,
 -0.000000;-0.539647;-0.080925;,
 -0.000000;-0.805933;-0.187988;,
 -0.000000;-0.805933;-0.187988;,
 -0.000000;-0.805933;-0.187988;,
 -0.115527;0.001767;-0.013002;,
 -0.093924;-0.539647;0.000000;,
 -0.093924;-0.539647;0.000000;,
 -0.093924;-0.539647;0.000000;,
 -0.093924;-0.539647;0.000000;,
 -0.093924;-0.539647;0.000000;,
 -0.093924;-0.539647;0.000000;,
 -0.093924;-0.539647;0.000000;,
 0.000000;-0.036192;0.155241;,
 0.000000;-0.036192;0.155241;,
 0.000000;-0.036192;0.155241;,
 0.000000;-0.036192;0.155241;,
 -0.093924;-0.539647;0.000000;,
 -0.115527;0.001767;-0.013002;,
 -0.000000;-0.805933;-0.187988;,
 -0.000000;-0.539647;-0.080925;,
 -0.000000;0.032134;-0.181245;,
 0.000000;-0.539647;0.080925;,
 0.093924;-0.539647;0.000000;,
 0.115527;0.001767;-0.013002;,
 0.000000;-1.119642;0.000000;,
 0.000000;-0.805933;0.187989;;

 16;
 3;5,13,2;,
 3;12,22,19;,
 3;25,21,11;,
 3;4,24,10;,
 3;9,6,36;,
 3;16,8,35;,
 3;33,26,18;,
 3;20,32,17;,
 3;3,31,23;,
 3;30,15,34;,
 3;1,14,29;,
 3;46,0,28;,
 3;27,41,40;,
 3;7,43,47;,
 3;42,45,44;,
 3;37,39,38;;

 MeshMaterialList {
  1;
  16;
  0,
  0,
  0,
  0,
  0,
  0,
  0,
  0,
  0,
  0,
  0,
  0,
  0,
  0,
  0,
  0;
Material {
 1.000000;1.000000;1.000000;1.000000;;
 0.000000;
 1.000000;1.000000;1.000000;;
 0.0; 0.0; 0.0;;
 TextureFilename {
  "utl02.ppm";
 }
 }
}
 MeshNormals {
  48;
  0.000000;0.099456;0.995042;,
  0.000000;0.099456;0.995042;,
  0.000000;0.099456;0.995042;,
  0.000000;-1.000000;-0.000001;,
  0.000000;-1.000000;-0.000001;,
  0.000000;-1.000000;-0.000001;,
  0.999188;-0.039987;-0.004956;,
  0.999983;-0.005726;-0.001025;,
  0.999983;-0.005726;-0.001025;,
  0.999983;-0.005726;-0.001025;,
  0.999983;-0.005726;-0.001025;,
  0.999983;-0.005726;-0.001025;,
  0.999983;-0.005726;-0.001025;,
  0.999983;-0.005726;-0.001025;,
  0.000000;0.121086;0.992642;,
  0.000000;0.121086;0.992642;,
  0.000000;0.121086;0.992642;,
  0.000000;-0.133560;-0.991041;,
  0.000000;-0.133560;-0.991041;,
  0.000000;-0.133560;-0.991041;,
  -0.000000;0.107537;-0.994201;,
  -0.000000;0.107537;-0.994201;,
  -0.000000;0.107537;-0.994201;,
  -0.000000;0.099456;-0.995042;,
  -0.000000;0.099456;-0.995042;,
  -0.000000;0.099456;-0.995042;,
  -0.999188;-0.039987;-0.004956;,
  -0.999983;-0.005726;-0.001025;,
  -0.999983;-0.005726;-0.001025;,
  -0.999983;-0.005726;-0.001025;,
  -0.999983;-0.005726;-0.001025;,
  -0.999983;-0.005726;-0.001025;,
  -0.999983;-0.005726;-0.001025;,
  -0.999983;-0.005726;-0.001025;,
  0.000000;-0.098753;0.995112;,
  0.000000;-0.098753;0.995112;,
  0.000000;-0.098753;0.995112;,
  0.000000;-0.098753;0.995112;,
  -0.999983;-0.005726;-0.001025;,
  -0.999188;-0.039987;-0.004956;,
  -0.000000;0.099456;-0.995042;,
  -0.000000;0.107537;-0.994201;,
  0.000000;-0.133560;-0.991041;,
  0.000000;0.121086;0.992642;,
  0.999983;-0.005726;-0.001025;,
  0.999188;-0.039987;-0.004956;,
  0.000000;-1.000000;-0.000001;,
  0.000000;0.099456;0.995042;;

  16;
  3;5,13,2;,
  3;12,22,19;,
  3;25,21,11;,
  3;4,24,10;,
  3;9,6,36;,
  3;16,8,35;,
  3;33,26,18;,
  3;20,32,17;,
  3;3,31,23;,
  3;30,15,34;,
  3;1,14,29;,
  3;46,0,28;,
  3;27,41,40;,
  3;7,43,47;,
  3;42,45,44;,
  3;37,39,38;;
 }
 MeshTextureCoords { 
 48;
 0.781690;0.609375;,
 0.781690;0.609375;,
 0.781690;0.609375;,
 0.710938;0.701172;,
 0.710938;0.701172;,
 0.710938;0.701172;,
 0.963854;0.707521;,
 0.841747;0.701172;,
 0.841747;0.701172;,
 0.841747;0.701172;,
 0.841747;0.701172;,
 0.841747;0.701172;,
 0.841747;0.701172;,
 0.841747;0.701172;,
 0.841747;0.661655;,
 0.841747;0.661655;,
 0.841747;0.661655;,
 0.970703;0.789676;,
 0.970703;0.789676;,
 0.970703;0.789676;,
 0.841747;0.740689;,
 0.841747;0.740689;,
 0.841747;0.740689;,
 0.781690;0.792969;,
 0.781690;0.792969;,
 0.781690;0.792969;,
 0.963854;0.707521;,
 0.841747;0.701172;,
 0.841747;0.701172;,
 0.841747;0.701172;,
 0.841747;0.701172;,
 0.841747;0.701172;,
 0.841747;0.701172;,
 0.841747;0.701172;,
 0.955293;0.625366;,
 0.955293;0.625366;,
 0.955293;0.625366;,
 0.955293;0.625366;,
 0.841747;0.701172;,
 0.963854;0.707521;,
 0.781690;0.792969;,
 0.841747;0.740689;,
 0.970703;0.789676;,
 0.841747;0.661655;,
 0.841747;0.701172;,
 0.963854;0.707521;,
 0.710938;0.701172;,
 0.781690;0.609375;;
 }
}
Frame frm-bfusegl3 {
  FrameTransformMatrix {
1.000000,0.000000,0.000000,0.000000,
0.000000,-1.000000,0.000000,0.000000,
0.000000,-0.000000,-1.000000,0.000000,
0.000000,-0.714585,0.002628,1.000000;;
 }
Mesh bfusegl3 {
 24;
 0.000000;0.263461;-0.085888;,
 0.000000;0.263461;-0.085888;,
 0.000000;0.263461;-0.085888;,
 -0.000000;0.995596;0.000003;,
 -0.000000;0.995596;0.000003;,
 -0.000000;0.995596;0.000003;,
 0.063219;-0.001926;0.000002;,
 0.182147;0.339101;0.000002;,
 0.182147;0.339101;0.000002;,
 0.182147;0.339101;0.000002;,
 -0.000000;0.263461;0.085893;,
 -0.000000;0.263461;0.085893;,
 -0.000000;0.263461;0.085893;,
 -0.063219;-0.001926;0.000002;,
 -0.182147;0.339101;0.000002;,
 -0.182147;0.339101;0.000002;,
 -0.182147;0.339101;0.000002;,
 -0.182147;0.339101;0.000002;,
 -0.063219;-0.001926;0.000002;,
 -0.000000;0.263461;0.085893;,
 0.182147;0.339101;0.000002;,
 0.063219;-0.001926;0.000002;,
 -0.000000;0.995596;0.000003;,
 0.000000;0.263461;-0.085888;;

 8;
 3;5,2,16;,
 3;9,12,6;,
 3;4,11,8;,
 3;1,7,21;,
 3;10,15,13;,
 3;3,14,19;,
 3;22,20,0;,
 3;17,23,18;;

 MeshMaterialList {
  1;
  8;
  0,
  0,
  0,
  0,
  0,
  0,
  0,
  0;
Material {
 1.000000;1.000000;1.000000;1.000000;;
 0.000000;
 1.000000;1.000000;1.000000;;
 0.0; 0.0; 0.0;;
 TextureFilename {
  "utl02.ppm";
 }
 }
}
 MeshNormals {
  24;
  0.000000;-0.032930;-0.999458;,
  0.000000;-0.032930;-0.999458;,
  0.000000;-0.032930;-0.999458;,
  0.000000;1.000000;0.000001;,
  0.000000;1.000000;0.000001;,
  0.000000;1.000000;0.000001;,
  0.944230;-0.329288;-0.000001;,
  0.997702;-0.067748;-0.000000;,
  0.997702;-0.067748;-0.000000;,
  0.997702;-0.067748;-0.000000;,
  -0.000000;-0.032932;0.999458;,
  -0.000000;-0.032932;0.999458;,
  -0.000000;-0.032932;0.999458;,
  -0.944230;-0.329288;-0.000001;,
  -0.997702;-0.067748;-0.000000;,
  -0.997702;-0.067748;-0.000000;,
  -0.997702;-0.067748;-0.000000;,
  -0.997702;-0.067748;-0.000000;,
  -0.944230;-0.329288;-0.000001;,
  -0.000000;-0.032932;0.999458;,
  0.997702;-0.067748;-0.000000;,
  0.944230;-0.329288;-0.000001;,
  0.000000;1.000000;0.000001;,
  0.000000;-0.032930;-0.999458;;

  8;
  3;5,2,16;,
  3;9,12,6;,
  3;4,11,8;,
  3;1,7,21;,
  3;10,15,13;,
  3;3,14,19;,
  3;22,20,0;,
  3;17,23,18;;
 }
 MeshTextureCoords { 
 24;
 0.727346;0.884727;,
 0.727346;0.884727;,
 0.727346;0.884727;,
 0.539032;0.884727;,
 0.539032;0.884727;,
 0.539032;0.884727;,
 0.787109;0.848919;,
 0.700973;0.785156;,
 0.700973;0.785156;,
 0.700973;0.785156;,
 0.727346;0.884727;,
 0.727346;0.884727;,
 0.727346;0.884727;,
 0.787109;0.916706;,
 0.706303;0.983341;,
 0.706303;0.983341;,
 0.706303;0.983341;,
 0.706303;0.983341;,
 0.787109;0.916706;,
 0.727346;0.884727;,
 0.700973;0.785156;,
 0.787109;0.848919;,
 0.539032;0.884727;,
 0.727346;0.884727;;
 }
}
}
}
}
}
AnimationSet {
 Animation anim-rfuselg {
  {frm-rfuselg}
  AnimationKey {
  0;
  2;
  1; 4; 0.000000, -0.258819, 0.965926, -0.000000;;,
  90; 4; 0.000000, -0.258819, 0.965926, -0.000000;;;
  }
  AnimationKey {
  2;
  2;
  1; 3; -0.000000, -0.423402, 0.912362;;,
  90; 3; -0.000000, -0.423402, 0.912362;;;
  }
 }
 Animation anim-lfuselg {
  {frm-lfuselg}
  AnimationKey {
  0;
  2;
  1; 4; -0.000000, -0.258819, -0.965926, -0.000000;;,
  90; 4; -0.000000, -0.258819, -0.965926, -0.000000;;;
  }
  AnimationKey {
  2;
  2;
  1; 3; -0.000000, -0.424731, 0.912362;;,
  90; 3; -0.000000, -0.424731, 0.912362;;;
  }
 }
 Animation anim-tfuselg {
  {frm-tfuselg}
  AnimationKey {
  0;
  2;
  1; 4; 0.000000, 0.000000, 0.866025, 0.500000;;,
  90; 4; 0.000000, 0.000000, 0.866025, 0.500000;;;
  }
  AnimationKey {
  2;
  2;
  1; 3; -0.000000, 0.592086, 0.422254;;,
  90; 3; -0.000000, 0.592086, 0.422254;;;
  }
 }
 Animation anim-cube1 {
  {frm-cube1}
  AnimationKey {
  2;
  2;
  1; 3; 0.000000, 0.239317, 0.228439;;,
  90; 3; 0.000000, 0.239317, 0.228439;;;
  }
 }
 Animation anim-tetra1 {
  {frm-tetra1}
  AnimationKey {
  2;
  2;
  1; 3; 0.000000, 0.001913, -1.219826;;,
  90; 3; 0.000000, 0.001913, -1.219826;;;
  }
 }
 Animation anim-fuselg {
  {frm-fuselg}
  AnimationKey {
  0;
  2;
  1; 4; 0.000000, 0.000000, 1.000000, -0.000000;;,
  90; 4; 0.000000, 0.000000, 1.000000, -0.000000;;;
  }
 }
 Animation anim-bfuselg4 {
  {frm-bfuselg4}
  AnimationKey {
  2;
  2;
  1; 3; -0.000000, -0.322545, -0.361596;;,
  90; 3; -0.000000, -0.322545, -0.361596;;;
  }
 }
 Animation anim-bfuselg1 {
  {frm-bfuselg1}
  AnimationKey {
  2;
  2;
  1; 3; -0.000000, -0.693578, -0.064105;;,
  90; 3; -0.000000, -0.693578, -0.064105;;;
  }
 }
 Animation anim-bfuselg2 {
  {frm-bfuselg2}
  AnimationKey {
  0;
  2;
  1; 4; 0.995003, 0.099849, 0.000000, 0.000000;;,
  90; 4; 0.995003, 0.099849, 0.000000, 0.000000;;;
  }
  AnimationKey {
  2;
  2;
  1; 3; 0.000000, -0.543137, 0.283982;;,
  90; 3; 0.000000, -0.543137, 0.283982;;;
  }
 }
 Animation anim-bfusegl3 {
  {frm-bfusegl3}
  AnimationKey {
  0;
  2;
  1; 4; 0.000000, 1.000000, 0.000000, 0.000000;;,
  90; 4; 0.000000, 1.000000, 0.000000, 0.000000;;;
  }
  AnimationKey {
  2;
  2;
  1; 3; 0.000000, -0.714585, 0.002628;;,
  90; 3; 0.000000, -0.714585, 0.002628;;;
  }
 }
}
