xof 0302txt 0032
template Header {
 <3D82AB43-62DA-11cf-AB39-0020AF71E433>
 WORD major;
 WORD minor;
 DWORD flags;
}

template Vector {
 <3D82AB5E-62DA-11cf-AB39-0020AF71E433>
 FLOAT x;
 FLOAT y;
 FLOAT z;
}

template Coords2d {
 <F6F23F44-7686-11cf-8F52-0040333594A3>
 FLOAT u;
 FLOAT v;
}

template Matrix4x4 {
 <F6F23F45-7686-11cf-8F52-0040333594A3>
 array FLOAT matrix[16];
}

template ColorRGBA {
 <35FF44E0-6C7C-11cf-8F52-0040333594A3>
 FLOAT red;
 FLOAT green;
 FLOAT blue;
 FLOAT alpha;
}

template ColorRGB {
 <D3E16E81-7835-11cf-8F52-0040333594A3>
 FLOAT red;
 FLOAT green;
 FLOAT blue;
}

template TextureFilename {
 <A42790E1-7810-11cf-8F52-0040333594A3>
 STRING filename;
}

template Material {
 <3D82AB4D-62DA-11cf-AB39-0020AF71E433>
 ColorRGBA faceColor;
 FLOAT power;
 ColorRGB specularColor;
 ColorRGB emissiveColor;
 [...]
}

template MeshFace {
 <3D82AB5F-62DA-11cf-AB39-0020AF71E433>
 DWORD nFaceVertexIndices;
 array DWORD faceVertexIndices[nFaceVertexIndices];
}

template MeshTextureCoords {
 <F6F23F40-7686-11cf-8F52-0040333594A3>
 DWORD nTextureCoords;
 array Coords2d textureCoords[nTextureCoords];
}

template MeshMaterialList {
 <F6F23F42-7686-11cf-8F52-0040333594A3>
 DWORD nMaterials;
 DWORD nFaceIndexes;
 array DWORD faceIndexes[nFaceIndexes];
 [Material]
}

template MeshNormals {
 <F6F23F43-7686-11cf-8F52-0040333594A3>
 DWORD nNormals;
 array Vector normals[nNormals];
 DWORD nFaceNormals;
 array MeshFace faceNormals[nFaceNormals];
}

template Mesh {
 <3D82AB44-62DA-11cf-AB39-0020AF71E433>
 DWORD nVertices;
 array Vector vertices[nVertices];
 DWORD nFaces;
 array MeshFace faces[nFaces];
 [...]
}

template FrameTransformMatrix {
 <F6F23F41-7686-11cf-8F52-0040333594A3>
 Matrix4x4 frameMatrix;
}

template Frame {
 <3D82AB46-62DA-11cf-AB39-0020AF71E433>
 [...]
}
template FloatKeys {
 <10DD46A9-775B-11cf-8F52-0040333594A3>
 DWORD nValues;
 array FLOAT values[nValues];
}

template TimedFloatKeys {
 <F406B180-7B3B-11cf-8F52-0040333594A3>
 DWORD time;
 FloatKeys tfkeys;
}

template AnimationKey {
 <10DD46A8-775B-11cf-8F52-0040333594A3>
 DWORD keyType;
 DWORD nKeys;
 array TimedFloatKeys keys[nKeys];
}

template AnimationOptions {
 <E2BF56C0-840F-11cf-8F52-0040333594A3>
 DWORD openclosed;
 DWORD positionquality;
}

template Animation {
 <3D82AB4F-62DA-11cf-AB39-0020AF71E433>
 [...]
}

template AnimationSet {
 <3D82AB50-62DA-11cf-AB39-0020AF71E433>
 [Animation]
}

Header {
 1;
 0;
 1;
}

Frame frm-utl04 {
  FrameTransformMatrix {
1.000000,0.000000,0.000000,0.000000,
0.000000,1.000000,0.000000,0.000000,
0.000000,0.000000,1.000000,0.000000,
-0.078392,0.321239,0.000000,1.000000;;
 }
Frame frm-slrpan {
  FrameTransformMatrix {
1.000000,0.000000,0.000000,0.000000,
0.000000,0.710000,0.000000,0.000000,
0.000000,0.000000,1.000000,0.000000,
0.000000,-0.321239,-4.657967,1.000000;;
 }
Mesh slrpan {
 120;
 3.449793;0.987298;-0.755733;,
 3.449793;0.987298;-0.755733;,
 3.449793;0.987298;-0.755733;,
 3.449793;0.987298;-0.755733;,
 3.450995;0.987298;-0.755733;,
 3.450995;0.987298;-0.755733;,
 3.450995;0.987298;-0.755733;,
 3.450995;0.987298;-0.755733;,
 3.450995;-0.988802;-0.755785;,
 3.450995;-0.988802;-0.755785;,
 3.450995;-0.988802;-0.755785;,
 3.449793;-0.988802;-0.755785;,
 3.449793;-0.988802;-0.755785;,
 3.449793;-0.988802;-0.755785;,
 1.601467;-0.988842;0.758284;,
 1.601467;-0.988842;0.758284;,
 1.601467;-0.988842;0.758284;,
 1.601467;-0.988842;0.758284;,
 1.602467;-0.988842;0.758284;,
 1.602467;-0.988842;0.758284;,
 1.602467;-0.988842;0.758284;,
 1.602467;-0.988842;0.758284;,
 1.602467;0.987959;0.758336;,
 1.602467;0.987959;0.758336;,
 1.602467;0.987959;0.758336;,
 1.601467;0.987959;0.758336;,
 1.601467;0.987959;0.758336;,
 1.601467;0.987959;0.758336;,
 -3.258421;0.987998;-0.755733;,
 -3.258421;0.987998;-0.755733;,
 -3.258421;0.987998;-0.755733;,
 -3.258421;0.987998;-0.755733;,
 -3.257220;0.987998;-0.755733;,
 -3.257220;0.987998;-0.755733;,
 -3.257220;0.987998;-0.755733;,
 -1.441133;0.987959;0.758336;,
 -1.441133;0.987959;0.758336;,
 -1.441133;0.987959;0.758336;,
 -1.441133;0.987959;0.758336;,
 -1.442133;0.987959;0.758336;,
 -1.442133;0.987959;0.758336;,
 -1.442133;0.987959;0.758336;,
 -1.442133;-0.988842;0.758284;,
 -1.442133;-0.988842;0.758284;,
 -1.442133;-0.988842;0.758284;,
 -1.442133;-0.988842;0.758284;,
 -1.441133;-0.988842;0.758284;,
 -1.441133;-0.988842;0.758284;,
 -1.441133;-0.988842;0.758284;,
 -3.257220;-0.988802;-0.755785;,
 -3.257220;-0.988802;-0.755785;,
 -3.257220;-0.988802;-0.755785;,
 -3.257220;-0.988802;-0.755785;,
 -3.258421;-0.988802;-0.755785;,
 -3.258421;-0.988802;-0.755785;,
 -3.258421;-0.988802;-0.755785;,
 -0.907033;3.330546;-0.755685;,
 -0.907033;3.330546;-0.755685;,
 -0.907733;1.521358;0.758350;,
 -0.907733;1.521358;0.758350;,
 1.069067;1.521358;0.758350;,
 1.069067;1.521358;0.758350;,
 1.069067;3.330546;-0.755685;,
 1.069067;3.330546;-0.755685;,
 -0.908733;-3.471508;-0.755832;,
 -0.908733;-3.471508;-0.755832;,
 -0.908733;-3.471508;-0.755832;,
 -0.907733;-3.471508;-0.755832;,
 -0.907733;-1.522241;0.758270;,
 -0.907733;-1.522241;0.758270;,
 -0.907733;-1.522241;0.758270;,
 -0.908733;-1.522241;0.758270;,
 1.068067;-1.522241;0.758270;,
 1.068067;-1.522241;0.758270;,
 1.068067;-1.522241;0.758270;,
 1.069067;-1.522241;0.758270;,
 1.068367;-3.471508;-0.755832;,
 1.068367;-3.471508;-0.755832;,
 1.068367;-3.471508;-0.755832;,
 1.067367;-3.471508;-0.755832;,
 1.068067;3.330546;-0.755685;,
 1.068067;3.330546;-0.755685;,
 1.068067;3.330546;-0.755685;,
 1.068067;1.521358;0.758350;,
 -0.908733;1.521358;0.758350;,
 -0.908733;1.521358;0.758350;,
 -0.908733;1.521358;0.758350;,
 -0.908033;3.330546;-0.755685;,
 -0.908033;3.330546;-0.755685;,
 -0.908733;1.521358;0.758350;,
 1.068067;1.521358;0.758350;,
 1.068067;3.330546;-0.755685;,
 1.067367;-3.471508;-0.755832;,
 1.068367;-3.471508;-0.755832;,
 1.069067;-1.522241;0.758270;,
 1.068067;-1.522241;0.758270;,
 -0.908733;-1.522241;0.758270;,
 -0.907733;-1.522241;0.758270;,
 -0.907733;-3.471508;-0.755832;,
 -0.908733;-3.471508;-0.755832;,
 1.069067;3.330546;-0.755685;,
 1.069067;1.521358;0.758350;,
 -0.907733;1.521358;0.758350;,
 -0.907033;3.330546;-0.755685;,
 -3.258421;-0.988802;-0.755785;,
 -3.257220;-0.988802;-0.755785;,
 -1.441133;-0.988842;0.758284;,
 -1.442133;-0.988842;0.758284;,
 -1.442133;0.987959;0.758336;,
 -1.441133;0.987959;0.758336;,
 -3.257220;0.987998;-0.755733;,
 -3.258421;0.987998;-0.755733;,
 1.601467;0.987959;0.758336;,
 1.602467;0.987959;0.758336;,
 1.602467;-0.988842;0.758284;,
 1.601467;-0.988842;0.758284;,
 3.449793;-0.988802;-0.755785;,
 3.450995;-0.988802;-0.755785;,
 3.450995;0.987298;-0.755733;,
 3.449793;0.987298;-0.755733;;

 40;
 3;10,7,3;,
 3;13,9,2;,
 3;24,21,17;,
 3;27,23,16;,
 3;20,22,6;,
 3;8,19,5;,
 3;38,34,31;,
 3;41,37,30;,
 3;52,48,45;,
 3;55,51,44;,
 3;63,61,59;,
 3;70,67,66;,
 3;71,69,65;,
 3;78,75,74;,
 3;79,77,73;,
 3;1,26,15;,
 3;86,83,82;,
 3;87,85,81;,
 3;72,96,64;,
 3;92,95,99;,
 3;43,40,29;,
 3;68,94,76;,
 3;57,58,84;,
 3;88,56,89;,
 3;60,62,80;,
 3;90,101,91;,
 3;36,47,50;,
 3;33,35,49;,
 3;46,109,39;,
 3;42,106,108;,
 3;32,105,54;,
 3;28,110,53;,
 3;4,113,25;,
 3;0,118,112;,
 3;18,117,12;,
 3;14,114,11;,
 3;111,104,107;,
 3;93,98,97;,
 3;115,116,119;,
 3;102,103,100;;

 MeshMaterialList {
  2;
  40;
  0,
  0,
  0,
  0,
  0,
  0,
  0,
  0,
  0,
  0,
  1,
  1,
  1,
  1,
  1,
  0,
  1,
  1,
  1,
  1,
  0,
  1,
  1,
  1,
  1,
  1,
  0,
  0,
  0,
  0,
  0,
  0,
  0,
  0,
  0,
  0,
  0,
  1,
  0,
  1;
Material {
 1.000000;1.000000;1.000000;1.000000;;
 0.000000;
 1.000000;1.000000;1.000000;;
 0.0; 0.0; 0.0;;
 TextureFilename {
  "utl04.ppm";
 }
 }
Material {
 1.000000;1.000000;1.000000;1.000000;;
 0.000000;
 1.000000;1.000000;1.000000;;
 0.0; 0.0; 0.0;;
 TextureFilename {
  "utl04.ppm";
 }
 }
}
 MeshNormals {
  120;
  0.326382;-0.242535;0.913593;,
  0.326382;-0.242535;0.913593;,
  0.326382;-0.242535;0.913593;,
  0.326382;-0.242535;0.913593;,
  -0.521539;-0.823067;-0.224851;,
  -0.521539;-0.823067;-0.224851;,
  -0.521539;-0.823067;-0.224851;,
  -0.521539;-0.823067;-0.224851;,
  -0.371738;0.586644;0.719486;,
  -0.371738;0.586644;0.719486;,
  -0.371738;0.586644;0.719486;,
  0.237914;0.707089;0.665899;,
  0.237914;0.707089;0.665899;,
  0.237914;0.707089;0.665899;,
  0.755880;0.596419;-0.270054;,
  0.755880;0.596419;-0.270054;,
  0.755880;0.596419;-0.270054;,
  0.755880;0.596419;-0.270054;,
  -0.370623;0.554720;-0.744932;,
  -0.370623;0.554720;-0.744932;,
  -0.370623;0.554720;-0.744932;,
  -0.370623;0.554720;-0.744932;,
  -0.211316;-0.316246;-0.924843;,
  -0.211316;-0.316246;-0.924843;,
  -0.211316;-0.316246;-0.924843;,
  0.300316;-0.947832;-0.106887;,
  0.300316;-0.947832;-0.106887;,
  0.300316;-0.947832;-0.106887;,
  -0.525996;0.821467;0.220273;,
  -0.525996;0.821467;0.220273;,
  -0.525996;0.821467;0.220273;,
  -0.525996;0.821467;0.220273;,
  0.213815;0.316252;-0.924266;,
  0.213815;0.316252;-0.924266;,
  0.213815;0.316252;-0.924266;,
  0.526024;0.821469;-0.220200;,
  0.526024;0.821469;-0.220200;,
  0.526024;0.821469;-0.220200;,
  0.526024;0.821469;-0.220200;,
  -0.213800;0.316204;0.924286;,
  -0.213800;0.316204;0.924286;,
  -0.213800;0.316204;0.924286;,
  -0.375029;-0.554720;0.742724;,
  -0.375029;-0.554720;0.742724;,
  -0.375029;-0.554720;0.742724;,
  -0.375029;-0.554720;0.742724;,
  0.374245;-0.584458;0.719965;,
  0.374245;-0.584458;0.719965;,
  0.374245;-0.584458;0.719965;,
  0.375057;-0.554681;-0.742739;,
  0.375057;-0.554681;-0.742739;,
  0.375057;-0.554681;-0.742739;,
  0.375057;-0.554681;-0.742739;,
  -0.374230;-0.584434;-0.719992;,
  -0.374230;-0.584434;-0.719992;,
  -0.374230;-0.584434;-0.719992;,
  0.000000;-0.641779;-0.766890;,
  0.000000;-0.641779;-0.766890;,
  0.000000;-0.641779;-0.766890;,
  0.000000;-0.641779;-0.766890;,
  0.000000;0.641779;0.766890;,
  0.000000;0.641779;0.766890;,
  0.000000;-0.641779;-0.766890;,
  0.000000;-0.641779;-0.766890;,
  0.000000;0.000000;0.000000;,
  0.000000;0.000000;0.000000;,
  0.000000;0.000000;0.000000;,
  0.000000;0.613437;-0.789744;,
  0.000000;0.613437;-0.789744;,
  0.000000;0.613437;-0.789744;,
  0.000000;0.613437;-0.789744;,
  0.000000;0.000000;0.000000;,
  0.000000;-0.613437;0.789744;,
  0.000000;-0.613437;0.789744;,
  0.000000;-0.613437;0.789744;,
  0.000000;0.000000;0.000000;,
  0.000000;0.000000;0.000000;,
  0.000000;0.000000;0.000000;,
  0.000000;0.000000;0.000000;,
  0.000000;-0.613437;0.789744;,
  0.000000;0.641779;0.766890;,
  0.000000;0.641779;0.766890;,
  0.000000;0.641779;0.766890;,
  0.000000;0.641779;0.766890;,
  0.000000;0.000000;0.000000;,
  0.000000;0.000000;0.000000;,
  0.000000;0.000000;0.000000;,
  0.000000;0.000000;0.000000;,
  0.000000;0.000000;0.000000;,
  0.000000;0.000000;0.000000;,
  0.000000;0.641779;0.766890;,
  0.000000;0.641779;0.766890;,
  0.000000;-0.613437;0.789744;,
  0.000000;0.000000;0.000000;,
  0.000000;0.000000;0.000000;,
  0.000000;-0.613437;0.789744;,
  0.000000;0.000000;0.000000;,
  0.000000;0.613437;-0.789744;,
  0.000000;0.613437;-0.789744;,
  0.000000;0.000000;0.000000;,
  0.000000;-0.641779;-0.766890;,
  0.000000;0.641779;0.766890;,
  0.000000;-0.641779;-0.766890;,
  0.000000;-0.641779;-0.766890;,
  -0.374230;-0.584434;-0.719992;,
  0.375057;-0.554681;-0.742739;,
  0.374245;-0.584458;0.719965;,
  -0.375029;-0.554720;0.742724;,
  -0.213800;0.316204;0.924286;,
  0.526024;0.821469;-0.220200;,
  0.213815;0.316252;-0.924266;,
  -0.525996;0.821467;0.220273;,
  0.300316;-0.947832;-0.106887;,
  -0.211316;-0.316246;-0.924843;,
  -0.370623;0.554720;-0.744932;,
  0.755880;0.596419;-0.270054;,
  0.237914;0.707089;0.665899;,
  -0.371738;0.586644;0.719486;,
  -0.521539;-0.823067;-0.224851;,
  0.326382;-0.242535;0.913593;;

  40;
  3;10,7,3;,
  3;13,9,2;,
  3;24,21,17;,
  3;27,23,16;,
  3;20,22,6;,
  3;8,19,5;,
  3;38,34,31;,
  3;41,37,30;,
  3;52,48,45;,
  3;55,51,44;,
  3;63,61,59;,
  3;70,67,66;,
  3;71,69,65;,
  3;78,75,74;,
  3;79,77,73;,
  3;1,26,15;,
  3;86,83,82;,
  3;87,85,81;,
  3;72,96,64;,
  3;92,95,99;,
  3;43,40,29;,
  3;68,94,76;,
  3;57,58,84;,
  3;88,56,89;,
  3;60,62,80;,
  3;90,101,91;,
  3;36,47,50;,
  3;33,35,49;,
  3;46,109,39;,
  3;42,106,108;,
  3;32,105,54;,
  3;28,110,53;,
  3;4,113,25;,
  3;0,118,112;,
  3;18,117,12;,
  3;14,114,11;,
  3;111,104,107;,
  3;93,98,97;,
  3;115,116,119;,
  3;102,103,100;;
 }
 MeshTextureCoords { 
 120;
 0.700197;0.009506;,
 0.700197;0.009506;,
 0.700197;0.009506;,
 0.700197;0.009506;,
 0.700197;0.009506;,
 0.700197;0.009506;,
 0.700197;0.009506;,
 0.700197;0.009506;,
 0.700206;0.616115;,
 0.700206;0.616115;,
 0.700206;0.616115;,
 0.700206;0.616115;,
 0.700206;0.616115;,
 0.700206;0.616115;,
 0.448083;0.616128;,
 0.448083;0.616128;,
 0.448083;0.616128;,
 0.448083;0.616128;,
 0.448083;0.616128;,
 0.448083;0.616128;,
 0.448083;0.616128;,
 0.448083;0.616128;,
 0.448075;0.009304;,
 0.448075;0.009304;,
 0.448075;0.009304;,
 0.448075;0.009304;,
 0.448075;0.009304;,
 0.448075;0.009304;,
 0.700197;0.009292;,
 0.700197;0.009292;,
 0.700197;0.009292;,
 0.700197;0.009292;,
 0.700197;0.009292;,
 0.700197;0.009292;,
 0.700197;0.009292;,
 0.448075;0.009304;,
 0.448075;0.009304;,
 0.448075;0.009304;,
 0.448075;0.009304;,
 0.448075;0.009304;,
 0.448075;0.009304;,
 0.448075;0.009304;,
 0.448083;0.616128;,
 0.448083;0.616128;,
 0.448083;0.616128;,
 0.448083;0.616128;,
 0.448083;0.616128;,
 0.448083;0.616128;,
 0.448083;0.616128;,
 0.700206;0.616115;,
 0.700206;0.616115;,
 0.700206;0.616115;,
 0.700206;0.616115;,
 0.700206;0.616115;,
 0.700206;0.616115;,
 0.700206;0.616115;,
 0.447428;0.007872;,
 0.447428;0.007872;,
 0.447339;0.617188;,
 0.447339;0.617188;,
 0.700645;0.617188;,
 0.700645;0.617188;,
 0.700645;0.007872;,
 0.700645;0.007872;,
 0.447210;0.007813;,
 0.447210;0.007813;,
 0.447210;0.007813;,
 0.447339;0.007813;,
 0.447339;0.617155;,
 0.447339;0.617155;,
 0.447339;0.617155;,
 0.447210;0.617155;,
 0.700517;0.617155;,
 0.700517;0.617155;,
 0.700517;0.617155;,
 0.700645;0.617155;,
 0.700555;0.007813;,
 0.700555;0.007813;,
 0.700555;0.007813;,
 0.700427;0.007813;,
 0.700517;0.007872;,
 0.700517;0.007872;,
 0.700517;0.007872;,
 0.700517;0.617188;,
 0.447210;0.617188;,
 0.447210;0.617188;,
 0.447210;0.617188;,
 0.447300;0.007872;,
 0.447300;0.007872;,
 0.447210;0.617188;,
 0.700517;0.617188;,
 0.700517;0.007872;,
 0.700427;0.007813;,
 0.700555;0.007813;,
 0.700645;0.617155;,
 0.700517;0.617155;,
 0.447210;0.617155;,
 0.447339;0.617155;,
 0.447339;0.007813;,
 0.447210;0.007813;,
 0.700645;0.007872;,
 0.700645;0.617188;,
 0.447339;0.617188;,
 0.447428;0.007872;,
 0.700206;0.616115;,
 0.700206;0.616115;,
 0.448083;0.616128;,
 0.448083;0.616128;,
 0.448075;0.009304;,
 0.448075;0.009304;,
 0.700197;0.009292;,
 0.700197;0.009292;,
 0.448075;0.009304;,
 0.448075;0.009304;,
 0.448083;0.616128;,
 0.448083;0.616128;,
 0.700206;0.616115;,
 0.700206;0.616115;,
 0.700197;0.009506;,
 0.700197;0.009506;;
 }
}
Frame frm-SS1 {
  FrameTransformMatrix {
0.000006,0.000000,0.000008,0.000000,
0.000000,0.000010,0.000000,0.000000,
-0.000008,0.000000,0.000006,0.000000,
-3.257395,0.000000,-0.755938,1.000000;;
 }
Mesh SS1 {
 6;
 0.000000;0.000000;-0.125000;,
 -0.125000;0.000000;-0.000000;,
 -0.000000;0.000000;0.125000;,
 0.125000;0.000000;0.000000;,
 0.000000;0.125000;0.000000;,
 0.000000;-0.125000;0.000000;;

 8;
 3;5,3,2;,
 3;4,2,3;,
 3;5,2,1;,
 3;4,1,2;,
 3;5,1,0;,
 3;4,0,1;,
 3;5,0,3;,
 3;4,3,0;;

 MeshMaterialList {
  1;
  8;
  0,
  0,
  0,
  0,
  0,
  0,
  0,
  0;
Material {
 1.000000;1.000000;1.000000;0.500000;;
 0.000000;
 1.000000;1.000000;1.000000;;
 0.0; 0.0; 0.0;;
 }
}
 MeshNormals {
  6;
  0.000000;0.000000;-1.000000;,
  -1.000000;0.000000;-0.000000;,
  -0.000000;0.000000;1.000000;,
  1.000000;0.000000;0.000000;,
  0.000000;1.000000;0.000000;,
  0.000000;-1.000000;0.000000;;

  8;
  3;5,3,2;,
  3;4,2,3;,
  3;5,2,1;,
  3;4,1,2;,
  3;5,1,0;,
  3;4,0,1;,
  3;5,0,3;,
  3;4,3,0;;
 }
 MeshTextureCoords { 
 6;
 0.000000;0.000000;,
 0.000000;0.000000;,
 0.000000;0.000000;,
 0.000000;0.000000;,
 0.000000;0.000000;,
 0.000000;0.000000;;
 }
}
}
Frame frm-SS2 {
  FrameTransformMatrix {
0.000008,0.000000,0.000006,0.000000,
0.000000,0.000010,0.000000,0.000000,
-0.000006,0.000000,0.000008,0.000000,
3.449315,0.000000,-0.755938,1.000000;;
 }
Mesh SS2 {
 6;
 0.000000;0.000000;-0.125000;,
 -0.125000;0.000000;-0.000000;,
 -0.000000;0.000000;0.125000;,
 0.125000;0.000000;0.000000;,
 0.000000;0.125000;0.000000;,
 0.000000;-0.125000;0.000000;;

 8;
 3;5,3,2;,
 3;4,2,3;,
 3;5,2,1;,
 3;4,1,2;,
 3;5,1,0;,
 3;4,0,1;,
 3;5,0,3;,
 3;4,3,0;;

 MeshMaterialList {
  1;
  8;
  0,
  0,
  0,
  0,
  0,
  0,
  0,
  0;
Material {
 1.000000;1.000000;1.000000;0.500000;;
 0.000000;
 1.000000;1.000000;1.000000;;
 0.0; 0.0; 0.0;;
 }
}
 MeshNormals {
  6;
  0.000000;0.000000;-1.000000;,
  -1.000000;0.000000;-0.000000;,
  -0.000000;0.000000;1.000000;,
  1.000000;0.000000;0.000000;,
  0.000000;1.000000;0.000000;,
  0.000000;-1.000000;0.000000;;

  8;
  3;5,3,2;,
  3;4,2,3;,
  3;5,2,1;,
  3;4,1,2;,
  3;5,1,0;,
  3;4,0,1;,
  3;5,0,3;,
  3;4,3,0;;
 }
 MeshTextureCoords { 
 6;
 0.000000;0.000000;,
 0.000000;0.000000;,
 0.000000;0.000000;,
 0.000000;0.000000;,
 0.000000;0.000000;,
 0.000000;0.000000;;
 }
}
}
Frame frm-SS3 {
  FrameTransformMatrix {
0.000010,0.000000,0.000000,0.000000,
0.000000,0.000008,-0.000007,0.000000,
0.000000,0.000007,0.000008,0.000000,
0.079809,3.331054,-0.755938,1.000000;;
 }
Mesh SS3 {
 6;
 0.000000;0.000000;-0.125000;,
 -0.125000;0.000000;-0.000000;,
 -0.000000;0.000000;0.125000;,
 0.125000;0.000000;0.000000;,
 0.000000;0.125000;0.000000;,
 0.000000;-0.125000;0.000000;;

 8;
 3;5,3,2;,
 3;4,2,3;,
 3;5,2,1;,
 3;4,1,2;,
 3;5,1,0;,
 3;4,0,1;,
 3;5,0,3;,
 3;4,3,0;;

 MeshMaterialList {
  1;
  8;
  0,
  0,
  0,
  0,
  0,
  0,
  0,
  0;
Material {
 1.000000;1.000000;1.000000;0.500000;;
 0.000000;
 1.000000;1.000000;1.000000;;
 0.0; 0.0; 0.0;;
 }
}
 MeshNormals {
  6;
  0.000000;0.000000;-1.000000;,
  -1.000000;0.000000;-0.000000;,
  -0.000000;0.000000;1.000000;,
  1.000000;0.000000;0.000000;,
  0.000000;1.000000;0.000000;,
  0.000000;-1.000000;0.000000;;

  8;
  3;5,3,2;,
  3;4,2,3;,
  3;5,2,1;,
  3;4,1,2;,
  3;5,1,0;,
  3;4,0,1;,
  3;5,0,3;,
  3;4,3,0;;
 }
 MeshTextureCoords { 
 6;
 0.000000;0.000000;,
 0.000000;0.000000;,
 0.000000;0.000000;,
 0.000000;0.000000;,
 0.000000;0.000000;,
 0.000000;0.000000;;
 }
}
}
Frame frm-SS4 {
  FrameTransformMatrix {
0.000010,0.000000,0.000000,0.000000,
0.000000,0.000007,-0.000007,0.000000,
0.000000,0.000007,0.000007,0.000000,
0.079809,-3.472304,-0.755938,1.000000;;
 }
Mesh SS4 {
 6;
 0.000000;0.000000;-0.125000;,
 -0.125000;0.000000;-0.000000;,
 -0.000000;0.000000;0.125000;,
 0.125000;0.000000;0.000000;,
 0.000000;0.125000;0.000000;,
 0.000000;-0.125000;0.000000;;

 8;
 3;5,3,2;,
 3;4,2,3;,
 3;5,2,1;,
 3;4,1,2;,
 3;5,1,0;,
 3;4,0,1;,
 3;5,0,3;,
 3;4,3,0;;

 MeshMaterialList {
  1;
  8;
  0,
  0,
  0,
  0,
  0,
  0,
  0,
  0;
Material {
 1.000000;1.000000;1.000000;0.500000;;
 0.000000;
 1.000000;1.000000;1.000000;;
 0.0; 0.0; 0.0;;
 }
}
 MeshNormals {
  6;
  0.000000;0.000000;-1.000000;,
  -1.000000;0.000000;-0.000000;,
  -0.000000;0.000000;1.000000;,
  1.000000;0.000000;0.000000;,
  0.000000;1.000000;0.000000;,
  0.000000;-1.000000;0.000000;;

  8;
  3;5,3,2;,
  3;4,2,3;,
  3;5,2,1;,
  3;4,1,2;,
  3;5,1,0;,
  3;4,0,1;,
  3;5,0,3;,
  3;4,3,0;;
 }
 MeshTextureCoords { 
 6;
 0.000000;0.000000;,
 0.000000;0.000000;,
 0.000000;0.000000;,
 0.000000;0.000000;,
 0.000000;0.000000;,
 0.000000;0.000000;;
 }
}
}
}
Frame frm-fuselg {
  FrameTransformMatrix {
1.000000,0.000000,0.000000,0.000000,
0.000000,1.000000,0.000000,0.000000,
0.000000,0.000000,1.000000,0.000000,
0.000000,-0.321239,0.000000,1.000000;;
 }
Mesh fuselg {
 402;
 0.509467;-0.430336;-0.291169;,
 0.509467;-0.430336;-0.291169;,
 0.509467;0.429264;-0.291146;,
 0.509467;0.429264;-0.291146;,
 0.886067;0.805865;-0.291136;,
 0.886067;0.805865;-0.291136;,
 0.886067;0.805865;-0.291136;,
 0.886067;0.805865;-0.291136;,
 0.886067;0.805865;-0.291136;,
 0.886067;0.805865;-0.291136;,
 0.885367;-0.806936;-0.291179;,
 0.885367;-0.806936;-0.291179;,
 0.885367;-0.806936;-0.291179;,
 0.885367;-0.806936;-0.291179;,
 0.079667;-1.140836;-0.291187;,
 0.079667;-1.140836;-0.291187;,
 0.079667;-1.140836;-0.291187;,
 0.079667;-1.140836;-0.291187;,
 0.079667;-1.140836;-0.291187;,
 0.885367;-0.806921;-0.867979;,
 0.885367;-0.806921;-0.867979;,
 0.885367;-0.806921;-0.867979;,
 0.885367;-0.806921;-0.867979;,
 0.885367;-0.806921;-0.867979;,
 0.885367;-0.806921;-0.867979;,
 0.885367;-0.806921;-0.867979;,
 0.079667;-1.140821;-0.867987;,
 0.079667;-1.140821;-0.867987;,
 0.079667;-1.140821;-0.867987;,
 0.079667;-1.140821;-0.867987;,
 0.079667;-1.140821;-0.867987;,
 0.080117;-0.719074;4.066318;,
 0.080117;-0.719074;4.066318;,
 0.080117;-0.719074;4.066318;,
 0.080117;-0.719074;4.066318;,
 0.080117;-0.719074;4.066318;,
 0.080117;-0.719074;4.066318;,
 0.080117;-0.719074;4.066318;,
 0.080117;-0.719074;4.066318;,
 -0.397483;-0.508420;4.066379;,
 -0.397483;-0.508420;4.066379;,
 -0.397483;-0.508420;4.066379;,
 -0.607565;-0.000642;4.065932;,
 -0.607565;-0.000642;4.065932;,
 -0.607565;-0.000642;4.065932;,
 -0.607565;-0.000642;4.065932;,
 -0.397485;0.507138;4.066406;,
 -0.397485;0.507138;4.066406;,
 -0.397485;0.507138;4.066406;,
 -0.397485;0.507138;4.066406;,
 0.080114;0.716874;4.066356;,
 0.080114;0.716874;4.066356;,
 0.080114;0.716874;4.066356;,
 0.080114;0.716874;4.066356;,
 0.586816;0.507140;4.066295;,
 0.586816;0.507140;4.066295;,
 0.586816;0.507140;4.066295;,
 0.586816;0.507140;4.066295;,
 0.796898;-0.000639;4.066741;,
 0.796898;-0.000639;4.066741;,
 0.796898;-0.000639;4.066741;,
 0.796898;-0.000639;4.066741;,
 0.586818;-0.508418;4.066268;,
 0.586818;-0.508418;4.066268;,
 0.586818;-0.508418;4.066268;,
 0.366746;-0.328049;1.361978;,
 0.366746;-0.328049;1.361978;,
 0.366746;-0.328049;1.361978;,
 0.366746;-0.328049;1.361978;,
 0.366746;-0.328049;1.361978;,
 0.075693;-0.464194;1.361788;,
 0.075693;-0.464194;1.361788;,
 0.075693;-0.464194;1.361788;,
 0.075693;-0.464194;1.361788;,
 0.075693;-0.464194;1.361788;,
 -0.252643;-0.328050;1.361458;,
 -0.252643;-0.328050;1.361458;,
 -0.252643;-0.328050;1.361458;,
 -0.252643;-0.328050;1.361458;,
 -0.252643;-0.328050;1.361458;,
 -0.386909;-0.000571;1.361856;,
 -0.386909;-0.000571;1.361856;,
 -0.386909;-0.000571;1.361856;,
 -0.386909;-0.000571;1.361856;,
 -0.386909;-0.000571;1.361856;,
 -0.251738;0.326911;1.361621;,
 -0.251738;0.326911;1.361621;,
 -0.251738;0.326911;1.361621;,
 -0.251738;0.326911;1.361621;,
 -0.251738;0.326911;1.361621;,
 0.075691;0.463055;1.361812;,
 0.075691;0.463055;1.361812;,
 0.075691;0.463055;1.361812;,
 0.075691;0.463055;1.361812;,
 0.075691;0.463055;1.361812;,
 0.366896;0.326912;1.361309;,
 0.366896;0.326912;1.361309;,
 0.366896;0.326912;1.361309;,
 0.366896;0.326912;1.361309;,
 0.366896;0.326912;1.361309;,
 0.501917;-0.000569;1.361743;,
 0.501917;-0.000569;1.361743;,
 0.501917;-0.000569;1.361743;,
 0.501917;-0.000569;1.361743;,
 0.501917;-0.000569;1.361743;,
 -1.433033;-0.000521;-0.864457;,
 -1.433033;-0.000521;-0.864457;,
 -1.433033;-0.000521;-0.864457;,
 -1.433033;-0.000521;-0.864457;,
 -1.433033;-0.000521;-0.864457;,
 -0.989933;-1.070121;-0.864486;,
 -0.989933;-1.070121;-0.864486;,
 -0.989933;-1.070121;-0.864486;,
 -0.989933;-1.070121;-0.864486;,
 -0.989933;-1.070121;-0.864486;,
 -0.989933;-1.070041;-3.905986;,
 -0.989933;-1.070041;-3.905986;,
 -0.989933;-1.070041;-3.905986;,
 -0.989933;-1.070041;-3.905986;,
 -1.433033;-0.000441;-3.905957;,
 -1.433033;-0.000441;-3.905957;,
 -1.433033;-0.000441;-3.905957;,
 -1.433033;-0.000441;-3.905957;,
 1.592367;-0.000521;-0.864457;,
 1.592367;-0.000521;-0.864457;,
 1.592367;-0.000521;-0.864457;,
 1.592367;-0.000521;-0.864457;,
 1.592367;-0.000521;-0.864457;,
 1.149267;1.069079;-0.864429;,
 1.149267;1.069079;-0.864429;,
 1.149267;1.069079;-0.864429;,
 1.149267;1.069079;-0.864429;,
 1.149267;1.069079;-0.864429;,
 1.149267;1.069159;-3.905930;,
 1.149267;1.069159;-3.905930;,
 1.149267;1.069159;-3.905930;,
 1.592367;-0.000441;-3.905957;,
 1.592367;-0.000441;-3.905957;,
 1.592367;-0.000441;-3.905957;,
 1.592367;-0.000441;-3.905957;,
 -0.726733;0.805880;-0.867936;,
 -0.726733;0.805880;-0.867936;,
 -0.726733;0.805880;-0.867936;,
 -0.726733;0.805880;-0.867936;,
 -0.726733;0.805880;-0.867936;,
 -0.726733;0.805880;-0.867936;,
 -1.060633;-0.000521;-0.867957;,
 -1.060633;-0.000521;-0.867957;,
 -1.060633;-0.000521;-0.867957;,
 -0.989933;1.069079;-0.864429;,
 -0.989933;1.069079;-0.864429;,
 -0.989933;1.069079;-0.864429;,
 -0.989933;1.069079;-0.864429;,
 -0.989933;1.069079;-0.864429;,
 1.219967;-0.000521;-0.867957;,
 1.219967;-0.000521;-0.867957;,
 1.219967;-0.000521;-0.867957;,
 1.149267;-1.070121;-0.864486;,
 1.149267;-1.070121;-0.864486;,
 1.149267;-1.070121;-0.864486;,
 1.149267;-1.070121;-0.864486;,
 1.149267;-1.070121;-0.864486;,
 0.077634;0.704106;0.666608;,
 0.077634;0.704106;0.666608;,
 0.077634;0.704106;0.666608;,
 0.077634;0.704106;0.666608;,
 0.077634;0.704106;0.666608;,
 0.572790;0.497026;0.666602;,
 0.572790;0.497026;0.666602;,
 0.572790;0.497026;0.666602;,
 0.572790;0.497026;0.666602;,
 0.572790;0.497026;0.666602;,
 -0.623168;-0.000560;0.666589;,
 -0.623168;-0.000560;0.666589;,
 -0.623168;-0.000560;0.666589;,
 -0.623168;-0.000560;0.666589;,
 -0.623168;-0.000560;0.666589;,
 -0.417524;0.497026;0.666602;,
 -0.417524;0.497026;0.666602;,
 -0.417524;0.497026;0.666602;,
 -0.417524;0.497026;0.666602;,
 -0.417524;0.497026;0.666602;,
 0.077634;-0.705220;0.666569;,
 0.077634;-0.705220;0.666569;,
 0.077634;-0.705220;0.666569;,
 0.077634;-0.705220;0.666569;,
 0.077634;-0.705220;0.666569;,
 -0.417524;-0.498545;0.666575;,
 -0.417524;-0.498545;0.666575;,
 -0.417524;-0.498545;0.666575;,
 -0.417524;-0.498545;0.666575;,
 -0.417524;-0.498545;0.666575;,
 0.777628;-0.000560;0.666589;,
 0.777628;-0.000560;0.666589;,
 0.777628;-0.000560;0.666589;,
 0.777628;-0.000560;0.666589;,
 0.777628;-0.000560;0.666589;,
 0.572790;-0.498545;0.666575;,
 0.572790;-0.498545;0.666575;,
 0.572790;-0.498545;0.666575;,
 0.572790;-0.498545;0.666575;,
 0.572790;-0.498545;0.666575;,
 -0.350133;-0.430336;-0.291169;,
 -0.350133;-0.430336;-0.291169;,
 0.079667;-0.608835;-0.291173;,
 0.079667;-0.608835;-0.291173;,
 -0.726733;-0.806936;-0.291179;,
 -0.726733;-0.806936;-0.291179;,
 -0.726733;-0.806936;-0.291179;,
 -0.726733;-0.806936;-0.291179;,
 -0.726733;-0.806936;-0.291179;,
 0.559680;-0.499244;0.266730;,
 0.559680;-0.499244;0.266730;,
 0.559680;-0.499244;0.266730;,
 0.559680;-0.499244;0.266730;,
 0.559680;-0.499244;0.266730;,
 0.761451;-0.000549;0.266743;,
 0.761451;-0.000549;0.266743;,
 0.761451;-0.000549;0.266743;,
 0.761451;-0.000549;0.266743;,
 0.761451;-0.000549;0.266743;,
 0.784567;-0.000536;-0.287657;,
 0.784567;-0.000536;-0.287657;,
 0.578067;-0.498936;-0.287671;,
 0.578067;-0.498936;-0.287671;,
 -0.414296;-0.499244;0.266730;,
 -0.414296;-0.499244;0.266730;,
 -0.414296;-0.499244;0.266730;,
 -0.414296;-0.499244;0.266730;,
 -0.414296;-0.499244;0.266730;,
 0.072692;-0.707498;0.266724;,
 0.072692;-0.707498;0.266724;,
 0.072692;-0.707498;0.266724;,
 0.072692;-0.707498;0.266724;,
 0.072692;-0.707498;0.266724;,
 0.079667;-0.705436;-0.287676;,
 0.079667;-0.705436;-0.287676;,
 -0.418733;-0.498936;-0.287671;,
 -0.418733;-0.498936;-0.287671;,
 -0.414296;0.498146;0.266755;,
 -0.414296;0.498146;0.266755;,
 -0.414296;0.498146;0.266755;,
 -0.414296;0.498146;0.266755;,
 -0.414296;0.498146;0.266755;,
 -0.616067;-0.000549;0.266743;,
 -0.616067;-0.000549;0.266743;,
 -0.616067;-0.000549;0.266743;,
 -0.616067;-0.000549;0.266743;,
 -0.616067;-0.000549;0.266743;,
 -0.625233;-0.000536;-0.287657;,
 -0.625233;-0.000536;-0.287657;,
 -0.418733;0.497864;-0.287644;,
 -0.418733;0.497864;-0.287644;,
 0.559680;0.498146;0.266755;,
 0.559680;0.498146;0.266755;,
 0.559680;0.498146;0.266755;,
 0.559680;0.498146;0.266755;,
 0.559680;0.498146;0.266755;,
 0.072692;0.704357;0.266761;,
 0.072692;0.704357;0.266761;,
 0.072692;0.704357;0.266761;,
 0.072692;0.704357;0.266761;,
 0.072692;0.704357;0.266761;,
 0.079667;0.704364;-0.287639;,
 0.079667;0.704364;-0.287639;,
 0.578067;0.497864;-0.287644;,
 0.578067;0.497864;-0.287644;,
 0.079667;1.512259;-3.905918;,
 0.079667;1.512259;-3.905918;,
 0.079667;1.512259;-3.905918;,
 0.079667;1.512259;-3.905918;,
 0.079667;1.512259;-3.905918;,
 0.079667;1.512259;-3.905918;,
 0.079667;1.512259;-3.905918;,
 0.079667;1.512259;-3.905918;,
 -0.989933;1.069159;-3.905930;,
 -0.989933;1.069159;-3.905930;,
 -0.989933;1.069159;-3.905930;,
 0.079667;-1.513141;-3.905997;,
 0.079667;-1.513141;-3.905997;,
 0.079667;-1.513141;-3.905997;,
 0.079667;-1.513141;-3.905997;,
 1.149267;-1.070041;-3.905986;,
 1.149267;-1.070041;-3.905986;,
 1.149267;-1.070041;-3.905986;,
 1.149267;-1.070041;-3.905986;,
 -0.726733;-0.806921;-0.867979;,
 -0.726733;-0.806921;-0.867979;,
 -0.726733;-0.806921;-0.867979;,
 -0.726733;-0.806921;-0.867979;,
 -0.726733;-0.806921;-0.867979;,
 -0.726733;-0.806921;-0.867979;,
 0.886067;0.805880;-0.867936;,
 0.886067;0.805880;-0.867936;,
 0.886067;0.805880;-0.867936;,
 0.886067;0.805880;-0.867936;,
 0.886067;0.805880;-0.867936;,
 0.079667;1.139764;-0.291127;,
 0.079667;1.139764;-0.291127;,
 0.079667;1.139764;-0.291127;,
 0.079667;1.139764;-0.291127;,
 0.079667;1.139764;-0.291127;,
 0.079667;1.139779;-0.867927;,
 0.079667;1.139779;-0.867927;,
 0.079667;1.139779;-0.867927;,
 0.079667;1.139779;-0.867927;,
 0.079667;1.139779;-0.867927;,
 0.079667;-1.513221;-0.864497;,
 0.079667;-1.513221;-0.864497;,
 0.079667;-1.513221;-0.864497;,
 0.079667;-1.513221;-0.864497;,
 0.079667;-1.513221;-0.864497;,
 0.079667;1.512179;-0.864418;,
 0.079667;1.512179;-0.864418;,
 0.079667;1.512179;-0.864418;,
 0.079667;1.512179;-0.864418;,
 0.079667;1.512179;-0.864418;,
 0.079667;0.607764;-0.291141;,
 0.079667;0.607764;-0.291141;,
 -0.350133;0.429264;-0.291146;,
 -0.350133;0.429264;-0.291146;,
 -0.726733;0.805865;-0.291136;,
 -0.726733;0.805865;-0.291136;,
 -0.726733;0.805865;-0.291136;,
 -0.726733;0.805865;-0.291136;,
 -0.726733;0.805865;-0.291136;,
 -0.726733;0.805865;-0.291136;,
 -0.350133;0.429264;-0.291146;,
 0.079667;0.607764;-0.291141;,
 0.079667;1.512179;-0.864418;,
 0.079667;-1.513221;-0.864497;,
 0.079667;1.139779;-0.867927;,
 0.079667;1.139764;-0.291127;,
 0.886067;0.805880;-0.867936;,
 -0.726733;-0.806921;-0.867979;,
 1.149267;-1.070041;-3.905986;,
 0.079667;-1.513141;-3.905997;,
 -0.989933;1.069159;-3.905930;,
 0.079667;1.512259;-3.905918;,
 0.578067;0.497864;-0.287644;,
 0.079667;0.704364;-0.287639;,
 0.072692;0.704357;0.266761;,
 0.559680;0.498146;0.266755;,
 -0.418733;0.497864;-0.287644;,
 -0.625233;-0.000536;-0.287657;,
 -0.616067;-0.000549;0.266743;,
 -0.414296;0.498146;0.266755;,
 -0.418733;-0.498936;-0.287671;,
 0.079667;-0.705436;-0.287676;,
 0.072692;-0.707498;0.266724;,
 -0.414296;-0.499244;0.266730;,
 0.578067;-0.498936;-0.287671;,
 0.784567;-0.000536;-0.287657;,
 0.761451;-0.000549;0.266743;,
 0.559680;-0.499244;0.266730;,
 -0.726733;-0.806936;-0.291179;,
 0.079667;-0.608835;-0.291173;,
 -0.350133;-0.430336;-0.291169;,
 0.572790;-0.498545;0.666575;,
 0.777628;-0.000560;0.666589;,
 -0.417524;-0.498545;0.666575;,
 0.077634;-0.705220;0.666569;,
 -0.417524;0.497026;0.666602;,
 -0.623168;-0.000560;0.666589;,
 0.572790;0.497026;0.666602;,
 0.077634;0.704106;0.666608;,
 1.149267;-1.070121;-0.864486;,
 1.219967;-0.000521;-0.867957;,
 -0.989933;1.069079;-0.864429;,
 -1.060633;-0.000521;-0.867957;,
 -0.726733;0.805880;-0.867936;,
 1.592367;-0.000441;-3.905957;,
 1.149267;1.069159;-3.905930;,
 1.149267;1.069079;-0.864429;,
 1.592367;-0.000521;-0.864457;,
 -1.433033;-0.000441;-3.905957;,
 -0.989933;-1.070041;-3.905986;,
 -0.989933;-1.070121;-0.864486;,
 -1.433033;-0.000521;-0.864457;,
 0.501917;-0.000569;1.361743;,
 0.366896;0.326912;1.361309;,
 0.075691;0.463055;1.361812;,
 -0.251738;0.326911;1.361621;,
 -0.386909;-0.000571;1.361856;,
 -0.252643;-0.328050;1.361458;,
 0.075693;-0.464194;1.361788;,
 0.366746;-0.328049;1.361978;,
 0.586818;-0.508418;4.066268;,
 0.796898;-0.000639;4.066741;,
 0.586816;0.507140;4.066295;,
 0.080114;0.716874;4.066356;,
 -0.397485;0.507138;4.066406;,
 -0.607565;-0.000642;4.065932;,
 -0.397483;-0.508420;4.066379;,
 0.080117;-0.719074;4.066318;,
 0.079667;-1.140821;-0.867987;,
 0.885367;-0.806921;-0.867979;,
 0.079667;-1.140836;-0.291187;,
 0.885367;-0.806936;-0.291179;,
 0.886067;0.805865;-0.291136;,
 0.509467;0.429264;-0.291146;,
 0.509467;-0.430336;-0.291169;;

 134;
 3;9,3,1;,
 3;13,8,0;,
 3;25,12,18;,
 3;30,24,17;,
 3;45,41,38;,
 3;49,44,37;,
 3;53,48,36;,
 3;57,52,35;,
 3;61,56,34;,
 3;64,60,33;,
 3;69,63,32;,
 3;74,68,31;,
 3;79,40,43;,
 3;84,78,42;,
 3;89,47,51;,
 3;94,88,50;,
 3;99,55,59;,
 3;104,98,58;,
 3;118,114,109;,
 3;122,117,108;,
 3;135,132,127;,
 3;139,134,126;,
 3;107,148,145;,
 3;153,106,144;,
 3;125,156,23;,
 3;161,124,22;,
 3;166,93,97;,
 3;171,165,96;,
 3;176,83,87;,
 3;181,175,86;,
 3;186,73,77;,
 3;191,185,76;,
 3;196,103,67;,
 3;201,195,66;,
 3;16,205,203;,
 3;210,15,202;,
 3;11,401,204;,
 3;14,10,356;,
 3;222,220,215;,
 3;224,221,214;,
 3;236,234,229;,
 3;238,235,228;,
 3;250,248,243;,
 3;252,249,242;,
 3;264,262,257;,
 3;266,263,256;,
 3;121,277,274;,
 3;116,120,273;,
 3;281,115,272;,
 3;285,280,271;,
 3;138,284,270;,
 3;133,137,269;,
 3;113,291,147;,
 3;105,112,146;,
 3;131,296,155;,
 3;123,130,154;,
 3;119,378,152;,
 3;276,375,151;,
 3;136,374,160;,
 3;283,371,159;,
 3;261,164,170;,
 3;255,260,169;,
 3;247,174,180;,
 3;241,246,179;,
 3;233,184,190;,
 3;227,232,189;,
 3;219,194,200;,
 3;213,218,199;,
 3;29,397,209;,
 3;290,28,208;,
 3;7,398,21;,
 3;295,6,20;,
 3;306,301,5;,
 3;294,305,4;,
 3;212,198,183;,
 3;231,211,182;,
 3;226,188,173;,
 3;245,225,172;,
 3;240,178,163;,
 3;259,239,162;,
 3;254,168,193;,
 3;217,253,192;,
 3;279,311,111;,
 3;376,278,110;,
 3;268,316,129;,
 3;372,267,128;,
 3;150,143,304;,
 3;315,149,303;,
 3;158,19,27;,
 3;310,157,26;,
 3;265,342,216;,
 3;352,339,353;,
 3;251,346,258;,
 3;340,343,341;,
 3;237,350,244;,
 3;344,347,345;,
 3;223,354,230;,
 3;348,351,349;,
 3;325,320,318;,
 3;300,324,317;,
 3;289,207,323;,
 3;142,288,322;,
 3;299,328,2;,
 3;399,298,400;,
 3;197,65,72;,
 3;361,358,71;,
 3;187,75,82;,
 3;363,360,81;,
 3;177,85,92;,
 3;365,362,91;,
 3;167,95,102;,
 3;359,364,101;,
 3;309,395,287;,
 3;377,308,286;,
 3;314,302,293;,
 3;373,313,292;,
 3;275,368,312;,
 3;338,337,329;,
 3;282,366,307;,
 3;336,335,330;,
 3;90,390,54;,
 3;380,381,389;,
 3;80,392,46;,
 3;382,383,391;,
 3;70,394,39;,
 3;384,385,393;,
 3;100,388,62;,
 3;386,379,387;,
 3;141,321,297;,
 3;331,140,332;,
 3;319,326,206;,
 3;357,327,355;,
 3;396,367,333;,
 3;369,334,370;;

 MeshMaterialList {
  7;
  134;
  0,
  0,
  1,
  1,
  2,
  2,
  2,
  2,
  2,
  2,
  3,
  3,
  3,
  3,
  3,
  3,
  3,
  3,
  4,
  4,
  4,
  4,
  5,
  5,
  5,
  5,
  3,
  3,
  3,
  3,
  3,
  3,
  3,
  3,
  0,
  0,
  0,
  0,
  3,
  3,
  3,
  3,
  3,
  3,
  3,
  3,
  6,
  6,
  6,
  6,
  6,
  6,
  5,
  5,
  5,
  5,
  4,
  4,
  4,
  4,
  3,
  3,
  3,
  3,
  3,
  3,
  3,
  3,
  1,
  1,
  1,
  1,
  1,
  1,
  3,
  3,
  3,
  3,
  3,
  3,
  3,
  3,
  4,
  4,
  4,
  4,
  5,
  5,
  5,
  5,
  3,
  3,
  3,
  3,
  3,
  3,
  3,
  3,
  0,
  0,
  1,
  1,
  0,
  0,
  3,
  3,
  3,
  3,
  3,
  3,
  3,
  3,
  5,
  5,
  5,
  5,
  4,
  4,
  4,
  4,
  3,
  3,
  3,
  3,
  3,
  3,
  3,
  3,
  1,
  1,
  0,
  0,
  5,
  5;
Material {
 0.994350;1.000000;1.000000;1.000000;;
 0.000000;
 1.000000;1.000000;1.000000;;
 0.0; 0.0; 0.0;;
 TextureFilename {
  "utl04.ppm";
 }
 }
Material {
 1.000000;1.000000;1.000000;1.000000;;
 0.000000;
 1.000000;1.000000;1.000000;;
 0.0; 0.0; 0.0;;
 TextureFilename {
  "utl04.ppm";
 }
 }
Material {
 1.000000;1.000000;1.000000;1.000000;;
 0.000000;
 1.000000;1.000000;1.000000;;
 0.0; 0.0; 0.0;;
 TextureFilename {
  "utl04.ppm";
 }
 }
Material {
 1.000000;1.000000;1.000000;1.000000;;
 0.000000;
 1.000000;1.000000;1.000000;;
 0.0; 0.0; 0.0;;
 TextureFilename {
  "utl04.ppm";
 }
 }
Material {
 1.000000;1.000000;1.000000;1.000000;;
 0.000000;
 1.000000;1.000000;1.000000;;
 0.0; 0.0; 0.0;;
 TextureFilename {
  "utl04.ppm";
 }
 }
Material {
 1.000000;1.000000;1.000000;1.000000;;
 0.000000;
 1.000000;1.000000;1.000000;;
 0.0; 0.0; 0.0;;
 TextureFilename {
  "utl04.ppm";
 }
 }
Material {
 1.000000;1.000000;1.000000;1.000000;;
 0.000000;
 1.000000;1.000000;1.000000;;
 0.0; 0.0; 0.0;;
 TextureFilename {
  "utl04.ppm";
 }
 }
}
 MeshNormals {
  402;
  0.000000;-0.000026;1.000000;,
  0.000000;-0.000026;1.000000;,
  0.000000;-0.000027;1.000000;,
  0.000000;-0.000027;1.000000;,
  0.617417;0.412391;0.669872;,
  0.617417;0.412391;0.669872;,
  0.617417;0.412391;0.669872;,
  0.617417;0.412391;0.669872;,
  0.617417;0.412391;0.669872;,
  0.617417;0.412391;0.669872;,
  0.403136;-0.269464;0.874569;,
  0.403136;-0.269464;0.874569;,
  0.403136;-0.269464;0.874569;,
  0.403136;-0.269464;0.874569;,
  0.096827;-0.700464;0.707089;,
  0.096827;-0.700464;0.707089;,
  0.096827;-0.700464;0.707089;,
  0.096827;-0.700464;0.707089;,
  0.096827;-0.700464;0.707089;,
  0.529100;-0.353261;0.771530;,
  0.529100;-0.353261;0.771530;,
  0.529100;-0.353261;0.771530;,
  0.529100;-0.353261;0.771530;,
  0.529100;-0.353261;0.771530;,
  0.529100;-0.353261;0.771530;,
  0.529100;-0.353261;0.771530;,
  -0.097979;-0.697039;0.710307;,
  -0.097979;-0.697039;0.710307;,
  -0.097979;-0.697039;0.710307;,
  -0.097979;-0.697039;0.710307;,
  -0.097979;-0.697039;0.710307;,
  0.067334;-0.458207;0.886292;,
  0.067334;-0.458207;0.886292;,
  0.067334;-0.458207;0.886292;,
  0.067334;-0.458207;0.886292;,
  0.067334;-0.458207;0.886292;,
  0.067334;-0.458207;0.886292;,
  0.067334;-0.458207;0.886292;,
  0.067334;-0.458207;0.886292;,
  -0.592350;-0.768845;0.240829;,
  -0.592350;-0.768845;0.240829;,
  -0.592350;-0.768845;0.240829;,
  -0.854075;-0.116599;0.506913;,
  -0.854075;-0.116599;0.506913;,
  -0.854075;-0.116599;0.506913;,
  -0.854075;-0.116599;0.506913;,
  -0.691744;0.515757;0.505455;,
  -0.691744;0.515757;0.505455;,
  -0.691744;0.515757;0.505455;,
  -0.691744;0.515757;0.505455;,
  -0.125112;0.856776;0.500281;,
  -0.125112;0.856776;0.500281;,
  -0.125112;0.856776;0.500281;,
  -0.125112;0.856776;0.500281;,
  0.534971;0.684808;0.494817;,
  0.534971;0.684808;0.494817;,
  0.534971;0.684808;0.494817;,
  0.534971;0.684808;0.494817;,
  0.863421;0.118472;0.490375;,
  0.863421;0.118472;0.490375;,
  0.863421;0.118472;0.490375;,
  0.863421;0.118472;0.490375;,
  0.777288;-0.587893;0.224066;,
  0.777288;-0.587893;0.224066;,
  0.777288;-0.587893;0.224066;,
  0.708590;-0.692458;0.135652;,
  0.708590;-0.692458;0.135652;,
  0.708590;-0.692458;0.135652;,
  0.708590;-0.692458;0.135652;,
  0.708590;-0.692458;0.135652;,
  0.007428;-0.991868;0.127054;,
  0.007428;-0.991868;0.127054;,
  0.007428;-0.991868;0.127054;,
  0.007428;-0.991868;0.127054;,
  0.007428;-0.991868;0.127054;,
  -0.705255;-0.698086;0.123655;,
  -0.705255;-0.698086;0.123655;,
  -0.705255;-0.698086;0.123655;,
  -0.705255;-0.698086;0.123655;,
  -0.705255;-0.698086;0.123655;,
  -0.992368;0.003876;0.123252;,
  -0.992368;0.003876;0.123252;,
  -0.992368;0.003876;0.123252;,
  -0.992368;0.003876;0.123252;,
  -0.992368;0.003876;0.123252;,
  -0.703133;0.700723;0.120793;,
  -0.703133;0.700723;0.120793;,
  -0.703133;0.700723;0.120793;,
  -0.703133;0.700723;0.120793;,
  -0.703133;0.700723;0.120793;,
  0.016783;0.992820;0.118433;,
  0.016783;0.992820;0.118433;,
  0.016783;0.992820;0.118433;,
  0.016783;0.992820;0.118433;,
  0.016783;0.992820;0.118433;,
  0.714544;0.688633;0.123339;,
  0.714544;0.688633;0.123339;,
  0.714544;0.688633;0.123339;,
  0.714544;0.688633;0.123339;,
  0.714544;0.688633;0.123339;,
  0.990786;-0.004300;0.135367;,
  0.990786;-0.004300;0.135367;,
  0.990786;-0.004300;0.135367;,
  0.990786;-0.004300;0.135367;,
  0.990786;-0.004300;0.135367;,
  -0.697004;-0.098111;0.710324;,
  -0.697004;-0.098111;0.710324;,
  -0.697004;-0.098111;0.710324;,
  -0.697004;-0.098111;0.710324;,
  -0.697004;-0.098111;0.710324;,
  -0.423513;-0.562222;0.710312;,
  -0.423513;-0.562222;0.710312;,
  -0.423513;-0.562222;0.710312;,
  -0.423513;-0.562222;0.710312;,
  -0.423513;-0.562222;0.710312;,
  -0.663281;-0.502346;-0.554713;,
  -0.663281;-0.502346;-0.554713;,
  -0.663281;-0.502346;-0.554713;,
  -0.663281;-0.502346;-0.554713;,
  -0.824229;0.113831;-0.554697;,
  -0.824229;0.113831;-0.554697;,
  -0.824229;0.113831;-0.554697;,
  -0.824229;0.113831;-0.554697;,
  0.697006;0.098073;0.710327;,
  0.697006;0.098073;0.710327;,
  0.697006;0.098073;0.710327;,
  0.697006;0.098073;0.710327;,
  0.697006;0.098073;0.710327;,
  0.423513;0.562184;0.710342;,
  0.423513;0.562184;0.710342;,
  0.423513;0.562184;0.710342;,
  0.423513;0.562184;0.710342;,
  0.423513;0.562184;0.710342;,
  0.756257;0.572787;-0.316213;,
  0.756257;0.572787;-0.316213;,
  0.756257;0.572787;-0.316213;,
  0.824229;-0.113803;-0.554703;,
  0.824229;-0.113803;-0.554703;,
  0.824229;-0.113803;-0.554703;,
  0.824229;-0.113803;-0.554703;,
  -0.368266;0.386893;0.845396;,
  -0.368266;0.386893;0.845396;,
  -0.368266;0.386893;0.845396;,
  -0.368266;0.386893;0.845396;,
  -0.368266;0.386893;0.845396;,
  -0.368266;0.386893;0.845396;,
  0.007050;0.000947;0.999975;,
  0.007050;0.000947;0.999975;,
  0.007050;0.000947;0.999975;,
  -0.562203;0.423495;0.710338;,
  -0.562203;0.423495;0.710338;,
  -0.562203;0.423495;0.710338;,
  -0.562203;0.423495;0.710338;,
  -0.562203;0.423495;0.710338;,
  -0.007050;-0.000998;0.999975;,
  -0.007050;-0.000998;0.999975;,
  -0.007050;-0.000998;0.999975;,
  0.562205;-0.423534;0.710313;,
  0.562205;-0.423534;0.710313;,
  0.562205;-0.423534;0.710313;,
  0.562205;-0.423534;0.710313;,
  0.562205;-0.423534;0.710313;,
  0.002215;0.985481;0.169769;,
  0.002215;0.985481;0.169769;,
  0.002215;0.985481;0.169769;,
  0.002215;0.985481;0.169769;,
  0.002215;0.985481;0.169769;,
  0.694883;0.697025;0.176902;,
  0.694883;0.697025;0.176902;,
  0.694883;0.697025;0.176902;,
  0.694883;0.697025;0.176902;,
  0.694883;0.697025;0.176902;,
  -0.987669;-0.001887;0.156544;,
  -0.987669;-0.001887;0.156544;,
  -0.987669;-0.001887;0.156544;,
  -0.987669;-0.001887;0.156544;,
  -0.987669;-0.001887;0.156544;,
  -0.702380;0.693373;0.160924;,
  -0.702380;0.693373;0.160924;,
  -0.702380;0.693373;0.160924;,
  -0.702380;0.693373;0.160924;,
  -0.702380;0.693373;0.160924;,
  0.005055;-0.986041;0.166428;,
  0.005055;-0.986041;0.166428;,
  0.005055;-0.986041;0.166428;,
  0.005055;-0.986041;0.166428;,
  0.005055;-0.986041;0.166428;,
  -0.697913;-0.697086;0.164284;,
  -0.697913;-0.697086;0.164284;,
  -0.697913;-0.697086;0.164284;,
  -0.697913;-0.697086;0.164284;,
  -0.697913;-0.697086;0.164284;,
  0.985400;0.003197;0.170228;,
  0.985400;0.003197;0.170228;,
  0.985400;0.003197;0.170228;,
  0.985400;0.003197;0.170228;,
  0.985400;0.003197;0.170228;,
  0.706693;-0.688150;0.164421;,
  0.706693;-0.688150;0.164421;,
  0.706693;-0.688150;0.164421;,
  0.706693;-0.688150;0.164421;,
  0.706693;-0.688150;0.164421;,
  -0.000001;-0.000026;1.000000;,
  -0.000001;-0.000026;1.000000;,
  0.000000;-0.000026;1.000000;,
  0.000000;-0.000026;1.000000;,
  -0.447906;-0.468919;0.761246;,
  -0.447906;-0.468919;0.761246;,
  -0.447906;-0.468919;0.761246;,
  -0.447906;-0.468919;0.761246;,
  -0.447906;-0.468919;0.761246;,
  0.711934;-0.702207;0.007429;,
  0.711934;-0.702207;0.007429;,
  0.711934;-0.702207;0.007429;,
  0.711934;-0.702207;0.007429;,
  0.711934;-0.702207;0.007429;,
  1.000000;0.000424;0.000551;,
  1.000000;0.000424;0.000551;,
  1.000000;0.000424;0.000551;,
  1.000000;0.000424;0.000551;,
  1.000000;0.000424;0.000551;,
  0.990253;-0.133882;0.038400;,
  0.990253;-0.133882;0.038400;,
  0.606754;-0.794732;0.015825;,
  0.606754;-0.794732;0.015825;,
  -0.711845;-0.702323;-0.004227;,
  -0.711845;-0.702323;-0.004227;,
  -0.711845;-0.702323;-0.004227;,
  -0.711845;-0.702323;-0.004227;,
  -0.711845;-0.702323;-0.004227;,
  -0.000436;-0.999997;0.002602;,
  -0.000436;-0.999997;0.002602;,
  -0.000436;-0.999997;0.002602;,
  -0.000436;-0.999997;0.002602;,
  -0.000436;-0.999997;0.002602;,
  -0.140677;-0.990054;-0.001587;,
  -0.140677;-0.990054;-0.001587;,
  -0.798849;-0.601465;0.008951;,
  -0.798849;-0.601465;0.008951;,
  -0.711262;0.702914;0.004260;,
  -0.711262;0.702914;0.004260;,
  -0.711262;0.702914;0.004260;,
  -0.711262;0.702914;0.004260;,
  -0.711262;0.702914;0.004260;,
  -1.000000;-0.000148;-0.000269;,
  -1.000000;-0.000148;-0.000269;,
  -1.000000;-0.000148;-0.000269;,
  -1.000000;-0.000148;-0.000269;,
  -1.000000;-0.000148;-0.000269;,
  -0.990896;0.133950;0.013499;,
  -0.990896;0.133950;0.013499;,
  -0.605910;0.795531;0.001803;,
  -0.605910;0.795531;0.001803;,
  0.711074;0.703097;-0.005276;,
  0.711074;0.703097;-0.005276;,
  0.711074;0.703097;-0.005276;,
  0.711074;0.703097;-0.005276;,
  0.711074;0.703097;-0.005276;,
  0.000550;0.999999;-0.001127;,
  0.000550;0.999999;-0.001127;,
  0.000550;0.999999;-0.001127;,
  0.000550;0.999999;-0.001127;,
  0.000550;0.999999;-0.001127;,
  0.139458;0.990218;0.004414;,
  0.139458;0.990218;0.004414;,
  0.798494;0.601301;0.029066;,
  0.798494;0.601301;0.029066;,
  0.061175;0.443033;-0.894416;,
  0.061175;0.443033;-0.894416;,
  0.061175;0.443033;-0.894416;,
  0.061175;0.443033;-0.894416;,
  0.061175;0.443033;-0.894416;,
  0.061175;0.443033;-0.894416;,
  0.061175;0.443033;-0.894416;,
  0.061175;0.443033;-0.894416;,
  -0.572779;0.756265;-0.316208;,
  -0.572779;0.756265;-0.316208;,
  -0.572779;0.756265;-0.316208;,
  -0.113817;-0.824214;-0.554722;,
  -0.113817;-0.824214;-0.554722;,
  -0.113817;-0.824214;-0.554722;,
  -0.113817;-0.824214;-0.554722;,
  0.502360;-0.663266;-0.554718;,
  0.502360;-0.663266;-0.554718;,
  0.502360;-0.663266;-0.554718;,
  0.502360;-0.663266;-0.554718;,
  -0.499705;-0.190416;0.845007;,
  -0.499705;-0.190416;0.845007;,
  -0.499705;-0.190416;0.845007;,
  -0.499705;-0.190416;0.845007;,
  -0.499705;-0.190416;0.845007;,
  -0.499705;-0.190416;0.845007;,
  0.315953;0.208425;0.925599;,
  0.315953;0.208425;0.925599;,
  0.315953;0.208425;0.925599;,
  0.315953;0.208425;0.925599;,
  0.315953;0.208425;0.925599;,
  -0.096679;0.700448;0.707125;,
  -0.096679;0.700448;0.707125;,
  -0.096679;0.700448;0.707125;,
  -0.096679;0.700448;0.707125;,
  -0.096679;0.700448;0.707125;,
  0.098046;0.696992;0.710344;,
  0.098046;0.696992;0.710344;,
  0.098046;0.696992;0.710344;,
  0.098046;0.696992;0.710344;,
  0.098046;0.696992;0.710344;,
  0.098092;-0.697023;0.710308;,
  0.098092;-0.697023;0.710308;,
  0.098092;-0.697023;0.710308;,
  0.098092;-0.697023;0.710308;,
  0.098092;-0.697023;0.710308;,
  -0.098092;0.696986;0.710344;,
  -0.098092;0.696986;0.710344;,
  -0.098092;0.696986;0.710344;,
  -0.098092;0.696986;0.710344;,
  -0.098092;0.696986;0.710344;,
  0.000000;-0.000027;1.000000;,
  0.000000;-0.000027;1.000000;,
  -0.000000;-0.000027;1.000000;,
  -0.000000;-0.000027;1.000000;,
  -0.604582;0.234429;0.761264;,
  -0.604582;0.234429;0.761264;,
  -0.604582;0.234429;0.761264;,
  -0.604582;0.234429;0.761264;,
  -0.604582;0.234429;0.761264;,
  -0.604582;0.234429;0.761264;,
  -0.000000;-0.000027;1.000000;,
  0.000000;-0.000027;1.000000;,
  -0.098092;0.696986;0.710344;,
  0.098092;-0.697023;0.710308;,
  0.098046;0.696992;0.710344;,
  -0.096679;0.700448;0.707125;,
  0.315953;0.208425;0.925599;,
  -0.499705;-0.190416;0.845007;,
  0.502360;-0.663266;-0.554718;,
  -0.113817;-0.824214;-0.554722;,
  -0.572779;0.756265;-0.316208;,
  0.061175;0.443033;-0.894416;,
  0.798494;0.601301;0.029066;,
  0.139458;0.990218;0.004414;,
  0.000550;0.999999;-0.001127;,
  0.711074;0.703097;-0.005276;,
  -0.605910;0.795531;0.001803;,
  -0.990896;0.133950;0.013499;,
  -1.000000;-0.000148;-0.000269;,
  -0.711262;0.702914;0.004260;,
  -0.798849;-0.601465;0.008951;,
  -0.140677;-0.990054;-0.001587;,
  -0.000436;-0.999997;0.002602;,
  -0.711845;-0.702323;-0.004227;,
  0.606754;-0.794732;0.015825;,
  0.990253;-0.133882;0.038400;,
  1.000000;0.000424;0.000551;,
  0.711934;-0.702207;0.007429;,
  -0.447906;-0.468919;0.761246;,
  0.000000;-0.000026;1.000000;,
  -0.000001;-0.000026;1.000000;,
  0.706693;-0.688150;0.164421;,
  0.985400;0.003197;0.170228;,
  -0.697913;-0.697086;0.164284;,
  0.005055;-0.986041;0.166428;,
  -0.702380;0.693373;0.160924;,
  -0.987669;-0.001887;0.156544;,
  0.694883;0.697025;0.176902;,
  0.002215;0.985481;0.169769;,
  0.562205;-0.423534;0.710313;,
  -0.007050;-0.000998;0.999975;,
  -0.562203;0.423495;0.710338;,
  0.007050;0.000947;0.999975;,
  -0.368266;0.386893;0.845396;,
  0.824229;-0.113803;-0.554703;,
  0.756257;0.572787;-0.316213;,
  0.423513;0.562184;0.710342;,
  0.697006;0.098073;0.710327;,
  -0.824229;0.113831;-0.554697;,
  -0.663281;-0.502346;-0.554713;,
  -0.423513;-0.562222;0.710312;,
  -0.697004;-0.098111;0.710324;,
  0.990786;-0.004300;0.135367;,
  0.714544;0.688633;0.123339;,
  0.016783;0.992820;0.118433;,
  -0.703133;0.700723;0.120793;,
  -0.992368;0.003876;0.123252;,
  -0.705255;-0.698086;0.123655;,
  0.007428;-0.991868;0.127054;,
  0.708590;-0.692458;0.135652;,
  0.777288;-0.587893;0.224066;,
  0.863421;0.118472;0.490375;,
  0.534971;0.684808;0.494817;,
  -0.125112;0.856776;0.500281;,
  -0.691744;0.515757;0.505455;,
  -0.854075;-0.116599;0.506913;,
  -0.592350;-0.768845;0.240829;,
  0.067334;-0.458207;0.886292;,
  -0.097979;-0.697039;0.710307;,
  0.529100;-0.353261;0.771530;,
  0.096827;-0.700464;0.707089;,
  0.403136;-0.269464;0.874569;,
  0.617417;0.412391;0.669872;,
  0.000000;-0.000027;1.000000;,
  0.000000;-0.000026;1.000000;;

  134;
  3;9,3,1;,
  3;13,8,0;,
  3;25,12,18;,
  3;30,24,17;,
  3;45,41,38;,
  3;49,44,37;,
  3;53,48,36;,
  3;57,52,35;,
  3;61,56,34;,
  3;64,60,33;,
  3;69,63,32;,
  3;74,68,31;,
  3;79,40,43;,
  3;84,78,42;,
  3;89,47,51;,
  3;94,88,50;,
  3;99,55,59;,
  3;104,98,58;,
  3;118,114,109;,
  3;122,117,108;,
  3;135,132,127;,
  3;139,134,126;,
  3;107,148,145;,
  3;153,106,144;,
  3;125,156,23;,
  3;161,124,22;,
  3;166,93,97;,
  3;171,165,96;,
  3;176,83,87;,
  3;181,175,86;,
  3;186,73,77;,
  3;191,185,76;,
  3;196,103,67;,
  3;201,195,66;,
  3;16,205,203;,
  3;210,15,202;,
  3;11,401,204;,
  3;14,10,356;,
  3;222,220,215;,
  3;224,221,214;,
  3;236,234,229;,
  3;238,235,228;,
  3;250,248,243;,
  3;252,249,242;,
  3;264,262,257;,
  3;266,263,256;,
  3;121,277,274;,
  3;116,120,273;,
  3;281,115,272;,
  3;285,280,271;,
  3;138,284,270;,
  3;133,137,269;,
  3;113,291,147;,
  3;105,112,146;,
  3;131,296,155;,
  3;123,130,154;,
  3;119,378,152;,
  3;276,375,151;,
  3;136,374,160;,
  3;283,371,159;,
  3;261,164,170;,
  3;255,260,169;,
  3;247,174,180;,
  3;241,246,179;,
  3;233,184,190;,
  3;227,232,189;,
  3;219,194,200;,
  3;213,218,199;,
  3;29,397,209;,
  3;290,28,208;,
  3;7,398,21;,
  3;295,6,20;,
  3;306,301,5;,
  3;294,305,4;,
  3;212,198,183;,
  3;231,211,182;,
  3;226,188,173;,
  3;245,225,172;,
  3;240,178,163;,
  3;259,239,162;,
  3;254,168,193;,
  3;217,253,192;,
  3;279,311,111;,
  3;376,278,110;,
  3;268,316,129;,
  3;372,267,128;,
  3;150,143,304;,
  3;315,149,303;,
  3;158,19,27;,
  3;310,157,26;,
  3;265,342,216;,
  3;352,339,353;,
  3;251,346,258;,
  3;340,343,341;,
  3;237,350,244;,
  3;344,347,345;,
  3;223,354,230;,
  3;348,351,349;,
  3;325,320,318;,
  3;300,324,317;,
  3;289,207,323;,
  3;142,288,322;,
  3;299,328,2;,
  3;399,298,400;,
  3;197,65,72;,
  3;361,358,71;,
  3;187,75,82;,
  3;363,360,81;,
  3;177,85,92;,
  3;365,362,91;,
  3;167,95,102;,
  3;359,364,101;,
  3;309,395,287;,
  3;377,308,286;,
  3;314,302,293;,
  3;373,313,292;,
  3;275,368,312;,
  3;338,337,329;,
  3;282,366,307;,
  3;336,335,330;,
  3;90,390,54;,
  3;380,381,389;,
  3;80,392,46;,
  3;382,383,391;,
  3;70,394,39;,
  3;384,385,393;,
  3;100,388,62;,
  3;386,379,387;,
  3;141,321,297;,
  3;331,140,332;,
  3;319,326,206;,
  3;357,327,355;,
  3;396,367,333;,
  3;369,334,370;;
 }
 MeshTextureCoords { 
 402;
 0.400842;0.304615;,
 0.400842;0.304615;,
 0.400842;0.144624;,
 0.400842;0.144624;,
 0.512357;0.816300;,
 0.512357;0.816300;,
 0.512563;0.661976;,
 0.512563;0.661976;,
 0.434609;0.074531;,
 0.434609;0.074531;,
 0.434546;0.374709;,
 0.434546;0.374709;,
 0.512337;0.816937;,
 0.434546;0.374709;,
 0.362305;0.436855;,
 0.362305;0.436855;,
 0.362305;0.436855;,
 0.512636;0.981139;,
 0.512636;0.981139;,
 0.214028;0.438085;,
 0.557703;0.970594;,
 0.557703;0.970594;,
 0.214028;0.438085;,
 0.214028;0.438085;,
 0.557681;0.816602;,
 0.557681;0.816602;,
 0.139648;0.500595;,
 0.139648;0.500595;,
 0.557979;0.980805;,
 0.557979;0.980805;,
 0.557979;0.980805;,
 0.988212;0.976291;,
 0.988212;0.976291;,
 0.064493;0.779935;,
 0.064493;0.779935;,
 0.064493;0.779935;,
 0.064493;0.779935;,
 0.064493;0.779935;,
 0.064493;0.779935;,
 0.988628;0.911268;,
 0.988628;0.911268;,
 0.020944;0.743874;,
 0.988175;0.843780;,
 0.988175;0.843780;,
 0.001911;0.654325;,
 0.001911;0.654325;,
 0.988630;0.770683;,
 0.988630;0.770683;,
 0.022098;0.562468;,
 0.022098;0.562468;,
 0.988215;0.711437;,
 0.988215;0.711437;,
 0.064493;0.528875;,
 0.064493;0.528875;,
 0.988620;0.770683;,
 0.988620;0.770683;,
 0.109471;0.565545;,
 0.109471;0.565545;,
 0.988252;0.843779;,
 0.988252;0.843779;,
 0.128504;0.654325;,
 0.128504;0.654325;,
 0.988617;0.911268;,
 0.988617;0.911268;,
 0.109471;0.743104;,
 0.730022;0.878000;,
 0.730022;0.878000;,
 0.730022;0.878000;,
 0.730022;0.878000;,
 0.730022;0.878000;,
 0.729594;0.929280;,
 0.729594;0.929280;,
 0.729594;0.929280;,
 0.729594;0.929280;,
 0.729594;0.929280;,
 0.729972;0.878000;,
 0.729972;0.878000;,
 0.729972;0.878000;,
 0.729972;0.878000;,
 0.729972;0.878000;,
 0.729600;0.843767;,
 0.729600;0.843767;,
 0.729600;0.843767;,
 0.729600;0.843767;,
 0.729600;0.843767;,
 0.729988;0.803925;,
 0.729988;0.803925;,
 0.729988;0.803925;,
 0.729988;0.803925;,
 0.729988;0.803925;,
 0.729596;0.758253;,
 0.729596;0.758253;,
 0.729596;0.758253;,
 0.729596;0.758253;,
 0.729596;0.758253;,
 0.729958;0.803925;,
 0.729958;0.803925;,
 0.729958;0.803925;,
 0.729958;0.803925;,
 0.729958;0.803925;,
 0.729589;0.843766;,
 0.729589;0.843766;,
 0.729589;0.843766;,
 0.729589;0.843766;,
 0.729589;0.843766;,
 0.000000;0.287117;,
 0.000000;0.287117;,
 0.000000;0.287117;,
 0.703515;0.306648;,
 0.703515;0.306648;,
 0.704670;0.465806;,
 0.704670;0.465806;,
 0.042199;0.484773;,
 0.042199;0.484773;,
 0.704670;0.465806;,
 0.227834;0.907029;,
 0.227834;0.907029;,
 0.997661;0.465791;,
 0.997661;0.465791;,
 0.996506;0.306633;,
 0.187500;0.710930;,
 0.187500;0.710930;,
 0.996506;0.306633;,
 0.279297;0.287117;,
 0.279297;0.287117;,
 0.279297;0.287117;,
 0.703515;0.306648;,
 0.703515;0.306648;,
 0.704088;0.144080;,
 0.704088;0.144080;,
 0.235805;0.085582;,
 0.235805;0.085582;,
 0.704088;0.144080;,
 0.422557;0.514831;,
 0.997080;0.144065;,
 0.997080;0.144065;,
 0.996506;0.306633;,
 0.462891;0.710930;,
 0.462891;0.710930;,
 0.996506;0.306633;,
 0.557700;0.815966;,
 0.557700;0.815966;,
 0.557906;0.661642;,
 0.065204;0.136149;,
 0.065204;0.136149;,
 0.065204;0.136149;,
 0.034379;0.287117;,
 0.034379;0.287117;,
 0.034379;0.287117;,
 0.044138;0.086875;,
 0.044138;0.086875;,
 0.704088;0.144080;,
 0.704088;0.144080;,
 0.044138;0.086875;,
 0.244918;0.287117;,
 0.244918;0.287117;,
 0.244918;0.287117;,
 0.240331;0.478307;,
 0.240331;0.478307;,
 0.704670;0.465806;,
 0.704670;0.465806;,
 0.240331;0.478307;,
 0.663118;0.713792;,
 0.663118;0.713792;,
 0.663118;0.713792;,
 0.663118;0.713792;,
 0.663118;0.713792;,
 0.663527;0.772548;,
 0.663527;0.772548;,
 0.663527;0.772548;,
 0.663527;0.772548;,
 0.663527;0.772548;,
 0.663116;0.843765;,
 0.663116;0.843765;,
 0.663116;0.843765;,
 0.663116;0.843765;,
 0.663116;0.843765;,
 0.663527;0.772548;,
 0.663527;0.772548;,
 0.663527;0.772548;,
 0.663117;0.751987;,
 0.663527;0.772548;,
 0.663114;0.973736;,
 0.663114;0.973736;,
 0.663114;0.973736;,
 0.663114;0.973736;,
 0.663114;0.973736;,
 0.663525;0.909447;,
 0.663525;0.909447;,
 0.663525;0.909447;,
 0.663525;0.909447;,
 0.663525;0.909447;,
 0.663116;0.843765;,
 0.663116;0.843765;,
 0.663116;0.843765;,
 0.663116;0.843765;,
 0.663116;0.843765;,
 0.663525;0.909447;,
 0.663525;0.909447;,
 0.663525;0.909447;,
 0.663525;0.909447;,
 0.663525;0.909447;,
 0.323767;0.304615;,
 0.323767;0.304615;,
 0.362305;0.337838;,
 0.362305;0.337838;,
 0.290000;0.374709;,
 0.512360;0.970928;,
 0.512337;0.816937;,
 0.512337;0.816937;,
 0.290000;0.374709;,
 0.625290;0.909576;,
 0.625290;0.909576;,
 0.625290;0.909576;,
 0.625290;0.909576;,
 0.625290;0.909576;,
 0.624881;0.843763;,
 0.624881;0.843763;,
 0.624881;0.843763;,
 0.624881;0.843763;,
 0.624881;0.843763;,
 0.571867;0.843760;,
 0.571867;0.843760;,
 0.572276;0.909519;,
 0.572276;0.909519;,
 0.625290;0.909576;,
 0.625290;0.909576;,
 0.625290;0.909576;,
 0.625290;0.909576;,
 0.625290;0.909576;,
 0.624879;0.974156;,
 0.624879;0.974156;,
 0.624879;0.974156;,
 0.624879;0.974156;,
 0.624879;0.974156;,
 0.571865;0.973776;,
 0.571865;0.973776;,
 0.572276;0.909519;,
 0.572276;0.909519;,
 0.625292;0.772342;,
 0.625292;0.772342;,
 0.625292;0.772342;,
 0.625292;0.772342;,
 0.625292;0.772342;,
 0.624881;0.843763;,
 0.624881;0.843763;,
 0.624881;0.843763;,
 0.624881;0.843763;,
 0.624881;0.843763;,
 0.571867;0.843760;,
 0.571867;0.843760;,
 0.572278;0.772394;,
 0.572278;0.772394;,
 0.625292;0.772342;,
 0.625292;0.772342;,
 0.625292;0.772342;,
 0.625292;0.772342;,
 0.625292;0.772342;,
 0.624883;0.713746;,
 0.624883;0.713746;,
 0.624883;0.713746;,
 0.624883;0.713746;,
 0.624883;0.713746;,
 0.571869;0.713745;,
 0.571869;0.713745;,
 0.572278;0.772394;,
 0.572278;0.772394;,
 0.996502;0.015625;,
 0.996502;0.015625;,
 0.325195;0.433594;,
 0.325195;0.433594;,
 0.325195;0.433594;,
 0.325195;0.433594;,
 0.325195;0.433594;,
 0.325195;0.433594;,
 0.997080;0.144065;,
 0.997080;0.144065;,
 0.227834;0.514831;,
 0.996510;0.597641;,
 0.996510;0.597641;,
 0.325195;0.988267;,
 0.325195;0.988267;,
 0.997661;0.465791;,
 0.997661;0.465791;,
 0.422557;0.907029;,
 0.422557;0.907029;,
 0.065204;0.438085;,
 0.065204;0.438085;,
 0.557703;0.970594;,
 0.557703;0.970594;,
 0.557681;0.816602;,
 0.065204;0.438085;,
 0.214093;0.136149;,
 0.214093;0.136149;,
 0.557700;0.815966;,
 0.557906;0.661642;,
 0.214093;0.136149;,
 0.512631;0.648447;,
 0.362305;0.012385;,
 0.362305;0.012385;,
 0.362305;0.012385;,
 0.512631;0.648447;,
 0.139648;0.073639;,
 0.139648;0.073639;,
 0.139648;0.073639;,
 0.557974;0.648113;,
 0.557974;0.648113;,
 0.703519;0.597656;,
 0.141588;0.569019;,
 0.141588;0.569019;,
 0.141588;0.569019;,
 0.703519;0.597656;,
 0.703511;0.015640;,
 0.139648;0.003921;,
 0.139648;0.003921;,
 0.139648;0.003921;,
 0.703511;0.015640;,
 0.362305;0.111402;,
 0.362305;0.111402;,
 0.323767;0.144624;,
 0.323767;0.144624;,
 0.512357;0.816300;,
 0.512563;0.661976;,
 0.512563;0.661976;,
 0.290000;0.074531;,
 0.290000;0.074531;,
 0.290000;0.074531;,
 0.323767;0.144624;,
 0.362305;0.111402;,
 0.703511;0.015640;,
 0.703519;0.597656;,
 0.557974;0.648113;,
 0.512631;0.648447;,
 0.214093;0.136149;,
 0.065204;0.438085;,
 0.997661;0.465791;,
 0.996510;0.597641;,
 0.997080;0.144065;,
 0.996502;0.015625;,
 0.572278;0.772394;,
 0.571869;0.713745;,
 0.624883;0.713746;,
 0.625292;0.772342;,
 0.572278;0.772394;,
 0.571867;0.843760;,
 0.624881;0.843763;,
 0.625292;0.772342;,
 0.572276;0.909519;,
 0.571865;0.973776;,
 0.624879;0.974156;,
 0.625290;0.909576;,
 0.572276;0.909519;,
 0.571867;0.843760;,
 0.624881;0.843763;,
 0.625290;0.909576;,
 0.290000;0.374709;,
 0.362305;0.337838;,
 0.323767;0.304615;,
 0.663525;0.909447;,
 0.663116;0.843765;,
 0.663525;0.909447;,
 0.663114;0.973736;,
 0.663527;0.772548;,
 0.663116;0.843765;,
 0.663527;0.772548;,
 0.663118;0.713792;,
 0.704670;0.465806;,
 0.244918;0.287117;,
 0.704088;0.144080;,
 0.034379;0.287117;,
 0.065204;0.136149;,
 0.996506;0.306633;,
 0.997080;0.144065;,
 0.235805;0.085582;,
 0.703515;0.306648;,
 0.996506;0.306633;,
 0.997661;0.465791;,
 0.042199;0.484773;,
 0.703515;0.306648;,
 0.729589;0.843766;,
 0.729958;0.803925;,
 0.729596;0.758253;,
 0.729988;0.803925;,
 0.729600;0.843767;,
 0.729972;0.878000;,
 0.729594;0.929280;,
 0.730022;0.878000;,
 0.988617;0.911268;,
 0.988252;0.843779;,
 0.988620;0.770683;,
 0.988215;0.711437;,
 0.988630;0.770683;,
 0.988175;0.843780;,
 0.988628;0.911268;,
 0.988212;0.976291;,
 0.139648;0.500595;,
 0.214028;0.438085;,
 0.512636;0.981139;,
 0.512360;0.970928;,
 0.434609;0.074531;,
 0.400842;0.144624;,
 0.400842;0.304615;;
 }
}
Frame frm-tfuselg {
  FrameTransformMatrix {
0.707100,0.707114,0.000000,0.000000,
-0.640869,0.640856,-0.422600,0.000000,
-0.298826,0.298820,0.906316,0.000000,
-1.089803,1.167463,-0.706391,1.000000;;
 }
Mesh tfuselg {
 36;
 -0.039099;-0.531716;0.069085;,
 -0.039099;-0.531716;0.069085;,
 -0.039099;-0.531716;0.069085;,
 -0.039099;-0.181531;-0.096443;,
 -0.039099;-0.181531;-0.096443;,
 -0.039099;-0.181531;-0.096443;,
 -0.039099;-0.181531;-0.096443;,
 -0.039099;0.624734;0.069085;,
 -0.039099;0.624734;0.069085;,
 -0.039099;0.624734;0.069085;,
 -0.039099;0.624734;0.069085;,
 -0.039099;0.794814;-0.013321;,
 -0.039099;0.794814;-0.013321;,
 -0.039099;0.794814;-0.013321;,
 0.039099;-0.531716;0.069085;,
 0.039099;-0.531716;0.069085;,
 0.039099;-0.531716;0.069085;,
 0.039099;-0.531716;0.069085;,
 0.039099;-0.181531;-0.096443;,
 0.039099;-0.181531;-0.096443;,
 0.039099;-0.181531;-0.096443;,
 0.039099;0.624734;0.069085;,
 0.039099;0.624734;0.069085;,
 0.039099;0.624734;0.069085;,
 0.039099;0.794814;-0.013321;,
 0.039099;0.794814;-0.013321;,
 0.039099;0.794814;-0.013321;,
 0.039099;0.794814;-0.013321;,
 0.039099;0.794814;-0.013321;,
 0.039099;0.624734;0.069085;,
 0.039099;-0.181531;-0.096443;,
 0.039099;-0.531716;0.069085;,
 -0.039099;0.794814;-0.013321;,
 -0.039099;0.624734;0.069085;,
 -0.039099;-0.181531;-0.096443;,
 -0.039099;-0.531716;0.069085;;

 12;
 3;13,6,2;,
 3;10,12,1;,
 3;27,20,5;,
 3;11,26,4;,
 3;23,17,19;,
 3;25,22,18;,
 3;9,0,16;,
 3;21,8,15;,
 3;3,30,14;,
 3;35,34,31;,
 3;24,32,7;,
 3;29,28,33;;

 MeshMaterialList {
  1;
  12;
  0,
  0,
  0,
  0,
  0,
  0,
  0,
  0,
  0,
  0,
  0,
  0;
Material {
 1.000000;1.000000;1.000000;1.000000;;
 0.000000;
 1.000000;1.000000;1.000000;;
 0.0; 0.0; 0.0;;
 TextureFilename {
  "utl04.ppm";
 }
 }
}
 MeshNormals {
  36;
  -0.976851;-0.208729;0.046847;,
  -0.976851;-0.208729;0.046847;,
  -0.976851;-0.208729;0.046847;,
  -0.242536;-0.172076;-0.954760;,
  -0.242536;-0.172076;-0.954760;,
  -0.242536;-0.172076;-0.954760;,
  -0.242536;-0.172076;-0.954760;,
  -0.242536;0.217004;0.945561;,
  -0.242536;0.217004;0.945561;,
  -0.242536;0.217004;0.945561;,
  -0.242536;0.217004;0.945561;,
  -0.966669;0.251750;-0.046624;,
  -0.966669;0.251750;-0.046624;,
  -0.966669;0.251750;-0.046624;,
  0.752217;-0.642922;0.144297;,
  0.752217;-0.642922;0.144297;,
  0.752217;-0.642922;0.144297;,
  0.752217;-0.642922;0.144297;,
  0.707107;-0.125421;-0.695895;,
  0.707107;-0.125421;-0.695895;,
  0.707107;-0.125421;-0.695895;,
  0.707107;0.158168;0.689190;,
  0.707107;0.158168;0.689190;,
  0.707107;0.158168;0.689190;,
  0.686414;0.715051;-0.132428;,
  0.686414;0.715051;-0.132428;,
  0.686414;0.715051;-0.132428;,
  0.686414;0.715051;-0.132428;,
  0.686414;0.715051;-0.132428;,
  0.707107;0.158168;0.689190;,
  0.707107;-0.125421;-0.695895;,
  0.752217;-0.642922;0.144297;,
  -0.966669;0.251750;-0.046624;,
  -0.242536;0.217004;0.945561;,
  -0.242536;-0.172076;-0.954760;,
  -0.976851;-0.208729;0.046847;;

  12;
  3;13,6,2;,
  3;10,12,1;,
  3;27,20,5;,
  3;11,26,4;,
  3;23,17,19;,
  3;25,22,18;,
  3;9,0,16;,
  3;21,8,15;,
  3;3,30,14;,
  3;35,34,31;,
  3;24,32,7;,
  3;29,28,33;;
 }
 MeshTextureCoords { 
 36;
 0.994141;0.648437;,
 0.992881;0.647241;,
 0.992881;0.647241;,
 0.880461;0.648416;,
 0.993281;0.647298;,
 0.993281;0.647298;,
 0.992796;0.621834;,
 0.848187;0.648580;,
 0.738368;0.646159;,
 0.738368;0.646159;,
 0.737205;0.647526;,
 0.736328;0.648438;,
 0.737200;0.622119;,
 0.737200;0.622119;,
 0.948520;0.621072;,
 0.994141;0.621094;,
 0.994141;0.621094;,
 0.993365;0.622461;,
 0.993152;0.647070;,
 0.993152;0.647070;,
 0.991989;0.624512;,
 0.738368;0.623372;,
 0.737056;0.622005;,
 0.737056;0.622005;,
 0.770988;0.621165;,
 0.736954;0.647123;,
 0.736328;0.621094;,
 0.736328;0.621094;,
 0.770988;0.621165;,
 0.848187;0.621236;,
 0.880461;0.621072;,
 0.948520;0.621072;,
 0.770988;0.648509;,
 0.848187;0.648580;,
 0.880461;0.648416;,
 0.948520;0.648416;;
 }
}
Frame frm-tengine {
  FrameTransformMatrix {
1.000000,0.000000,0.000000,0.000000,
0.000000,0.906316,0.422600,0.000000,
0.000000,-0.422600,0.906316,0.000000,
0.016150,0.789947,0.240555,1.000000;;
 }
Mesh tengine {
 60;
 0.514800;-0.000000;0.000000;,
 0.514800;-0.000000;0.000000;,
 0.514800;-0.000000;0.000000;,
 0.257400;0.445829;0.000000;,
 0.257400;0.445829;0.000000;,
 0.257400;0.445829;0.000000;,
 0.257400;0.445829;0.000000;,
 -0.257400;0.445829;-0.000000;,
 -0.257400;0.445829;-0.000000;,
 -0.257400;0.445829;-0.000000;,
 -0.257400;0.445829;-0.000000;,
 -0.514800;-0.000000;-0.000000;,
 -0.514800;-0.000000;-0.000000;,
 -0.514800;-0.000000;-0.000000;,
 -0.514800;-0.000000;-0.000000;,
 -0.257400;-0.445830;-0.000000;,
 -0.257400;-0.445830;-0.000000;,
 -0.257400;-0.445830;-0.000000;,
 0.257400;-0.445830;0.000000;,
 0.257400;-0.445830;0.000000;,
 0.257400;-0.445830;0.000000;,
 0.257400;-0.445830;0.000000;,
 0.257400;-0.445830;0.000000;,
 0.257400;-0.445830;0.000000;,
 0.514800;-0.000000;-0.252478;,
 0.514800;-0.000000;-0.252478;,
 0.514800;-0.000000;-0.252478;,
 0.514800;-0.000000;-0.252478;,
 0.514800;-0.000000;-0.252478;,
 0.514800;-0.000000;-0.252478;,
 0.257400;0.445829;-0.252478;,
 0.257400;0.445829;-0.252478;,
 0.257400;0.445829;-0.252478;,
 -0.257400;0.445829;-0.252478;,
 -0.257400;0.445829;-0.252478;,
 -0.257400;0.445829;-0.252478;,
 -0.257400;0.445829;-0.252478;,
 -0.514800;-0.000000;-0.252478;,
 -0.514800;-0.000000;-0.252478;,
 -0.514800;-0.000000;-0.252478;,
 -0.514800;-0.000000;-0.252478;,
 -0.257400;-0.445830;-0.252478;,
 -0.257400;-0.445830;-0.252478;,
 -0.257400;-0.445830;-0.252478;,
 -0.257400;-0.445830;-0.252478;,
 0.257400;-0.445830;-0.252478;,
 0.257400;-0.445830;-0.252478;,
 0.257400;-0.445830;-0.252478;,
 0.257400;-0.445830;-0.252478;,
 -0.257400;-0.445830;-0.252478;,
 -0.514800;-0.000000;-0.252478;,
 -0.257400;0.445829;-0.252478;,
 0.257400;0.445829;-0.252478;,
 0.514800;-0.000000;-0.252478;,
 0.257400;-0.445830;0.000000;,
 -0.257400;-0.445830;-0.000000;,
 -0.514800;-0.000000;-0.000000;,
 -0.257400;0.445829;-0.000000;,
 0.257400;0.445829;0.000000;,
 0.514800;-0.000000;0.000000;;

 20;
 3;29,2,23;,
 3;47,28,22;,
 3;32,6,1;,
 3;27,31,0;,
 3;36,10,5;,
 3;30,35,4;,
 3;40,14,9;,
 3;34,39,8;,
 3;44,17,13;,
 3;38,43,12;,
 3;46,21,16;,
 3;42,45,15;,
 3;11,55,20;,
 3;7,56,19;,
 3;3,57,18;,
 3;59,58,54;,
 3;33,52,26;,
 3;37,51,25;,
 3;41,50,24;,
 3;48,49,53;;

 MeshMaterialList {
  3;
  20;
  0,
  0,
  0,
  0,
  0,
  0,
  0,
  0,
  0,
  0,
  0,
  0,
  1,
  1,
  1,
  1,
  2,
  2,
  2,
  2;
Material {
 1.000000;1.000000;1.000000;1.000000;;
 0.000000;
 1.000000;1.000000;1.000000;;
 0.0; 0.0; 0.0;;
 TextureFilename {
  "utl04.ppm";
 }
 }
Material {
 1.000000;1.000000;1.000000;1.000000;;
 0.000000;
 1.000000;1.000000;1.000000;;
 0.0; 0.0; 0.0;;
 TextureFilename {
  "utl04.ppm";
 }
 }
Material {
 1.000000;1.000000;1.000000;1.000000;;
 0.000000;
 1.000000;1.000000;1.000000;;
 0.0; 0.0; 0.0;;
 TextureFilename {
  "utl04.ppm";
 }
 }
}
 MeshNormals {
  60;
  0.918559;0.176777;0.353553;,
  0.918559;0.176777;0.353553;,
  0.918559;0.176777;0.353553;,
  0.272352;0.786214;0.554700;,
  0.272352;0.786214;0.554700;,
  0.272352;0.786214;0.554700;,
  0.272352;0.786214;0.554700;,
  -0.522233;0.603023;0.603023;,
  -0.522233;0.603023;0.603023;,
  -0.522233;0.603023;0.603023;,
  -0.522233;0.603023;0.603023;,
  -0.817057;-0.157243;0.554700;,
  -0.817057;-0.157243;0.554700;,
  -0.817057;-0.157243;0.554700;,
  -0.817057;-0.157243;0.554700;,
  -0.306186;-0.883883;0.353553;,
  -0.306186;-0.883883;0.353553;,
  -0.306186;-0.883883;0.353553;,
  0.392792;-0.453557;0.800000;,
  0.392792;-0.453557;0.800000;,
  0.392792;-0.453557;0.800000;,
  0.392792;-0.453557;0.800000;,
  0.392792;-0.453557;0.800000;,
  0.392792;-0.453557;0.800000;,
  0.541736;-0.104257;-0.834058;,
  0.541736;-0.104257;-0.834058;,
  0.541736;-0.104257;-0.834058;,
  0.541736;-0.104257;-0.834058;,
  0.541736;-0.104257;-0.834058;,
  0.541736;-0.104257;-0.834058;,
  0.621059;0.717137;-0.316228;,
  0.621059;0.717137;-0.316228;,
  0.621059;0.717137;-0.316228;,
  -0.261117;0.753778;-0.603023;,
  -0.261117;0.753778;-0.603023;,
  -0.261117;0.753778;-0.603023;,
  -0.261117;0.753778;-0.603023;,
  -0.817057;0.157243;-0.554700;,
  -0.817057;0.157243;-0.554700;,
  -0.817057;0.157243;-0.554700;,
  -0.817057;0.157243;-0.554700;,
  -0.522233;-0.603023;-0.603023;,
  -0.522233;-0.603023;-0.603023;,
  -0.522233;-0.603023;-0.603023;,
  -0.522233;-0.603023;-0.603023;,
  0.310529;-0.896421;-0.316228;,
  0.310529;-0.896421;-0.316228;,
  0.310529;-0.896421;-0.316228;,
  0.310529;-0.896421;-0.316228;,
  -0.522233;-0.603023;-0.603023;,
  -0.817057;0.157243;-0.554700;,
  -0.261117;0.753778;-0.603023;,
  0.621059;0.717137;-0.316228;,
  0.541736;-0.104257;-0.834058;,
  0.392792;-0.453557;0.800000;,
  -0.306186;-0.883883;0.353553;,
  -0.817057;-0.157243;0.554700;,
  -0.522233;0.603023;0.603023;,
  0.272352;0.786214;0.554700;,
  0.918559;0.176777;0.353553;;

  20;
  3;29,2,23;,
  3;47,28,22;,
  3;32,6,1;,
  3;27,31,0;,
  3;36,10,5;,
  3;30,35,4;,
  3;40,14,9;,
  3;34,39,8;,
  3;44,17,13;,
  3;38,43,12;,
  3;46,21,16;,
  3;42,45,15;,
  3;11,55,20;,
  3;7,56,19;,
  3;3,57,18;,
  3;59,58,54;,
  3;33,52,26;,
  3;37,51,25;,
  3;41,50,24;,
  3;48,49,53;;
 }
 MeshTextureCoords { 
 60;
 0.470703;0.838867;,
 0.470703;0.838867;,
 0.470703;0.838867;,
 0.185962;0.770292;,
 0.470703;0.789063;,
 0.470703;0.789063;,
 0.470703;0.789063;,
 0.125015;0.740229;,
 0.470703;0.838867;,
 0.470703;0.838867;,
 0.470703;0.838867;,
 0.076025;0.834656;,
 0.470703;0.938477;,
 0.470703;0.938477;,
 0.470703;0.938477;,
 0.470703;0.988281;,
 0.470703;0.988281;,
 0.470703;0.988281;,
 0.158574;0.994604;,
 0.158574;0.994604;,
 0.158574;0.994604;,
 0.470703;0.938477;,
 0.470703;0.938477;,
 0.470703;0.938477;,
 0.367188;0.712891;,
 0.367188;0.712891;,
 0.367188;0.712891;,
 0.498047;0.838867;,
 0.498047;0.838867;,
 0.498047;0.838867;,
 0.498047;0.789063;,
 0.498047;0.789063;,
 0.498047;0.789063;,
 0.302734;0.621094;,
 0.498047;0.838867;,
 0.498047;0.838867;,
 0.498047;0.838867;,
 0.281250;0.712891;,
 0.498047;0.938477;,
 0.498047;0.938477;,
 0.498047;0.938477;,
 0.302734;0.804687;,
 0.498047;0.988281;,
 0.498047;0.988281;,
 0.498047;0.988281;,
 0.498047;0.938477;,
 0.498047;0.938477;,
 0.498047;0.938477;,
 0.345703;0.804687;,
 0.302734;0.804687;,
 0.281250;0.712891;,
 0.302734;0.621094;,
 0.345703;0.621094;,
 0.367188;0.712891;,
 0.158574;0.994604;,
 0.095313;0.964542;,
 0.076025;0.834656;,
 0.125015;0.740229;,
 0.185962;0.770292;,
 0.205635;0.900177;;
 }
}
}
}
Frame frm-bfuselg {
  FrameTransformMatrix {
-0.707100,0.707114,0.000000,0.000000,
-0.640869,-0.640856,-0.422600,0.000000,
-0.298826,-0.298820,0.906316,0.000000,
-1.082944,-1.155311,-0.706391,1.000000;;
 }
Mesh bfuselg {
 36;
 -0.039099;-0.531716;0.069085;,
 -0.039099;-0.531716;0.069085;,
 -0.039099;-0.531716;0.069085;,
 -0.039099;-0.181532;-0.096443;,
 -0.039099;-0.181532;-0.096443;,
 -0.039099;-0.181532;-0.096443;,
 -0.039099;-0.181532;-0.096443;,
 -0.039099;0.624734;0.069085;,
 -0.039099;0.624734;0.069085;,
 -0.039099;0.624734;0.069085;,
 -0.039099;0.624734;0.069085;,
 -0.039099;0.794814;-0.013321;,
 -0.039099;0.794814;-0.013321;,
 -0.039099;0.794814;-0.013321;,
 0.039099;-0.531716;0.069085;,
 0.039099;-0.531716;0.069085;,
 0.039099;-0.531716;0.069085;,
 0.039099;-0.531716;0.069085;,
 0.039099;-0.181532;-0.096443;,
 0.039099;-0.181532;-0.096443;,
 0.039099;-0.181532;-0.096443;,
 0.039099;0.624734;0.069085;,
 0.039099;0.624734;0.069085;,
 0.039099;0.624734;0.069085;,
 0.039099;0.794814;-0.013321;,
 0.039099;0.794814;-0.013321;,
 0.039099;0.794814;-0.013321;,
 0.039099;0.794814;-0.013321;,
 0.039099;0.794814;-0.013321;,
 0.039099;0.624734;0.069085;,
 0.039099;-0.181532;-0.096443;,
 0.039099;-0.531716;0.069085;,
 -0.039099;0.794814;-0.013321;,
 -0.039099;0.624734;0.069085;,
 -0.039099;-0.181532;-0.096443;,
 -0.039099;-0.531716;0.069085;;

 12;
 3;13,6,2;,
 3;10,12,1;,
 3;27,20,5;,
 3;11,26,4;,
 3;23,17,19;,
 3;25,22,18;,
 3;9,0,16;,
 3;21,8,15;,
 3;3,30,14;,
 3;35,34,31;,
 3;24,32,7;,
 3;29,28,33;;

 MeshMaterialList {
  1;
  12;
  0,
  0,
  0,
  0,
  0,
  0,
  0,
  0,
  0,
  0,
  0,
  0;
Material {
 1.000000;1.000000;1.000000;1.000000;;
 0.000000;
 1.000000;1.000000;1.000000;;
 0.0; 0.0; 0.0;;
 TextureFilename {
  "utl04.ppm";
 }
 }
}
 MeshNormals {
  36;
  -0.976851;-0.208729;0.046847;,
  -0.976851;-0.208729;0.046847;,
  -0.976851;-0.208729;0.046847;,
  -0.242536;-0.172076;-0.954760;,
  -0.242536;-0.172076;-0.954760;,
  -0.242536;-0.172076;-0.954760;,
  -0.242536;-0.172076;-0.954760;,
  -0.242536;0.217004;0.945561;,
  -0.242536;0.217004;0.945561;,
  -0.242536;0.217004;0.945561;,
  -0.242536;0.217004;0.945561;,
  -0.966669;0.251750;-0.046624;,
  -0.966669;0.251750;-0.046624;,
  -0.966669;0.251750;-0.046624;,
  0.752217;-0.642922;0.144297;,
  0.752217;-0.642922;0.144297;,
  0.752217;-0.642922;0.144297;,
  0.752217;-0.642922;0.144297;,
  0.707107;-0.125421;-0.695895;,
  0.707107;-0.125421;-0.695895;,
  0.707107;-0.125421;-0.695895;,
  0.707107;0.158168;0.689190;,
  0.707107;0.158168;0.689190;,
  0.707107;0.158168;0.689190;,
  0.686414;0.715051;-0.132428;,
  0.686414;0.715051;-0.132428;,
  0.686414;0.715051;-0.132428;,
  0.686414;0.715051;-0.132428;,
  0.686414;0.715051;-0.132428;,
  0.707107;0.158168;0.689190;,
  0.707107;-0.125421;-0.695895;,
  0.752217;-0.642922;0.144297;,
  -0.966669;0.251750;-0.046624;,
  -0.242536;0.217004;0.945561;,
  -0.242536;-0.172076;-0.954760;,
  -0.976851;-0.208729;0.046847;;

  12;
  3;13,6,2;,
  3;10,12,1;,
  3;27,20,5;,
  3;11,26,4;,
  3;23,17,19;,
  3;25,22,18;,
  3;9,0,16;,
  3;21,8,15;,
  3;3,30,14;,
  3;35,34,31;,
  3;24,32,7;,
  3;29,28,33;;
 }
 MeshTextureCoords { 
 36;
 0.991247;0.647583;,
 0.993186;0.647583;,
 0.993186;0.647583;,
 0.927519;0.648437;,
 0.974325;0.649345;,
 0.974325;0.649345;,
 0.956598;0.621948;,
 0.769634;0.648437;,
 0.738617;0.648437;,
 0.738617;0.648437;,
 0.765272;0.647583;,
 0.752117;0.648491;,
 0.737297;0.621948;,
 0.737297;0.621948;,
 0.996094;0.621094;,
 0.991732;0.621948;,
 0.991732;0.621948;,
 0.996094;0.621094;,
 0.954659;0.647583;,
 0.954659;0.647583;,
 0.974325;0.622002;,
 0.739102;0.621948;,
 0.769634;0.621094;,
 0.769634;0.621094;,
 0.736328;0.621094;,
 0.737297;0.648438;,
 0.752601;0.621147;,
 0.752601;0.621147;,
 0.736328;0.621094;,
 0.769634;0.621094;,
 0.927519;0.621094;,
 0.996094;0.621094;,
 0.736328;0.648437;,
 0.769634;0.648437;,
 0.927519;0.648437;,
 0.996094;0.648437;;
 }
}
Frame frm-bengine {
  FrameTransformMatrix {
1.000000,0.000000,0.000000,0.000000,
0.000000,0.906316,0.422600,0.000000,
0.000000,-0.422600,0.906316,0.000000,
0.016150,0.789947,0.240555,1.000000;;
 }
Mesh bengine {
 60;
 0.514800;-0.000001;-0.000000;,
 0.514800;-0.000001;-0.000000;,
 0.514800;-0.000001;-0.000000;,
 0.257400;0.445829;-0.000000;,
 0.257400;0.445829;-0.000000;,
 0.257400;0.445829;-0.000000;,
 0.257400;0.445829;-0.000000;,
 -0.257400;0.445829;0.000000;,
 -0.257400;0.445829;0.000000;,
 -0.257400;0.445829;0.000000;,
 -0.257400;0.445829;0.000000;,
 -0.514800;-0.000001;0.000000;,
 -0.514800;-0.000001;0.000000;,
 -0.514800;-0.000001;0.000000;,
 -0.514800;-0.000001;0.000000;,
 -0.257400;-0.445831;0.000000;,
 -0.257400;-0.445831;0.000000;,
 -0.257400;-0.445831;0.000000;,
 0.257400;-0.445831;-0.000000;,
 0.257400;-0.445831;-0.000000;,
 0.257400;-0.445831;-0.000000;,
 0.257400;-0.445831;-0.000000;,
 0.257400;-0.445831;-0.000000;,
 0.257400;-0.445831;-0.000000;,
 0.514800;-0.000001;-0.252478;,
 0.514800;-0.000001;-0.252478;,
 0.514800;-0.000001;-0.252478;,
 0.514800;-0.000001;-0.252478;,
 0.514800;-0.000001;-0.252478;,
 0.514800;-0.000001;-0.252478;,
 0.257400;0.445829;-0.252478;,
 0.257400;0.445829;-0.252478;,
 0.257400;0.445829;-0.252478;,
 -0.257400;0.445829;-0.252478;,
 -0.257400;0.445829;-0.252478;,
 -0.257400;0.445829;-0.252478;,
 -0.257400;0.445829;-0.252478;,
 -0.514800;-0.000001;-0.252478;,
 -0.514800;-0.000001;-0.252478;,
 -0.514800;-0.000001;-0.252478;,
 -0.514800;-0.000001;-0.252478;,
 -0.257400;-0.445831;-0.252478;,
 -0.257400;-0.445831;-0.252478;,
 -0.257400;-0.445831;-0.252478;,
 -0.257400;-0.445831;-0.252478;,
 0.257400;-0.445831;-0.252478;,
 0.257400;-0.445831;-0.252478;,
 0.257400;-0.445831;-0.252478;,
 0.257400;-0.445831;-0.252478;,
 -0.257400;-0.445831;-0.252478;,
 -0.514800;-0.000001;-0.252478;,
 -0.257400;0.445829;-0.252478;,
 0.257400;0.445829;-0.252478;,
 0.514800;-0.000001;-0.252478;,
 0.257400;-0.445831;-0.000000;,
 -0.257400;-0.445831;0.000000;,
 -0.514800;-0.000001;0.000000;,
 -0.257400;0.445829;0.000000;,
 0.257400;0.445829;-0.000000;,
 0.514800;-0.000001;-0.000000;;

 20;
 3;29,2,23;,
 3;47,28,22;,
 3;32,6,1;,
 3;27,31,0;,
 3;36,10,5;,
 3;30,35,4;,
 3;40,14,9;,
 3;34,39,8;,
 3;44,17,13;,
 3;38,43,12;,
 3;46,21,16;,
 3;42,45,15;,
 3;11,55,20;,
 3;7,56,19;,
 3;3,57,18;,
 3;59,58,54;,
 3;33,52,26;,
 3;37,51,25;,
 3;41,50,24;,
 3;48,49,53;;

 MeshMaterialList {
  3;
  20;
  0,
  0,
  0,
  0,
  0,
  0,
  0,
  0,
  0,
  0,
  0,
  0,
  1,
  1,
  1,
  1,
  2,
  2,
  2,
  2;
Material {
 1.000000;1.000000;1.000000;1.000000;;
 0.000000;
 1.000000;1.000000;1.000000;;
 0.0; 0.0; 0.0;;
 TextureFilename {
  "utl04.ppm";
 }
 }
Material {
 1.000000;1.000000;1.000000;1.000000;;
 0.000000;
 1.000000;1.000000;1.000000;;
 0.0; 0.0; 0.0;;
 TextureFilename {
  "utl04.ppm";
 }
 }
Material {
 1.000000;1.000000;1.000000;1.000000;;
 0.000000;
 1.000000;1.000000;1.000000;;
 0.0; 0.0; 0.0;;
 TextureFilename {
  "utl04.ppm";
 }
 }
}
 MeshNormals {
  60;
  0.918559;0.176777;0.353553;,
  0.918559;0.176777;0.353553;,
  0.918559;0.176777;0.353553;,
  0.272352;0.786214;0.554700;,
  0.272352;0.786214;0.554700;,
  0.272352;0.786214;0.554700;,
  0.272352;0.786214;0.554700;,
  -0.522233;0.603023;0.603023;,
  -0.522233;0.603023;0.603023;,
  -0.522233;0.603023;0.603023;,
  -0.522233;0.603023;0.603023;,
  -0.817057;-0.157243;0.554700;,
  -0.817057;-0.157243;0.554700;,
  -0.817057;-0.157243;0.554700;,
  -0.817057;-0.157243;0.554700;,
  -0.306186;-0.883883;0.353553;,
  -0.306186;-0.883883;0.353553;,
  -0.306186;-0.883883;0.353553;,
  0.392792;-0.453557;0.800000;,
  0.392792;-0.453557;0.800000;,
  0.392792;-0.453557;0.800000;,
  0.392792;-0.453557;0.800000;,
  0.392792;-0.453557;0.800000;,
  0.392792;-0.453557;0.800000;,
  0.541736;-0.104257;-0.834058;,
  0.541736;-0.104257;-0.834058;,
  0.541736;-0.104257;-0.834058;,
  0.541736;-0.104257;-0.834058;,
  0.541736;-0.104257;-0.834058;,
  0.541736;-0.104257;-0.834058;,
  0.621059;0.717137;-0.316228;,
  0.621059;0.717137;-0.316228;,
  0.621059;0.717137;-0.316228;,
  -0.261117;0.753778;-0.603023;,
  -0.261117;0.753778;-0.603023;,
  -0.261117;0.753778;-0.603023;,
  -0.261117;0.753778;-0.603023;,
  -0.817057;0.157243;-0.554700;,
  -0.817057;0.157243;-0.554700;,
  -0.817057;0.157243;-0.554700;,
  -0.817057;0.157243;-0.554700;,
  -0.522233;-0.603023;-0.603023;,
  -0.522233;-0.603023;-0.603023;,
  -0.522233;-0.603023;-0.603023;,
  -0.522233;-0.603023;-0.603023;,
  0.310530;-0.896421;-0.316228;,
  0.310530;-0.896421;-0.316228;,
  0.310530;-0.896421;-0.316228;,
  0.310530;-0.896421;-0.316228;,
  -0.522233;-0.603023;-0.603023;,
  -0.817057;0.157243;-0.554700;,
  -0.261117;0.753778;-0.603023;,
  0.621059;0.717137;-0.316228;,
  0.541736;-0.104257;-0.834058;,
  0.392792;-0.453557;0.800000;,
  -0.306186;-0.883883;0.353553;,
  -0.817057;-0.157243;0.554700;,
  -0.522233;0.603023;0.603023;,
  0.272352;0.786214;0.554700;,
  0.918559;0.176777;0.353553;;

  20;
  3;29,2,23;,
  3;47,28,22;,
  3;32,6,1;,
  3;27,31,0;,
  3;36,10,5;,
  3;30,35,4;,
  3;40,14,9;,
  3;34,39,8;,
  3;44,17,13;,
  3;38,43,12;,
  3;46,21,16;,
  3;42,45,15;,
  3;11,55,20;,
  3;7,56,19;,
  3;3,57,18;,
  3;59,58,54;,
  3;33,52,26;,
  3;37,51,25;,
  3;41,50,24;,
  3;48,49,53;;
 }
 MeshTextureCoords { 
 60;
 0.470930;0.987114;,
 0.470930;0.987114;,
 0.470716;0.806961;,
 0.185203;0.769842;,
 0.470703;0.789063;,
 0.470703;0.789063;,
 0.470703;0.789063;,
 0.124546;0.739821;,
 0.470716;0.806961;,
 0.470716;0.806961;,
 0.470930;0.987114;,
 0.075347;0.834501;,
 0.470703;0.938477;,
 0.470703;0.938477;,
 0.470690;0.984974;,
 0.470703;0.988281;,
 0.470703;0.988281;,
 0.470703;0.988281;,
 0.158244;0.993842;,
 0.158244;0.993842;,
 0.158244;0.993842;,
 0.470703;0.938477;,
 0.470690;0.984974;,
 0.470690;0.984974;,
 0.371094;0.712891;,
 0.371094;0.712891;,
 0.371094;0.712891;,
 0.498274;0.987114;,
 0.498060;0.806961;,
 0.498060;0.806961;,
 0.498047;0.789063;,
 0.498047;0.789063;,
 0.498047;0.789063;,
 0.300781;0.621094;,
 0.498060;0.806961;,
 0.498274;0.987114;,
 0.498274;0.987114;,
 0.277344;0.712891;,
 0.498047;0.938477;,
 0.498034;0.984974;,
 0.498034;0.984974;,
 0.300781;0.804688;,
 0.498047;0.988281;,
 0.498047;0.988281;,
 0.498047;0.988281;,
 0.498047;0.938477;,
 0.498047;0.938477;,
 0.498034;0.984974;,
 0.347656;0.804688;,
 0.300781;0.804688;,
 0.277344;0.712891;,
 0.300781;0.621094;,
 0.347656;0.621094;,
 0.371094;0.712891;,
 0.158244;0.993842;,
 0.095277;0.964591;,
 0.075347;0.834501;,
 0.124546;0.739821;,
 0.185203;0.769842;,
 0.205903;0.902240;;
 }
}
}
}
Frame frm-SS5 {
  FrameTransformMatrix {
0.000010,0.000000,0.000000,0.000000,
0.000000,0.000010,0.000000,0.000000,
0.000000,0.000000,0.000010,0.000000,
0.078392,1.577361,-1.262367,1.000000;;
 }
Mesh SS5 {
 6;
 0.000000;0.000000;-0.125000;,
 -0.125000;0.000000;-0.000000;,
 -0.000000;0.000000;0.125000;,
 0.125000;0.000000;0.000000;,
 0.000000;0.125000;0.000000;,
 0.000000;-0.125000;0.000000;;

 8;
 3;5,3,2;,
 3;4,2,3;,
 3;5,2,1;,
 3;4,1,2;,
 3;5,1,0;,
 3;4,0,1;,
 3;5,0,3;,
 3;4,3,0;;

 MeshMaterialList {
  1;
  8;
  0,
  0,
  0,
  0,
  0,
  0,
  0,
  0;
Material {
 1.000000;0.000000;0.000000;0.500000;;
 0.000000;
 1.000000;1.000000;1.000000;;
 0.0; 0.0; 0.0;;
 }
}
 MeshNormals {
  6;
  0.000000;0.000000;-1.000000;,
  -1.000000;0.000000;-0.000000;,
  -0.000000;0.000000;1.000000;,
  1.000000;0.000000;0.000000;,
  0.000000;1.000000;0.000000;,
  0.000000;-1.000000;0.000000;;

  8;
  3;5,3,2;,
  3;4,2,3;,
  3;5,2,1;,
  3;4,1,2;,
  3;5,1,0;,
  3;4,0,1;,
  3;5,0,3;,
  3;4,3,0;;
 }
 MeshTextureCoords { 
 6;
 0.000000;0.000000;,
 0.000000;0.000000;,
 0.000000;0.000000;,
 0.000000;0.000000;,
 0.000000;0.000000;,
 0.000000;0.000000;;
 }
}
}
Frame frm-SS6 {
  FrameTransformMatrix {
0.000010,0.000000,0.000000,0.000000,
0.000000,0.000010,0.000000,0.000000,
0.000000,0.000000,0.000010,0.000000,
0.078392,-1.580339,-1.262367,1.000000;;
 }
Mesh SS6 {
 6;
 0.000000;0.000000;-0.125000;,
 -0.125000;0.000000;-0.000000;,
 -0.000000;0.000000;0.125000;,
 0.125000;0.000000;0.000000;,
 0.000000;0.125000;0.000000;,
 0.000000;-0.125000;0.000000;;

 8;
 3;5,3,2;,
 3;4,2,3;,
 3;5,2,1;,
 3;4,1,2;,
 3;5,1,0;,
 3;4,0,1;,
 3;5,0,3;,
 3;4,3,0;;

 MeshMaterialList {
  1;
  8;
  0,
  0,
  0,
  0,
  0,
  0,
  0,
  0;
Material {
 0.000000;1.000000;0.000000;0.500000;;
 0.000000;
 1.000000;1.000000;1.000000;;
 0.0; 0.0; 0.0;;
 }
}
 MeshNormals {
  6;
  0.000000;0.000000;-1.000000;,
  -1.000000;0.000000;-0.000000;,
  -0.000000;0.000000;1.000000;,
  1.000000;0.000000;0.000000;,
  0.000000;1.000000;0.000000;,
  0.000000;-1.000000;0.000000;;

  8;
  3;5,3,2;,
  3;4,2,3;,
  3;5,2,1;,
  3;4,1,2;,
  3;5,1,0;,
  3;4,0,1;,
  3;5,0,3;,
  3;4,3,0;;
 }
 MeshTextureCoords { 
 6;
 0.000000;0.000000;,
 0.000000;0.000000;,
 0.000000;0.000000;,
 0.000000;0.000000;,
 0.000000;0.000000;,
 0.000000;0.000000;;
 }
}
}
}
}
AnimationSet {
 Animation anim-utl04 {
  {frm-utl04}
  AnimationKey {
  2;
  2;
  1; 3; -0.078392, 0.321239, 0.000000;;,
  30; 3; -0.078392, 0.321239, 0.000000;;;
  }
 }
 Animation anim-slrpan {
  {frm-slrpan}
  AnimationKey {
  1;
  2;
  1; 3; 1.000000, 0.710000, 1.000000;;,
  30; 3; 1.000000, 0.710000, 1.000000;;;
  }
  AnimationKey {
  2;
  2;
  1; 3; 0.000000, -0.321239, -4.657967;;,
  30; 3; 0.000000, -0.321239, -4.657967;;;
  }
 }
 Animation anim-SS1 {
  {frm-SS1}
  AnimationKey {
  0;
  2;
  1; 4; 0.904765, 0.000000, -0.425912, 0.000000;;,
  30; 4; 0.904765, 0.000000, -0.425912, 0.000000;;;
  }
  AnimationKey {
  1;
  5;
  1; 3; 0.000010, 0.000010, 0.000010;;,
  2; 3; 1.000000, 1.000000, 1.000000;;,
  5; 3; 0.249950, 0.249950, 0.249950;;,
  6; 3; 0.000010, 0.000010, 0.000010;;,
  30; 3; 0.000010, 0.000010, 0.000010;;;
  }
  AnimationKey {
  2;
  2;
  1; 3; -3.257395, 0.000000, -0.755938;;,
  30; 3; -3.257395, 0.000000, -0.755938;;;
  }
 }
 Animation anim-SS2 {
  {frm-SS2}
  AnimationKey {
  0;
  2;
  1; 4; 0.942753, 0.000000, -0.333491, 0.000000;;,
  30; 4; 0.942753, 0.000000, -0.333491, 0.000000;;;
  }
  AnimationKey {
  1;
  5;
  1; 3; 0.000010, 0.000010, 0.000010;;,
  2; 3; 1.000000, 1.000000, 1.000000;;,
  5; 3; 0.249950, 0.249950, 0.249950;;,
  6; 3; 0.000010, 0.000010, 0.000010;;,
  30; 3; 0.000010, 0.000010, 0.000010;;;
  }
  AnimationKey {
  2;
  2;
  1; 3; 3.449315, 0.000000, -0.755938;;,
  30; 3; 3.449315, 0.000000, -0.755938;;;
  }
 }
 Animation anim-SS3 {
  {frm-SS3}
  AnimationKey {
  0;
  2;
  1; 4; 0.937654, -0.347569, 0.000000, 0.000000;;,
  30; 4; 0.937654, -0.347569, 0.000000, 0.000000;;;
  }
  AnimationKey {
  1;
  5;
  1; 3; 0.000010, 0.000010, 0.000010;;,
  2; 3; 1.000000, 1.000000, 1.000000;;,
  5; 3; 0.249950, 0.249950, 0.249950;;,
  6; 3; 0.000010, 0.000010, 0.000010;;,
  30; 3; 0.000010, 0.000010, 0.000010;;;
  }
  AnimationKey {
  2;
  2;
  1; 3; 0.079809, 3.331054, -0.755938;;,
  30; 3; 0.079809, 3.331054, -0.755938;;;
  }
 }
 Animation anim-SS4 {
  {frm-SS4}
  AnimationKey {
  0;
  2;
  1; 4; 0.915123, -0.403175, 0.000000, 0.000000;;,
  30; 4; 0.915123, -0.403175, 0.000000, 0.000000;;;
  }
  AnimationKey {
  1;
  5;
  1; 3; 0.000010, 0.000010, 0.000010;;,
  2; 3; 1.000000, 1.000000, 1.000000;;,
  5; 3; 0.249950, 0.249950, 0.249950;;,
  6; 3; 0.000010, 0.000010, 0.000010;;,
  30; 3; 0.000010, 0.000010, 0.000010;;;
  }
  AnimationKey {
  2;
  2;
  1; 3; 0.079809, -3.472304, -0.755938;;,
  30; 3; 0.079809, -3.472304, -0.755938;;;
  }
 }
 Animation anim-fuselg {
  {frm-fuselg}
  AnimationKey {
  2;
  2;
  1; 3; 0.000000, -0.321239, 0.000000;;,
  30; 3; 0.000000, -0.321239, 0.000000;;;
  }
 }
 Animation anim-tfuselg {
  {frm-tfuselg}
  AnimationKey {
  0;
  2;
  1; 4; 0.901980, -0.199955, -0.082825, -0.373617;;,
  30; 4; 0.901980, -0.199955, -0.082825, -0.373617;;;
  }
  AnimationKey {
  2;
  2;
  1; 3; -1.089803, 1.167463, -0.706391;;,
  30; 3; -1.089803, 1.167463, -0.706391;;;
  }
 }
 Animation anim-tengine {
  {frm-tengine}
  AnimationKey {
  0;
  2;
  1; 4; 0.976298, 0.216430, 0.000000, 0.000000;;,
  30; 4; 0.976298, 0.216430, 0.000000, 0.000000;;;
  }
  AnimationKey {
  2;
  2;
  1; 3; 0.016150, 0.789947, 0.240555;;,
  30; 3; 0.016150, 0.789947, 0.240555;;;
  }
 }
 Animation anim-bfuselg {
  {frm-bfuselg}
  AnimationKey {
  0;
  2;
  1; 4; 0.373618, -0.082825, -0.199955, -0.901980;;,
  30; 4; 0.373618, -0.082825, -0.199955, -0.901980;;;
  }
  AnimationKey {
  2;
  2;
  1; 3; -1.082944, -1.155311, -0.706391;;,
  30; 3; -1.082944, -1.155311, -0.706391;;;
  }
 }
 Animation anim-bengine {
  {frm-bengine}
  AnimationKey {
  0;
  2;
  1; 4; 0.976298, 0.216430, 0.000000, 0.000000;;,
  30; 4; 0.976298, 0.216430, 0.000000, 0.000000;;;
  }
  AnimationKey {
  2;
  2;
  1; 3; 0.016150, 0.789947, 0.240555;;,
  30; 3; 0.016150, 0.789947, 0.240555;;;
  }
 }
 Animation anim-SS5 {
  {frm-SS5}
  AnimationKey {
  1;
  5;
  1; 3; 0.000010, 0.000010, 0.000010;;,
  2; 3; 1.000000, 1.000000, 1.000000;;,
  5; 3; 0.249950, 0.249950, 0.249950;;,
  6; 3; 0.000010, 0.000010, 0.000010;;,
  30; 3; 0.000010, 0.000010, 0.000010;;;
  }
  AnimationKey {
  2;
  2;
  1; 3; 0.078392, 1.577361, -1.262367;;,
  30; 3; 0.078392, 1.577361, -1.262367;;;
  }
 }
 Animation anim-SS6 {
  {frm-SS6}
  AnimationKey {
  1;
  5;
  1; 3; 0.000010, 0.000010, 0.000010;;,
  2; 3; 1.000000, 1.000000, 1.000000;;,
  5; 3; 0.249950, 0.249950, 0.249950;;,
  6; 3; 0.000010, 0.000010, 0.000010;;,
  30; 3; 0.000010, 0.000010, 0.000010;;;
  }
  AnimationKey {
  2;
  2;
  1; 3; 0.078392, -1.580339, -1.262367;;,
  30; 3; 0.078392, -1.580339, -1.262367;;;
  }
 }
}
