xof 0302txt 0032
template Header {
 <3D82AB43-62DA-11cf-AB39-0020AF71E433>
 WORD major;
 WORD minor;
 DWORD flags;
}

template Vector {
 <3D82AB5E-62DA-11cf-AB39-0020AF71E433>
 FLOAT x;
 FLOAT y;
 FLOAT z;
}

template Coords2d {
 <F6F23F44-7686-11cf-8F52-0040333594A3>
 FLOAT u;
 FLOAT v;
}

template Matrix4x4 {
 <F6F23F45-7686-11cf-8F52-0040333594A3>
 array FLOAT matrix[16];
}

template ColorRGBA {
 <35FF44E0-6C7C-11cf-8F52-0040333594A3>
 FLOAT red;
 FLOAT green;
 FLOAT blue;
 FLOAT alpha;
}

template ColorRGB {
 <D3E16E81-7835-11cf-8F52-0040333594A3>
 FLOAT red;
 FLOAT green;
 FLOAT blue;
}

template TextureFilename {
 <A42790E1-7810-11cf-8F52-0040333594A3>
 STRING filename;
}

template Material {
 <3D82AB4D-62DA-11cf-AB39-0020AF71E433>
 ColorRGBA faceColor;
 FLOAT power;
 ColorRGB specularColor;
 ColorRGB emissiveColor;
 [...]
}

template MeshFace {
 <3D82AB5F-62DA-11cf-AB39-0020AF71E433>
 DWORD nFaceVertexIndices;
 array DWORD faceVertexIndices[nFaceVertexIndices];
}

template MeshTextureCoords {
 <F6F23F40-7686-11cf-8F52-0040333594A3>
 DWORD nTextureCoords;
 array Coords2d textureCoords[nTextureCoords];
}

template MeshMaterialList {
 <F6F23F42-7686-11cf-8F52-0040333594A3>
 DWORD nMaterials;
 DWORD nFaceIndexes;
 array DWORD faceIndexes[nFaceIndexes];
 [Material]
}

template MeshNormals {
 <F6F23F43-7686-11cf-8F52-0040333594A3>
 DWORD nNormals;
 array Vector normals[nNormals];
 DWORD nFaceNormals;
 array MeshFace faceNormals[nFaceNormals];
}

template Mesh {
 <3D82AB44-62DA-11cf-AB39-0020AF71E433>
 DWORD nVertices;
 array Vector vertices[nVertices];
 DWORD nFaces;
 array MeshFace faces[nFaces];
 [...]
}

template FrameTransformMatrix {
 <F6F23F41-7686-11cf-8F52-0040333594A3>
 Matrix4x4 frameMatrix;
}

template Frame {
 <3D82AB46-62DA-11cf-AB39-0020AF71E433>
 [...]
}
template FloatKeys {
 <10DD46A9-775B-11cf-8F52-0040333594A3>
 DWORD nValues;
 array FLOAT values[nValues];
}

template TimedFloatKeys {
 <F406B180-7B3B-11cf-8F52-0040333594A3>
 DWORD time;
 FloatKeys tfkeys;
}

template AnimationKey {
 <10DD46A8-775B-11cf-8F52-0040333594A3>
 DWORD keyType;
 DWORD nKeys;
 array TimedFloatKeys keys[nKeys];
}

template AnimationOptions {
 <E2BF56C0-840F-11cf-8F52-0040333594A3>
 DWORD openclosed;
 DWORD positionquality;
}

template Animation {
 <3D82AB4F-62DA-11cf-AB39-0020AF71E433>
 [...]
}

template AnimationSet {
 <3D82AB50-62DA-11cf-AB39-0020AF71E433>
 [Animation]
}

Header {
 1;
 0;
 1;
}

Frame frm-dummyRoot {
  FrameTransformMatrix {
1.000000,0.000000,0.000000,0.000000,
0.000000,1.000000,0.000000,0.000000,
0.000000,0.000000,1.000000,0.000000,
0.000000,0.000000,0.000000,1.000000;;
 }
Frame frm-ss03 {
  FrameTransformMatrix {
1.000000,0.000000,0.000000,0.000000,
0.000000,1.000000,0.000000,0.000000,
0.000000,0.000000,1.000000,0.000000,
0.166592,-2.890342,8.229902,1.000000;;
 }
Mesh ss03 {
 4;
 -0.009428;-0.003333;0.000000;,
 0.000000;0.010000;0.000000;,
 0.004714;-0.003333;0.008165;,
 0.004714;-0.003333;-0.008165;;

 4;
 3;2,1,0;,
 3;3,0,1;,
 3;0,3,2;,
 3;1,2,3;;

 MeshNormals {
  4;
  -0.942809;-0.333333;0.000000;,
  0.000000;1.000000;-0.000000;,
  0.471404;-0.333333;0.816497;,
  0.471404;-0.333333;-0.816497;;

  4;
  3;2,1,0;,
  3;3,0,1;,
  3;0,3,2;,
  3;1,2,3;;
 }
}
}
Frame frm-ss02 {
  FrameTransformMatrix {
1.000000,0.000000,0.000000,0.000000,
0.000000,1.000000,0.000000,0.000000,
0.000000,0.000000,1.000000,0.000000,
7.920065,2.097479,-6.680623,1.000000;;
 }
Mesh ss02 {
 4;
 -0.009428;-0.003333;0.000000;,
 0.000000;0.010000;0.000000;,
 0.004714;-0.003333;0.008165;,
 0.004714;-0.003333;-0.008165;;

 4;
 3;2,1,0;,
 3;3,0,1;,
 3;0,3,2;,
 3;1,2,3;;

 MeshNormals {
  4;
  -0.942809;-0.333333;0.000000;,
  0.000000;1.000000;-0.000000;,
  0.471404;-0.333333;0.816497;,
  0.471404;-0.333333;-0.816497;;

  4;
  3;2,1,0;,
  3;3,0,1;,
  3;0,3,2;,
  3;1,2,3;;
 }
}
}
Frame frm-ss01 {
  FrameTransformMatrix {
1.000000,0.000000,0.000000,0.000000,
0.000000,1.000000,0.000000,0.000000,
0.000000,0.000000,1.000000,0.000000,
-7.918226,2.097479,-6.680623,1.000000;;
 }
Mesh ss01 {
 4;
 -0.009428;-0.003333;0.000000;,
 0.000000;0.010000;0.000000;,
 0.004714;-0.003333;0.008165;,
 0.004714;-0.003333;-0.008165;;

 4;
 3;2,1,0;,
 3;3,0,1;,
 3;0,3,2;,
 3;1,2,3;;

 MeshNormals {
  4;
  -0.942809;-0.333333;0.000000;,
  0.000000;1.000000;-0.000000;,
  0.471404;-0.333333;0.816497;,
  0.471404;-0.333333;-0.816497;;

  4;
  3;2,1,0;,
  3;3,0,1;,
  3;0,3,2;,
  3;1,2,3;;
 }
}
}
Frame frm-wepemt {
  FrameTransformMatrix {
1.000000,0.000000,0.000000,0.000000,
0.000000,1.000000,0.000000,0.000000,
0.000000,0.000000,1.000000,0.000000,
-0.319739,1.274666,13.855058,1.000000;;
 }
Mesh wepemt {
 4;
 -0.009428;-0.003333;0.000000;,
 0.000000;0.010000;0.000000;,
 0.004714;-0.003333;0.008165;,
 0.004714;-0.003333;-0.008165;;

 4;
 3;2,1,0;,
 3;3,0,1;,
 3;0,3,2;,
 3;1,2,3;;

 MeshNormals {
  4;
  -0.942809;-0.333333;0.000000;,
  0.000000;1.000000;-0.000000;,
  0.471404;-0.333333;0.816497;,
  0.471404;-0.333333;-0.816497;;

  4;
  3;2,1,0;,
  3;3,0,1;,
  3;0,3,2;,
  3;1,2,3;;
 }
}
}
Frame frm-cube2 {
  FrameTransformMatrix {
1.000000,0.000000,0.000000,0.000000,
0.000000,1.000000,0.000000,0.000000,
0.000000,0.000000,1.000000,0.000000,
0.000000,-1.869137,0.000000,1.000000;;
 }
Mesh cube2 {
 118;
 -5.492337;-0.970643;6.461571;,
 -5.492337;-0.970643;6.461571;,
 -5.492337;-0.970643;6.461571;,
 -5.492337;-0.970643;-6.461573;,
 -5.492337;-0.970643;-6.461573;,
 -5.492337;-0.970643;-6.461573;,
 -5.492337;-0.970643;-6.461573;,
 -4.270867;1.074823;5.024549;,
 -4.270867;1.074823;5.024549;,
 -4.270867;1.074823;-5.024549;,
 -4.270867;1.074823;-5.024549;,
 -4.270867;1.074823;-5.024549;,
 -4.270867;1.074823;-5.024549;,
 5.492337;-0.970643;6.461571;,
 5.492337;-0.970643;6.461571;,
 5.492337;-0.970643;6.461571;,
 5.492337;-0.970643;6.461571;,
 5.492337;-0.970643;-6.461573;,
 5.492337;-0.970643;-6.461573;,
 5.492337;-0.970643;-6.461573;,
 4.270867;1.074823;5.024549;,
 4.270867;1.074823;5.024549;,
 4.270867;1.074823;-5.024549;,
 4.270867;1.074823;-5.024549;,
 4.270867;1.074823;-5.024549;,
 4.270867;1.074823;-5.024549;,
 0.000000;-0.967795;8.121738;,
 0.000000;-0.967795;8.121738;,
 0.000000;1.074823;6.185994;,
 0.000000;1.074823;6.185994;,
 5.330393;-0.224821;-0.161337;,
 5.330393;-0.224821;-0.161337;,
 5.330393;-0.224821;-0.161337;,
 4.933977;0.414302;-0.161337;,
 4.933977;0.414302;-0.161337;,
 4.933977;0.414302;-0.161337;,
 4.934365;0.414302;-4.381959;,
 4.934365;0.414302;-4.381959;,
 5.329346;-0.224821;-4.381959;,
 5.329346;-0.224821;-4.381959;,
 -4.931175;0.414302;-4.381959;,
 -4.931175;0.414302;-4.381959;,
 -4.931175;0.414302;-4.381959;,
 -5.325242;-0.224821;-4.381959;,
 -5.325242;-0.224821;-4.381959;,
 -5.325242;-0.224821;-4.381959;,
 -5.327774;-0.224821;-0.161337;,
 -5.327774;-0.224821;-0.161337;,
 -4.932095;0.414302;-0.161337;,
 -4.932095;0.414302;-0.161337;,
 -9.244039;0.097991;-3.048964;,
 -9.244039;0.097991;-3.048964;,
 -9.244039;0.097991;-3.048964;,
 9.238873;0.098953;-3.049989;,
 9.238873;0.098953;-3.049989;,
 8.811907;0.239270;-5.158960;,
 8.811907;0.239270;-5.158960;,
 8.811907;0.239270;-5.158960;,
 7.886909;0.239270;-0.941016;,
 7.886909;0.239270;-0.941016;,
 7.886909;0.239270;-0.941016;,
 8.197517;-0.041364;-0.941016;,
 8.197517;-0.041364;-0.941016;,
 8.197517;-0.041364;-0.941016;,
 9.157678;-0.041364;-5.158960;,
 9.157678;-0.041364;-5.158960;,
 9.157678;-0.041364;-5.158960;,
 -8.811626;0.238788;-5.158448;,
 -8.811626;0.238788;-5.158448;,
 -8.811626;0.238788;-5.158448;,
 -8.197717;-0.041845;-0.940504;,
 -8.197717;-0.041845;-0.940504;,
 -8.197717;-0.041845;-0.940504;,
 -9.156602;-0.041845;-5.158448;,
 -9.156602;-0.041845;-5.158448;,
 -9.156602;-0.041845;-5.158448;,
 -7.887683;0.238788;-0.940504;,
 -7.887683;0.238788;-0.940504;,
 -7.887683;0.238788;-0.940504;,
 0.000000;1.074823;-6.988661;,
 0.000000;1.074823;-6.988661;,
 0.000000;-0.970643;-8.425684;,
 0.000000;-0.970643;-8.425684;,
 0.000000;-0.970643;-8.425684;,
 0.000000;1.074823;-6.988661;,
 2.746168;-2.103633;3.230785;,
 -2.746168;-2.103633;3.230785;,
 -2.746168;-2.103633;-3.230786;,
 2.746168;-2.103633;-3.230786;,
 0.000000;-2.386881;-0.000001;,
 -7.887683;0.238788;-0.940504;,
 -9.156602;-0.041845;-5.158448;,
 -8.197717;-0.041845;-0.940504;,
 -8.811626;0.238788;-5.158448;,
 9.157678;-0.041364;-5.158960;,
 8.197517;-0.041364;-0.941016;,
 7.886909;0.239270;-0.941016;,
 8.811907;0.239270;-5.158960;,
 9.238873;0.098953;-3.049989;,
 -9.244039;0.097991;-3.048964;,
 -4.932095;0.414302;-0.161337;,
 -5.327774;-0.224821;-0.161337;,
 -5.325242;-0.224821;-4.381959;,
 -4.931175;0.414302;-4.381959;,
 5.329346;-0.224821;-4.381959;,
 4.934365;0.414302;-4.381959;,
 4.933977;0.414302;-0.161337;,
 5.330393;-0.224821;-0.161337;,
 0.000000;1.074823;6.185994;,
 0.000000;-0.967795;8.121738;,
 4.270867;1.074823;-5.024549;,
 4.270867;1.074823;5.024549;,
 5.492337;-0.970643;-6.461573;,
 5.492337;-0.970643;6.461571;,
 -4.270867;1.074823;-5.024549;,
 -4.270867;1.074823;5.024549;,
 -5.492337;-0.970643;-6.461573;,
 -5.492337;-0.970643;6.461571;;

 38;
 4;80,25,19,82;,
 4;29,8,2,27;,
 3;88,89,87;,
 5;28,21,24,12,7;,
 4;26,16,20,108;,
 3;75,52,69;,
 3;60,54,57;,
 4;45,42,11,6;,
 3;78,51,72;,
 4;32,35,111,15;,
 3;66,53,63;,
 4;59,34,31,62;,
 4;65,39,37,56;,
 4;77,49,41,68;,
 4;74,44,47,71;,
 3;67,50,76;,
 4;70,46,48,90;,
 3;92,99,73;,
 4;93,40,43,91;,
 4;55,36,33,58;,
 3;97,98,64;,
 4;61,30,38,94;,
 3;95,98,96;,
 3;86,89,85;,
 4;86,1,5,87;,
 4;88,18,14,85;,
 5;85,13,109,0,86;,
 3;85,89,88;,
 5;87,4,81,17,88;,
 3;87,89,86;,
 4;23,111,106,105;,
 4;104,107,113,112;,
 4;112,22,105,104;,
 4;115,10,103,100;,
 4;101,102,3,117;,
 4;117,115,100,101;,
 4;83,116,9,79;,
 3;110,84,114;;

 MeshMaterialList {
  7;
  38;
  0,
  1,
  2,
  3,
  1,
  4,
  4,
  5,
  4,
  6,
  4,
  4,
  4,
  4,
  4,
  4,
  4,
  4,
  4,
  4,
  4,
  4,
  4,
  2,
  2,
  2,
  2,
  2,
  2,
  2,
  6,
  6,
  6,
  5,
  5,
  5,
  0,
  3;
Material {
 1.000000;1.000000;1.000000;1.000000;;
 50.000000;
 1.000000;1.000000;1.000000;;
 0.0; 0.0; 0.0;;
 TextureFilename {
  "utl01b.ppm";
 }
 }
Material {
 1.000000;1.000000;1.000000;1.000000;;
 50.000000;
 1.000000;1.000000;1.000000;;
 0.0; 0.0; 0.0;;
 TextureFilename {
  "utl01b.ppm";
 }
 }
Material {
 1.000000;1.000000;1.000000;1.000000;;
 50.000000;
 1.000000;1.000000;1.000000;;
 0.0; 0.0; 0.0;;
 TextureFilename {
  "utl01b.ppm";
 }
 }
Material {
 1.000000;1.000000;1.000000;1.000000;;
 50.000000;
 1.000000;1.000000;1.000000;;
 0.0; 0.0; 0.0;;
 TextureFilename {
  "utl01b.ppm";
 }
 }
Material {
 1.000000;1.000000;1.000000;1.000000;;
 50.000000;
 1.000000;1.000000;1.000000;;
 0.0; 0.0; 0.0;;
 TextureFilename {
  "utl01b.ppm";
 }
 }
Material {
 1.000000;1.000000;1.000000;1.000000;;
 50.000000;
 1.000000;1.000000;1.000000;;
 0.0; 0.0; 0.0;;
 TextureFilename {
  "utl01b.ppm";
 }
 }
Material {
 1.000000;1.000000;1.000000;1.000000;;
 50.000000;
 1.000000;1.000000;1.000000;;
 0.0; 0.0; 0.0;;
 TextureFilename {
  "utl01b.ppm";
 }
 }
}
 MeshNormals {
  118;
  -0.918193;-0.104311;0.382153;,
  -0.918193;-0.104311;0.382153;,
  -0.918193;-0.104311;0.382153;,
  -0.900735;-0.122514;-0.416733;,
  -0.900735;-0.122514;-0.416733;,
  -0.900735;-0.122514;-0.416733;,
  -0.900735;-0.122514;-0.416733;,
  -0.507081;0.833538;0.219279;,
  -0.507081;0.833538;0.219279;,
  -0.412808;0.887269;-0.205775;,
  -0.412808;0.887269;-0.205775;,
  -0.412808;0.887269;-0.205775;,
  -0.412808;0.887269;-0.205775;,
  0.918081;-0.105360;0.382135;,
  0.918081;-0.105360;0.382135;,
  0.918081;-0.105360;0.382135;,
  0.918081;-0.105360;0.382135;,
  0.900362;-0.123396;-0.417279;,
  0.900362;-0.123396;-0.417279;,
  0.900362;-0.123396;-0.417279;,
  0.506576;0.833827;0.219349;,
  0.506576;0.833827;0.219349;,
  0.412185;0.887470;-0.206157;,
  0.412185;0.887470;-0.206157;,
  0.412185;0.887470;-0.206157;,
  0.412185;0.887470;-0.206157;,
  0.000000;0.214294;0.976769;,
  0.000000;0.214294;0.976769;,
  0.000000;0.848484;0.529221;,
  0.000000;0.848484;0.529221;,
  0.908302;-0.020208;0.417826;,
  0.908302;-0.020208;0.417826;,
  0.908302;-0.020208;0.417826;,
  0.579322;0.762273;0.288662;,
  0.579322;0.762273;0.288662;,
  0.579322;0.762273;0.288662;,
  0.501972;0.775646;-0.382618;,
  0.501972;0.775646;-0.382618;,
  0.817956;-0.170703;-0.549371;,
  0.817956;-0.170703;-0.549371;,
  -0.503010;0.775282;-0.381992;,
  -0.503010;0.775282;-0.381992;,
  -0.503010;0.775282;-0.381992;,
  -0.818431;-0.169298;-0.549098;,
  -0.818431;-0.169298;-0.549098;,
  -0.818431;-0.169298;-0.549098;,
  -0.908223;-0.019039;0.418053;,
  -0.908223;-0.019039;0.418053;,
  -0.579886;0.761846;0.288656;,
  -0.579886;0.761846;0.288656;,
  -0.720710;0.674355;0.160691;,
  -0.720710;0.674355;0.160691;,
  -0.720710;0.674355;0.160691;,
  0.720687;0.674326;0.160919;,
  0.720687;0.674326;0.160919;,
  0.227183;0.913197;-0.338318;,
  0.227183;0.913197;-0.338318;,
  0.227183;0.913197;-0.338318;,
  0.324505;0.856961;0.400393;,
  0.324505;0.856961;0.400393;,
  0.324505;0.856961;0.400393;,
  0.577294;-0.449615;0.681600;,
  0.577294;-0.449615;0.681600;,
  0.577294;-0.449615;0.681600;,
  0.400557;-0.742726;-0.536574;,
  0.400557;-0.742726;-0.536574;,
  0.400557;-0.742726;-0.536574;,
  -0.227419;0.912941;-0.338850;,
  -0.227419;0.912941;-0.338850;,
  -0.227419;0.912941;-0.338850;,
  -0.575781;-0.450847;0.682065;,
  -0.575781;-0.450847;0.682065;,
  -0.575781;-0.450847;0.682065;,
  -0.399066;-0.742725;-0.537685;,
  -0.399066;-0.742725;-0.537685;,
  -0.399066;-0.742725;-0.537685;,
  -0.324494;0.856703;0.400952;,
  -0.324494;0.856703;0.400952;,
  -0.324494;0.856703;0.400952;,
  0.000000;0.832163;-0.554530;,
  0.000000;0.832163;-0.554530;,
  0.000000;0.165800;-0.986159;,
  0.000000;0.165800;-0.986159;,
  0.000000;0.165800;-0.986159;,
  0.000000;0.832163;-0.554530;,
  0.123227;-0.988585;0.086684;,
  -0.123227;-0.988585;0.086684;,
  -0.123170;-0.988837;-0.083844;,
  0.123170;-0.988837;-0.083844;,
  0.000000;-1.000000;0.000000;,
  -0.324494;0.856703;0.400952;,
  -0.399066;-0.742725;-0.537685;,
  -0.575781;-0.450847;0.682065;,
  -0.227419;0.912941;-0.338850;,
  0.400557;-0.742726;-0.536574;,
  0.577294;-0.449615;0.681600;,
  0.324505;0.856961;0.400393;,
  0.227183;0.913197;-0.338318;,
  0.720687;0.674326;0.160919;,
  -0.720710;0.674355;0.160691;,
  -0.579886;0.761846;0.288656;,
  -0.908223;-0.019039;0.418053;,
  -0.818431;-0.169298;-0.549098;,
  -0.503010;0.775282;-0.381992;,
  0.817956;-0.170703;-0.549371;,
  0.501972;0.775646;-0.382618;,
  0.579322;0.762273;0.288662;,
  0.908302;-0.020208;0.417826;,
  0.000000;0.848484;0.529221;,
  0.000000;0.214294;0.976769;,
  0.412185;0.887470;-0.206157;,
  0.506576;0.833827;0.219349;,
  0.900362;-0.123396;-0.417279;,
  0.918081;-0.105360;0.382135;,
  -0.412808;0.887269;-0.205775;,
  -0.507081;0.833538;0.219279;,
  -0.900735;-0.122514;-0.416733;,
  -0.918193;-0.104311;0.382153;;

  38;
  4;80,25,19,82;,
  4;29,8,2,27;,
  3;88,89,87;,
  5;28,21,24,12,7;,
  4;26,16,20,108;,
  3;75,52,69;,
  3;60,54,57;,
  4;45,42,11,6;,
  3;78,51,72;,
  4;32,35,111,15;,
  3;66,53,63;,
  4;59,34,31,62;,
  4;65,39,37,56;,
  4;77,49,41,68;,
  4;74,44,47,71;,
  3;67,50,76;,
  4;70,46,48,90;,
  3;92,99,73;,
  4;93,40,43,91;,
  4;55,36,33,58;,
  3;97,98,64;,
  4;61,30,38,94;,
  3;95,98,96;,
  3;86,89,85;,
  4;86,1,5,87;,
  4;88,18,14,85;,
  5;85,13,109,0,86;,
  3;85,89,88;,
  5;87,4,81,17,88;,
  3;87,89,86;,
  4;23,111,106,105;,
  4;104,107,113,112;,
  4;112,22,105,104;,
  4;115,10,103,100;,
  4;101,102,3,117;,
  4;117,115,100,101;,
  4;83,116,9,79;,
  3;110,84,114;;
 }
 MeshTextureCoords { 
 118;
 0.884070;0.990226;,
 0.884070;0.990226;,
 0.946347;0.186312;,
 0.580734;0.630388;,
 0.690545;0.991459;,
 0.690545;0.991459;,
 0.580734;0.630388;,
 0.879162;0.551021;,
 0.904387;0.043748;,
 0.899388;0.051309;,
 0.621802;0.514152;,
 0.621802;0.514152;,
 0.883339;0.670690;,
 0.883701;0.733555;,
 0.883701;0.733555;,
 0.952983;0.416385;,
 0.568999;0.186312;,
 0.690176;0.734788;,
 0.690176;0.734788;,
 0.575375;0.184778;,
 0.610959;0.043748;,
 0.654316;0.551959;,
 0.623212;0.297768;,
 0.623212;0.297768;,
 0.658493;0.671628;,
 0.615905;0.052978;,
 0.757673;0.186113;,
 0.757673;0.186113;,
 0.766256;0.537659;,
 0.757673;0.043748;,
 0.101302;0.566620;,
 0.497070;0.814453;,
 0.762837;0.373135;,
 0.427434;0.779427;,
 0.500977;0.810547;,
 0.762837;0.336072;,
 0.427415;0.951688;,
 0.340872;0.762242;,
 0.101213;0.686181;,
 0.336444;0.744111;,
 0.332223;0.529024;,
 0.426758;0.951172;,
 0.640166;0.551687;,
 0.337281;0.549736;,
 0.101213;0.686181;,
 0.640166;0.588006;,
 0.428711;0.775391;,
 0.101302;0.566620;,
 0.426758;0.779297;,
 0.428711;0.779297;,
 0.516602;0.892578;,
 0.516602;0.892578;,
 0.516602;0.892578;,
 0.237868;0.648420;,
 0.518791;0.897283;,
 0.509629;0.983380;,
 0.337281;0.549736;,
 0.509629;0.983380;,
 0.490054;0.811228;,
 0.428711;0.775391;,
 0.490054;0.811228;,
 0.201381;0.588692;,
 0.426758;0.779297;,
 0.201381;0.588692;,
 0.512695;0.986328;,
 0.332223;0.529024;,
 0.234819;0.708177;,
 0.508789;0.982422;,
 0.508789;0.982422;,
 0.508789;0.982422;,
 0.500977;0.810547;,
 0.201381;0.588692;,
 0.496953;0.810933;,
 0.234819;0.708177;,
 0.234819;0.708177;,
 0.512695;0.986328;,
 0.489258;0.810547;,
 0.489258;0.810547;,
 0.489258;0.810547;,
 0.757646;0.052143;,
 0.757646;0.052143;,
 0.664781;0.861543;,
 0.757655;0.183704;,
 0.757655;0.183704;,
 0.771733;0.694549;,
 0.835412;0.798031;,
 0.835596;0.926366;,
 0.738834;0.926983;,
 0.738650;0.798648;,
 0.787123;0.862507;,
 0.497070;0.814453;,
 0.340872;0.762242;,
 0.201381;0.588692;,
 0.336444;0.744111;,
 0.234819;0.708177;,
 0.496953;0.810933;,
 0.489258;0.810547;,
 0.508789;0.982422;,
 0.516602;0.892578;,
 0.237868;0.648420;,
 0.760785;0.551687;,
 0.760785;0.588006;,
 0.640166;0.588006;,
 0.640166;0.551687;,
 0.641661;0.373135;,
 0.641661;0.336072;,
 0.762837;0.336072;,
 0.762837;0.373135;,
 0.757673;0.043748;,
 0.908747;0.861732;,
 0.658493;0.671628;,
 0.911725;0.297768;,
 0.581955;0.416385;,
 0.952983;0.416385;,
 0.883339;0.670690;,
 0.908990;0.514152;,
 0.939935;0.182631;,
 0.950058;0.630388;;
 }
}
Frame frm-cyl3 {
  FrameTransformMatrix {
1.000000,0.000000,0.000000,0.000000,
0.000000,1.000000,0.000000,0.000000,
0.000000,0.000000,1.000000,0.000000,
0.000000,1.591055,0.000000,1.000000;;
 }
Mesh cyl3 {
 32;
 3.253368;-0.770411;0.000000;,
 3.253368;0.929606;0.000000;,
 2.300479;-0.770411;2.300479;,
 2.300479;0.447201;2.300479;,
 0.000000;-0.770411;3.253368;,
 0.000000;0.447201;3.253368;,
 -2.300478;-0.770411;2.300478;,
 -2.300478;0.447201;2.300478;,
 -3.253368;-0.770411;0.000000;,
 -3.253368;0.929606;0.000000;,
 -2.300478;-0.770411;-2.300478;,
 -2.300478;0.929606;-2.300478;,
 0.000000;-0.770411;-3.253368;,
 0.000000;0.929606;-3.253368;,
 2.300478;-0.770411;-2.300478;,
 2.300478;0.929606;-2.300478;,
 2.300478;0.929606;-2.300478;,
 2.300478;-0.770411;-2.300478;,
 0.000000;0.929606;-3.253368;,
 0.000000;-0.770411;-3.253368;,
 -2.300478;0.929606;-2.300478;,
 -2.300478;-0.770411;-2.300478;,
 -3.253368;0.929606;0.000000;,
 -3.253368;-0.770411;0.000000;,
 -2.300478;0.447201;2.300478;,
 -2.300478;-0.770411;2.300478;,
 0.000000;0.447201;3.253368;,
 0.000000;-0.770411;3.253368;,
 2.300479;0.447201;2.300479;,
 2.300479;-0.770411;2.300479;,
 3.253368;0.929606;0.000000;,
 3.253368;-0.770411;0.000000;;

 8;
 4;15,1,0,14;,
 4;30,3,2,31;,
 4;13,16,17,12;,
 4;11,18,19,10;,
 4;28,5,4,29;,
 4;9,20,21,8;,
 4;7,22,23,6;,
 4;26,24,25,27;;

 MeshMaterialList {
  1;
  8;
  0,
  0,
  0,
  0,
  0,
  0,
  0,
  0;
Material {
 1.000000;1.000000;1.000000;1.000000;;
 50.000000;
 1.000000;1.000000;1.000000;;
 0.0; 0.0; 0.0;;
 TextureFilename {
  "utl01b.ppm";
 }
 }
}
 MeshNormals {
  32;
  1.000000;0.000000;-0.000000;,
  1.000000;0.000000;-0.000000;,
  0.707107;0.000000;0.707107;,
  0.707107;0.000000;0.707107;,
  -0.000000;0.000000;1.000000;,
  -0.000000;0.000000;1.000000;,
  -0.707107;0.000000;0.707107;,
  -0.707107;0.000000;0.707107;,
  -1.000000;0.000000;0.000000;,
  -1.000000;0.000000;0.000000;,
  -0.707107;0.000000;-0.707107;,
  -0.707107;0.000000;-0.707107;,
  0.000000;0.000000;-1.000000;,
  0.000000;0.000000;-1.000000;,
  0.707107;0.000000;-0.707107;,
  0.707107;0.000000;-0.707107;,
  0.707107;0.000000;-0.707107;,
  0.707107;0.000000;-0.707107;,
  0.000000;0.000000;-1.000000;,
  0.000000;0.000000;-1.000000;,
  -0.707107;0.000000;-0.707107;,
  -0.707107;0.000000;-0.707107;,
  -1.000000;0.000000;0.000000;,
  -1.000000;0.000000;0.000000;,
  -0.707107;0.000000;0.707107;,
  -0.707107;0.000000;0.707107;,
  -0.000000;0.000000;1.000000;,
  -0.000000;0.000000;1.000000;,
  0.707107;0.000000;0.707107;,
  0.707107;0.000000;0.707107;,
  1.000000;0.000000;-0.000000;,
  1.000000;0.000000;-0.000000;;

  8;
  4;15,1,0,14;,
  4;30,3,2,31;,
  4;13,16,17,12;,
  4;11,18,19,10;,
  4;28,5,4,29;,
  4;9,20,21,8;,
  4;7,22,23,6;,
  4;26,24,25,27;;
 }
 MeshTextureCoords { 
 32;
 0.394310;0.709723;,
 0.394310;0.493402;,
 0.394310;0.709723;,
 0.394310;0.493402;,
 0.394310;0.709723;,
 0.394310;0.493402;,
 0.549012;0.709723;,
 0.549012;0.493402;,
 0.549012;0.709723;,
 0.549012;0.493402;,
 0.549012;0.709723;,
 0.549012;0.493402;,
 0.549012;0.709723;,
 0.549012;0.493402;,
 0.549012;0.709723;,
 0.549012;0.493402;,
 0.394310;0.493402;,
 0.394310;0.709723;,
 0.394310;0.493402;,
 0.394310;0.709723;,
 0.394310;0.493402;,
 0.394310;0.709723;,
 0.394310;0.493402;,
 0.394310;0.709723;,
 0.394310;0.493402;,
 0.394310;0.709723;,
 0.549012;0.493402;,
 0.549012;0.709723;,
 0.549012;0.493402;,
 0.549012;0.709723;,
 0.549012;0.493402;,
 0.549012;0.709723;;
 }
}
Frame frm-cube1 {
  FrameTransformMatrix {
1.000000,0.000000,0.000000,0.000000,
0.000000,1.000000,0.000000,0.000000,
0.000000,0.000000,1.000000,0.000000,
0.000000,-0.116528,-1.260578,1.000000;;
 }
Mesh cube1 {
 159;
 -4.686543;2.869003;-5.147872;,
 -4.686543;2.869003;-5.147872;,
 -4.686543;2.869003;-5.147872;,
 -5.722878;3.150491;-2.939997;,
 -5.722878;3.150491;-2.939997;,
 -5.722878;3.150491;-2.939997;,
 -3.453973;1.211604;-5.664394;,
 -3.453973;1.211604;-5.664394;,
 -3.453973;1.211604;-5.664394;,
 3.453973;1.211604;-5.664394;,
 3.453973;1.211604;-5.664394;,
 3.633244;2.777528;-5.648734;,
 3.633244;2.777528;-5.648734;,
 3.633244;2.777528;-5.648734;,
 -3.633244;2.777528;-5.648734;,
 -3.633244;2.777528;-5.648734;,
 2.789122;0.712325;5.620831;,
 2.789122;0.712325;5.620831;,
 2.940544;2.428506;5.898569;,
 2.940544;2.428506;5.898569;,
 4.622877;3.332060;-1.814547;,
 4.622877;3.332060;-1.814547;,
 4.622877;3.332060;-1.814547;,
 4.176114;-0.069396;-2.946689;,
 4.176114;-0.069396;-2.946689;,
 4.176114;-0.069396;-2.946689;,
 3.400000;0.540068;-5.199748;,
 3.400000;0.540068;-5.199748;,
 -3.400000;0.540068;-5.199748;,
 -3.400000;0.540068;-5.199748;,
 -4.176114;-0.069396;-2.946689;,
 -4.176114;-0.069396;-2.946689;,
 -4.176114;-0.069396;-2.946689;,
 1.698358;2.915513;6.615345;,
 1.698358;2.915513;6.615345;,
 1.698358;2.915513;6.615345;,
 1.698358;2.915513;6.615345;,
 1.698358;2.915513;6.615345;,
 1.698358;2.915513;6.615345;,
 -1.698358;2.915513;6.615345;,
 -1.698358;2.915513;6.615345;,
 -1.698358;2.915513;6.615345;,
 -1.698358;2.915513;6.615345;,
 -1.698358;2.915513;6.615345;,
 -1.698358;2.915513;6.615345;,
 5.722878;3.150491;-2.939997;,
 5.722878;3.150491;-2.939997;,
 5.722878;3.150491;-2.939997;,
 4.686543;2.869003;-5.147872;,
 4.686543;2.869003;-5.147872;,
 -3.355594;-0.348080;-1.850704;,
 -3.355594;-0.348080;-1.850704;,
 -3.355594;-0.348080;-1.850704;,
 -1.399716;0.535985;6.532933;,
 -1.399716;0.535985;6.532933;,
 -1.399716;0.535985;6.532933;,
 -1.399716;0.535985;6.532933;,
 -1.399716;0.535985;6.532933;,
 1.399716;0.535985;6.532933;,
 1.399716;0.535985;6.532933;,
 1.399716;0.535985;6.532933;,
 1.399716;0.535985;6.532933;,
 1.399716;0.535985;6.532933;,
 3.355594;-0.348080;-1.850704;,
 3.355594;-0.348080;-1.850704;,
 3.355594;-0.348080;-1.850704;,
 -4.622877;3.332060;-1.814547;,
 -4.622877;3.332060;-1.814547;,
 -4.622877;3.332060;-1.814547;,
 -2.940544;2.428506;5.898569;,
 -2.940544;2.428506;5.898569;,
 -2.940544;2.428506;5.898569;,
 -2.789122;0.712325;5.620831;,
 -2.789122;0.712325;5.620831;,
 1.564712;2.783971;3.159590;,
 1.564712;2.783971;3.159590;,
 -1.482141;2.783971;3.159590;,
 -1.482141;2.783971;3.159590;,
 -1.214259;0.649535;3.085666;,
 -1.214259;0.649535;3.085666;,
 1.296831;0.649535;3.085666;,
 1.296831;0.649535;3.085666;,
 -0.000483;3.791863;4.576527;,
 -0.000483;3.791863;4.576527;,
 -0.000483;3.791863;4.576527;,
 -0.000483;3.791863;4.576527;,
 0.855872;3.131955;4.575966;,
 0.855872;3.131955;4.575966;,
 0.855872;3.131955;4.575966;,
 0.855872;3.131955;4.575966;,
 0.855872;3.131955;4.575966;,
 -0.842486;3.131955;4.575966;,
 -0.842486;3.131955;4.575966;,
 -0.842486;3.131955;4.575966;,
 -0.842486;3.131955;4.575966;,
 -0.842486;3.131955;4.575966;,
 -0.566275;3.594574;4.576247;,
 -0.566275;3.594574;4.576247;,
 0.593704;3.594574;4.576247;,
 0.593704;3.594574;4.576247;,
 0.593704;3.594574;4.576247;,
 -0.454853;2.925376;6.615345;,
 0.394326;2.925376;6.615345;,
 -0.007147;2.745330;6.615345;,
 -0.002553;3.131955;4.575966;,
 -0.001648;3.296744;4.944437;,
 -0.002553;3.131955;4.575966;,
 -0.000743;3.466491;5.043857;,
 0.006396;2.522186;6.313778;,
 -0.007147;2.745330;6.615345;,
 0.394326;2.925376;6.615345;,
 -0.454853;2.925376;6.615345;,
 0.593704;3.594574;4.576247;,
 -0.566275;3.594574;4.576247;,
 -0.842486;3.131955;4.575966;,
 0.855872;3.131955;4.575966;,
 1.830788;3.590879;0.363332;,
 -1.817402;3.590879;0.363332;,
 -0.000483;3.791863;4.576527;,
 1.296831;0.649535;3.085666;,
 -1.214259;0.649535;3.085666;,
 -1.482141;2.783971;3.159590;,
 1.564712;2.783971;3.159590;,
 -4.393487;0.151450;-1.845101;,
 -2.789122;0.712325;5.620831;,
 -2.940544;2.428506;5.898569;,
 -4.622877;3.332060;-1.814547;,
 3.355594;-0.348080;-1.850704;,
 1.399716;0.535985;6.532933;,
 -1.399716;0.535985;6.532933;,
 -3.355594;-0.348080;-1.850704;,
 5.473266;0.425844;-2.971244;,
 4.428845;1.058891;-5.165845;,
 4.686543;2.869003;-5.147872;,
 5.722878;3.150491;-2.939997;,
 -3.648190;3.833360;-1.809922;,
 -1.698358;2.915513;6.615345;,
 1.698358;2.915513;6.615345;,
 3.648190;3.833360;-1.809922;,
 4.536916;3.620788;-2.923093;,
 3.693748;3.377106;-5.153756;,
 -3.693748;3.377106;-5.153756;,
 -4.536916;3.620788;-2.923093;,
 -4.176114;-0.069396;-2.946689;,
 -3.400000;0.540068;-5.199748;,
 3.400000;0.540068;-5.199748;,
 4.176114;-0.069396;-2.946689;,
 4.622877;3.332060;-1.814547;,
 2.940544;2.428506;5.898569;,
 2.789122;0.712325;5.620831;,
 4.393487;0.151450;-1.845101;,
 -3.633244;2.777528;-5.648734;,
 3.633244;2.777528;-5.648734;,
 3.453973;1.211604;-5.664394;,
 -3.453973;1.211604;-5.664394;,
 -5.722878;3.150491;-2.939997;,
 -4.686543;2.869003;-5.147872;,
 -4.428845;1.058891;-5.165845;,
 -5.473266;0.425844;-2.971244;;

 65;
 4;5,2,157,158;,
 4;15,13,10,8;,
 4;22,19,17,150;,
 4;32,29,27,25;,
 4;139,140,141,142;,
 3;107,100,85;,
 4;131,132,49,47;,
 4;65,62,57,52;,
 4;123,73,71,68;,
 4;1,4,142,141;,
 4;72,123,51,56;,
 4;157,0,14,7;,
 4;12,151,141,140;,
 4;6,9,26,28;,
 4;153,11,48,132;,
 4;18,21,138,38;,
 4;132,131,24,145;,
 3;70,124,55;,
 4;67,69,44,135;,
 4;46,133,140,139;,
 4;158,157,144,31;,
 4;150,16,61,64;,
 4;139,142,135,138;,
 4;20,150,131,45;,
 4;30,23,63,50;,
 4;3,158,123,66;,
 3;144,157,154;,
 3;141,151,156;,
 3;145,153,132;,
 3;140,133,152;,
 4;126,135,142,155;,
 4;134,139,138,147;,
 4;123,158,143,130;,
 4;131,150,127,146;,
 3;60,149,148;,
 3;43,125,54;,
 3;59,148,37;,
 4;79,81,75,77;,
 4;76,42,53,78;,
 4;80,58,36,74;,
 6;108,35,102,103,101,41;,
 4;120,129,128,119;,
 3;117,84,116;,
 4;90,34,138,116;,
 4;117,135,40,95;,
 3;116,83,99;,
 3;97,82,117;,
 4;116,138,135,117;,
 3;110,33,89;,
 3;98,88,116;,
 3;117,94,96;,
 3;93,39,111;,
 3;109,110,87;,
 3;92,111,109;,
 4;109,86,104,91;,
 3;108,121,122;,
 3;136,121,108;,
 3;122,137,108;,
 3;105,107,114;,
 3;113,114,107;,
 3;115,112,107;,
 3;118,113,107;,
 3;105,106,115;,
 3;114,106,105;,
 3;115,107,105;;

 MeshMaterialList {
  8;
  65;
  0,
  1,
  2,
  3,
  4,
  5,
  2,
  3,
  0,
  4,
  0,
  0,
  4,
  1,
  2,
  4,
  2,
  6,
  4,
  4,
  0,
  2,
  4,
  2,
  3,
  0,
  0,
  4,
  2,
  4,
  4,
  4,
  0,
  2,
  6,
  6,
  6,
  7,
  7,
  7,
  7,
  7,
  4,
  4,
  4,
  4,
  4,
  4,
  4,
  4,
  4,
  4,
  4,
  4,
  4,
  7,
  7,
  7,
  5,
  5,
  5,
  5,
  5,
  5,
  5;
Material {
 1.000000;1.000000;1.000000;1.000000;;
 50.000000;
 1.000000;1.000000;1.000000;;
 0.0; 0.0; 0.0;;
 TextureFilename {
  "utl01b.ppm";
 }
 }
Material {
 1.000000;1.000000;1.000000;1.000000;;
 50.000000;
 1.000000;1.000000;1.000000;;
 0.0; 0.0; 0.0;;
 TextureFilename {
  "utl01b.ppm";
 }
 }
Material {
 1.000000;1.000000;1.000000;1.000000;;
 50.000000;
 1.000000;1.000000;1.000000;;
 0.0; 0.0; 0.0;;
 TextureFilename {
  "utl01b.ppm";
 }
 }
Material {
 1.000000;1.000000;1.000000;1.000000;;
 50.000000;
 1.000000;1.000000;1.000000;;
 0.0; 0.0; 0.0;;
 TextureFilename {
  "utl01b.ppm";
 }
 }
Material {
 1.000000;1.000000;1.000000;1.000000;;
 50.000000;
 1.000000;1.000000;1.000000;;
 0.0; 0.0; 0.0;;
 TextureFilename {
  "utl01b.ppm";
 }
 }
Material {
 1.000000;1.000000;1.000000;1.000000;;
 50.000000;
 1.000000;1.000000;1.000000;;
 0.0; 0.0; 0.0;;
 TextureFilename {
  "utl01b.ppm";
 }
 }
Material {
 1.000000;1.000000;1.000000;1.000000;;
 50.000000;
 1.000000;1.000000;1.000000;;
 0.0; 0.0; 0.0;;
 TextureFilename {
  "utl01b.ppm";
 }
 }
Material {
 1.000000;1.000000;1.000000;1.000000;;
 50.000000;
 1.000000;1.000000;1.000000;;
 0.0; 0.0; 0.0;;
 TextureFilename {
  "utl01b.ppm";
 }
 }
}
 MeshNormals {
  159;
  -0.602775;0.391653;-0.695176;,
  -0.602775;0.391653;-0.695176;,
  -0.602775;0.391653;-0.695176;,
  -0.824297;0.562502;0.064244;,
  -0.824297;0.562502;0.064244;,
  -0.824297;0.562502;0.064244;,
  -0.199020;-0.310354;-0.929554;,
  -0.199020;-0.310354;-0.929554;,
  -0.199020;-0.310354;-0.929554;,
  0.199020;-0.310354;-0.929554;,
  0.199020;-0.310354;-0.929554;,
  0.201887;0.321229;-0.925232;,
  0.201887;0.321229;-0.925232;,
  0.201887;0.321229;-0.925232;,
  -0.201887;0.321229;-0.925232;,
  -0.201887;0.321229;-0.925232;,
  0.746125;-0.464958;0.476563;,
  0.746125;-0.464958;0.476563;,
  0.750589;0.138576;0.646075;,
  0.750589;0.138576;0.646075;,
  0.781594;0.478647;0.400009;,
  0.781594;0.478647;0.400009;,
  0.781594;0.478647;0.400009;,
  0.197328;-0.958731;-0.204688;,
  0.197328;-0.958731;-0.204688;,
  0.197328;-0.958731;-0.204688;,
  0.180131;-0.781903;-0.596809;,
  0.180131;-0.781903;-0.596809;,
  -0.180130;-0.781903;-0.596809;,
  -0.180130;-0.781903;-0.596809;,
  -0.197328;-0.958731;-0.204688;,
  -0.197328;-0.958731;-0.204688;,
  -0.197328;-0.958731;-0.204688;,
  0.076055;0.471818;0.878410;,
  0.076055;0.471818;0.878410;,
  0.076055;0.471818;0.878410;,
  0.076055;0.471818;0.878410;,
  0.076055;0.471818;0.878410;,
  0.076055;0.471818;0.878410;,
  -0.075973;0.467696;0.880618;,
  -0.075973;0.467696;0.880618;,
  -0.075973;0.467696;0.880618;,
  -0.075973;0.467696;0.880618;,
  -0.075973;0.467696;0.880618;,
  -0.075973;0.467696;0.880618;,
  0.824297;0.562502;0.064244;,
  0.824297;0.562502;0.064244;,
  0.824297;0.562502;0.064244;,
  0.602775;0.391653;-0.695176;,
  0.602775;0.391653;-0.695176;,
  -0.182799;-0.982651;0.031329;,
  -0.182799;-0.982651;0.031329;,
  -0.182799;-0.982651;0.031329;,
  -0.153617;-0.468912;0.869783;,
  -0.153617;-0.468912;0.869783;,
  -0.153617;-0.468912;0.869783;,
  -0.153617;-0.468912;0.869783;,
  -0.153617;-0.468912;0.869783;,
  0.154594;-0.472759;0.867525;,
  0.154594;-0.472759;0.867525;,
  0.154594;-0.472759;0.867525;,
  0.154594;-0.472759;0.867525;,
  0.154594;-0.472759;0.867525;,
  0.182799;-0.982651;0.031329;,
  0.182799;-0.982651;0.031329;,
  0.182799;-0.982651;0.031329;,
  -0.781594;0.478647;0.400009;,
  -0.781594;0.478647;0.400009;,
  -0.781594;0.478647;0.400009;,
  -0.750589;0.138576;0.646075;,
  -0.750589;0.138576;0.646075;,
  -0.750589;0.138576;0.646075;,
  -0.746125;-0.464958;0.476563;,
  -0.746125;-0.464958;0.476563;,
  -0.338643;-0.836328;0.431134;,
  -0.338643;-0.836328;0.431134;,
  0.337247;-0.833540;0.437579;,
  0.337247;-0.833540;0.437579;,
  0.541256;0.593908;0.595244;,
  0.541256;0.593908;0.595244;,
  -0.545631;0.598641;0.586444;,
  -0.545631;0.598641;0.586444;,
  -0.005653;0.963469;0.267759;,
  -0.005653;0.963469;0.267759;,
  -0.005653;0.963469;0.267759;,
  -0.005653;0.963469;0.267759;,
  0.371382;0.609877;0.700090;,
  0.371382;0.609877;0.700090;,
  0.371382;0.609877;0.700090;,
  0.371382;0.609877;0.700090;,
  0.371382;0.609877;0.700090;,
  -0.288957;0.746965;0.598788;,
  -0.288957;0.746965;0.598788;,
  -0.288957;0.746965;0.598788;,
  -0.288957;0.746965;0.598788;,
  -0.288957;0.746965;0.598788;,
  -0.547144;0.702671;0.454848;,
  -0.547144;0.702671;0.454848;,
  0.544935;0.699401;0.462476;,
  0.544935;0.699401;0.462476;,
  0.544935;0.699401;0.462476;,
  0.227491;0.805869;0.546647;,
  -0.252692;0.805985;0.535290;,
  -0.015041;0.921629;0.387780;,
  0.000000;-0.643597;0.765365;,
  -0.001535;-0.748592;0.663030;,
  0.000000;-0.643597;0.765365;,
  -0.006152;0.278134;0.960523;,
  0.000182;-0.979586;0.201023;,
  -0.015041;0.921629;0.387780;,
  -0.252692;0.805985;0.535290;,
  0.227491;0.805869;0.546647;,
  0.544935;0.699401;0.462476;,
  -0.547144;0.702671;0.454848;,
  -0.288957;0.746965;0.598788;,
  0.371382;0.609877;0.700090;,
  0.251322;0.961519;0.110991;,
  -0.251183;0.961476;0.111670;,
  -0.005653;0.963469;0.267759;,
  -0.545631;0.598641;0.586444;,
  0.541256;0.593908;0.595244;,
  0.337247;-0.833540;0.437579;,
  -0.338643;-0.836328;0.431134;,
  -0.725472;-0.590975;0.352760;,
  -0.746125;-0.464958;0.476563;,
  -0.750589;0.138576;0.646075;,
  -0.781594;0.478647;0.400009;,
  0.182799;-0.982651;0.031329;,
  0.154594;-0.472759;0.867525;,
  -0.153617;-0.468912;0.869783;,
  -0.182799;-0.982651;0.031329;,
  0.765327;-0.642475;-0.038731;,
  0.566700;-0.435140;-0.699646;,
  0.602775;0.391653;-0.695176;,
  0.824297;0.562502;0.064244;,
  -0.176413;0.980244;0.089442;,
  -0.075973;0.467696;0.880618;,
  0.076055;0.471818;0.878410;,
  0.176404;0.980246;0.089440;,
  0.206983;0.973726;-0.094951;,
  0.188789;0.837122;-0.513406;,
  -0.188789;0.837122;-0.513406;,
  -0.206983;0.973726;-0.094951;,
  -0.197328;-0.958731;-0.204688;,
  -0.180130;-0.781903;-0.596809;,
  0.180131;-0.781903;-0.596809;,
  0.197328;-0.958731;-0.204688;,
  0.781594;0.478647;0.400009;,
  0.750589;0.138576;0.646075;,
  0.746125;-0.464958;0.476563;,
  0.725472;-0.590975;0.352760;,
  -0.201887;0.321229;-0.925232;,
  0.201887;0.321229;-0.925232;,
  0.199020;-0.310354;-0.929554;,
  -0.199020;-0.310354;-0.929554;,
  -0.824297;0.562502;0.064244;,
  -0.602775;0.391653;-0.695176;,
  -0.566700;-0.435140;-0.699646;,
  -0.765327;-0.642475;-0.038731;;

  65;
  4;5,2,157,158;,
  4;15,13,10,8;,
  4;22,19,17,150;,
  4;32,29,27,25;,
  4;139,140,141,142;,
  3;107,100,85;,
  4;131,132,49,47;,
  4;65,62,57,52;,
  4;123,73,71,68;,
  4;1,4,142,141;,
  4;72,123,51,56;,
  4;157,0,14,7;,
  4;12,151,141,140;,
  4;6,9,26,28;,
  4;153,11,48,132;,
  4;18,21,138,38;,
  4;132,131,24,145;,
  3;70,124,55;,
  4;67,69,44,135;,
  4;46,133,140,139;,
  4;158,157,144,31;,
  4;150,16,61,64;,
  4;139,142,135,138;,
  4;20,150,131,45;,
  4;30,23,63,50;,
  4;3,158,123,66;,
  3;144,157,154;,
  3;141,151,156;,
  3;145,153,132;,
  3;140,133,152;,
  4;126,135,142,155;,
  4;134,139,138,147;,
  4;123,158,143,130;,
  4;131,150,127,146;,
  3;60,149,148;,
  3;43,125,54;,
  3;59,148,37;,
  4;79,81,75,77;,
  4;76,42,53,78;,
  4;80,58,36,74;,
  6;108,35,102,103,101,41;,
  4;120,129,128,119;,
  3;117,84,116;,
  4;90,34,138,116;,
  4;117,135,40,95;,
  3;116,83,99;,
  3;97,82,117;,
  4;116,138,135,117;,
  3;110,33,89;,
  3;98,88,116;,
  3;117,94,96;,
  3;93,39,111;,
  3;109,110,87;,
  3;92,111,109;,
  4;109,86,104,91;,
  3;108,121,122;,
  3;136,121,108;,
  3;122,137,108;,
  3;105,107,114;,
  3;113,114,107;,
  3;115,112,107;,
  3;118,113,107;,
  3;105,106,115;,
  3;114,106,105;,
  3;115,107,105;;
 }
 MeshTextureCoords { 
 159;
 0.291460;0.228371;,
 0.265512;0.448965;,
 0.291460;0.228371;,
 0.334274;0.215750;,
 0.284084;0.366436;,
 0.334274;0.215750;,
 0.014740;0.691489;,
 0.281444;0.302680;,
 0.014740;0.691489;,
 0.250885;0.691489;,
 0.250885;0.691489;,
 0.289775;0.049307;,
 0.116416;0.467687;,
 0.257014;0.549263;,
 0.281748;0.232472;,
 0.008611;0.549263;,
 0.494204;0.131559;,
 0.494204;0.131559;,
 0.128829;0.036055;,
 0.499242;0.063208;,
 0.359327;0.027222;,
 0.098681;0.324367;,
 0.359327;0.027222;,
 0.367817;0.029707;,
 0.338790;0.162693;,
 0.367817;0.029707;,
 0.249040;0.752482;,
 0.341161;0.040864;,
 0.016585;0.752482;,
 0.341635;0.146548;,
 0.368400;0.159516;,
 0.334144;0.360114;,
 0.368400;0.159516;,
 0.151090;0.009262;,
 0.151090;0.009262;,
 0.257099;0.768392;,
 0.255900;0.767559;,
 0.364413;0.490281;,
 0.151090;0.009262;,
 0.211962;0.009262;,
 0.211962;0.009262;,
 0.009021;0.768392;,
 0.009604;0.767559;,
 0.364413;0.490281;,
 0.211962;0.009262;,
 0.338911;0.034453;,
 0.078968;0.366436;,
 0.338911;0.034453;,
 0.298861;0.045664;,
 0.298861;0.045664;,
 0.381336;0.147205;,
 0.355397;0.372608;,
 0.381336;0.147205;,
 0.255900;0.767559;,
 0.375468;0.782262;,
 0.375468;0.782262;,
 0.517967;0.332971;,
 0.480591;0.120179;,
 0.009604;0.767559;,
 0.375468;0.782262;,
 0.375468;0.782262;,
 0.510749;0.138582;,
 0.480396;0.076670;,
 0.380868;0.042901;,
 0.358671;0.173792;,
 0.380868;0.042901;,
 0.356098;0.207610;,
 0.264371;0.324367;,
 0.356098;0.207610;,
 0.234222;0.036055;,
 0.285681;0.543826;,
 0.505666;0.248120;,
 0.500280;0.325065;,
 0.500280;0.325065;,
 0.257915;0.528848;,
 0.009604;0.767559;,
 0.009644;0.528848;,
 0.255900;0.767559;,
 0.257915;0.528848;,
 0.257915;0.528848;,
 0.009644;0.528848;,
 0.009644;0.528848;,
 0.181534;0.085472;,
 0.181534;0.085472;,
 0.181534;0.085472;,
 0.046991;0.029656;,
 0.166188;0.085493;,
 0.166188;0.085493;,
 0.166188;0.085493;,
 0.166188;0.085493;,
 0.166188;0.085493;,
 0.196624;0.085493;,
 0.196624;0.085493;,
 0.196624;0.085493;,
 0.196624;0.085493;,
 0.196624;0.085493;,
 0.191674;0.085483;,
 0.191674;0.085483;,
 0.170886;0.085483;,
 0.170886;0.085483;,
 0.073745;0.052701;,
 0.099840;0.768392;,
 0.161860;0.768392;,
 0.132538;0.768392;,
 0.181572;0.085493;,
 0.046938;0.087490;,
 0.046897;0.106739;,
 0.046979;0.067662;,
 0.133527;0.747671;,
 0.181654;0.009262;,
 0.174459;0.009262;,
 0.189677;0.009262;,
 0.073745;0.052701;,
 0.021515;0.052701;,
 0.009078;0.106739;,
 0.085550;0.106739;,
 0.148717;0.242959;,
 0.214095;0.242959;,
 0.046991;0.029656;,
 0.257915;0.528848;,
 0.009644;0.528848;,
 0.024813;0.530944;,
 0.247339;0.530944;,
 0.355505;0.350212;,
 0.294505;0.760045;,
 0.285681;0.543826;,
 0.264371;0.324367;,
 0.358671;0.173792;,
 0.255900;0.767559;,
 0.009604;0.767559;,
 0.355397;0.372608;,
 0.338344;0.142969;,
 0.298535;0.117756;,
 0.097540;0.448965;,
 0.078968;0.366436;,
 0.246904;0.324194;,
 0.009021;0.768392;,
 0.257099;0.768392;,
 0.116148;0.324194;,
 0.100221;0.365804;,
 0.115331;0.449185;,
 0.247720;0.449185;,
 0.262831;0.365804;,
 0.334144;0.360114;,
 0.290454;0.332788;,
 0.297920;0.138419;,
 0.338790;0.162693;,
 0.098681;0.324367;,
 0.285681;0.543826;,
 0.294505;0.760045;,
 0.358772;0.153897;,
 0.246636;0.467687;,
 0.116416;0.467687;,
 0.289491;0.111674;,
 0.281444;0.302680;,
 0.284084;0.366436;,
 0.265512;0.448965;,
 0.291112;0.309527;,
 0.333668;0.337909;;
 }
}
Frame frm-range_finder {
  FrameTransformMatrix {
1.000000,0.000000,0.000000,0.000000,
0.000000,1.000000,0.000000,0.000000,
0.000000,0.000000,1.000000,0.000000,
1.034602,1.592566,4.375843,1.000000;;
 }
Mesh range_finder {
 41;
 0.496699;0.027819;3.296808;,
 0.496699;0.027819;3.296808;,
 0.352647;0.375593;3.296808;,
 0.352647;0.375593;3.296808;,
 0.004873;0.519645;3.296808;,
 0.004873;0.519645;3.296808;,
 -0.342900;0.375593;3.296808;,
 -0.342900;0.375593;3.296808;,
 -0.486953;0.027819;3.296808;,
 -0.486953;0.027819;3.296808;,
 -0.342900;-0.319954;3.296808;,
 -0.342900;-0.319954;3.296808;,
 0.004873;-0.464007;3.296808;,
 0.004873;-0.464007;3.296808;,
 0.352647;-0.319954;3.296808;,
 0.352647;-0.319954;3.296808;,
 0.250786;0.027819;3.439291;,
 0.178760;-0.146068;3.439291;,
 0.004873;-0.218094;3.439291;,
 -0.169013;-0.146068;3.439291;,
 -0.241040;0.027819;3.439291;,
 -0.169013;0.201706;3.439291;,
 0.004873;0.273732;3.439291;,
 0.178760;0.201706;3.439291;,
 0.004873;0.027819;3.202547;,
 0.352647;-0.319954;-0.005900;,
 0.352647;-0.319954;3.296808;,
 0.004873;-0.464007;-0.005900;,
 0.004873;-0.464007;3.296808;,
 -0.342900;-0.319954;-0.005900;,
 -0.342900;-0.319954;3.296808;,
 -0.486953;0.027819;-0.005900;,
 -0.486953;0.027819;3.296808;,
 -0.342900;0.375593;-0.005900;,
 -0.342900;0.375593;3.296808;,
 0.004873;0.519645;-0.005900;,
 0.004873;0.519645;3.296808;,
 0.496699;0.027819;-0.005900;,
 0.352647;0.375593;-0.005900;,
 0.352647;0.375593;3.296808;,
 0.496699;0.027819;3.296808;;

 24;
 4;25,37,1,15;,
 4;38,35,5,3;,
 4;29,27,13,11;,
 4;37,38,2,0;,
 4;27,25,14,12;,
 4;35,33,7,4;,
 4;31,29,10,9;,
 4;33,31,8,6;,
 3;23,24,16;,
 3;19,24,20;,
 4;21,34,32,20;,
 3;22,24,23;,
 3;21,24,22;,
 4;17,26,40,16;,
 4;18,28,26,17;,
 4;19,30,28,18;,
 4;16,40,39,23;,
 3;16,24,17;,
 3;17,24,18;,
 3;18,24,19;,
 4;20,32,30,19;,
 3;20,24,21;,
 4;22,36,34,21;,
 4;23,39,36,22;;

 MeshMaterialList {
  2;
  24;
  0,
  0,
  0,
  0,
  0,
  0,
  0,
  0,
  1,
  1,
  1,
  1,
  1,
  1,
  1,
  1,
  1,
  1,
  1,
  1,
  1,
  1,
  1,
  1;
Material {
 1.000000;1.000000;1.000000;1.000000;;
 50.000000;
 1.000000;1.000000;1.000000;;
 0.0; 0.0; 0.0;;
 TextureFilename {
  "utl01b.ppm";
 }
 }
Material {
 1.000000;1.000000;1.000000;1.000000;;
 50.000000;
 1.000000;1.000000;1.000000;;
 0.0; 0.0; 0.0;;
 TextureFilename {
  "utl01b.ppm";
 }
 }
}
 MeshNormals {
  41;
  0.857937;-0.000000;0.513754;,
  0.857937;-0.000000;0.513754;,
  0.606653;0.606653;0.513754;,
  0.606653;0.606653;0.513754;,
  -0.000000;0.857937;0.513754;,
  -0.000000;0.857937;0.513754;,
  -0.606653;0.606653;0.513754;,
  -0.606653;0.606653;0.513754;,
  -0.857937;0.000000;0.513754;,
  -0.857937;0.000000;0.513754;,
  -0.606653;-0.606653;0.513754;,
  -0.606653;-0.606653;0.513754;,
  -0.000000;-0.857937;0.513754;,
  -0.000000;-0.857937;0.513754;,
  0.606653;-0.606653;0.513754;,
  0.606653;-0.606653;0.513754;,
  -0.120340;0.000000;0.992733;,
  -0.085093;0.085093;0.992733;,
  0.000000;0.120340;0.992733;,
  0.085093;0.085093;0.992733;,
  0.120340;-0.000000;0.992733;,
  0.085093;-0.085093;0.992733;,
  0.000000;-0.113403;0.993549;,
  -0.080188;-0.080188;0.993549;,
  0.000000;-0.000000;1.000000;,
  0.707107;-0.707107;0.000000;,
  0.606653;-0.606653;0.513754;,
  0.000000;-1.000000;0.000000;,
  -0.000000;-0.857937;0.513754;,
  -0.707107;-0.707107;0.000000;,
  -0.606653;-0.606653;0.513754;,
  -1.000000;0.000000;0.000000;,
  -0.857937;0.000000;0.513754;,
  -0.707107;0.707107;-0.000000;,
  -0.606653;0.606653;0.513754;,
  -0.000000;1.000000;-0.000000;,
  -0.000000;0.857937;0.513754;,
  1.000000;-0.000000;0.000000;,
  0.707107;0.707107;-0.000000;,
  0.606653;0.606653;0.513754;,
  0.857937;-0.000000;0.513754;;

  24;
  4;25,37,1,15;,
  4;38,35,5,3;,
  4;29,27,13,11;,
  4;37,38,2,0;,
  4;27,25,14,12;,
  4;35,33,7,4;,
  4;31,29,10,9;,
  4;33,31,8,6;,
  3;23,24,16;,
  3;19,24,20;,
  4;21,34,32,20;,
  3;22,24,23;,
  3;21,24,22;,
  4;17,26,40,16;,
  4;18,28,26,17;,
  4;19,30,28,18;,
  4;16,40,39,23;,
  3;16,24,17;,
  3;17,24,18;,
  3;18,24,19;,
  4;20,32,30,19;,
  3;20,24,21;,
  4;22,36,34,21;,
  4;23,39,36,22;;
 }
 MeshTextureCoords { 
 41;
 0.119163;0.871094;,
 0.119163;0.871094;,
 0.119163;0.854703;,
 0.119163;0.854703;,
 0.119163;0.847914;,
 0.119163;0.847914;,
 0.119163;0.854703;,
 0.119163;0.854703;,
 0.119163;0.871094;,
 0.119163;0.871094;,
 0.119163;0.887485;,
 0.119163;0.887485;,
 0.119163;0.894274;,
 0.119163;0.894274;,
 0.119163;0.887485;,
 0.119163;0.887485;,
 0.067387;0.078125;,
 0.061379;0.105451;,
 0.046875;0.116769;,
 0.032371;0.105451;,
 0.026363;0.078125;,
 0.032371;0.050799;,
 0.046875;0.039481;,
 0.061379;0.050799;,
 0.046875;0.078125;,
 -0.000364;0.887485;,
 0.075883;0.132776;,
 -0.000364;0.894274;,
 0.046875;0.155414;,
 -0.000364;0.887485;,
 0.017867;0.132776;,
 -0.000364;0.871094;,
 0.005852;0.078125;,
 -0.000364;0.854703;,
 0.017867;0.023474;,
 -0.000364;0.847914;,
 0.046875;0.000836;,
 -0.000364;0.871094;,
 -0.000364;0.854703;,
 0.075883;0.023474;,
 0.087898;0.078125;;
 }
}
}
Frame frm-cyl2 {
  FrameTransformMatrix {
1.000000,0.000000,0.000000,0.000000,
0.000000,1.000000,0.000000,0.000000,
0.000000,0.000000,1.000000,0.000000,
-0.369748,1.588112,2.261328,1.000000;;
 }
Mesh cyl2 {
 73;
 0.329702;0.355695;12.999001;,
 0.329702;0.355695;12.999001;,
 0.329702;0.355695;12.999001;,
 0.465786;0.027160;12.999001;,
 0.465786;0.027160;12.999001;,
 0.465786;0.027160;12.999001;,
 0.001167;0.491779;12.999001;,
 0.001167;0.491779;12.999001;,
 0.001167;0.491779;12.999001;,
 -0.327369;0.355695;12.999001;,
 -0.327369;0.355695;12.999001;,
 -0.327369;0.355695;12.999001;,
 -0.463452;0.027159;12.999001;,
 -0.463452;0.027159;12.999001;,
 -0.463452;0.027159;12.999001;,
 -0.327369;-0.301376;12.999001;,
 -0.327369;-0.301376;12.999001;,
 -0.327369;-0.301376;12.999001;,
 0.001167;-0.437459;12.999001;,
 0.001167;-0.437459;12.999001;,
 0.001167;-0.437459;12.999001;,
 0.329702;-0.301376;12.999001;,
 0.329702;-0.301376;12.999001;,
 0.329702;-0.301376;12.999001;,
 0.001167;0.491779;12.575418;,
 -0.327369;0.355695;12.575418;,
 -0.463452;0.027159;12.575418;,
 -0.327369;-0.301376;12.575418;,
 0.001167;-0.437459;12.575418;,
 0.329702;-0.301376;12.575418;,
 0.465786;0.027160;12.575418;,
 0.329702;0.355695;12.575418;,
 0.504026;-0.475700;-0.513529;,
 0.504026;-0.475700;4.710881;,
 0.366242;-0.337916;5.079934;,
 0.001167;-0.683991;-0.513529;,
 0.001167;-0.683991;4.710881;,
 0.001167;-0.489136;5.079934;,
 -0.501692;-0.475700;-0.513529;,
 -0.501692;-0.475700;4.710881;,
 -0.363909;-0.337916;5.079934;,
 -0.709983;0.027159;-0.513529;,
 -0.709983;0.027159;4.710881;,
 -0.515128;0.027159;5.079934;,
 -0.501692;0.530018;-0.513529;,
 -0.501692;0.530018;4.710881;,
 -0.363909;0.392235;5.079934;,
 0.001167;0.738309;-0.513529;,
 0.001167;0.738309;4.710881;,
 0.001167;0.543454;5.079934;,
 0.712317;0.027159;-0.513529;,
 0.504026;0.530018;-0.513529;,
 0.504026;0.530018;4.710881;,
 0.712317;0.027159;4.710881;,
 0.517462;0.027159;5.079934;,
 0.366242;0.392235;5.079934;,
 0.250148;-0.221822;12.256136;,
 0.329702;-0.301376;12.999001;,
 0.001167;-0.324954;12.256136;,
 0.001167;-0.437459;12.999001;,
 -0.247815;-0.221822;12.256136;,
 -0.327369;-0.301376;12.999001;,
 -0.350946;0.027159;12.256136;,
 -0.463452;0.027159;12.999001;,
 -0.247815;0.276141;12.256136;,
 -0.327369;0.355695;12.999001;,
 0.001167;0.379273;12.256136;,
 0.001167;0.491779;12.999001;,
 0.353280;0.027159;12.256136;,
 0.250148;0.276141;12.256136;,
 0.001167;0.027160;10.932114;,
 0.465786;0.027160;12.999001;,
 0.329702;0.355695;12.999001;;

 48;
 3;70,5,2;,
 4;31,1,4,30;,
 3;70,0,8;,
 4;24,7,72,31;,
 3;70,6,11;,
 4;25,10,67,24;,
 3;70,9,14;,
 4;26,13,65,25;,
 3;70,12,17;,
 4;27,16,63,26;,
 3;70,15,20;,
 4;28,19,61,27;,
 3;70,18,23;,
 4;29,22,59,28;,
 3;70,21,3;,
 4;30,71,57,29;,
 4;54,55,69,68;,
 4;50,51,52,53;,
 4;55,54,53,52;,
 4;54,34,33,53;,
 4;55,49,66,69;,
 4;51,47,48,52;,
 4;49,55,52,48;,
 4;32,50,53,33;,
 4;49,46,64,66;,
 4;47,44,45,48;,
 4;46,49,48,45;,
 4;34,54,68,56;,
 4;46,43,62,64;,
 4;44,41,42,45;,
 4;43,46,45,42;,
 4;34,37,36,33;,
 4;43,40,60,62;,
 4;41,38,39,42;,
 4;40,43,42,39;,
 4;35,32,33,36;,
 4;40,37,58,60;,
 4;38,35,36,39;,
 4;37,40,39,36;,
 4;37,34,56,58;,
 4;24,66,64,25;,
 4;25,64,62,26;,
 4;26,62,60,27;,
 4;27,60,58,28;,
 4;28,58,56,29;,
 4;29,56,68,30;,
 4;30,68,69,31;,
 4;31,69,66,24;;

 MeshMaterialList {
  2;
  48;
  0,
  1,
  0,
  1,
  0,
  1,
  0,
  1,
  0,
  1,
  0,
  1,
  0,
  1,
  0,
  1,
  1,
  1,
  1,
  1,
  1,
  1,
  1,
  1,
  1,
  1,
  1,
  1,
  1,
  1,
  1,
  1,
  1,
  1,
  1,
  1,
  1,
  1,
  1,
  1,
  1,
  1,
  1,
  1,
  1,
  1,
  1,
  1;
Material {
 1.000000;1.000000;1.000000;1.000000;;
 50.000000;
 1.000000;1.000000;1.000000;;
 0.0; 0.0; 0.0;;
 TextureFilename {
  "utl01b.ppm";
 }
 }
Material {
 1.000000;1.000000;1.000000;1.000000;;
 50.000000;
 1.000000;1.000000;1.000000;;
 0.0; 0.0; 0.0;;
 TextureFilename {
  "utl01b.ppm";
 }
 }
}
 MeshNormals {
  73;
  0.078017;0.078017;0.993895;,
  0.078017;0.078017;0.993895;,
  0.078017;0.078017;0.993895;,
  0.110333;0.000000;0.993895;,
  0.110333;0.000000;0.993895;,
  0.110333;0.000000;0.993895;,
  0.000000;0.110333;0.993895;,
  0.000000;0.110333;0.993895;,
  0.000000;0.110333;0.993895;,
  -0.078017;0.078017;0.993895;,
  -0.078017;0.078017;0.993895;,
  -0.078017;0.078017;0.993895;,
  -0.110333;0.000000;0.993895;,
  -0.110333;0.000000;0.993895;,
  -0.110333;0.000000;0.993895;,
  -0.078017;-0.078017;0.993895;,
  -0.078017;-0.078017;0.993895;,
  -0.078017;-0.078017;0.993895;,
  0.000000;-0.110333;0.993895;,
  0.000000;-0.110333;0.993895;,
  0.000000;-0.110333;0.993895;,
  0.078017;-0.078017;0.993895;,
  0.078017;-0.078017;0.993895;,
  0.078017;-0.078017;0.993895;,
  -0.000000;0.985704;-0.168484;,
  -0.696998;0.696998;-0.168484;,
  -0.985704;-0.000000;-0.168484;,
  -0.696998;-0.696998;-0.168484;,
  0.000000;-0.985704;-0.168484;,
  0.696998;-0.696998;-0.168484;,
  0.985704;-0.000000;-0.168484;,
  0.696998;0.696998;-0.168484;,
  0.707107;-0.707107;0.000000;,
  0.686400;-0.686400;0.240229;,
  0.684410;-0.684410;0.251330;,
  0.000000;-1.000000;0.000000;,
  0.000000;-0.970716;0.240229;,
  0.000000;-0.967901;0.251330;,
  -0.707107;-0.707107;0.000000;,
  -0.686400;-0.686400;0.240229;,
  -0.684410;-0.684410;0.251330;,
  -1.000000;0.000000;0.000000;,
  -0.970716;0.000000;0.240229;,
  -0.967901;-0.000000;0.251330;,
  -0.707107;0.707107;-0.000000;,
  -0.686400;0.686400;0.240229;,
  -0.684410;0.684410;0.251330;,
  -0.000000;1.000000;-0.000000;,
  -0.000000;0.970716;0.240229;,
  -0.000000;0.967901;0.251330;,
  1.000000;-0.000000;0.000000;,
  0.707107;0.707107;-0.000000;,
  0.686400;0.686400;0.240229;,
  0.970716;-0.000000;0.240229;,
  0.967901;-0.000000;0.251330;,
  0.684410;0.684410;0.251330;,
  0.698316;-0.698316;-0.157193;,
  0.078017;-0.078017;0.993895;,
  0.000000;-0.987568;-0.157193;,
  0.000000;-0.110333;0.993895;,
  -0.698316;-0.698316;-0.157193;,
  -0.078017;-0.078017;0.993895;,
  -0.987568;-0.000000;-0.157193;,
  -0.110333;0.000000;0.993895;,
  -0.698316;0.698316;-0.157193;,
  -0.078017;0.078017;0.993895;,
  -0.000000;0.987568;-0.157193;,
  0.000000;0.110333;0.993895;,
  0.987568;-0.000000;-0.157193;,
  0.698316;0.698316;-0.157193;,
  0.000000;0.000000;1.000000;,
  0.110333;0.000000;0.993895;,
  0.078017;0.078017;0.993895;;

  48;
  3;70,5,2;,
  4;31,1,4,30;,
  3;70,0,8;,
  4;24,7,72,31;,
  3;70,6,11;,
  4;25,10,67,24;,
  3;70,9,14;,
  4;26,13,65,25;,
  3;70,12,17;,
  4;27,16,63,26;,
  3;70,15,20;,
  4;28,19,61,27;,
  3;70,18,23;,
  4;29,22,59,28;,
  3;70,21,3;,
  4;30,71,57,29;,
  4;54,55,69,68;,
  4;50,51,52,53;,
  4;55,54,53,52;,
  4;54,34,33,53;,
  4;55,49,66,69;,
  4;51,47,48,52;,
  4;49,55,52,48;,
  4;32,50,53,33;,
  4;49,46,64,66;,
  4;47,44,45,48;,
  4;46,49,48,45;,
  4;34,54,68,56;,
  4;46,43,62,64;,
  4;44,41,42,45;,
  4;43,46,45,42;,
  4;34,37,36,33;,
  4;43,40,60,62;,
  4;41,38,39,42;,
  4;40,43,42,39;,
  4;35,32,33,36;,
  4;40,37,58,60;,
  4;38,35,36,39;,
  4;37,40,39,36;,
  4;37,34,56,58;,
  4;24,66,64,25;,
  4;25,64,62,26;,
  4;26,62,60,27;,
  4;27,60,58,28;,
  4;28,58,56,29;,
  4;29,56,68,30;,
  4;30,68,69,31;,
  4;31,69,66,24;;
 }
 MeshTextureCoords { 
 73;
 0.077741;0.206528;,
 0.343216;0.946344;,
 0.077741;0.206528;,
 0.090526;0.269531;,
 0.343216;0.960848;,
 0.090526;0.269531;,
 0.046875;0.180431;,
 0.343216;0.933959;,
 0.046875;0.180431;,
 0.016009;0.206528;,
 0.343216;0.946344;,
 0.016009;0.206528;,
 0.003224;0.269531;,
 0.343216;0.960848;,
 0.003224;0.269531;,
 0.016009;0.332534;,
 0.343216;0.975351;,
 0.016009;0.332534;,
 0.046875;0.358631;,
 0.343216;0.984548;,
 0.046875;0.358631;,
 0.077741;0.332534;,
 0.343216;0.975351;,
 0.077741;0.332534;,
 0.332487;0.933959;,
 0.332487;0.946344;,
 0.332487;0.960848;,
 0.332487;0.975351;,
 0.332487;0.984548;,
 0.332487;0.975351;,
 0.332487;0.960848;,
 0.332487;0.946344;,
 0.000951;0.983047;,
 0.133283;0.983047;,
 0.142630;0.976964;,
 0.000951;0.995431;,
 0.133283;0.995431;,
 0.142630;0.986829;,
 0.000951;0.983047;,
 0.133283;0.983047;,
 0.142630;0.976964;,
 0.000951;0.960848;,
 0.133283;0.960848;,
 0.142630;0.960848;,
 0.000951;0.938649;,
 0.133283;0.938649;,
 0.142630;0.944731;,
 0.000951;0.923076;,
 0.133283;0.923076;,
 0.142630;0.931678;,
 0.000951;0.960848;,
 0.000951;0.938649;,
 0.133283;0.938649;,
 0.133283;0.960848;,
 0.142630;0.960848;,
 0.142630;0.944731;,
 0.324399;0.971839;,
 0.343216;0.975351;,
 0.324399;0.979581;,
 0.343216;0.984548;,
 0.324399;0.971839;,
 0.343216;0.975351;,
 0.324399;0.960848;,
 0.343216;0.960848;,
 0.324399;0.949856;,
 0.343216;0.946344;,
 0.324399;0.938925;,
 0.343216;0.933959;,
 0.324399;0.960848;,
 0.324399;0.949856;,
 0.046875;0.269531;,
 0.343216;0.960848;,
 0.343216;0.946344;;
 }
}
}
Frame frm-cube4 {
  FrameTransformMatrix {
1.000000,0.000000,0.000000,0.000000,
0.000000,1.000000,0.000000,0.000000,
0.000000,0.000000,1.000000,0.000000,
4.423454,1.864524,-4.099403,1.000000;;
 }
Mesh cube4 {
 17;
 -0.038638;-0.228838;1.636312;,
 -0.008314;0.635749;-0.947627;,
 -0.010491;-0.465939;-0.947627;,
 3.047744;0.790963;-1.307119;,
 3.047744;0.790963;-1.307119;,
 2.659992;0.391440;0.644389;,
 2.659992;0.391440;0.644389;,
 3.412800;0.435814;-1.307119;,
 3.412800;0.435814;-1.307119;,
 3.412800;0.435814;-1.307119;,
 2.659992;0.391440;0.644389;,
 2.373895;0.631813;0.082915;,
 3.047744;0.790963;-1.307119;,
 -0.010491;-0.465939;-0.947627;,
 -0.008314;0.635749;-0.947627;,
 -0.032135;0.356510;1.074838;,
 -0.038638;-0.228838;1.636312;;

 5;
 4;4,11,6,8;,
 4;5,0,2,7;,
 4;3,1,15,11;,
 4;9,13,14,12;,
 4;11,15,16,10;;

 MeshMaterialList {
  1;
  5;
  0,
  0,
  0,
  0,
  0;
Material {
 1.000000;1.000000;1.000000;1.000000;;
 50.000000;
 1.000000;1.000000;1.000000;;
 0.0; 0.0; 0.0;;
 TextureFilename {
  "utl01b.ppm";
 }
 }
}
 MeshNormals {
  17;
  0.447462;-0.197234;0.872282;,
  -0.118126;0.735161;-0.667521;,
  0.112545;-0.731611;-0.672368;,
  0.230527;0.929935;-0.286492;,
  0.230527;0.929935;-0.286492;,
  0.595009;0.486510;0.639744;,
  0.595009;0.486510;0.639744;,
  0.708457;-0.185041;-0.681064;,
  0.708457;-0.185041;-0.681064;,
  0.708457;-0.185041;-0.681064;,
  0.595009;0.486510;0.639744;,
  0.214477;0.911296;0.351481;,
  0.230527;0.929935;-0.286492;,
  0.112545;-0.731611;-0.672368;,
  -0.118126;0.735161;-0.667521;,
  0.023801;0.923261;0.383436;,
  0.447462;-0.197234;0.872282;;

  5;
  4;4,11,6,8;,
  4;5,0,2,7;,
  4;3,1,15,11;,
  4;9,13,14,12;,
  4;11,15,16,10;;
 }
 MeshTextureCoords { 
 17;
 0.098700;0.752165;,
 0.291935;0.739643;,
 0.014639;0.720385;,
 0.288675;0.564764;,
 0.288675;0.564764;,
 0.072944;0.598297;,
 0.350454;0.610987;,
 0.011230;0.535737;,
 0.289669;0.544416;,
 0.220658;0.554833;,
 0.350454;0.610987;,
 0.331597;0.619854;,
 0.204691;0.597317;,
 0.238543;0.741066;,
 0.220320;0.753966;,
 0.356988;0.766474;,
 0.375048;0.773917;;
 }
}
}
Frame frm-cube6 {
  FrameTransformMatrix {
-1.000000,0.000000,-0.000000,0.000000,
0.000000,1.000000,0.000000,0.000000,
0.000000,0.000000,-1.000000,0.000000,
-4.423454,1.864524,-4.099403,1.000000;;
 }
Mesh cube6 {
 17;
 -0.038638;-0.228838;-1.636312;,
 -0.008314;0.635749;0.947627;,
 -0.010491;-0.465939;0.947627;,
 3.047744;0.790963;1.307119;,
 3.047744;0.790963;1.307119;,
 2.659992;0.391440;-0.644389;,
 2.659992;0.391440;-0.644389;,
 3.412800;0.435814;1.307119;,
 3.412800;0.435814;1.307119;,
 3.412800;0.435814;1.307119;,
 2.659992;0.391440;-0.644389;,
 2.373895;0.631813;-0.082915;,
 3.047744;0.790963;1.307119;,
 -0.010491;-0.465939;0.947627;,
 -0.008314;0.635749;0.947627;,
 -0.032135;0.356510;-1.074838;,
 -0.038638;-0.228838;-1.636312;;

 5;
 4;8,6,11,4;,
 4;7,2,0,5;,
 4;11,15,1,3;,
 4;12,14,13,9;,
 4;10,16,15,11;;

 MeshMaterialList {
  1;
  5;
  0,
  0,
  0,
  0,
  0;
Material {
 1.000000;1.000000;1.000000;1.000000;;
 50.000000;
 1.000000;1.000000;1.000000;;
 0.0; 0.0; 0.0;;
 TextureFilename {
  "utl01b.ppm";
 }
 }
}
 MeshNormals {
  17;
  0.447462;-0.197234;-0.872282;,
  -0.118126;0.735161;0.667521;,
  0.112545;-0.731611;0.672368;,
  0.230527;0.929935;0.286492;,
  0.230527;0.929935;0.286492;,
  0.595009;0.486510;-0.639744;,
  0.595009;0.486510;-0.639744;,
  0.708457;-0.185041;0.681064;,
  0.708457;-0.185041;0.681064;,
  0.708457;-0.185041;0.681064;,
  0.595009;0.486510;-0.639744;,
  0.214477;0.911296;-0.351481;,
  0.230527;0.929935;0.286492;,
  0.112545;-0.731611;0.672368;,
  -0.118126;0.735161;0.667521;,
  0.023801;0.923261;-0.383436;,
  0.447462;-0.197234;-0.872282;;

  5;
  4;8,6,11,4;,
  4;7,2,0,5;,
  4;11,15,1,3;,
  4;12,14,13,9;,
  4;10,16,15,11;;
 }
 MeshTextureCoords { 
 17;
 0.098700;0.752165;,
 0.291935;0.739643;,
 0.014639;0.720385;,
 0.288675;0.564764;,
 0.288675;0.564764;,
 0.072944;0.598297;,
 0.350454;0.610987;,
 0.011230;0.535737;,
 0.289669;0.544416;,
 0.220658;0.554833;,
 0.350454;0.610987;,
 0.331597;0.619854;,
 0.204691;0.597317;,
 0.238543;0.741066;,
 0.220320;0.753966;,
 0.356988;0.766474;,
 0.375048;0.773917;;
 }
}
}
}
}
}
}
AnimationSet {
 Animation anim-ss03 {
  {frm-ss03}
  AnimationKey {
  2;
  2;
  1; 3; 0.166592, -2.890342, 8.229902;;,
  100; 3; 0.166592, -2.890342, 8.229902;;;
  }
 }
 Animation anim-ss02 {
  {frm-ss02}
  AnimationKey {
  2;
  2;
  1; 3; 7.920065, 2.097479, -6.680623;;,
  100; 3; 7.920065, 2.097479, -6.680623;;;
  }
 }
 Animation anim-ss01 {
  {frm-ss01}
  AnimationKey {
  2;
  2;
  1; 3; -7.918226, 2.097479, -6.680623;;,
  100; 3; -7.918226, 2.097479, -6.680623;;;
  }
 }
 Animation anim-wepemt {
  {frm-wepemt}
  AnimationKey {
  2;
  2;
  1; 3; -0.319739, 1.274666, 13.855058;;,
  100; 3; -0.319739, 1.274666, 13.855058;;;
  }
 }
 Animation anim-cube2 {
  {frm-cube2}
  AnimationKey {
  2;
  2;
  1; 3; 0.000000, -1.869137, 0.000000;;,
  100; 3; 0.000000, -1.869137, 0.000000;;;
  }
 }
 Animation anim-cyl3 {
  {frm-cyl3}
  AnimationKey {
  2;
  2;
  1; 3; 0.000000, 1.591055, 0.000000;;,
  100; 3; 0.000000, 1.591055, 0.000000;;;
  }
 }
 Animation anim-cube1 {
  {frm-cube1}
  AnimationKey {
  2;
  2;
  1; 3; 0.000000, -0.116528, -1.260578;;,
  100; 3; 0.000000, -0.116528, -1.260578;;;
  }
 }
 Animation anim-range_finder {
  {frm-range_finder}
  AnimationKey {
  2;
  2;
  1; 3; 1.034602, 1.592566, 4.375843;;,
  100; 3; 1.034602, 1.592566, 4.375843;;;
  }
 }
 Animation anim-cyl2 {
  {frm-cyl2}
  AnimationKey {
  2;
  2;
  1; 3; -0.369748, 1.588112, 2.261328;;,
  100; 3; -0.369748, 1.588112, 2.261328;;;
  }
 }
 Animation anim-cube4 {
  {frm-cube4}
  AnimationKey {
  2;
  2;
  1; 3; 4.423454, 1.864524, -4.099403;;,
  100; 3; 4.423454, 1.864524, -4.099403;;;
  }
 }
 Animation anim-cube6 {
  {frm-cube6}
  AnimationKey {
  0;
  2;
  1; 4; 0.000000, 0.000000, 1.000000, -0.000000;;,
  100; 4; 0.000000, 0.000000, 1.000000, -0.000000;;;
  }
  AnimationKey {
  2;
  2;
  1; 3; -4.423454, 1.864524, -4.099403;;,
  100; 3; -4.423454, 1.864524, -4.099403;;;
  }
 }
}
