xof 0302txt 0032
template Header {
 <3D82AB43-62DA-11cf-AB39-0020AF71E433>
 WORD major;
 WORD minor;
 DWORD flags;
}

template Vector {
 <3D82AB5E-62DA-11cf-AB39-0020AF71E433>
 FLOAT x;
 FLOAT y;
 FLOAT z;
}

template Coords2d {
 <F6F23F44-7686-11cf-8F52-0040333594A3>
 FLOAT u;
 FLOAT v;
}

template Matrix4x4 {
 <F6F23F45-7686-11cf-8F52-0040333594A3>
 array FLOAT matrix[16];
}

template ColorRGBA {
 <35FF44E0-6C7C-11cf-8F52-0040333594A3>
 FLOAT red;
 FLOAT green;
 FLOAT blue;
 FLOAT alpha;
}

template ColorRGB {
 <D3E16E81-7835-11cf-8F52-0040333594A3>
 FLOAT red;
 FLOAT green;
 FLOAT blue;
}

template TextureFilename {
 <A42790E1-7810-11cf-8F52-0040333594A3>
 STRING filename;
}

template Material {
 <3D82AB4D-62DA-11cf-AB39-0020AF71E433>
 ColorRGBA faceColor;
 FLOAT power;
 ColorRGB specularColor;
 ColorRGB emissiveColor;
 [...]
}

template MeshFace {
 <3D82AB5F-62DA-11cf-AB39-0020AF71E433>
 DWORD nFaceVertexIndices;
 array DWORD faceVertexIndices[nFaceVertexIndices];
}

template MeshTextureCoords {
 <F6F23F40-7686-11cf-8F52-0040333594A3>
 DWORD nTextureCoords;
 array Coords2d textureCoords[nTextureCoords];
}

template MeshMaterialList {
 <F6F23F42-7686-11cf-8F52-0040333594A3>
 DWORD nMaterials;
 DWORD nFaceIndexes;
 array DWORD faceIndexes[nFaceIndexes];
 [Material]
}

template MeshNormals {
 <F6F23F43-7686-11cf-8F52-0040333594A3>
 DWORD nNormals;
 array Vector normals[nNormals];
 DWORD nFaceNormals;
 array MeshFace faceNormals[nFaceNormals];
}

template Mesh {
 <3D82AB44-62DA-11cf-AB39-0020AF71E433>
 DWORD nVertices;
 array Vector vertices[nVertices];
 DWORD nFaces;
 array MeshFace faces[nFaces];
 [...]
}

template FrameTransformMatrix {
 <F6F23F41-7686-11cf-8F52-0040333594A3>
 Matrix4x4 frameMatrix;
}

template Frame {
 <3D82AB46-62DA-11cf-AB39-0020AF71E433>
 [...]
}
template FloatKeys {
 <10DD46A9-775B-11cf-8F52-0040333594A3>
 DWORD nValues;
 array FLOAT values[nValues];
}

template TimedFloatKeys {
 <F406B180-7B3B-11cf-8F52-0040333594A3>
 DWORD time;
 FloatKeys tfkeys;
}

template AnimationKey {
 <10DD46A8-775B-11cf-8F52-0040333594A3>
 DWORD keyType;
 DWORD nKeys;
 array TimedFloatKeys keys[nKeys];
}

template AnimationOptions {
 <E2BF56C0-840F-11cf-8F52-0040333594A3>
 DWORD openclosed;
 DWORD positionquality;
}

template Animation {
 <3D82AB4F-62DA-11cf-AB39-0020AF71E433>
 [...]
}

template AnimationSet {
 <3D82AB50-62DA-11cf-AB39-0020AF71E433>
 [Animation]
}

Header {
 1;
 0;
 1;
}

Frame frm-root {
  FrameTransformMatrix {
1.000000,0.000000,0.000000,0.000000,
0.000000,1.000000,0.000000,0.000000,
0.000000,0.000000,1.000000,0.000000,
0.000000,0.000000,0.000000,1.000000;;
 }
Frame frm-extru58 {
  FrameTransformMatrix {
1.000000,0.000000,0.000000,0.000000,
0.000000,1.000000,0.000000,0.000000,
0.000000,0.000000,1.000000,0.000000,
0.000000,1.803338,0.000001,1.000000;;
 }
Mesh extru58 {
 36;
 0.000000;-1.504463;1.031467;,
 0.000000;-1.504463;1.031467;,
 0.000000;-1.504463;1.031467;,
 0.000000;-1.504463;1.031467;,
 0.000000;-1.509544;0.999749;,
 0.000000;-1.509544;0.999749;,
 0.000000;-1.509544;0.999749;,
 0.000000;-1.509544;0.999749;,
 -0.072276;-1.501883;1.000931;,
 -0.072276;-1.501883;1.000931;,
 -0.072276;-1.501883;1.000931;,
 0.072276;-1.501883;1.000931;,
 0.072276;-1.501883;1.000931;,
 0.072276;-1.501883;1.000931;,
 0.308960;-1.267649;0.674463;,
 -0.308960;-1.267649;0.674463;,
 0.000000;-0.548966;0.354647;,
 0.000000;0.038949;0.295452;,
 0.000000;-0.031877;0.249280;,
 -0.120791;-0.809276;0.713547;,
 0.000000;-0.779796;0.741342;,
 0.041473;0.036240;0.278541;,
 0.120791;-0.809276;0.713547;,
 0.072276;-1.501883;1.000931;,
 0.463441;-1.090051;0.519440;,
 -0.463441;-1.090051;0.519440;,
 -0.072276;-1.501883;1.000931;,
 -0.041472;0.036240;0.278541;,
 0.000000;-1.509544;0.999749;,
 0.000000;-1.504463;1.031467;,
 0.308960;-1.159022;0.716060;,
 0.110299;-0.163517;0.331041;,
 -0.110299;-0.163517;0.331041;,
 -0.308960;-1.159022;0.716060;,
 0.110299;-0.167145;0.308394;,
 -0.110299;-0.167145;0.308394;;

 32;
 4;32,19,20,17;,
 3;33,15,10;,
 3;33,25,15;,
 3;32,35,25;,
 3;17,21,18;,
 3;31,24,34;,
 3;30,14,24;,
 3;30,13,14;,
 3;15,25,35;,
 4;22,30,24,31;,
 3;18,27,17;,
 3;31,21,17;,
 4;19,32,25,33;,
 3;34,24,14;,
 3;14,12,7;,
 3;3,11,30;,
 3;33,9,2;,
 3;6,8,15;,
 4;17,20,22,31;,
 3;17,27,32;,
 3;27,35,32;,
 3;16,5,15;,
 4;20,1,30,22;,
 4;19,33,0,20;,
 3;4,16,14;,
 3;14,16,34;,
 4;27,18,16,35;,
 3;16,15,35;,
 3;21,31,34;,
 4;18,21,34,16;,
 3;28,23,29;,
 3;26,28,29;;

 MeshMaterialList {
  1;
  32;
  0,
  0,
  0,
  0,
  0,
  0,
  0,
  0,
  0,
  0,
  0,
  0,
  0,
  0,
  0,
  0,
  0,
  0,
  0,
  0,
  0,
  0,
  0,
  0,
  0,
  0,
  0,
  0,
  0,
  0,
  0,
  0;
Material {
 1.000000;1.000000;1.000000;1.000000;;
 50.000000;
 1.000000;1.000000;1.000000;;
 0.0; 0.0; 0.0;;
 TextureFilename {
  "utl105.ppm";
 }
 }
}
 MeshNormals {
  36;
  0.000000;-0.077873;0.996963;,
  0.000000;-0.077873;0.996963;,
  0.000000;-0.077873;0.996963;,
  0.000000;-0.077873;0.996963;,
  0.000000;-0.899214;-0.437510;,
  0.000000;-0.899214;-0.437510;,
  0.000000;-0.899214;-0.437510;,
  0.000000;-0.899214;-0.437510;,
  -0.617651;-0.660207;0.427357;,
  -0.617651;-0.660207;0.427357;,
  -0.617651;-0.660207;0.427357;,
  0.617651;-0.660207;0.427357;,
  0.617651;-0.660207;0.427357;,
  0.617651;-0.660207;0.427357;,
  0.351465;-0.693238;-0.629201;,
  -0.351465;-0.693238;-0.629201;,
  0.000000;-0.321902;-0.946773;,
  0.000000;0.828975;0.559286;,
  0.000000;0.212574;-0.977145;,
  -0.519730;0.382983;0.763678;,
  0.000000;0.420892;0.907111;,
  0.650501;0.523955;-0.549835;,
  0.519730;0.382983;0.763678;,
  0.617651;-0.660207;0.427357;,
  0.978204;0.092997;0.185658;,
  -0.978204;0.092997;0.185657;,
  -0.617651;-0.660207;0.427357;,
  -0.650501;0.523956;-0.549835;,
  0.000000;-0.899214;-0.437510;,
  0.000000;-0.077873;0.996963;,
  0.671779;0.160933;0.723058;,
  0.761922;0.418467;0.494328;,
  -0.761922;0.418468;0.494328;,
  -0.671779;0.160933;0.723058;,
  0.594251;-0.033118;-0.803598;,
  -0.594251;-0.033118;-0.803598;;

  32;
  4;32,19,20,17;,
  3;33,15,10;,
  3;33,25,15;,
  3;32,35,25;,
  3;17,21,18;,
  3;31,24,34;,
  3;30,14,24;,
  3;30,13,14;,
  3;15,25,35;,
  4;22,30,24,31;,
  3;18,27,17;,
  3;31,21,17;,
  4;19,32,25,33;,
  3;34,24,14;,
  3;14,12,7;,
  3;3,11,30;,
  3;33,9,2;,
  3;6,8,15;,
  4;17,20,22,31;,
  3;17,27,32;,
  3;27,35,32;,
  3;16,5,15;,
  4;20,1,30,22;,
  4;19,33,0,20;,
  3;4,16,14;,
  3;14,16,34;,
  4;27,18,16,35;,
  3;16,15,35;,
  3;21,31,34;,
  4;18,21,34,16;,
  3;28,23,29;,
  3;26,28,29;;
 }
 MeshTextureCoords { 
 36;
 0.824219;0.989436;,
 0.824219;0.989436;,
 0.824219;0.989436;,
 0.824219;0.989436;,
 0.824219;0.986230;,
 0.824219;0.986230;,
 0.824219;0.986230;,
 0.824219;0.986230;,
 0.796044;0.983937;,
 0.796044;0.983937;,
 0.796044;0.983937;,
 0.852393;0.983937;,
 0.852393;0.983937;,
 0.852393;0.983937;,
 0.944657;0.858398;,
 0.703780;0.858398;,
 0.824219;0.577426;,
 0.824219;0.378515;,
 0.824219;0.394332;,
 0.777132;0.716342;,
 0.824219;0.711069;,
 0.840385;0.376805;,
 0.871305;0.716342;,
 0.828125;0.980469;,
 1.004876;0.777352;,
 0.643561;0.777352;,
 0.828125;0.980469;,
 0.808052;0.376805;,
 0.828125;0.980469;,
 0.828125;0.980469;,
 0.944657;0.829675;,
 0.867215;0.449340;,
 0.781222;0.449340;,
 0.703780;0.829675;,
 0.867215;0.447050;,
 0.781222;0.447050;;
 }
}
}
Frame frm-cube1 {
  FrameTransformMatrix {
-0.999986,0.000000,0.005200,0.000000,
-0.000000,-1.000000,0.000000,0.000000,
0.005200,-0.000000,0.999986,0.000000,
0.000000,0.506758,-0.002035,1.000000;;
 }
Mesh cube1 {
 91;
 -0.042283;0.039281;-0.669993;,
 -0.042283;0.039281;-0.669993;,
 0.042283;0.039281;-0.669993;,
 0.042283;0.039281;-0.669993;,
 0.042283;0.202806;-0.669993;,
 0.042283;0.202806;-0.669993;,
 -0.042283;0.202806;-0.669993;,
 -0.042283;0.202806;-0.669993;,
 0.098332;0.121043;-0.669993;,
 0.098332;0.121043;-0.669993;,
 0.098332;0.121043;-0.669993;,
 -0.098332;0.121043;-0.669993;,
 -0.098332;0.121043;-0.669993;,
 -0.098332;0.121043;-0.669993;,
 0.249232;-0.021787;0.519231;,
 0.249232;-0.021787;0.519231;,
 0.249232;-0.021787;0.519231;,
 0.249231;0.263873;0.519231;,
 0.249231;0.263873;0.519231;,
 0.249231;0.263873;0.519231;,
 -0.249231;-0.021787;0.519231;,
 -0.249231;-0.021787;0.519231;,
 -0.249231;-0.021787;0.519231;,
 -0.249232;0.263873;0.519231;,
 -0.249232;0.263873;0.519231;,
 -0.249232;0.263873;0.519231;,
 0.000000;-0.001804;0.644360;,
 0.000000;-0.001804;0.644360;,
 0.000000;0.243890;0.644360;,
 0.000000;0.243890;0.644360;,
 0.000000;0.243890;0.644360;,
 0.000000;0.243890;0.644360;,
 -0.146745;-0.013946;-0.517124;,
 -0.146745;-0.013946;-0.517124;,
 -0.146745;0.256032;-0.517124;,
 -0.146745;0.256032;-0.517124;,
 -0.146745;0.256032;-0.517124;,
 0.146745;-0.013946;-0.517124;,
 0.146745;-0.013946;-0.517124;,
 0.146745;0.256032;-0.517124;,
 0.146745;0.256032;-0.517124;,
 0.146745;0.256032;-0.517124;,
 -0.412178;0.121043;0.546502;,
 -0.412178;0.121043;0.546502;,
 -0.412178;0.121043;0.546502;,
 -0.412178;0.121043;0.546502;,
 -0.412178;0.121043;0.546502;,
 -0.412178;0.121043;0.546502;,
 0.412178;0.121043;0.546502;,
 0.412178;0.121043;0.546502;,
 0.412178;0.121043;0.546502;,
 0.412178;0.121043;0.546502;,
 0.412178;0.121043;0.546502;,
 -0.335746;-0.134022;0.016545;,
 -0.335746;-0.134022;0.016545;,
 -0.335746;-0.134022;0.016545;,
 -0.335746;0.376108;0.016545;,
 -0.335746;0.376108;0.016545;,
 -0.335746;0.376108;0.016545;,
 -0.335746;0.376108;0.016545;,
 0.335746;-0.134022;0.016545;,
 0.335746;-0.134022;0.016545;,
 0.335746;-0.134022;0.016545;,
 0.335746;0.376108;0.016545;,
 0.335746;0.376108;0.016545;,
 0.335746;0.376108;0.016545;,
 0.335746;0.376108;0.016545;,
 0.335746;0.376108;0.016545;,
 0.335746;-0.134022;0.016545;,
 -0.335746;0.376108;0.016545;,
 -0.335746;-0.134022;0.016545;,
 -0.642775;0.121043;-0.127317;,
 0.642775;0.121043;-0.127317;,
 0.412178;0.121043;0.546502;,
 -0.412178;0.121043;0.546502;,
 0.146745;0.256032;-0.517124;,
 0.146745;-0.013946;-0.517124;,
 -0.146745;0.256032;-0.517124;,
 -0.146745;-0.013946;-0.517124;,
 0.000000;0.243890;0.644360;,
 0.000000;-0.001804;0.644360;,
 -0.249232;0.263873;0.519231;,
 -0.249231;-0.021787;0.519231;,
 0.249231;0.263873;0.519231;,
 0.249232;-0.021787;0.519231;,
 -0.098332;0.121043;-0.669993;,
 0.098332;0.121043;-0.669993;,
 -0.042283;0.202806;-0.669993;,
 0.042283;0.202806;-0.669993;,
 0.042283;0.039281;-0.669993;,
 -0.042283;0.039281;-0.669993;;

 32;
 3;71,59,36;,
 4;13,7,5,10;,
 3;41,66,72;,
 3;58,47,25;,
 4;55,33,38,62;,
 4;65,40,35,57;,
 3;72,64,52;,
 3;71,54,46;,
 3;45,56,71;,
 4;71,34,6,12;,
 4;39,4,87,77;,
 4;3,37,32,1;,
 4;9,88,75,72;,
 3;51,61,72;,
 4;22,53,60,16;,
 3;50,31,27;,
 3;19,24,30;,
 3;21,15,26;,
 3;20,80,44;,
 3;78,70,71;,
 3;23,43,29;,
 3;68,49,14;,
 3;84,48,80;,
 3;72,68,76;,
 3;18,28,73;,
 3;42,80,79;,
 4;72,76,2,8;,
 4;11,0,78,71;,
 4;86,89,90,85;,
 4;17,63,69,81;,
 3;83,73,67;,
 3;82,74,70;;

 MeshMaterialList {
  3;
  32;
  0,
  1,
  0,
  0,
  2,
  2,
  0,
  0,
  0,
  0,
  2,
  2,
  0,
  0,
  2,
  0,
  2,
  2,
  0,
  0,
  0,
  0,
  0,
  0,
  0,
  0,
  0,
  0,
  1,
  2,
  0,
  0;
Material {
 1.000000;1.000000;1.000000;1.000000;;
 50.000000;
 1.000000;1.000000;1.000000;;
 0.0; 0.0; 0.0;;
 TextureFilename {
  "utl105.ppm";
 }
 }
Material {
 1.000000;1.000000;1.000000;1.000000;;
 50.000000;
 1.000000;1.000000;1.000000;;
 0.0; 0.0; 0.0;;
 TextureFilename {
  "utl105.ppm";
 }
 }
Material {
 1.000000;1.000000;1.000000;1.000000;;
 50.000000;
 1.000000;1.000000;1.000000;;
 0.0; 0.0; 0.0;;
 TextureFilename {
  "utl105.ppm";
 }
 }
}
 MeshNormals {
  91;
  -0.165094;-0.786180;-0.595537;,
  -0.165094;-0.786180;-0.595537;,
  0.165094;-0.786180;-0.595537;,
  0.165094;-0.786180;-0.595537;,
  0.165094;0.786180;-0.595537;,
  0.165094;0.786180;-0.595537;,
  -0.165094;0.786180;-0.595537;,
  -0.165094;0.786180;-0.595537;,
  0.411438;0.000000;-0.911438;,
  0.411438;0.000000;-0.911438;,
  0.411438;0.000000;-0.911438;,
  -0.411438;0.000000;-0.911438;,
  -0.411438;0.000000;-0.911438;,
  -0.411438;0.000000;-0.911438;,
  0.233361;-0.911707;0.338132;,
  0.233361;-0.911707;0.338132;,
  0.233361;-0.911707;0.338132;,
  0.233361;0.911707;0.338132;,
  0.233361;0.911707;0.338132;,
  0.233361;0.911707;0.338132;,
  -0.233361;-0.911707;0.338132;,
  -0.233361;-0.911707;0.338132;,
  -0.233361;-0.911707;0.338132;,
  -0.233361;0.911707;0.338132;,
  -0.233361;0.911707;0.338132;,
  -0.233361;0.911707;0.338132;,
  0.000000;-0.754014;0.656859;,
  0.000000;-0.754014;0.656859;,
  -0.000000;0.754014;0.656859;,
  -0.000000;0.754014;0.656859;,
  -0.000000;0.754014;0.656859;,
  -0.000000;0.754014;0.656859;,
  -0.266866;-0.881968;-0.388479;,
  -0.266866;-0.881968;-0.388479;,
  -0.266866;0.881968;-0.388479;,
  -0.266866;0.881968;-0.388479;,
  -0.266866;0.881968;-0.388479;,
  0.266866;-0.881968;-0.388479;,
  0.266866;-0.881968;-0.388479;,
  0.266866;0.881968;-0.388479;,
  0.266866;0.881968;-0.388479;,
  0.266866;0.881968;-0.388479;,
  -0.767765;-0.000000;0.640731;,
  -0.767765;-0.000000;0.640731;,
  -0.767765;-0.000000;0.640731;,
  -0.767765;-0.000000;0.640731;,
  -0.767765;-0.000000;0.640731;,
  -0.767765;-0.000000;0.640731;,
  0.767765;0.000000;0.640731;,
  0.767765;0.000000;0.640731;,
  0.767765;0.000000;0.640731;,
  0.767765;0.000000;0.640731;,
  0.767765;0.000000;0.640731;,
  -0.376772;-0.925661;0.034561;,
  -0.376772;-0.925661;0.034561;,
  -0.376772;-0.925661;0.034561;,
  -0.376772;0.925661;0.034561;,
  -0.376772;0.925661;0.034561;,
  -0.376772;0.925661;0.034561;,
  -0.376772;0.925661;0.034561;,
  0.376772;-0.925661;0.034561;,
  0.376772;-0.925661;0.034561;,
  0.376772;-0.925661;0.034561;,
  0.376772;0.925661;0.034561;,
  0.376772;0.925661;0.034561;,
  0.376772;0.925661;0.034561;,
  0.376772;0.925661;0.034561;,
  0.376772;0.925661;0.034561;,
  0.376772;-0.925661;0.034561;,
  -0.376772;0.925661;0.034561;,
  -0.376772;-0.925661;0.034561;,
  -0.900382;0.000000;-0.435100;,
  0.900382;-0.000000;-0.435100;,
  0.767765;0.000000;0.640731;,
  -0.767765;-0.000000;0.640731;,
  0.266866;0.881968;-0.388479;,
  0.266866;-0.881968;-0.388479;,
  -0.266866;0.881968;-0.388479;,
  -0.266866;-0.881968;-0.388479;,
  -0.000000;0.754014;0.656859;,
  0.000000;-0.754014;0.656859;,
  -0.233361;0.911707;0.338132;,
  -0.233361;-0.911707;0.338132;,
  0.233361;0.911707;0.338132;,
  0.233361;-0.911707;0.338132;,
  -0.411438;0.000000;-0.911438;,
  0.411438;0.000000;-0.911438;,
  -0.165094;0.786180;-0.595537;,
  0.165094;0.786180;-0.595537;,
  0.165094;-0.786180;-0.595537;,
  -0.165094;-0.786180;-0.595537;;

  32;
  3;71,59,36;,
  4;13,7,5,10;,
  3;41,66,72;,
  3;58,47,25;,
  4;55,33,38,62;,
  4;65,40,35,57;,
  3;72,64,52;,
  3;71,54,46;,
  3;45,56,71;,
  4;71,34,6,12;,
  4;39,4,87,77;,
  4;3,37,32,1;,
  4;9,88,75,72;,
  3;51,61,72;,
  4;22,53,60,16;,
  3;50,31,27;,
  3;19,24,30;,
  3;21,15,26;,
  3;20,80,44;,
  3;78,70,71;,
  3;23,43,29;,
  3;68,49,14;,
  3;84,48,80;,
  3;72,68,76;,
  3;18,28,73;,
  3;42,80,79;,
  4;72,76,2,8;,
  4;11,0,78,71;,
  4;86,89,90,85;,
  4;17,63,69,81;,
  3;83,73,67;,
  3;82,74,70;;
 }
 MeshTextureCoords { 
 91;
 0.005859;0.732422;,
 0.484577;0.111817;,
 0.005859;0.732422;,
 0.484497;0.088749;,
 0.484497;0.088749;,
 0.966797;0.205078;,
 0.006430;0.730920;,
 0.919922;0.205078;,
 0.001953;0.771484;,
 0.001953;0.771484;,
 0.990234;0.302734;,
 0.001953;0.771484;,
 0.001953;0.771484;,
 0.896484;0.302734;,
 0.587891;0.693359;,
 0.938489;0.031523;,
 0.938489;0.031523;,
 0.938489;0.031523;,
 0.587161;0.694026;,
 0.938489;0.031523;,
 0.283203;0.142578;,
 0.938964;0.167492;,
 0.938964;0.167492;,
 0.587161;0.694026;,
 0.938964;0.167492;,
 0.587161;0.694026;,
 0.986516;0.099426;,
 0.037109;0.142578;,
 0.642892;0.708374;,
 0.642892;0.708374;,
 0.986516;0.099426;,
 0.041016;0.107422;,
 0.543061;0.140212;,
 0.543061;0.140212;,
 0.083984;0.697266;,
 0.543061;0.140212;,
 0.083984;0.697266;,
 0.542781;0.060155;,
 0.542781;0.060155;,
 0.542781;0.060155;,
 0.542781;0.060155;,
 0.083984;0.697266;,
 0.279297;0.107422;,
 0.580078;0.763672;,
 0.279297;0.107422;,
 0.580078;0.763672;,
 0.580078;0.763672;,
 0.580078;0.763672;,
 0.279297;0.107422;,
 0.580078;0.763672;,
 0.279297;0.107422;,
 0.580078;0.763672;,
 0.580078;0.763672;,
 0.747061;0.191419;,
 0.341797;0.572266;,
 0.747061;0.191419;,
 0.341797;0.572266;,
 0.747061;0.191419;,
 0.341797;0.572266;,
 0.341797;0.572266;,
 0.746420;0.008252;,
 0.341797;0.572266;,
 0.746420;0.008252;,
 0.746420;0.008252;,
 0.341797;0.572266;,
 0.746420;0.008252;,
 0.341797;0.572266;,
 0.341797;0.572266;,
 0.341797;0.572266;,
 0.747061;0.191419;,
 0.341797;0.572266;,
 0.369141;0.771484;,
 0.369141;0.771484;,
 0.580078;0.763672;,
 0.580078;0.763672;,
 0.083984;0.697266;,
 0.083984;0.697266;,
 0.543061;0.140212;,
 0.083984;0.697266;,
 0.041016;0.107422;,
 0.037109;0.142578;,
 0.938964;0.167492;,
 0.587891;0.693359;,
 0.587161;0.694026;,
 0.283203;0.142578;,
 0.896484;0.302734;,
 0.990234;0.302734;,
 0.484577;0.111817;,
 0.006430;0.730920;,
 0.962891;0.408203;,
 0.919922;0.408203;;
 }
}
Frame frm-bottom_gun1 {
  FrameTransformMatrix {
-1.000000,0.000000,0.000000,0.000000,
-0.000000,-0.999800,-0.020000,0.000000,
-0.000000,-0.020000,0.999800,0.000000,
0.013164,0.503091,-0.626862,1.000000;;
 }
Mesh bottom_gun1 {
 40;
 0.037015;0.079848;-0.752850;,
 -0.000133;0.052545;-0.752850;,
 -0.037098;0.079595;-0.752850;,
 -0.022795;0.123615;-0.752850;,
 -0.022795;0.123615;-0.752850;,
 -0.043159;0.159426;0.049890;,
 -0.043159;0.159426;0.049890;,
 -0.043159;0.159426;0.049890;,
 0.023010;0.123771;-0.752850;,
 0.043159;0.159426;0.049890;,
 0.043159;0.159426;0.049890;,
 0.043159;0.159426;0.049890;,
 -0.000000;-0.068716;0.333088;,
 -0.000000;-0.068716;0.333088;,
 0.059607;0.266541;0.100689;,
 -0.059607;0.266541;0.100689;,
 -0.000000;0.134529;0.644228;,
 -0.000000;0.134529;0.644228;,
 -0.151712;0.196825;0.352215;,
 -0.151712;0.196825;0.352215;,
 -0.151712;0.196825;0.352215;,
 0.151712;0.196825;0.352215;,
 0.151712;0.196825;0.352215;,
 0.151712;0.196825;0.352215;,
 0.151712;0.196825;0.352215;,
 -0.151712;0.196825;0.352215;,
 -0.000000;0.134529;0.644228;,
 -0.059607;0.266541;0.100689;,
 0.059607;0.266541;0.100689;,
 -0.000000;-0.068716;0.333088;,
 0.043159;0.159426;0.049890;,
 0.023010;0.123771;-0.752850;,
 -0.043159;0.159426;0.049890;,
 -0.022795;0.123615;-0.752850;,
 -0.069834;0.077332;0.049890;,
 -0.037098;0.079595;-0.752850;,
 -0.000000;0.026595;0.049890;,
 -0.000133;0.052545;-0.752850;,
 0.069833;0.077332;0.049890;,
 0.037015;0.079848;-0.752850;;

 14;
 5;1,2,4,8,0;,
 4;38,36,37,39;,
 4;23,13,36,38;,
 4;36,34,35,37;,
 4;34,7,3,35;,
 4;6,11,31,33;,
 4;10,38,39,31;,
 4;12,20,34,36;,
 4;14,22,38,9;,
 4;15,28,30,5;,
 4;19,27,32,34;,
 3;21,18,17;,
 3;24,16,29;,
 3;26,25,29;;

 MeshMaterialList {
  1;
  14;
  0,
  0,
  0,
  0,
  0,
  0,
  0,
  0,
  0,
  0,
  0,
  0,
  0,
  0;
Material {
 1.000000;1.000000;1.000000;1.000000;;
 50.000000;
 1.000000;1.000000;1.000000;;
 0.0; 0.0; 0.0;;
 TextureFilename {
  "utl105.ppm";
 }
 }
}
 MeshNormals {
  40;
  0.794785;-0.258356;-0.549153;,
  0.000302;-0.837878;-0.545858;,
  -0.794726;-0.257822;-0.549490;,
  -0.488955;0.672013;-0.556167;,
  -0.488955;0.672013;-0.556167;,
  -0.635657;0.629127;-0.447369;,
  -0.635657;0.629127;-0.447369;,
  -0.635657;0.629127;-0.447369;,
  0.488594;0.671834;-0.556700;,
  0.635554;0.629018;-0.447669;,
  0.635554;0.629018;-0.447669;,
  0.635554;0.629018;-0.447669;,
  -0.000000;-0.977547;0.210718;,
  -0.000000;-0.977547;0.210718;,
  0.557505;0.344864;-0.755154;,
  -0.557505;0.344864;-0.755154;,
  0.000000;0.003671;0.999993;,
  0.000000;0.003671;0.999993;,
  -0.999616;-0.009895;0.025901;,
  -0.999616;-0.009895;0.025901;,
  -0.999616;-0.009895;0.025901;,
  0.999616;-0.009895;0.025901;,
  0.999616;-0.009895;0.025901;,
  0.999616;-0.009895;0.025901;,
  0.999616;-0.009895;0.025901;,
  -0.999616;-0.009895;0.025901;,
  0.000000;0.003671;0.999993;,
  -0.557505;0.344864;-0.755154;,
  0.557505;0.344864;-0.755154;,
  -0.000000;-0.977547;0.210718;,
  0.635554;0.629018;-0.447669;,
  0.488594;0.671834;-0.556700;,
  -0.635657;0.629127;-0.447369;,
  -0.488955;0.672013;-0.556167;,
  -0.952288;-0.267717;-0.146543;,
  -0.794726;-0.257822;-0.549490;,
  0.000178;-0.996386;-0.084940;,
  0.000302;-0.837878;-0.545858;,
  0.952214;-0.268001;-0.146503;,
  0.794785;-0.258356;-0.549153;;

  14;
  5;1,2,4,8,0;,
  4;38,36,37,39;,
  4;23,13,36,38;,
  4;36,34,35,37;,
  4;34,7,3,35;,
  4;6,11,31,33;,
  4;10,38,39,31;,
  4;12,20,34,36;,
  4;14,22,38,9;,
  4;15,28,30,5;,
  4;19,27,32,34;,
  3;21,18,17;,
  3;24,16,29;,
  3;26,25,29;;
 }
 MeshTextureCoords { 
 40;
 0.237210;0.426241;,
 0.218860;0.438704;,
 0.203132;0.423748;,
 0.008127;0.481748;,
 0.210996;0.406299;,
 0.449382;0.517622;,
 0.408336;0.458802;,
 0.404717;0.455408;,
 0.234588;0.406299;,
 0.404717;0.455408;,
 0.404717;0.455408;,
 0.414154;0.461390;,
 0.493554;0.538149;,
 0.493554;0.538149;,
 0.453957;0.430800;,
 0.448406;0.463717;,
 0.527344;0.548437;,
 0.000000;1.000000;,
 0.000000;1.000000;,
 0.501480;0.479179;,
 0.501480;0.479179;,
 0.000000;1.000000;,
 0.501480;0.479179;,
 0.501480;0.479179;,
 0.501823;0.478646;,
 0.501823;0.479167;,
 0.527604;0.547917;,
 0.453957;0.430800;,
 0.427559;0.463787;,
 0.494010;0.537500;,
 0.427959;0.517310;,
 0.008127;0.481748;,
 0.404717;0.455408;,
 0.008127;0.474270;,
 0.404666;0.483721;,
 0.008127;0.486733;,
 0.404666;0.500354;,
 0.007592;0.495753;,
 0.404666;0.483721;,
 0.008127;0.486733;;
 }
}
}
}
Frame frm-cyl2 {
  FrameTransformMatrix {
1.000000,0.000000,0.000000,0.000000,
0.000000,1.000000,0.000000,0.000000,
0.000000,0.000000,1.000000,0.000000,
0.000000,0.797575,0.000000,1.000000;;
 }
Mesh cyl2 {
 50;
 0.676978;-0.162475;0.000000;,
 0.676978;-0.162475;0.000000;,
 0.676978;-0.162475;0.000000;,
 0.555750;0.077844;-0.000000;,
 0.555750;0.077844;-0.000000;,
 0.555750;0.077844;-0.000000;,
 0.338489;-0.162475;0.586280;,
 0.338489;-0.162475;0.586280;,
 0.338489;-0.162475;0.586280;,
 0.277875;0.077844;0.481293;,
 0.277875;0.077844;0.481293;,
 0.277875;0.077844;0.481293;,
 -0.338489;-0.162475;0.586280;,
 -0.338489;-0.162475;0.586280;,
 -0.338489;-0.162475;0.586280;,
 -0.277875;0.077844;0.481293;,
 -0.277875;0.077844;0.481293;,
 -0.277875;0.077844;0.481293;,
 -0.676978;-0.162475;-0.000000;,
 -0.676978;-0.162475;-0.000000;,
 -0.676978;-0.162475;-0.000000;,
 -0.555750;0.077844;-0.000000;,
 -0.555750;0.077844;-0.000000;,
 -0.555750;0.077844;-0.000000;,
 -0.338489;-0.162475;-0.586280;,
 -0.338489;-0.162475;-0.586280;,
 -0.338489;-0.162475;-0.586280;,
 -0.277875;0.077844;-0.481294;,
 -0.277875;0.077844;-0.481294;,
 -0.277875;0.077844;-0.481294;,
 0.338489;-0.162475;-0.586280;,
 0.338489;-0.162475;-0.586280;,
 0.338489;-0.162475;-0.586280;,
 0.277875;0.077844;-0.481293;,
 0.277875;0.077844;-0.481293;,
 0.277875;0.077844;-0.481293;,
 0.277875;0.077844;-0.481293;,
 0.338489;-0.162475;-0.586280;,
 -0.277875;0.077844;-0.481294;,
 -0.338489;-0.162475;-0.586280;,
 -0.555750;0.077844;-0.000000;,
 -0.676978;-0.162475;-0.000000;,
 -0.277875;0.077844;0.481293;,
 -0.338489;-0.162475;0.586280;,
 0.277875;0.077844;0.481293;,
 0.338489;-0.162475;0.586280;,
 0.555750;0.077844;-0.000000;,
 0.676978;-0.162475;0.000000;,
 0.000000;0.084507;-0.000000;,
 0.000000;-0.162475;0.000000;;

 18;
 3;49,2,8;,
 4;5,11,7,1;,
 3;48,10,4;,
 3;49,6,14;,
 4;9,17,13,45;,
 3;48,16,44;,
 3;49,12,20;,
 4;15,23,19,43;,
 3;48,22,42;,
 3;49,18,26;,
 4;21,29,25,41;,
 3;48,28,40;,
 3;49,24,32;,
 4;27,35,31,39;,
 3;48,34,38;,
 3;49,30,0;,
 4;33,3,47,37;,
 3;48,46,36;;

 MeshMaterialList {
  1;
  18;
  0,
  0,
  0,
  0,
  0,
  0,
  0,
  0,
  0,
  0,
  0,
  0,
  0,
  0,
  0,
  0,
  0,
  0;
Material {
 1.000000;1.000000;1.000000;1.000000;;
 50.000000;
 1.000000;1.000000;1.000000;;
 0.0; 0.0; 0.0;;
 TextureFilename {
  "utl105.ppm";
 }
 }
}
 MeshNormals {
  50;
  0.851583;-0.524220;0.000000;,
  0.851583;-0.524220;0.000000;,
  0.851583;-0.524220;0.000000;,
  0.529315;0.848425;0.000000;,
  0.529315;0.848425;0.000000;,
  0.529315;0.848425;0.000000;,
  0.425791;-0.524220;0.737492;,
  0.425791;-0.524220;0.737492;,
  0.425791;-0.524220;0.737492;,
  0.264658;0.848425;0.458401;,
  0.264658;0.848425;0.458401;,
  0.264658;0.848425;0.458401;,
  -0.425791;-0.524220;0.737492;,
  -0.425791;-0.524220;0.737492;,
  -0.425791;-0.524220;0.737492;,
  -0.264658;0.848425;0.458401;,
  -0.264658;0.848425;0.458401;,
  -0.264658;0.848425;0.458401;,
  -0.851583;-0.524220;-0.000000;,
  -0.851583;-0.524220;-0.000000;,
  -0.851583;-0.524220;-0.000000;,
  -0.529315;0.848425;-0.000000;,
  -0.529315;0.848425;-0.000000;,
  -0.529315;0.848425;-0.000000;,
  -0.425791;-0.524220;-0.737492;,
  -0.425791;-0.524220;-0.737492;,
  -0.425791;-0.524220;-0.737492;,
  -0.264658;0.848425;-0.458401;,
  -0.264658;0.848425;-0.458401;,
  -0.264658;0.848425;-0.458401;,
  0.425791;-0.524220;-0.737492;,
  0.425791;-0.524220;-0.737492;,
  0.425791;-0.524220;-0.737492;,
  0.264658;0.848425;-0.458401;,
  0.264658;0.848425;-0.458401;,
  0.264658;0.848425;-0.458401;,
  0.264658;0.848425;-0.458401;,
  0.425791;-0.524220;-0.737492;,
  -0.264658;0.848425;-0.458401;,
  -0.425791;-0.524220;-0.737492;,
  -0.529315;0.848425;-0.000000;,
  -0.851583;-0.524220;-0.000000;,
  -0.264658;0.848425;0.458401;,
  -0.425791;-0.524220;0.737492;,
  0.264658;0.848425;0.458401;,
  0.425791;-0.524220;0.737492;,
  0.529315;0.848425;0.000000;,
  0.851583;-0.524220;0.000000;,
  0.000000;1.000000;0.000000;,
  0.000000;-1.000000;0.000000;;

  18;
  3;49,2,8;,
  4;5,11,7,1;,
  3;48,10,4;,
  3;49,6,14;,
  4;9,17,13,45;,
  3;48,16,44;,
  3;49,12,20;,
  4;15,23,19,43;,
  3;48,22,42;,
  3;49,18,26;,
  4;21,29,25,41;,
  3;48,28,40;,
  3;49,24,32;,
  4;27,35,31,39;,
  3;48,34,38;,
  3;49,30,0;,
  4;33,3,47,37;,
  3;48,46,36;;
 }
 MeshTextureCoords { 
 50;
 0.185863;0.725304;,
 0.302734;0.150391;,
 0.199940;0.814114;,
 0.040791;0.097487;,
 0.549628;0.336991;,
 0.275618;0.097996;,
 0.199940;0.814114;,
 0.013672;0.150391;,
 0.185863;0.725304;,
 0.040781;0.099194;,
 0.537109;0.271484;,
 0.040791;0.097487;,
 0.199940;0.814114;,
 0.301111;0.150546;,
 0.185863;0.725304;,
 0.275618;0.097996;,
 0.279297;0.271484;,
 0.275608;0.099704;,
 0.199940;0.814114;,
 0.013672;0.150391;,
 0.185863;0.725304;,
 0.275618;0.097996;,
 0.267578;0.337891;,
 0.040791;0.097487;,
 0.199940;0.814114;,
 0.013672;0.150391;,
 0.185863;0.725304;,
 0.275618;0.097996;,
 0.279297;0.271484;,
 0.040791;0.097487;,
 0.199940;0.814114;,
 0.013672;0.150391;,
 0.185863;0.725304;,
 0.275618;0.097996;,
 0.537109;0.271484;,
 0.040791;0.097487;,
 0.537109;0.271484;,
 0.302734;0.150391;,
 0.279297;0.271484;,
 0.302734;0.150391;,
 0.267578;0.337891;,
 0.302734;0.150391;,
 0.279297;0.271484;,
 0.302734;0.150391;,
 0.537109;0.271484;,
 0.013672;0.150391;,
 0.549628;0.336991;,
 0.013672;0.150391;,
 0.408203;0.333984;,
 0.363878;0.774475;;
 }
}
}
Frame frm-sphere17 {
  FrameTransformMatrix {
1.000000,0.000000,0.000000,0.000000,
0.000000,1.000000,0.000000,0.000000,
0.000000,0.000000,1.000000,0.000000,
0.003675,1.284895,-0.027999,1.000000;;
 }
Mesh sphere17 {
 41;
 -0.000000;0.598561;-0.048666;,
 -0.000000;0.598561;-0.048666;,
 0.296230;-0.062585;0.258986;,
 0.296230;-0.062585;0.258986;,
 0.296230;-0.062585;0.258986;,
 0.296230;-0.062585;0.258986;,
 0.445408;-0.414855;-0.048427;,
 0.445408;-0.414855;-0.048427;,
 0.182465;0.335626;0.106560;,
 0.182465;0.335626;0.106560;,
 0.152288;0.547381;0.039270;,
 0.152288;0.547381;0.039270;,
 -0.182465;0.335626;0.106560;,
 -0.182465;0.335626;0.106560;,
 0.148469;-0.413829;0.383972;,
 -0.296230;-0.062585;0.258986;,
 -0.296230;-0.062585;0.258986;,
 -0.296230;-0.062585;0.258986;,
 -0.296230;-0.062585;0.258986;,
 -0.148469;-0.413829;0.383973;,
 -0.152288;0.547380;0.039271;,
 -0.152288;0.547380;0.039271;,
 -0.152288;0.547380;0.039271;,
 -0.148469;-0.413829;0.383973;,
 -0.000000;0.559396;-0.122587;,
 -0.296230;-0.062585;0.258986;,
 0.148469;-0.413829;0.383972;,
 -0.182465;0.335626;0.106560;,
 -0.445408;-0.414855;-0.048427;,
 -0.199216;-0.043485;-0.061554;,
 0.152288;0.547381;0.039270;,
 -0.115573;0.343450;-0.053991;,
 0.000000;-0.404224;-0.459154;,
 -0.000000;-0.045052;-0.373015;,
 0.182465;0.335626;0.106560;,
 -0.000000;0.343992;-0.220045;,
 0.445408;-0.414855;-0.048427;,
 0.199216;-0.043485;-0.061554;,
 0.296230;-0.062585;0.258986;,
 0.115573;0.343450;-0.053991;,
 -0.000000;0.598561;-0.048666;;

 20;
 3;1,11,24;,
 3;39,35,24;,
 4;37,33,35,39;,
 4;7,32,33,37;,
 3;6,37,5;,
 4;18,19,14,4;,
 3;35,31,24;,
 4;33,29,31,35;,
 4;32,28,29,33;,
 4;3,37,39,9;,
 3;0,24,21;,
 4;31,13,20,24;,
 4;29,17,12,31;,
 3;28,23,16;,
 4;8,39,24,10;,
 3;40,22,30;,
 4;34,30,22,27;,
 4;15,2,34,27;,
 3;25,29,28;,
 3;38,26,36;;

 MeshMaterialList {
  2;
  20;
  0,
  0,
  0,
  0,
  0,
  1,
  0,
  0,
  0,
  0,
  0,
  0,
  0,
  0,
  0,
  1,
  1,
  1,
  0,
  0;
Material {
 0.978723;1.000000;1.000000;1.000000;;
 50.000000;
 1.000000;1.000000;1.000000;;
 0.0; 0.0; 0.0;;
 TextureFilename {
  "utl105.ppm";
 }
 }
Material {
 1.000000;1.000000;1.000000;1.000000;;
 50.000000;
 1.000000;1.000000;1.000000;;
 0.0; 0.0; 0.0;;
 TextureFilename {
  "utl105.ppm";
 }
 }
}
 MeshNormals {
  41;
  -0.000004;0.990038;-0.140797;,
  -0.000004;0.990038;-0.140797;,
  0.753755;0.362261;0.548288;,
  0.753755;0.362261;0.548288;,
  0.753755;0.362261;0.548288;,
  0.753755;0.362261;0.548288;,
  0.950165;0.282261;-0.132341;,
  0.950165;0.282261;-0.132341;,
  0.788195;0.419519;0.450280;,
  0.788195;0.419519;0.450280;,
  0.581671;0.788609;0.199386;,
  0.581671;0.788609;0.199386;,
  -0.788194;0.419520;0.450281;,
  -0.788194;0.419520;0.450281;,
  0.474098;0.111348;0.873403;,
  -0.753755;0.362261;0.548288;,
  -0.753755;0.362261;0.548288;,
  -0.753755;0.362261;0.548288;,
  -0.753755;0.362261;0.548288;,
  -0.474098;0.111348;0.873403;,
  -0.581673;0.788607;0.199387;,
  -0.581673;0.788607;0.199387;,
  -0.581673;0.788607;0.199387;,
  -0.474098;0.111348;0.873403;,
  -0.000002;0.558775;-0.829320;,
  -0.753755;0.362261;0.548288;,
  0.474098;0.111348;0.873403;,
  -0.788194;0.419520;0.450281;,
  -0.950165;0.282261;-0.132341;,
  -0.844345;0.305553;-0.440135;,
  0.581671;0.788609;0.199386;,
  -0.850430;0.184253;-0.492768;,
  0.000000;0.432558;-0.901606;,
  -0.000000;0.393960;-0.919128;,
  0.788195;0.419519;0.450280;,
  -0.000000;0.380619;-0.924732;,
  0.950165;0.282261;-0.132341;,
  0.844345;0.305553;-0.440135;,
  0.753755;0.362261;0.548288;,
  0.850430;0.184252;-0.492768;,
  -0.000004;0.990038;-0.140797;;

  20;
  3;1,11,24;,
  3;39,35,24;,
  4;37,33,35,39;,
  4;7,32,33,37;,
  3;6,37,5;,
  4;18,19,14,4;,
  3;35,31,24;,
  4;33,29,31,35;,
  4;32,28,29,33;,
  4;3,37,39,9;,
  3;0,24,21;,
  4;31,13,20,24;,
  4;29,17,12,31;,
  3;28,23,16;,
  4;8,39,24,10;,
  3;40,22,30;,
  4;34,30,22,27;,
  4;15,2,34,27;,
  3;25,29,28;,
  3;38,26,36;;
 }
 MeshTextureCoords { 
 41;
 0.005859;0.837891;,
 0.005859;0.837891;,
 0.324720;0.666512;,
 0.337891;0.572266;,
 0.324720;0.666512;,
 0.337891;0.572266;,
 0.451172;0.662109;,
 0.451172;0.662109;,
 0.177734;0.646484;,
 0.177734;0.646484;,
 0.064453;0.697266;,
 0.064453;0.697266;,
 0.177734;0.646484;,
 0.177734;0.646484;,
 0.474894;0.750830;,
 0.327773;0.993845;,
 0.337891;0.572266;,
 0.337891;0.572266;,
 0.327773;0.993845;,
 0.476425;0.914888;,
 0.064453;0.697266;,
 0.064453;0.697266;,
 0.044442;0.912542;,
 0.447266;0.599609;,
 0.056641;0.837891;,
 0.337891;0.572266;,
 0.447266;0.599609;,
 0.170773;0.928485;,
 0.451172;0.662109;,
 0.318359;0.689453;,
 0.042872;0.744265;,
 0.150573;0.733829;,
 0.474609;0.830078;,
 0.318359;0.833984;,
 0.168892;0.726862;,
 0.148661;0.835781;,
 0.337891;0.572266;,
 0.318359;0.689453;,
 0.451172;0.662109;,
 0.150573;0.733829;,
 -0.000886;0.828661;;
 }
}
}
Frame frm-extru59 {
  FrameTransformMatrix {
-0.500044,0.000000,-0.866000,0.000000,
0.000000,1.000000,0.000000,0.000000,
0.866000,0.000000,-0.500044,0.000000,
0.000000,1.803338,0.000001,1.000000;;
 }
Mesh extru59 {
 36;
 0.000000;-1.504463;1.031467;,
 0.000000;-1.504463;1.031467;,
 0.000000;-1.504463;1.031467;,
 0.000000;-1.504463;1.031467;,
 0.000000;-1.509544;0.999749;,
 0.000000;-1.509544;0.999749;,
 0.000000;-1.509544;0.999749;,
 0.000000;-1.509544;0.999749;,
 -0.072276;-1.501883;1.000931;,
 -0.072276;-1.501883;1.000931;,
 -0.072276;-1.501883;1.000931;,
 0.072276;-1.501883;1.000931;,
 0.072276;-1.501883;1.000931;,
 0.072276;-1.501883;1.000931;,
 0.308960;-1.267649;0.674463;,
 -0.308960;-1.267649;0.674463;,
 0.000000;-0.548966;0.354647;,
 0.000000;0.038949;0.295452;,
 0.000000;-0.031877;0.249280;,
 -0.120791;-0.809276;0.713547;,
 0.000000;-0.779796;0.741342;,
 0.041473;0.036240;0.278541;,
 0.120791;-0.809276;0.713547;,
 0.072276;-1.501883;1.000931;,
 0.463441;-1.090051;0.519440;,
 -0.463441;-1.090051;0.519440;,
 -0.072276;-1.501883;1.000931;,
 -0.041472;0.036240;0.278541;,
 0.000000;-1.509544;0.999749;,
 0.000000;-1.504463;1.031467;,
 0.308960;-1.159022;0.716060;,
 0.110299;-0.163517;0.331041;,
 -0.110299;-0.163517;0.331041;,
 -0.308960;-1.159022;0.716060;,
 0.110299;-0.167145;0.308394;,
 -0.110299;-0.167145;0.308394;;

 32;
 4;32,19,20,17;,
 3;33,15,10;,
 3;33,25,15;,
 3;32,35,25;,
 3;17,21,18;,
 3;31,24,34;,
 3;30,14,24;,
 3;30,13,14;,
 3;15,25,35;,
 4;22,30,24,31;,
 3;18,27,17;,
 3;31,21,17;,
 4;19,32,25,33;,
 3;34,24,14;,
 3;14,12,7;,
 3;3,11,30;,
 3;33,9,2;,
 3;6,8,15;,
 4;17,20,22,31;,
 3;17,27,32;,
 3;27,35,32;,
 3;16,5,15;,
 4;20,1,30,22;,
 4;19,33,0,20;,
 3;4,16,14;,
 3;14,16,34;,
 4;27,18,16,35;,
 3;16,15,35;,
 3;21,31,34;,
 4;18,21,34,16;,
 3;28,23,29;,
 3;26,28,29;;

 MeshMaterialList {
  1;
  32;
  0,
  0,
  0,
  0,
  0,
  0,
  0,
  0,
  0,
  0,
  0,
  0,
  0,
  0,
  0,
  0,
  0,
  0,
  0,
  0,
  0,
  0,
  0,
  0,
  0,
  0,
  0,
  0,
  0,
  0,
  0,
  0;
Material {
 1.000000;1.000000;1.000000;1.000000;;
 50.000000;
 1.000000;1.000000;1.000000;;
 0.0; 0.0; 0.0;;
 TextureFilename {
  "utl105.ppm";
 }
 }
}
 MeshNormals {
  36;
  0.000000;-0.077873;0.996963;,
  0.000000;-0.077873;0.996963;,
  0.000000;-0.077873;0.996963;,
  0.000000;-0.077873;0.996963;,
  0.000000;-0.899214;-0.437510;,
  0.000000;-0.899214;-0.437510;,
  0.000000;-0.899214;-0.437510;,
  0.000000;-0.899214;-0.437510;,
  -0.617651;-0.660207;0.427357;,
  -0.617651;-0.660207;0.427357;,
  -0.617651;-0.660207;0.427357;,
  0.617651;-0.660207;0.427357;,
  0.617651;-0.660207;0.427357;,
  0.617651;-0.660207;0.427357;,
  0.351465;-0.693238;-0.629201;,
  -0.351465;-0.693238;-0.629201;,
  0.000000;-0.321902;-0.946773;,
  0.000000;0.828975;0.559286;,
  0.000000;0.212574;-0.977145;,
  -0.519730;0.382983;0.763678;,
  0.000000;0.420892;0.907111;,
  0.650501;0.523955;-0.549835;,
  0.519730;0.382983;0.763678;,
  0.617651;-0.660207;0.427357;,
  0.978204;0.092997;0.185658;,
  -0.978204;0.092997;0.185657;,
  -0.617651;-0.660207;0.427357;,
  -0.650501;0.523956;-0.549835;,
  0.000000;-0.899214;-0.437510;,
  0.000000;-0.077873;0.996963;,
  0.671779;0.160933;0.723058;,
  0.761922;0.418467;0.494328;,
  -0.761922;0.418468;0.494328;,
  -0.671779;0.160933;0.723058;,
  0.594251;-0.033118;-0.803598;,
  -0.594251;-0.033118;-0.803598;;

  32;
  4;32,19,20,17;,
  3;33,15,10;,
  3;33,25,15;,
  3;32,35,25;,
  3;17,21,18;,
  3;31,24,34;,
  3;30,14,24;,
  3;30,13,14;,
  3;15,25,35;,
  4;22,30,24,31;,
  3;18,27,17;,
  3;31,21,17;,
  4;19,32,25,33;,
  3;34,24,14;,
  3;14,12,7;,
  3;3,11,30;,
  3;33,9,2;,
  3;6,8,15;,
  4;17,20,22,31;,
  3;17,27,32;,
  3;27,35,32;,
  3;16,5,15;,
  4;20,1,30,22;,
  4;19,33,0,20;,
  3;4,16,14;,
  3;14,16,34;,
  4;27,18,16,35;,
  3;16,15,35;,
  3;21,31,34;,
  4;18,21,34,16;,
  3;28,23,29;,
  3;26,28,29;;
 }
 MeshTextureCoords { 
 36;
 0.824219;0.989436;,
 0.824219;0.989436;,
 0.824219;0.989436;,
 0.824219;0.989436;,
 0.824219;0.986230;,
 0.824219;0.986230;,
 0.824219;0.986230;,
 0.824219;0.986230;,
 0.796044;0.983937;,
 0.796044;0.983937;,
 0.796044;0.983937;,
 0.852393;0.983937;,
 0.852393;0.983937;,
 0.852393;0.983937;,
 0.944657;0.858398;,
 0.703780;0.858398;,
 0.824219;0.577426;,
 0.824219;0.378515;,
 0.824219;0.394332;,
 0.777132;0.716342;,
 0.824219;0.711069;,
 0.840385;0.376805;,
 0.871305;0.716342;,
 0.828125;0.980469;,
 1.004876;0.777352;,
 0.643561;0.777352;,
 0.828125;0.980469;,
 0.808052;0.376805;,
 0.828125;0.980469;,
 0.828125;0.980469;,
 0.944657;0.829675;,
 0.867215;0.449340;,
 0.781222;0.449340;,
 0.703780;0.829675;,
 0.867215;0.447050;,
 0.781222;0.447050;;
 }
}
}
Frame frm-extru60 {
  FrameTransformMatrix {
-0.500044,0.000000,0.866000,0.000000,
0.000000,1.000000,0.000000,0.000000,
-0.866000,0.000000,-0.500044,0.000000,
0.000000,1.803338,0.000001,1.000000;;
 }
Mesh extru60 {
 36;
 0.000000;-1.504463;1.031467;,
 0.000000;-1.504463;1.031467;,
 0.000000;-1.504463;1.031467;,
 0.000000;-1.504463;1.031467;,
 0.000000;-1.509544;0.999749;,
 0.000000;-1.509544;0.999749;,
 0.000000;-1.509544;0.999749;,
 0.000000;-1.509544;0.999749;,
 -0.072276;-1.501883;1.000931;,
 -0.072276;-1.501883;1.000931;,
 -0.072276;-1.501883;1.000931;,
 0.072276;-1.501883;1.000931;,
 0.072276;-1.501883;1.000931;,
 0.072276;-1.501883;1.000931;,
 0.308960;-1.267649;0.674463;,
 -0.308960;-1.267649;0.674463;,
 0.000000;-0.548966;0.354647;,
 0.000000;0.038949;0.295452;,
 0.000000;-0.031877;0.249280;,
 -0.120791;-0.809276;0.713547;,
 0.000000;-0.779796;0.741342;,
 0.041473;0.036240;0.278541;,
 0.120791;-0.809276;0.713547;,
 0.072276;-1.501883;1.000931;,
 0.463441;-1.090051;0.519440;,
 -0.463441;-1.090051;0.519440;,
 -0.072276;-1.501883;1.000931;,
 -0.041472;0.036240;0.278541;,
 0.000000;-1.509544;0.999749;,
 0.000000;-1.504463;1.031467;,
 0.308960;-1.159022;0.716060;,
 0.110299;-0.163517;0.331041;,
 -0.110299;-0.163517;0.331041;,
 -0.308960;-1.159022;0.716060;,
 0.110299;-0.167145;0.308394;,
 -0.110299;-0.167145;0.308394;;

 32;
 4;32,19,20,17;,
 3;33,15,10;,
 3;33,25,15;,
 3;32,35,25;,
 3;17,21,18;,
 3;31,24,34;,
 3;30,14,24;,
 3;30,13,14;,
 3;15,25,35;,
 4;22,30,24,31;,
 3;18,27,17;,
 3;31,21,17;,
 4;19,32,25,33;,
 3;34,24,14;,
 3;14,12,7;,
 3;3,11,30;,
 3;33,9,2;,
 3;6,8,15;,
 4;17,20,22,31;,
 3;17,27,32;,
 3;27,35,32;,
 3;16,5,15;,
 4;20,1,30,22;,
 4;19,33,0,20;,
 3;4,16,14;,
 3;14,16,34;,
 4;27,18,16,35;,
 3;16,15,35;,
 3;21,31,34;,
 4;18,21,34,16;,
 3;28,23,29;,
 3;26,28,29;;

 MeshMaterialList {
  1;
  32;
  0,
  0,
  0,
  0,
  0,
  0,
  0,
  0,
  0,
  0,
  0,
  0,
  0,
  0,
  0,
  0,
  0,
  0,
  0,
  0,
  0,
  0,
  0,
  0,
  0,
  0,
  0,
  0,
  0,
  0,
  0,
  0;
Material {
 1.000000;1.000000;1.000000;1.000000;;
 50.000000;
 1.000000;1.000000;1.000000;;
 0.0; 0.0; 0.0;;
 TextureFilename {
  "utl105.ppm";
 }
 }
}
 MeshNormals {
  36;
  0.000000;-0.077873;0.996963;,
  0.000000;-0.077873;0.996963;,
  0.000000;-0.077873;0.996963;,
  0.000000;-0.077873;0.996963;,
  0.000000;-0.899214;-0.437510;,
  0.000000;-0.899214;-0.437510;,
  0.000000;-0.899214;-0.437510;,
  0.000000;-0.899214;-0.437510;,
  -0.617651;-0.660207;0.427357;,
  -0.617651;-0.660207;0.427357;,
  -0.617651;-0.660207;0.427357;,
  0.617651;-0.660207;0.427357;,
  0.617651;-0.660207;0.427357;,
  0.617651;-0.660207;0.427357;,
  0.351465;-0.693238;-0.629201;,
  -0.351465;-0.693238;-0.629201;,
  0.000000;-0.321902;-0.946773;,
  0.000000;0.828975;0.559286;,
  0.000000;0.212574;-0.977145;,
  -0.519730;0.382983;0.763678;,
  0.000000;0.420892;0.907111;,
  0.650501;0.523955;-0.549835;,
  0.519730;0.382983;0.763678;,
  0.617651;-0.660207;0.427357;,
  0.978204;0.092997;0.185658;,
  -0.978204;0.092997;0.185657;,
  -0.617651;-0.660207;0.427357;,
  -0.650501;0.523956;-0.549835;,
  0.000000;-0.899214;-0.437510;,
  0.000000;-0.077873;0.996963;,
  0.671779;0.160933;0.723058;,
  0.761922;0.418467;0.494328;,
  -0.761922;0.418468;0.494328;,
  -0.671779;0.160933;0.723058;,
  0.594251;-0.033118;-0.803598;,
  -0.594251;-0.033118;-0.803598;;

  32;
  4;32,19,20,17;,
  3;33,15,10;,
  3;33,25,15;,
  3;32,35,25;,
  3;17,21,18;,
  3;31,24,34;,
  3;30,14,24;,
  3;30,13,14;,
  3;15,25,35;,
  4;22,30,24,31;,
  3;18,27,17;,
  3;31,21,17;,
  4;19,32,25,33;,
  3;34,24,14;,
  3;14,12,7;,
  3;3,11,30;,
  3;33,9,2;,
  3;6,8,15;,
  4;17,20,22,31;,
  3;17,27,32;,
  3;27,35,32;,
  3;16,5,15;,
  4;20,1,30,22;,
  4;19,33,0,20;,
  3;4,16,14;,
  3;14,16,34;,
  4;27,18,16,35;,
  3;16,15,35;,
  3;21,31,34;,
  4;18,21,34,16;,
  3;28,23,29;,
  3;26,28,29;;
 }
 MeshTextureCoords { 
 36;
 0.824219;0.989436;,
 0.824219;0.989436;,
 0.824219;0.989436;,
 0.824219;0.989436;,
 0.824219;0.986230;,
 0.824219;0.986230;,
 0.824219;0.986230;,
 0.824219;0.986230;,
 0.796044;0.983937;,
 0.796044;0.983937;,
 0.796044;0.983937;,
 0.852393;0.983937;,
 0.852393;0.983937;,
 0.852393;0.983937;,
 0.944657;0.858398;,
 0.703780;0.858398;,
 0.824219;0.577426;,
 0.824219;0.378515;,
 0.824219;0.394332;,
 0.777132;0.716342;,
 0.824219;0.711069;,
 0.840385;0.376805;,
 0.871305;0.716342;,
 0.828125;0.980469;,
 1.004876;0.777352;,
 0.643561;0.777352;,
 0.828125;0.980469;,
 0.808052;0.376805;,
 0.828125;0.980469;,
 0.828125;0.980469;,
 0.944657;0.829675;,
 0.867215;0.449340;,
 0.781222;0.449340;,
 0.703780;0.829675;,
 0.867215;0.447050;,
 0.781222;0.447050;;
 }
}
}
Frame frm-SS01 {
  FrameTransformMatrix {
1.000000,0.000000,0.000000,0.000000,
0.000000,1.000000,0.000000,0.000000,
0.000000,0.000000,1.000000,0.000000,
0.000000,1.843832,0.295561,1.000000;;
 }
Mesh SS01 {
 4;
 0.001960;-0.002292;-0.000000;,
 0.001508;0.002612;-0.000000;,
 -0.001734;-0.000160;-0.002463;,
 -0.001734;-0.000160;0.002463;;

 4;
 3;2,1,0;,
 3;3,0,1;,
 3;0,3,2;,
 3;1,2,3;;

 MeshMaterialList {
  1;
  4;
  0,
  0,
  0,
  0;
Material {
 0.988701;0.005650;0.000000;1.000000;;
 0.000000;
 1.000000;0.000000;0.000000;;
 0.0; 0.0; 0.0;;
 }
}
 MeshNormals {
  4;
  0.649830;-0.760079;-0.000000;,
  0.500000;0.866025;0.000000;,
  -0.574915;-0.052973;-0.816497;,
  -0.574915;-0.052973;0.816496;;

  4;
  3;2,1,0;,
  3;3,0,1;,
  3;0,3,2;,
  3;1,2,3;;
 }
 MeshTextureCoords { 
 4;
 0.000000;0.000000;,
 0.000000;0.000000;,
 0.000000;0.000000;,
 0.000000;0.000000;;
 }
}
}
Frame frm-SS02 {
  FrameTransformMatrix {
3.462200,0.000000,0.000000,0.000000,
0.000000,3.462200,0.000000,0.000000,
0.000000,0.000000,3.462200,0.000000,
0.000000,0.296783,1.023288,1.000000;;
 }
Mesh SS02 {
 4;
 0.001005;0.002844;-0.000000;,
 -0.003016;0.000000;-0.000000;,
 0.001005;-0.001422;-0.002463;,
 0.001005;-0.001422;0.002463;;

 4;
 3;2,1,0;,
 3;3,0,1;,
 3;0,3,2;,
 3;1,2,3;;

 MeshMaterialList {
  1;
  4;
  0,
  0,
  0,
  0;
Material {
 0.000000;1.000000;0.000000;1.000000;;
 0.000000;
 0.000000;1.000000;0.000000;;
 0.0; 0.0; 0.0;;
 }
}
 MeshNormals {
  4;
  0.333333;0.942809;-0.000000;,
  -1.000000;-0.000000;0.000000;,
  0.333333;-0.471404;-0.816497;,
  0.333333;-0.471404;0.816497;;

  4;
  3;2,1,0;,
  3;3,0,1;,
  3;0,3,2;,
  3;1,2,3;;
 }
 MeshTextureCoords { 
 4;
 0.000000;0.000000;,
 0.000000;0.000000;,
 0.000000;0.000000;,
 0.000000;0.000000;;
 }
}
}
Frame frm-SS03 {
  FrameTransformMatrix {
-1.000000,0.000000,-0.000000,0.000000,
0.000000,1.000000,0.000000,0.000000,
0.000000,0.000000,-1.000000,0.000000,
0.257104,1.843832,-0.144729,1.000000;;
 }
Mesh SS03 {
 4;
 0.001005;0.002844;-0.000000;,
 -0.003016;-0.000000;-0.000000;,
 0.001005;-0.001422;0.002463;,
 0.001005;-0.001422;-0.002463;;

 4;
 3;0,1,2;,
 3;1,0,3;,
 3;2,3,0;,
 3;3,2,1;;

 MeshMaterialList {
  1;
  4;
  0,
  0,
  0,
  0;
Material {
 0.988701;0.005650;0.000000;1.000000;;
 0.000000;
 1.000000;0.000000;0.000000;;
 0.0; 0.0; 0.0;;
 }
}
 MeshNormals {
  4;
  0.333333;0.942809;0.000000;,
  -1.000000;-0.000000;-0.000000;,
  0.333333;-0.471404;0.816497;,
  0.333333;-0.471404;-0.816497;;

  4;
  3;0,1,2;,
  3;1,0,3;,
  3;2,3,0;,
  3;3,2,1;;
 }
 MeshTextureCoords { 
 4;
 0.000000;0.000000;,
 0.000000;0.000000;,
 0.000000;0.000000;,
 0.000000;0.000000;;
 }
}
}
Frame frm-SS04 {
  FrameTransformMatrix {
3.462200,0.000000,0.000000,0.000000,
0.000000,3.462200,0.000000,0.000000,
0.000000,0.000000,3.462200,0.000000,
0.890144,0.296784,-0.501084,1.000000;;
 }
Mesh SS04 {
 4;
 0.001005;0.002844;-0.000000;,
 -0.003016;-0.000000;-0.000000;,
 0.001005;-0.001422;-0.002463;,
 0.001005;-0.001422;0.002463;;

 4;
 3;2,1,0;,
 3;3,0,1;,
 3;0,3,2;,
 3;1,2,3;;

 MeshMaterialList {
  1;
  4;
  0,
  0,
  0,
  0;
Material {
 0.000000;1.000000;0.000000;1.000000;;
 0.000000;
 0.000000;1.000000;0.000000;;
 0.0; 0.0; 0.0;;
 }
}
 MeshNormals {
  4;
  0.333333;0.942809;-0.000000;,
  -1.000000;-0.000000;0.000000;,
  0.333333;-0.471404;-0.816497;,
  0.333333;-0.471404;0.816497;;

  4;
  3;2,1,0;,
  3;3,0,1;,
  3;0,3,2;,
  3;1,2,3;;
 }
 MeshTextureCoords { 
 4;
 0.000000;0.000000;,
 0.000000;0.000000;,
 0.000000;0.000000;,
 0.000000;0.000000;;
 }
}
}
Frame frm-SS05 {
  FrameTransformMatrix {
-1.000000,0.000000,-0.000000,0.000000,
0.000000,1.000000,0.000000,0.000000,
0.000000,0.000000,-1.000000,0.000000,
-0.253890,1.843832,-0.144729,1.000000;;
 }
Mesh SS05 {
 4;
 0.001005;0.002844;-0.000000;,
 -0.003016;-0.000000;-0.000000;,
 0.001005;-0.001422;0.002463;,
 0.001005;-0.001422;-0.002463;;

 4;
 3;0,1,2;,
 3;1,0,3;,
 3;2,3,0;,
 3;3,2,1;;

 MeshMaterialList {
  1;
  4;
  0,
  0,
  0,
  0;
Material {
 0.988701;0.005650;0.000000;1.000000;;
 0.000000;
 1.000000;0.000000;0.000000;;
 0.0; 0.0; 0.0;;
 }
}
 MeshNormals {
  4;
  0.333333;0.942809;0.000000;,
  -1.000000;-0.000000;-0.000000;,
  0.333333;-0.471404;0.816497;,
  0.333333;-0.471404;-0.816497;;

  4;
  3;0,1,2;,
  3;1,0,3;,
  3;2,3,0;,
  3;3,2,1;;
 }
 MeshTextureCoords { 
 4;
 0.000000;0.000000;,
 0.000000;0.000000;,
 0.000000;0.000000;,
 0.000000;0.000000;;
 }
}
}
Frame frm-SS06 {
  FrameTransformMatrix {
3.462200,0.000000,0.000000,0.000000,
0.000000,3.462200,0.000000,0.000000,
0.000000,0.000000,3.462200,0.000000,
-0.879017,0.296784,-0.501084,1.000000;;
 }
Mesh SS06 {
 4;
 0.001005;0.002844;-0.000000;,
 -0.003016;-0.000000;-0.000000;,
 0.001005;-0.001422;-0.002463;,
 0.001005;-0.001422;0.002463;;

 4;
 3;2,1,0;,
 3;3,0,1;,
 3;0,3,2;,
 3;1,2,3;;

 MeshMaterialList {
  1;
  4;
  0,
  0,
  0,
  0;
Material {
 0.000000;1.000000;0.000000;1.000000;;
 0.000000;
 0.000000;1.000000;0.000000;;
 0.0; 0.0; 0.0;;
 }
}
 MeshNormals {
  4;
  0.333333;0.942809;-0.000000;,
  -1.000000;-0.000000;0.000000;,
  0.333333;-0.471404;-0.816497;,
  0.333333;-0.471404;0.816497;;

  4;
  3;2,1,0;,
  3;3,0,1;,
  3;0,3,2;,
  3;1,2,3;;
 }
 MeshTextureCoords { 
 4;
 0.000000;0.000000;,
 0.000000;0.000000;,
 0.000000;0.000000;,
 0.000000;0.000000;;
 }
}
}
Frame frm-SS07 {
  FrameTransformMatrix {
1.000000,0.000000,0.000000,0.000000,
0.000000,1.000000,0.000000,0.000000,
0.000000,0.000000,1.000000,0.000000,
0.003675,1.885185,-0.076519,1.000000;;
 }
Mesh SS07 {
 4;
 0.001960;-0.002292;0.000000;,
 0.001508;0.002612;0.000000;,
 -0.001734;-0.000160;-0.002463;,
 -0.001734;-0.000160;0.002463;;

 4;
 3;2,1,0;,
 3;3,0,1;,
 3;0,3,2;,
 3;1,2,3;;

 MeshMaterialList {
  1;
  4;
  0,
  0,
  0,
  0;
Material {
 0.988701;1.000000;1.000000;1.000000;;
 0.000000;
 1.000000;1.000000;1.000000;;
 0.0; 0.0; 0.0;;
 }
}
 MeshNormals {
  4;
  0.649830;-0.760079;-0.000000;,
  0.500000;0.866025;0.000000;,
  -0.574915;-0.052973;-0.816497;,
  -0.574915;-0.052973;0.816496;;

  4;
  3;2,1,0;,
  3;3,0,1;,
  3;0,3,2;,
  3;1,2,3;;
 }
 MeshTextureCoords { 
 4;
 0.000000;0.000000;,
 0.000000;0.000000;,
 0.000000;0.000000;,
 0.000000;0.000000;;
 }
}
}
Frame frm-rwepemt {
  FrameTransformMatrix {
1.000000,0.000000,0.000000,0.000000,
0.000000,1.000000,0.000000,0.000000,
0.000000,0.000000,1.000000,0.000000,
0.000000,0.102395,-1.385178,1.000000;;
 }
Mesh rwepemt {
 4;
 -0.002844;-0.001005;0.000000;,
 0.000000;0.003016;0.000000;,
 0.001422;-0.001005;0.002463;,
 0.001422;-0.001005;-0.002463;;

 4;
 3;2,1,0;,
 3;3,0,1;,
 3;0,3,2;,
 3;1,2,3;;

 MeshNormals {
  4;
  -0.942809;-0.333333;0.000000;,
  0.000000;1.000000;-0.000000;,
  0.471404;-0.333334;0.816497;,
  0.471404;-0.333334;-0.816497;;

  4;
  3;2,1,0;,
  3;3,0,1;,
  3;0,3,2;,
  3;1,2,3;;
 }
}
}
Frame frm-lthrust {
  FrameTransformMatrix {
1.000000,0.000000,0.000000,0.000000,
0.000000,1.000000,0.000000,0.000000,
0.000000,0.000000,1.000000,0.000000,
0.000000,0.326703,0.778369,1.000000;;
 }
Mesh lthrust {
 4;
 -0.002844;-0.001005;-0.000000;,
 0.000000;0.003016;0.000000;,
 0.001422;-0.001005;0.002463;,
 0.001422;-0.001005;-0.002463;;

 4;
 3;2,1,0;,
 3;3,0,1;,
 3;0,3,2;,
 3;1,2,3;;

 MeshNormals {
  4;
  -0.942809;-0.333333;0.000000;,
  0.000000;1.000000;-0.000000;,
  0.471404;-0.333333;0.816497;,
  0.471404;-0.333333;-0.816497;;

  4;
  3;2,1,0;,
  3;3,0,1;,
  3;0,3,2;,
  3;1,2,3;;
 }
}
}
Frame frm-trail {
  FrameTransformMatrix {
1.000000,0.000000,0.000000,0.000000,
0.000000,1.000000,0.000000,0.000000,
0.000000,0.000000,1.000000,0.000000,
0.000000,0.355279,0.710133,1.000000;;
 }
Mesh trail {
 4;
 -0.002844;-0.001005;-0.000000;,
 0.000000;0.003016;0.000000;,
 0.001422;-0.001005;0.002463;,
 0.001422;-0.001005;-0.002463;;

 4;
 3;2,1,0;,
 3;3,0,1;,
 3;0,3,2;,
 3;1,2,3;;

 MeshNormals {
  4;
  -0.942809;-0.333333;0.000000;,
  0.000000;1.000000;-0.000000;,
  0.471404;-0.333333;0.816497;,
  0.471404;-0.333333;-0.816497;;

  4;
  3;2,1,0;,
  3;3,0,1;,
  3;0,3,2;,
  3;1,2,3;;
 }
}
}
Frame frm-rthrust {
  FrameTransformMatrix {
-1.000000,0.000000,-0.000000,0.000000,
0.000000,1.000000,0.000000,0.000000,
0.000000,0.000000,-1.000000,0.000000,
0.000000,0.326703,0.763834,1.000000;;
 }
Mesh rthrust {
 4;
 -0.002843;-0.001005;-0.000000;,
 0.000000;0.003016;-0.000000;,
 0.001422;-0.001005;-0.002463;,
 0.001422;-0.001005;0.002462;;

 4;
 3;0,1,2;,
 3;1,0,3;,
 3;2,3,0;,
 3;3,2,1;;

 MeshNormals {
  4;
  -0.942809;-0.333333;-0.000000;,
  0.000000;1.000000;0.000000;,
  0.471404;-0.333333;-0.816497;,
  0.471404;-0.333333;0.816497;;

  4;
  3;0,1,2;,
  3;1,0,3;,
  3;2,3,0;,
  3;3,2,1;;
 }
}
}
}
AnimationSet {
 Animation anim-extru58 {
  {frm-extru58}
  AnimationKey {
  2;
  2;
  1; 3; 0.000000, 1.803338, 0.000001;;,
  100; 3; 0.000000, 1.803338, 0.000001;;;
  }
 }
 Animation anim-cube1 {
  {frm-cube1}
  AnimationKey {
  0;
  2;
  1; 4; 0.000000, 0.002600, -0.000000, -0.999997;;,
  100; 4; 0.000000, 0.002600, -0.000000, -0.999997;;;
  }
  AnimationKey {
  2;
  2;
  1; 3; 0.000000, 0.506758, -0.002035;;,
  100; 3; 0.000000, 0.506758, -0.002035;;;
  }
 }
 Animation anim-bottom_gun1 {
  {frm-bottom_gun1}
  AnimationKey {
  0;
  2;
  1; 4; 0.000000, -0.000000, -0.010000, -0.999950;;,
  100; 4; 0.000000, -0.000000, -0.010000, -0.999950;;;
  }
  AnimationKey {
  2;
  2;
  1; 3; 0.013164, 0.503091, -0.626862;;,
  100; 3; 0.013164, 0.503091, -0.626862;;;
  }
 }
 Animation anim-cyl2 {
  {frm-cyl2}
  AnimationKey {
  2;
  2;
  1; 3; 0.000000, 0.797575, 0.000000;;,
  100; 3; 0.000000, 0.797575, 0.000000;;;
  }
 }
 Animation anim-sphere17 {
  {frm-sphere17}
  AnimationKey {
  2;
  2;
  1; 3; 0.003675, 1.284895, -0.027999;;,
  100; 3; 0.003675, 1.284895, -0.027999;;;
  }
 }
 Animation anim-extru59 {
  {frm-extru59}
  AnimationKey {
  0;
  2;
  1; 4; 0.499978, 0.000000, 0.866038, -0.000000;;,
  100; 4; 0.499978, 0.000000, 0.866038, -0.000000;;;
  }
  AnimationKey {
  2;
  2;
  1; 3; 0.000000, 1.803338, 0.000001;;,
  100; 3; 0.000000, 1.803338, 0.000001;;;
  }
 }
 Animation anim-extru60 {
  {frm-extru60}
  AnimationKey {
  0;
  2;
  1; 4; -0.499978, 0.000000, 0.866038, -0.000000;;,
  100; 4; -0.499978, 0.000000, 0.866038, -0.000000;;;
  }
  AnimationKey {
  2;
  2;
  1; 3; 0.000000, 1.803338, 0.000001;;,
  100; 3; 0.000000, 1.803338, 0.000001;;;
  }
 }
 Animation anim-SS01 {
  {frm-SS01}
  AnimationKey {
  2;
  2;
  1; 3; 0.000000, 1.843832, 0.295561;;,
  100; 3; 0.000000, 1.843832, 0.295561;;;
  }
 }
 Animation anim-SS02 {
  {frm-SS02}
  AnimationKey {
  1;
  2;
  1; 3; 3.462200, 3.462200, 3.462200;;,
  100; 3; 3.462200, 3.462200, 3.462200;;;
  }
  AnimationKey {
  2;
  2;
  1; 3; 0.000000, 0.296783, 1.023288;;,
  100; 3; 0.000000, 0.296783, 1.023288;;;
  }
 }
 Animation anim-SS03 {
  {frm-SS03}
  AnimationKey {
  0;
  2;
  1; 4; 0.000000, 0.000000, 1.000000, -0.000000;;,
  100; 4; 0.000000, 0.000000, 1.000000, -0.000000;;;
  }
  AnimationKey {
  2;
  2;
  1; 3; 0.257104, 1.843832, -0.144729;;,
  100; 3; 0.257104, 1.843832, -0.144729;;;
  }
 }
 Animation anim-SS04 {
  {frm-SS04}
  AnimationKey {
  1;
  2;
  1; 3; 3.462200, 3.462200, 3.462200;;,
  100; 3; 3.462200, 3.462200, 3.462200;;;
  }
  AnimationKey {
  2;
  2;
  1; 3; 0.890144, 0.296784, -0.501084;;,
  100; 3; 0.890144, 0.296784, -0.501084;;;
  }
 }
 Animation anim-SS05 {
  {frm-SS05}
  AnimationKey {
  0;
  2;
  1; 4; 0.000000, 0.000000, 1.000000, -0.000000;;,
  100; 4; 0.000000, 0.000000, 1.000000, -0.000000;;;
  }
  AnimationKey {
  2;
  2;
  1; 3; -0.253890, 1.843832, -0.144729;;,
  100; 3; -0.253890, 1.843832, -0.144729;;;
  }
 }
 Animation anim-SS06 {
  {frm-SS06}
  AnimationKey {
  1;
  2;
  1; 3; 3.462200, 3.462200, 3.462200;;,
  100; 3; 3.462200, 3.462200, 3.462200;;;
  }
  AnimationKey {
  2;
  2;
  1; 3; -0.879017, 0.296784, -0.501084;;,
  100; 3; -0.879017, 0.296784, -0.501084;;;
  }
 }
 Animation anim-SS07 {
  {frm-SS07}
  AnimationKey {
  2;
  2;
  1; 3; 0.003675, 1.885185, -0.076519;;,
  100; 3; 0.003675, 1.885185, -0.076519;;;
  }
 }
 Animation anim-rwepemt {
  {frm-rwepemt}
  AnimationKey {
  2;
  2;
  1; 3; 0.000000, 0.102395, -1.385178;;,
  100; 3; 0.000000, 0.102395, -1.385178;;;
  }
 }
 Animation anim-lthrust {
  {frm-lthrust}
  AnimationKey {
  2;
  2;
  1; 3; 0.000000, 0.326703, 0.778369;;,
  100; 3; 0.000000, 0.326703, 0.778369;;;
  }
 }
 Animation anim-trail {
  {frm-trail}
  AnimationKey {
  2;
  2;
  1; 3; 0.000000, 0.355279, 0.710133;;,
  100; 3; 0.000000, 0.355279, 0.710133;;;
  }
 }
 Animation anim-rthrust {
  {frm-rthrust}
  AnimationKey {
  0;
  2;
  1; 4; 0.000000, 0.000000, 1.000000, -0.000000;;,
  100; 4; 0.000000, 0.000000, 1.000000, -0.000000;;;
  }
  AnimationKey {
  2;
  2;
  1; 3; 0.000000, 0.326703, 0.763834;;,
  100; 3; 0.000000, 0.326703, 0.763834;;;
  }
 }
}
