xof 0302txt 0032
template Header {
 <3D82AB43-62DA-11cf-AB39-0020AF71E433>
 WORD major;
 WORD minor;
 DWORD flags;
}

template Vector {
 <3D82AB5E-62DA-11cf-AB39-0020AF71E433>
 FLOAT x;
 FLOAT y;
 FLOAT z;
}

template Coords2d {
 <F6F23F44-7686-11cf-8F52-0040333594A3>
 FLOAT u;
 FLOAT v;
}

template Matrix4x4 {
 <F6F23F45-7686-11cf-8F52-0040333594A3>
 array FLOAT matrix[16];
}

template ColorRGBA {
 <35FF44E0-6C7C-11cf-8F52-0040333594A3>
 FLOAT red;
 FLOAT green;
 FLOAT blue;
 FLOAT alpha;
}

template ColorRGB {
 <D3E16E81-7835-11cf-8F52-0040333594A3>
 FLOAT red;
 FLOAT green;
 FLOAT blue;
}

template TextureFilename {
 <A42790E1-7810-11cf-8F52-0040333594A3>
 STRING filename;
}

template Material {
 <3D82AB4D-62DA-11cf-AB39-0020AF71E433>
 ColorRGBA faceColor;
 FLOAT power;
 ColorRGB specularColor;
 ColorRGB emissiveColor;
 [...]
}

template MeshFace {
 <3D82AB5F-62DA-11cf-AB39-0020AF71E433>
 DWORD nFaceVertexIndices;
 array DWORD faceVertexIndices[nFaceVertexIndices];
}

template MeshTextureCoords {
 <F6F23F40-7686-11cf-8F52-0040333594A3>
 DWORD nTextureCoords;
 array Coords2d textureCoords[nTextureCoords];
}

template MeshMaterialList {
 <F6F23F42-7686-11cf-8F52-0040333594A3>
 DWORD nMaterials;
 DWORD nFaceIndexes;
 array DWORD faceIndexes[nFaceIndexes];
 [Material]
}

template MeshNormals {
 <F6F23F43-7686-11cf-8F52-0040333594A3>
 DWORD nNormals;
 array Vector normals[nNormals];
 DWORD nFaceNormals;
 array MeshFace faceNormals[nFaceNormals];
}

template Mesh {
 <3D82AB44-62DA-11cf-AB39-0020AF71E433>
 DWORD nVertices;
 array Vector vertices[nVertices];
 DWORD nFaces;
 array MeshFace faces[nFaces];
 [...]
}

template FrameTransformMatrix {
 <F6F23F41-7686-11cf-8F52-0040333594A3>
 Matrix4x4 frameMatrix;
}

template Frame {
 <3D82AB46-62DA-11cf-AB39-0020AF71E433>
 [...]
}
template FloatKeys {
 <10DD46A9-775B-11cf-8F52-0040333594A3>
 DWORD nValues;
 array FLOAT values[nValues];
}

template TimedFloatKeys {
 <F406B180-7B3B-11cf-8F52-0040333594A3>
 DWORD time;
 FloatKeys tfkeys;
}

template AnimationKey {
 <10DD46A8-775B-11cf-8F52-0040333594A3>
 DWORD keyType;
 DWORD nKeys;
 array TimedFloatKeys keys[nKeys];
}

template AnimationOptions {
 <E2BF56C0-840F-11cf-8F52-0040333594A3>
 DWORD openclosed;
 DWORD positionquality;
}

template Animation {
 <3D82AB4F-62DA-11cf-AB39-0020AF71E433>
 [...]
}

template AnimationSet {
 <3D82AB50-62DA-11cf-AB39-0020AF71E433>
 [Animation]
}

Header {
 1;
 0;
 1;
}

Frame frm-sphere1 {
  FrameTransformMatrix {
20.000000,0.000000,0.000000,0.000000,
0.000000,20.000000,0.000000,0.000000,
0.000000,0.000000,20.000000,0.000000,
0.000000,0.000000,0.000000,1.000000;;
 }
Mesh sphere1 {
 126;
 1.913417;-4.619398;0.000000;,
 1.913417;-4.619398;0.000000;,
 1.913417;-4.619398;0.000000;,
 1.913417;4.619398;0.000000;,
 1.913417;4.619398;0.000000;,
 1.913417;4.619398;0.000000;,
 1.352990;-4.619398;1.352990;,
 1.352990;-4.619398;1.352990;,
 1.352990;-4.619398;1.352990;,
 1.352990;4.619398;1.352990;,
 1.352990;4.619398;1.352990;,
 1.352990;4.619398;1.352990;,
 0.000000;-4.619398;1.913417;,
 0.000000;-4.619398;1.913417;,
 0.000000;-4.619398;1.913417;,
 0.000000;-3.535534;3.535534;,
 0.000000;-3.535534;3.535534;,
 0.000000;-1.913417;4.619397;,
 0.000000;-1.913417;4.619397;,
 0.000000;0.000000;5.000000;,
 0.000000;0.000000;5.000000;,
 0.000000;1.913417;4.619397;,
 0.000000;1.913417;4.619397;,
 0.000000;3.535534;3.535533;,
 0.000000;3.535534;3.535533;,
 0.000000;4.619398;1.913417;,
 0.000000;4.619398;1.913417;,
 0.000000;4.619398;1.913417;,
 -1.352990;-4.619398;1.352990;,
 -1.352990;-4.619398;1.352990;,
 -1.352990;-4.619398;1.352990;,
 -1.352990;4.619398;1.352990;,
 -1.352990;4.619398;1.352990;,
 -1.352990;4.619398;1.352990;,
 -1.913417;-4.619398;0.000000;,
 -1.913417;-4.619398;0.000000;,
 -1.913417;-4.619398;0.000000;,
 -1.913417;4.619398;0.000000;,
 -1.913417;4.619398;0.000000;,
 -1.913417;4.619398;0.000000;,
 -1.352990;-4.619398;-1.352990;,
 -1.352990;-4.619398;-1.352990;,
 -1.352990;-4.619398;-1.352990;,
 -1.352990;4.619398;-1.352990;,
 -1.352990;4.619398;-1.352990;,
 -1.352990;4.619398;-1.352990;,
 0.000000;-4.619398;-1.913417;,
 0.000000;-4.619398;-1.913417;,
 0.000000;-4.619398;-1.913417;,
 0.000000;-3.535534;-3.535534;,
 0.000000;-3.535534;-3.535534;,
 0.000000;-1.913417;-4.619397;,
 0.000000;-1.913417;-4.619397;,
 0.000000;0.000000;-5.000000;,
 0.000000;0.000000;-5.000000;,
 0.000000;1.913417;-4.619397;,
 0.000000;1.913417;-4.619397;,
 0.000000;3.535534;-3.535533;,
 0.000000;3.535534;-3.535533;,
 0.000000;4.619398;-1.913417;,
 0.000000;4.619398;-1.913417;,
 0.000000;4.619398;-1.913417;,
 1.352990;-4.619398;-1.352990;,
 1.352990;-4.619398;-1.352990;,
 1.352990;-4.619398;-1.352990;,
 1.352990;4.619398;-1.352990;,
 1.352990;4.619398;-1.352990;,
 1.352990;4.619398;-1.352990;,
 1.352990;4.619398;-1.352990;,
 2.500000;3.535534;-2.500000;,
 3.266407;1.913417;-3.266407;,
 3.535534;0.000000;-3.535534;,
 3.266407;-1.913417;-3.266407;,
 2.500000;-3.535534;-2.500000;,
 1.352990;-4.619398;-1.352990;,
 0.000000;4.619398;-1.913417;,
 0.000000;3.535534;-3.535533;,
 0.000000;1.913417;-4.619397;,
 0.000000;0.000000;-5.000000;,
 0.000000;-1.913417;-4.619397;,
 0.000000;-3.535534;-3.535534;,
 0.000000;-4.619398;-1.913417;,
 -1.352990;4.619398;-1.352990;,
 -2.500000;3.535534;-2.500000;,
 -3.266407;1.913417;-3.266407;,
 -3.535534;0.000000;-3.535534;,
 -3.266407;-1.913417;-3.266407;,
 -2.500000;-3.535534;-2.500000;,
 -1.352990;-4.619398;-1.352990;,
 -1.913417;4.619398;0.000000;,
 -3.535533;3.535534;0.000000;,
 -4.619397;1.913417;0.000000;,
 -5.000000;0.000000;0.000000;,
 -4.619397;-1.913417;0.000000;,
 -3.535534;-3.535534;0.000000;,
 -1.913417;-4.619398;0.000000;,
 -1.352990;4.619398;1.352990;,
 -2.500000;3.535534;2.500000;,
 -3.266407;1.913417;3.266407;,
 -3.535534;0.000000;3.535534;,
 -3.266407;-1.913417;3.266407;,
 -2.500000;-3.535534;2.500000;,
 -1.352990;-4.619398;1.352990;,
 0.000000;4.619398;1.913417;,
 0.000000;3.535534;3.535533;,
 0.000000;1.913417;4.619397;,
 0.000000;0.000000;5.000000;,
 0.000000;-1.913417;4.619397;,
 0.000000;-3.535534;3.535534;,
 0.000000;-4.619398;1.913417;,
 1.352990;4.619398;1.352990;,
 2.500000;3.535534;2.500000;,
 3.266407;1.913417;3.266407;,
 3.535534;0.000000;3.535534;,
 3.266407;-1.913417;3.266407;,
 2.500000;-3.535534;2.500000;,
 1.352990;-4.619398;1.352990;,
 1.913417;4.619398;0.000000;,
 3.535534;3.535534;0.000000;,
 4.619398;1.913417;0.000000;,
 5.000000;0.000000;0.000000;,
 4.619398;-1.913417;0.000000;,
 3.535534;-3.535534;0.000000;,
 1.913417;-4.619398;0.000000;,
 0.000000;5.000000;0.000000;,
 0.000000;-5.000000;0.000000;;

 64;
 3;8,2,125;,
 4;1,7,115,122;,
 4;122,115,114,121;,
 4;121,114,113,120;,
 4;120,113,112,119;,
 4;119,112,111,118;,
 4;118,111,11,5;,
 3;4,10,124;,
 3;14,6,125;,
 4;116,13,16,115;,
 4;115,15,18,114;,
 4;114,17,20,113;,
 4;113,19,22,112;,
 4;112,21,24,111;,
 4;111,23,27,9;,
 3;110,26,124;,
 3;30,12,125;,
 4;109,29,101,108;,
 4;108,101,100,107;,
 4;107,100,99,106;,
 4;106,99,98,105;,
 4;105,98,97,104;,
 4;104,97,33,25;,
 3;103,32,124;,
 3;36,28,125;,
 4;102,35,94,101;,
 4;101,94,93,100;,
 4;100,93,92,99;,
 4;99,92,91,98;,
 4;98,91,90,97;,
 4;97,90,39,31;,
 3;96,38,124;,
 3;42,34,125;,
 4;95,41,87,94;,
 4;94,87,86,93;,
 4;93,86,85,92;,
 4;92,85,84,91;,
 4;91,84,83,90;,
 4;90,83,45,37;,
 3;89,44,124;,
 3;48,40,125;,
 4;88,47,50,87;,
 4;87,49,52,86;,
 4;86,51,54,85;,
 4;85,53,56,84;,
 4;84,55,58,83;,
 4;83,57,61,43;,
 3;82,60,124;,
 3;64,46,125;,
 4;81,63,73,80;,
 4;80,73,72,79;,
 4;79,72,71,78;,
 4;78,71,70,77;,
 4;77,70,69,76;,
 4;76,69,67,59;,
 3;75,66,124;,
 3;0,62,125;,
 4;74,123,122,73;,
 4;73,122,121,72;,
 4;72,121,120,71;,
 4;71,120,119,70;,
 4;70,119,118,69;,
 4;69,118,3,65;,
 3;68,117,124;;

 MeshMaterialList {
  1;
  64;
  0,
  0,
  0,
  0,
  0,
  0,
  0,
  0,
  0,
  0,
  0,
  0,
  0,
  0,
  0,
  0,
  0,
  0,
  0,
  0,
  0,
  0,
  0,
  0,
  0,
  0,
  0,
  0,
  0,
  0,
  0,
  0,
  0,
  0,
  0,
  0,
  0,
  0,
  0,
  0,
  0,
  0,
  0,
  0,
  0,
  0,
  0,
  0,
  0,
  0,
  0,
  0,
  0,
  0,
  0,
  0,
  0,
  0,
  0,
  0,
  0,
  0,
  0,
  0;
Material {
 1.000000;1.000000;1.000000;1.000000;;
 50.000000;
 1.000000;1.000000;1.000000;;
 0.0; 0.0; 0.0;;
 TextureFilename {
  "environtest.ppm";
 }
 }
}
 MeshNormals {
  126;
  -0.380611;0.924735;0.000000;,
  -0.380611;0.924735;0.000000;,
  -0.380611;0.924735;0.000000;,
  -0.380611;-0.924735;0.000000;,
  -0.380611;-0.924735;0.000000;,
  -0.380611;-0.924735;0.000000;,
  -0.269132;0.924735;-0.269132;,
  -0.269132;0.924735;-0.269132;,
  -0.269132;0.924735;-0.269132;,
  -0.269132;-0.924735;-0.269132;,
  -0.269132;-0.924735;-0.269132;,
  -0.269132;-0.924735;-0.269132;,
  0.000000;0.924735;-0.380611;,
  0.000000;0.924735;-0.380611;,
  0.000000;0.924735;-0.380611;,
  0.000000;0.709230;-0.704977;,
  0.000000;0.709230;-0.704977;,
  0.000000;0.384551;-0.923104;,
  0.000000;0.384551;-0.923104;,
  0.000000;0.000000;-1.000000;,
  0.000000;0.000000;-1.000000;,
  0.000000;-0.384551;-0.923104;,
  0.000000;-0.384551;-0.923104;,
  0.000000;-0.709230;-0.704977;,
  0.000000;-0.709230;-0.704977;,
  0.000000;-0.924735;-0.380611;,
  0.000000;-0.924735;-0.380611;,
  0.000000;-0.924735;-0.380611;,
  0.269132;0.924735;-0.269132;,
  0.269132;0.924735;-0.269132;,
  0.269132;0.924735;-0.269132;,
  0.269132;-0.924735;-0.269133;,
  0.269132;-0.924735;-0.269133;,
  0.269132;-0.924735;-0.269133;,
  0.380611;0.924735;-0.000000;,
  0.380611;0.924735;-0.000000;,
  0.380611;0.924735;-0.000000;,
  0.380611;-0.924735;0.000000;,
  0.380611;-0.924735;0.000000;,
  0.380611;-0.924735;0.000000;,
  0.269132;0.924735;0.269132;,
  0.269132;0.924735;0.269132;,
  0.269132;0.924735;0.269132;,
  0.269133;-0.924735;0.269132;,
  0.269133;-0.924735;0.269132;,
  0.269133;-0.924735;0.269132;,
  0.000000;0.924735;0.380611;,
  0.000000;0.924735;0.380611;,
  0.000000;0.924735;0.380611;,
  0.000000;0.709230;0.704977;,
  0.000000;0.709230;0.704977;,
  0.000000;0.384551;0.923104;,
  0.000000;0.384551;0.923104;,
  0.000000;0.000000;1.000000;,
  0.000000;0.000000;1.000000;,
  -0.000000;-0.384551;0.923104;,
  -0.000000;-0.384551;0.923104;,
  0.000000;-0.709230;0.704977;,
  0.000000;-0.709230;0.704977;,
  -0.000000;-0.924735;0.380611;,
  -0.000000;-0.924735;0.380611;,
  -0.000000;-0.924735;0.380611;,
  -0.269132;0.924735;0.269132;,
  -0.269132;0.924735;0.269132;,
  -0.269132;0.924735;0.269132;,
  -0.269132;-0.924735;0.269133;,
  -0.269132;-0.924735;0.269133;,
  -0.269132;-0.924735;0.269133;,
  -0.269132;-0.924735;0.269133;,
  -0.498494;-0.709230;0.498494;,
  -0.652733;-0.384551;0.652733;,
  -0.707107;0.000000;0.707107;,
  -0.652733;0.384551;0.652733;,
  -0.498494;0.709230;0.498494;,
  -0.269132;0.924735;0.269132;,
  -0.000000;-0.924735;0.380611;,
  0.000000;-0.709230;0.704977;,
  -0.000000;-0.384551;0.923104;,
  0.000000;0.000000;1.000000;,
  0.000000;0.384551;0.923104;,
  0.000000;0.709230;0.704977;,
  0.000000;0.924735;0.380611;,
  0.269133;-0.924735;0.269132;,
  0.498494;-0.709230;0.498494;,
  0.652733;-0.384551;0.652733;,
  0.707107;0.000000;0.707107;,
  0.652733;0.384551;0.652733;,
  0.498494;0.709230;0.498494;,
  0.269132;0.924735;0.269132;,
  0.380611;-0.924735;0.000000;,
  0.704977;-0.709230;-0.000000;,
  0.923104;-0.384551;0.000000;,
  1.000000;0.000000;0.000000;,
  0.923104;0.384551;0.000000;,
  0.704977;0.709230;0.000000;,
  0.380611;0.924735;-0.000000;,
  0.269132;-0.924735;-0.269133;,
  0.498494;-0.709230;-0.498494;,
  0.652733;-0.384551;-0.652733;,
  0.707107;0.000000;-0.707107;,
  0.652733;0.384551;-0.652733;,
  0.498494;0.709230;-0.498494;,
  0.269132;0.924735;-0.269132;,
  0.000000;-0.924735;-0.380611;,
  0.000000;-0.709230;-0.704977;,
  0.000000;-0.384551;-0.923104;,
  0.000000;0.000000;-1.000000;,
  0.000000;0.384551;-0.923104;,
  0.000000;0.709230;-0.704977;,
  0.000000;0.924735;-0.380611;,
  -0.269132;-0.924735;-0.269132;,
  -0.498494;-0.709230;-0.498494;,
  -0.652733;-0.384551;-0.652733;,
  -0.707107;0.000000;-0.707107;,
  -0.652733;0.384551;-0.652733;,
  -0.498494;0.709230;-0.498494;,
  -0.269132;0.924735;-0.269132;,
  -0.380611;-0.924735;0.000000;,
  -0.704977;-0.709230;0.000000;,
  -0.923104;-0.384551;0.000000;,
  -1.000000;0.000000;0.000000;,
  -0.923104;0.384551;0.000000;,
  -0.704977;0.709230;0.000000;,
  -0.380611;0.924735;0.000000;,
  -0.000000;-1.000000;-0.000000;,
  0.000000;1.000000;0.000000;;

  64;
  3;8,2,125;,
  4;1,7,115,122;,
  4;122,115,114,121;,
  4;121,114,113,120;,
  4;120,113,112,119;,
  4;119,112,111,118;,
  4;118,111,11,5;,
  3;4,10,124;,
  3;14,6,125;,
  4;116,13,16,115;,
  4;115,15,18,114;,
  4;114,17,20,113;,
  4;113,19,22,112;,
  4;112,21,24,111;,
  4;111,23,27,9;,
  3;110,26,124;,
  3;30,12,125;,
  4;109,29,101,108;,
  4;108,101,100,107;,
  4;107,100,99,106;,
  4;106,99,98,105;,
  4;105,98,97,104;,
  4;104,97,33,25;,
  3;103,32,124;,
  3;36,28,125;,
  4;102,35,94,101;,
  4;101,94,93,100;,
  4;100,93,92,99;,
  4;99,92,91,98;,
  4;98,91,90,97;,
  4;97,90,39,31;,
  3;96,38,124;,
  3;42,34,125;,
  4;95,41,87,94;,
  4;94,87,86,93;,
  4;93,86,85,92;,
  4;92,85,84,91;,
  4;91,84,83,90;,
  4;90,83,45,37;,
  3;89,44,124;,
  3;48,40,125;,
  4;88,47,50,87;,
  4;87,49,52,86;,
  4;86,51,54,85;,
  4;85,53,56,84;,
  4;84,55,58,83;,
  4;83,57,61,43;,
  3;82,60,124;,
  3;64,46,125;,
  4;81,63,73,80;,
  4;80,73,72,79;,
  4;79,72,71,78;,
  4;78,71,70,77;,
  4;77,70,69,76;,
  4;76,69,67,59;,
  3;75,66,124;,
  3;0,62,125;,
  4;74,123,122,73;,
  4;73,122,121,72;,
  4;72,121,120,71;,
  4;71,120,119,70;,
  4;70,119,118,69;,
  4;69,118,3,65;,
  3;68,117,124;;
 }
 MeshTextureCoords { 
 126;
 0.571375;0.069897;,
 0.501953;0.998047;,
 0.571375;0.069897;,
 0.501953;0.001953;,
 0.609394;0.069882;,
 0.501953;0.001953;,
 0.559116;0.065669;,
 0.251953;0.998047;,
 0.559116;0.065669;,
 0.251953;0.001953;,
 0.585962;0.062636;,
 0.251953;0.001953;,
 0.529519;0.063918;,
 0.001953;0.998047;,
 0.529519;0.063918;,
 0.001953;0.841797;,
 0.001953;0.841797;,
 0.001953;0.654297;,
 0.001953;0.654297;,
 0.001953;0.498047;,
 0.001953;0.498047;,
 0.001953;0.341797;,
 0.001953;0.341797;,
 0.001953;0.185547;,
 0.001953;0.185547;,
 0.998047;0.001953;,
 0.529389;0.059634;,
 0.001953;0.001953;,
 0.499922;0.065669;,
 0.751953;0.998047;,
 0.499922;0.065669;,
 0.751953;0.001953;,
 0.584634;0.085461;,
 0.751953;0.001953;,
 0.487663;0.069897;,
 0.501953;0.998047;,
 0.487663;0.069897;,
 0.501953;0.001953;,
 0.529946;0.085461;,
 0.501953;0.001953;,
 0.499922;0.074125;,
 0.251953;0.998047;,
 0.499922;0.074125;,
 0.251953;0.001953;,
 0.475259;0.085461;,
 0.251953;0.001953;,
 0.529519;0.075876;,
 0.001953;0.998047;,
 0.529519;0.075876;,
 0.001953;0.841797;,
 0.001953;0.841797;,
 0.001953;0.654297;,
 0.001953;0.654297;,
 0.001953;0.498047;,
 0.001953;0.498047;,
 0.001953;0.341797;,
 0.001953;0.341797;,
 0.001953;0.185547;,
 0.001953;0.185547;,
 0.998047;0.001953;,
 0.420571;0.085461;,
 0.001953;0.001953;,
 0.559116;0.074125;,
 0.751953;0.998047;,
 0.559116;0.074125;,
 0.751953;0.001953;,
 0.585962;0.077129;,
 0.751953;0.001953;,
 0.585962;0.077129;,
 0.751953;0.185547;,
 0.751953;0.341797;,
 0.751953;0.498047;,
 0.751953;0.654297;,
 0.751953;0.841797;,
 0.751953;0.998047;,
 0.529389;0.080130;,
 0.998047;0.185547;,
 0.998047;0.341797;,
 0.998047;0.498047;,
 0.998047;0.654297;,
 0.998047;0.841797;,
 0.998047;0.998047;,
 0.475259;0.085461;,
 0.251953;0.185547;,
 0.251953;0.341797;,
 0.251953;0.498047;,
 0.251953;0.654297;,
 0.251953;0.841797;,
 0.251953;0.998047;,
 0.529946;0.085461;,
 0.501953;0.185547;,
 0.501953;0.341797;,
 0.501953;0.498047;,
 0.501953;0.654297;,
 0.501953;0.841797;,
 0.501953;0.998047;,
 0.584634;0.085461;,
 0.751953;0.185547;,
 0.751953;0.341797;,
 0.751953;0.498047;,
 0.751953;0.654297;,
 0.751953;0.841797;,
 0.751953;0.998047;,
 0.638467;0.085461;,
 0.998047;0.185547;,
 0.998047;0.341797;,
 0.998047;0.498047;,
 0.998047;0.654297;,
 0.998047;0.841797;,
 0.998047;0.998047;,
 0.585962;0.062636;,
 0.251953;0.185547;,
 0.251953;0.341797;,
 0.251953;0.498047;,
 0.251953;0.654297;,
 0.251953;0.841797;,
 0.251953;0.998047;,
 0.609394;0.069882;,
 0.501953;0.185547;,
 0.501953;0.341797;,
 0.501953;0.498047;,
 0.501953;0.654297;,
 0.501953;0.841797;,
 0.501953;0.998047;,
 0.530206;0.069987;,
 0.529946;0.069958;;
 }
}
}
AnimationSet {
 Animation anim-sphere1 {
  {frm-sphere1}
  AnimationKey {
  1;
  2;
  1; 3; 20.000000, 20.000000, 20.000000;;,
  200; 3; 20.000000, 20.000000, 20.000000;;;
  }
 }
}
