xof 0302txt 0032
template Header {
 <3D82AB43-62DA-11cf-AB39-0020AF71E433>
 WORD major;
 WORD minor;
 DWORD flags;
}

template Vector {
 <3D82AB5E-62DA-11cf-AB39-0020AF71E433>
 FLOAT x;
 FLOAT y;
 FLOAT z;
}

template Coords2d {
 <F6F23F44-7686-11cf-8F52-0040333594A3>
 FLOAT u;
 FLOAT v;
}

template Matrix4x4 {
 <F6F23F45-7686-11cf-8F52-0040333594A3>
 array FLOAT matrix[16];
}

template ColorRGBA {
 <35FF44E0-6C7C-11cf-8F52-0040333594A3>
 FLOAT red;
 FLOAT green;
 FLOAT blue;
 FLOAT alpha;
}

template ColorRGB {
 <D3E16E81-7835-11cf-8F52-0040333594A3>
 FLOAT red;
 FLOAT green;
 FLOAT blue;
}

template TextureFilename {
 <A42790E1-7810-11cf-8F52-0040333594A3>
 STRING filename;
}

template Material {
 <3D82AB4D-62DA-11cf-AB39-0020AF71E433>
 ColorRGBA faceColor;
 FLOAT power;
 ColorRGB specularColor;
 ColorRGB emissiveColor;
 [...]
}

template MeshFace {
 <3D82AB5F-62DA-11cf-AB39-0020AF71E433>
 DWORD nFaceVertexIndices;
 array DWORD faceVertexIndices[nFaceVertexIndices];
}

template MeshTextureCoords {
 <F6F23F40-7686-11cf-8F52-0040333594A3>
 DWORD nTextureCoords;
 array Coords2d textureCoords[nTextureCoords];
}

template MeshMaterialList {
 <F6F23F42-7686-11cf-8F52-0040333594A3>
 DWORD nMaterials;
 DWORD nFaceIndexes;
 array DWORD faceIndexes[nFaceIndexes];
 [Material]
}

template MeshNormals {
 <F6F23F43-7686-11cf-8F52-0040333594A3>
 DWORD nNormals;
 array Vector normals[nNormals];
 DWORD nFaceNormals;
 array MeshFace faceNormals[nFaceNormals];
}

template Mesh {
 <3D82AB44-62DA-11cf-AB39-0020AF71E433>
 DWORD nVertices;
 array Vector vertices[nVertices];
 DWORD nFaces;
 array MeshFace faces[nFaces];
 [...]
}

template FrameTransformMatrix {
 <F6F23F41-7686-11cf-8F52-0040333594A3>
 Matrix4x4 frameMatrix;
}

template Frame {
 <3D82AB46-62DA-11cf-AB39-0020AF71E433>
 [...]
}
template FloatKeys {
 <10DD46A9-775B-11cf-8F52-0040333594A3>
 DWORD nValues;
 array FLOAT values[nValues];
}

template TimedFloatKeys {
 <F406B180-7B3B-11cf-8F52-0040333594A3>
 DWORD time;
 FloatKeys tfkeys;
}

template AnimationKey {
 <10DD46A8-775B-11cf-8F52-0040333594A3>
 DWORD keyType;
 DWORD nKeys;
 array TimedFloatKeys keys[nKeys];
}

template AnimationOptions {
 <E2BF56C0-840F-11cf-8F52-0040333594A3>
 DWORD openclosed;
 DWORD positionquality;
}

template Animation {
 <3D82AB4F-62DA-11cf-AB39-0020AF71E433>
 [...]
}

template AnimationSet {
 <3D82AB50-62DA-11cf-AB39-0020AF71E433>
 [Animation]
}

Header {
 1;
 0;
 1;
}

Frame frm-acs39 {
  FrameTransformMatrix {
1.000000,0.000000,0.000000,0.000000,
0.000000,1.000000,0.000000,0.000000,
0.000000,0.000000,1.000000,0.000000,
0.000000,0.000000,0.000000,1.000000;;
 }
Frame frm-beam_generator {
  FrameTransformMatrix {
1.000000,0.000000,0.000000,0.000000,
0.000000,1.000000,0.000000,0.000000,
0.000000,0.000000,1.000000,0.000000,
0.000000,0.000000,-0.053779,1.000000;;
 }
Mesh beam_generator {
 48;
 -0.022787;0.012894;0.128208;,
 -0.022787;0.012894;0.128208;,
 -0.022787;0.012894;-0.132126;,
 -0.022787;0.012894;-0.132126;,
 -0.022787;0.012894;-0.132126;,
 -0.022787;0.012894;-0.132126;,
 -0.022787;0.012894;-0.132126;,
 -0.011815;0.034616;-0.132126;,
 -0.011815;0.034616;-0.132126;,
 -0.011815;0.034616;-0.132126;,
 -0.011815;0.034616;0.128208;,
 -0.011815;0.034616;0.128208;,
 -0.019026;-0.060232;0.128208;,
 -0.019026;-0.060232;0.128208;,
 -0.019026;-0.060232;-0.132126;,
 -0.019026;-0.060232;-0.132126;,
 -0.019026;-0.060232;-0.132126;,
 -0.019026;-0.060232;-0.132126;,
 0.022787;0.012894;-0.132126;,
 0.022787;0.012894;-0.132126;,
 0.022787;0.012894;-0.132126;,
 0.022787;0.012894;-0.132126;,
 0.022787;0.012894;-0.132126;,
 0.011815;0.034616;-0.132126;,
 0.011815;0.034616;-0.132126;,
 0.011815;0.034616;-0.132126;,
 0.011815;0.034616;-0.132126;,
 0.019026;-0.060232;-0.132126;,
 0.019026;-0.060232;-0.132126;,
 0.019026;-0.060232;-0.132126;,
 0.022787;0.012894;0.128208;,
 0.022787;0.012894;0.128208;,
 0.011815;0.034616;0.128208;,
 0.011815;0.034616;0.128208;,
 0.019026;-0.060232;0.128208;,
 0.019026;-0.060232;0.128208;,
 0.019026;-0.060232;0.128208;,
 0.011815;0.034616;0.128208;,
 0.022787;0.012894;0.128208;,
 0.019026;-0.060232;-0.132126;,
 0.011815;0.034616;-0.132126;,
 0.022787;0.012894;-0.132126;,
 -0.019026;-0.060232;-0.132126;,
 -0.019026;-0.060232;0.128208;,
 -0.011815;0.034616;0.128208;,
 -0.011815;0.034616;-0.132126;,
 -0.022787;0.012894;-0.132126;,
 -0.022787;0.012894;0.128208;;

 16;
 3;9,6,1;,
 3;11,8,0;,
 3;13,47,5;,
 3;17,12,4;,
 3;26,22,3;,
 3;7,25,2;,
 3;16,46,21;,
 3;29,15,20;,
 3;33,31,19;,
 3;24,32,18;,
 3;28,41,30;,
 3;35,27,38;,
 3;23,45,10;,
 3;37,40,44;,
 3;14,39,34;,
 3;43,42,36;;

 MeshMaterialList {
  5;
  16;
  0,
  0,
  0,
  0,
  1,
  1,
  1,
  1,
  2,
  2,
  2,
  2,
  3,
  3,
  4,
  4;
Material {
 1.000000;1.000000;1.000000;1.000000;;
 0.000000;
 1.000000;1.000000;1.000000;;
 0.0; 0.0; 0.0;;
 TextureFilename {
  "acs39.ppm";
 }
 }
Material {
 1.000000;1.000000;1.000000;1.000000;;
 0.000000;
 1.000000;1.000000;1.000000;;
 0.0; 0.0; 0.0;;
 TextureFilename {
  "acs39.ppm";
 }
 }
Material {
 1.000000;1.000000;1.000000;1.000000;;
 0.000000;
 1.000000;1.000000;1.000000;;
 0.0; 0.0; 0.0;;
 TextureFilename {
  "acs39.ppm";
 }
 }
Material {
 1.000000;1.000000;1.000000;1.000000;;
 0.000000;
 1.000000;1.000000;1.000000;;
 0.0; 0.0; 0.0;;
 TextureFilename {
  "acs39.ppm";
 }
 }
Material {
 1.000000;1.000000;1.000000;1.000000;;
 0.000000;
 1.000000;1.000000;1.000000;;
 0.0; 0.0; 0.0;;
 TextureFilename {
  "acs39.ppm";
 }
 }
}
 MeshNormals {
  48;
  -0.956381;0.292124;0.000000;,
  -0.956381;0.292124;0.000000;,
  -0.702032;0.084567;-0.707107;,
  -0.702032;0.084567;-0.707107;,
  -0.702032;0.084567;-0.707107;,
  -0.702032;0.084567;-0.707107;,
  -0.702032;0.084567;-0.707107;,
  -0.639068;0.680766;-0.357980;,
  -0.639068;0.680766;-0.357980;,
  -0.639068;0.680766;-0.357980;,
  -0.342213;0.939623;0.000000;,
  -0.342213;0.939623;0.000000;,
  -0.875443;-0.483321;0.000000;,
  -0.875443;-0.483321;0.000000;,
  -0.329158;-0.676113;-0.659186;,
  -0.329158;-0.676113;-0.659186;,
  -0.329158;-0.676113;-0.659186;,
  -0.329158;-0.676113;-0.659186;,
  0.676263;0.206563;-0.707107;,
  0.676263;0.206563;-0.707107;,
  0.676263;0.206563;-0.707107;,
  0.676263;0.206563;-0.707107;,
  0.676263;0.206563;-0.707107;,
  0.271568;0.745652;-0.608485;,
  0.271568;0.745652;-0.608485;,
  0.271568;0.745652;-0.608485;,
  0.271568;0.745652;-0.608485;,
  0.801808;-0.442668;-0.401434;,
  0.801808;-0.442668;-0.401434;,
  0.801808;-0.442668;-0.401434;,
  0.992823;0.119596;0.000000;,
  0.992823;0.119596;0.000000;,
  0.684425;0.729083;0.000000;,
  0.684425;0.729083;0.000000;,
  0.437722;-0.899111;0.000000;,
  0.437722;-0.899111;0.000000;,
  0.437722;-0.899111;0.000000;,
  0.684425;0.729083;0.000000;,
  0.992823;0.119596;0.000000;,
  0.801808;-0.442668;-0.401434;,
  0.271568;0.745652;-0.608485;,
  0.676263;0.206563;-0.707107;,
  -0.329158;-0.676113;-0.659186;,
  -0.875443;-0.483321;0.000000;,
  -0.342213;0.939623;0.000000;,
  -0.639068;0.680766;-0.357980;,
  -0.702032;0.084567;-0.707107;,
  -0.956381;0.292124;0.000000;;

  16;
  3;9,6,1;,
  3;11,8,0;,
  3;13,47,5;,
  3;17,12,4;,
  3;26,22,3;,
  3;7,25,2;,
  3;16,46,21;,
  3;29,15,20;,
  3;33,31,19;,
  3;24,32,18;,
  3;28,41,30;,
  3;35,27,38;,
  3;23,45,10;,
  3;37,40,44;,
  3;14,39,34;,
  3;43,42,36;;
 }
 MeshTextureCoords { 
 48;
 0.296875;0.507869;,
 0.296875;0.507869;,
 0.039063;0.754356;,
 0.039063;0.754356;,
 0.976563;0.507869;,
 0.976563;0.507869;,
 0.976563;0.507869;,
 0.067274;0.695313;,
 0.976563;0.593750;,
 0.976563;0.593750;,
 0.296875;0.125434;,
 0.296875;0.593750;,
 0.296875;0.218750;,
 0.296875;0.218750;,
 0.976562;0.620564;,
 0.048733;0.953125;,
 0.048733;0.953125;,
 0.976563;0.218750;,
 0.976563;0.288528;,
 0.976563;0.288528;,
 0.156250;0.754356;,
 0.156250;0.754356;,
 0.156250;0.754356;,
 0.976562;0.210503;,
 0.976563;0.218750;,
 0.128038;0.695313;,
 0.128038;0.695313;,
 0.976563;0.523438;,
 0.976563;0.523438;,
 0.146580;0.953125;,
 0.296875;0.288528;,
 0.296875;0.288528;,
 0.296875;0.218750;,
 0.296875;0.218750;,
 0.296875;0.496624;,
 0.296875;0.523438;,
 0.296875;0.496624;,
 0.296875;0.210503;,
 0.296875;0.288528;,
 0.976563;0.496624;,
 0.976562;0.210503;,
 0.976563;0.288528;,
 0.976562;0.620564;,
 0.296875;0.620564;,
 0.296875;0.125434;,
 0.976562;0.125434;,
 0.039063;0.754356;,
 0.296875;0.507869;;
 }
}
Frame frm-l_iface {
  FrameTransformMatrix {
1.000000,0.000000,0.000000,0.000000,
0.000000,1.000000,0.000000,0.000000,
0.000000,0.000000,1.000000,0.000000,
0.000000,-0.060231,-0.053382,1.000000;;
 }
Mesh l_iface {
 30;
 -0.010246;-0.055829;0.051110;,
 -0.010246;-0.055829;0.051110;,
 -0.010246;-0.055829;0.051110;,
 -0.010246;-0.055829;-0.051110;,
 -0.010246;-0.055829;-0.051110;,
 -0.010246;-0.055829;-0.051110;,
 -0.010246;-0.055829;-0.051110;,
 -0.013846;0.000001;0.051110;,
 -0.013846;0.000001;0.051110;,
 -0.013846;0.000001;-0.051110;,
 -0.013846;0.000001;-0.051110;,
 0.010246;-0.055829;0.051110;,
 0.010246;-0.055829;0.051110;,
 0.010246;-0.055829;0.051110;,
 0.010246;-0.055829;0.051110;,
 0.010246;-0.055829;-0.051110;,
 0.010246;-0.055829;-0.051110;,
 0.010246;-0.055829;-0.051110;,
 0.013846;0.000001;0.051110;,
 0.013846;0.000001;0.051110;,
 0.013846;0.000001;-0.051110;,
 0.013846;0.000001;-0.051110;,
 0.013846;0.000001;-0.051110;,
 0.013846;0.000001;0.051110;,
 0.010246;-0.055829;-0.051110;,
 0.010246;-0.055829;0.051110;,
 -0.013846;0.000001;-0.051110;,
 -0.013846;0.000001;0.051110;,
 -0.010246;-0.055829;-0.051110;,
 -0.010246;-0.055829;0.051110;;

 10;
 3;10,6,2;,
 3;8,9,1;,
 3;21,17,5;,
 3;26,20,4;,
 3;19,14,16;,
 3;22,18,15;,
 3;7,0,13;,
 3;23,27,12;,
 3;3,24,11;,
 3;29,28,25;;

 MeshMaterialList {
  3;
  10;
  0,
  0,
  1,
  1,
  0,
  0,
  1,
  1,
  2,
  2;
Material {
 1.000000;1.000000;1.000000;1.000000;;
 0.000000;
 1.000000;1.000000;1.000000;;
 0.0; 0.0; 0.0;;
 TextureFilename {
  "acs39.ppm";
 }
 }
Material {
 1.000000;1.000000;1.000000;1.000000;;
 0.000000;
 1.000000;1.000000;1.000000;;
 0.0; 0.0; 0.0;;
 TextureFilename {
  "acs39.ppm";
 }
 }
Material {
 1.000000;1.000000;1.000000;1.000000;;
 0.000000;
 1.000000;1.000000;1.000000;;
 0.0; 0.0; 0.0;;
 TextureFilename {
  "acs39.ppm";
 }
 }
}
 MeshNormals {
  30;
  -0.797870;-0.451212;0.399764;,
  -0.797870;-0.451212;0.399764;,
  -0.797870;-0.451212;0.399764;,
  -0.327985;-0.678483;-0.657333;,
  -0.327985;-0.678483;-0.657333;,
  -0.327985;-0.678483;-0.657333;,
  -0.327985;-0.678483;-0.657333;,
  -0.446287;-0.028778;0.894427;,
  -0.446287;-0.028778;0.894427;,
  -0.892573;-0.057556;-0.447214;,
  -0.892573;-0.057556;-0.447214;,
  0.327985;-0.678483;0.657333;,
  0.327985;-0.678483;0.657333;,
  0.327985;-0.678483;0.657333;,
  0.327985;-0.678483;0.657333;,
  0.797870;-0.451212;-0.399764;,
  0.797870;-0.451212;-0.399764;,
  0.797870;-0.451212;-0.399764;,
  0.892573;-0.057556;0.447214;,
  0.892573;-0.057556;0.447214;,
  0.446287;-0.028778;-0.894427;,
  0.446287;-0.028778;-0.894427;,
  0.446287;-0.028778;-0.894427;,
  0.892573;-0.057556;0.447214;,
  0.797870;-0.451212;-0.399764;,
  0.327985;-0.678483;0.657333;,
  -0.892573;-0.057556;-0.447214;,
  -0.446287;-0.028778;0.894427;,
  -0.327985;-0.678483;-0.657333;,
  -0.797870;-0.451212;0.399764;;

  10;
  3;10,6,2;,
  3;8,9,1;,
  3;21,17,5;,
  3;26,20,4;,
  3;19,14,16;,
  3;22,18,15;,
  3;7,0,13;,
  3;23,27,12;,
  3;3,24,11;,
  3;29,28,25;;
 }
 MeshTextureCoords { 
 30;
 0.949375;0.875000;,
 0.601563;0.875000;,
 0.601563;0.875000;,
 0.937500;0.886875;,
 0.949375;0.875000;,
 0.949375;0.875000;,
 0.937500;0.875000;,
 0.945313;0.687500;,
 0.601563;0.687500;,
 0.937500;0.687500;,
 0.937500;0.687500;,
 0.601563;0.910000;,
 0.972500;0.875000;,
 0.972500;0.875000;,
 0.601563;0.875000;,
 0.937500;0.875000;,
 0.937500;0.875000;,
 0.972500;0.875000;,
 0.601563;0.687500;,
 0.601563;0.687500;,
 0.976563;0.687500;,
 0.976563;0.687500;,
 0.937500;0.687500;,
 0.976563;0.687500;,
 0.937500;0.910000;,
 0.601563;0.910000;,
 0.945313;0.687500;,
 0.945313;0.687500;,
 0.937500;0.886875;,
 0.601563;0.886875;;
 }
}
}
Frame frm-r_iface {
  FrameTransformMatrix {
1.000000,0.000000,0.000000,0.000000,
0.000000,1.000000,0.000000,0.000000,
0.000000,0.000000,1.000000,0.000000,
0.000000,-0.060231,0.056666,1.000000;;
 }
Mesh r_iface {
 30;
 -0.010246;-0.055829;-0.022376;,
 -0.010246;-0.055829;-0.022376;,
 -0.010246;-0.055829;-0.022376;,
 -0.010246;-0.055829;-0.022376;,
 -0.010246;-0.055829;0.022376;,
 -0.010246;-0.055829;0.022376;,
 -0.010246;-0.055829;0.022376;,
 -0.013846;0.000001;-0.022376;,
 -0.013846;0.000001;-0.022376;,
 -0.013846;0.000001;0.022376;,
 -0.013846;0.000001;0.022376;,
 0.010246;-0.055829;-0.022376;,
 0.010246;-0.055829;-0.022376;,
 0.010246;-0.055829;-0.022376;,
 0.010246;-0.055829;0.022376;,
 0.010246;-0.055829;0.022376;,
 0.010246;-0.055829;0.022376;,
 0.010246;-0.055829;0.022376;,
 0.013846;0.000001;-0.022376;,
 0.013846;0.000001;-0.022376;,
 0.013846;0.000001;0.022376;,
 0.013846;0.000001;0.022376;,
 0.013846;0.000001;0.022376;,
 0.013846;0.000001;-0.022376;,
 0.010246;-0.055829;0.022376;,
 0.010246;-0.055829;-0.022376;,
 -0.013846;0.000001;0.022376;,
 -0.013846;0.000001;-0.022376;,
 -0.010246;-0.055829;0.022376;,
 -0.010246;-0.055829;-0.022376;;

 10;
 3;6,10,8;,
 3;3,5,7;,
 3;17,21,9;,
 3;4,16,26;,
 3;13,19,20;,
 3;15,12,22;,
 3;2,27,18;,
 3;11,1,23;,
 3;14,28,0;,
 3;25,24,29;;

 MeshMaterialList {
  3;
  10;
  0,
  0,
  1,
  1,
  0,
  0,
  1,
  1,
  2,
  2;
Material {
 1.000000;1.000000;1.000000;1.000000;;
 0.000000;
 1.000000;1.000000;1.000000;;
 0.0; 0.0; 0.0;;
 TextureFilename {
  "acs39.ppm";
 }
 }
Material {
 1.000000;1.000000;1.000000;1.000000;;
 0.000000;
 1.000000;1.000000;1.000000;;
 0.0; 0.0; 0.0;;
 TextureFilename {
  "acs39.ppm";
 }
 }
Material {
 1.000000;1.000000;1.000000;1.000000;;
 0.000000;
 1.000000;1.000000;1.000000;;
 0.0; 0.0; 0.0;;
 TextureFilename {
  "acs39.ppm";
 }
 }
}
 MeshNormals {
  30;
  -0.327985;-0.678483;-0.657333;,
  -0.327985;-0.678483;-0.657333;,
  -0.327985;-0.678483;-0.657333;,
  -0.327985;-0.678483;-0.657333;,
  -0.797870;-0.451212;0.399764;,
  -0.797870;-0.451212;0.399764;,
  -0.797870;-0.451212;0.399764;,
  -0.892573;-0.057556;-0.447214;,
  -0.892573;-0.057556;-0.447214;,
  -0.446287;-0.028778;0.894427;,
  -0.446287;-0.028778;0.894427;,
  0.797870;-0.451212;-0.399764;,
  0.797870;-0.451212;-0.399764;,
  0.797870;-0.451212;-0.399764;,
  0.327985;-0.678483;0.657333;,
  0.327985;-0.678483;0.657333;,
  0.327985;-0.678483;0.657333;,
  0.327985;-0.678483;0.657333;,
  0.446287;-0.028778;-0.894427;,
  0.446287;-0.028778;-0.894427;,
  0.892573;-0.057556;0.447214;,
  0.892573;-0.057556;0.447214;,
  0.892573;-0.057556;0.447214;,
  0.446287;-0.028778;-0.894427;,
  0.327985;-0.678483;0.657333;,
  0.797870;-0.451212;-0.399764;,
  -0.446287;-0.028778;0.894427;,
  -0.892573;-0.057556;-0.447214;,
  -0.797870;-0.451212;0.399764;,
  -0.327985;-0.678483;-0.657333;;

  10;
  3;6,10,8;,
  3;3,5,7;,
  3;17,21,9;,
  3;4,16,26;,
  3;13,19,20;,
  3;15,12,22;,
  3;2,27,18;,
  3;11,1,23;,
  3;14,28,0;,
  3;25,24,29;;
 }
 MeshTextureCoords { 
 30;
 0.937500;0.886875;,
 0.570947;0.874118;,
 0.570947;0.874118;,
 0.937500;0.875000;,
 0.570947;0.874118;,
 0.757813;0.875000;,
 0.757813;0.875000;,
 0.937500;0.687500;,
 0.937500;0.687500;,
 0.570313;0.687500;,
 0.757813;0.687500;,
 0.593460;0.875000;,
 0.937500;0.875000;,
 0.937500;0.875000;,
 0.601563;0.910000;,
 0.757813;0.875000;,
 0.593460;0.875000;,
 0.593460;0.875000;,
 0.593750;0.687500;,
 0.937500;0.687500;,
 0.757813;0.687500;,
 0.593750;0.687500;,
 0.757813;0.687500;,
 0.593750;0.687500;,
 0.601563;0.910000;,
 0.937500;0.910000;,
 0.570313;0.687500;,
 0.570313;0.687500;,
 0.601563;0.886875;,
 0.937500;0.886875;;
 }
}
}
Frame frm-control_box {
  FrameTransformMatrix {
1.000000,0.000000,0.000000,0.000000,
0.000000,1.000000,0.000000,0.000000,
0.000000,0.000000,1.000000,0.000000,
0.000000,0.000000,0.167441,1.000000;;
 }
Mesh control_box {
 60;
 -0.034030;0.016892;0.039638;,
 -0.034030;0.016892;0.039638;,
 -0.034030;0.016892;0.039638;,
 -0.034030;0.016892;0.039638;,
 -0.034030;0.016892;0.039638;,
 -0.034030;0.016892;-0.039638;,
 -0.034030;0.016892;-0.039638;,
 -0.034030;0.016892;-0.039638;,
 -0.034030;0.016892;-0.039638;,
 -0.034030;0.016892;-0.039638;,
 -0.017645;0.045347;-0.039638;,
 -0.017645;0.045347;-0.039638;,
 -0.017645;0.045347;-0.039638;,
 -0.017645;0.045347;0.039638;,
 -0.017645;0.045347;0.039638;,
 -0.017645;0.045347;0.039638;,
 -0.017645;0.045347;0.039638;,
 -0.028414;-0.078904;0.039638;,
 -0.028414;-0.078904;0.039638;,
 -0.028414;-0.078904;0.039638;,
 -0.028414;-0.078904;-0.039638;,
 -0.028414;-0.078904;-0.039638;,
 -0.028414;-0.078904;-0.039638;,
 -0.028414;-0.078904;-0.039638;,
 0.034030;0.016892;-0.039638;,
 0.034030;0.016892;-0.039638;,
 0.034030;0.016892;-0.039638;,
 0.034030;0.016892;-0.039638;,
 0.034030;0.016892;-0.039638;,
 0.017645;0.045347;-0.039638;,
 0.017645;0.045347;-0.039638;,
 0.017645;0.045347;-0.039638;,
 0.017645;0.045347;-0.039638;,
 0.028414;-0.078904;-0.039638;,
 0.028414;-0.078904;-0.039638;,
 0.028414;-0.078904;-0.039638;,
 0.034030;0.016892;0.039638;,
 0.034030;0.016892;0.039638;,
 0.034030;0.016892;0.039638;,
 0.034030;0.016892;0.039638;,
 0.034030;0.016892;0.039638;,
 0.017645;0.045347;0.039638;,
 0.017645;0.045347;0.039638;,
 0.017645;0.045347;0.039638;,
 0.028414;-0.078904;0.039638;,
 0.028414;-0.078904;0.039638;,
 0.028414;-0.078904;0.039638;,
 0.028414;-0.078904;0.039638;,
 0.028414;-0.078904;0.039638;,
 0.017645;0.045347;0.039638;,
 0.034030;0.016892;0.039638;,
 0.028414;-0.078904;-0.039638;,
 0.017645;0.045347;-0.039638;,
 0.034030;0.016892;-0.039638;,
 -0.028414;-0.078904;-0.039638;,
 -0.028414;-0.078904;0.039638;,
 -0.017645;0.045347;0.039638;,
 -0.017645;0.045347;-0.039638;,
 -0.034030;0.016892;-0.039638;,
 -0.034030;0.016892;0.039638;;

 20;
 3;12,9,4;,
 3;16,11,3;,
 3;19,2,8;,
 3;23,18,7;,
 3;32,28,6;,
 3;10,31,5;,
 3;22,58,27;,
 3;35,21,26;,
 3;43,40,25;,
 3;30,42,24;,
 3;34,53,39;,
 3;47,33,38;,
 3;15,1,37;,
 3;41,14,36;,
 3;46,50,0;,
 3;17,45,59;,
 3;20,51,44;,
 3;55,54,48;,
 3;29,57,13;,
 3;49,52,56;;

 MeshMaterialList {
  4;
  20;
  0,
  0,
  0,
  0,
  1,
  1,
  1,
  1,
  0,
  0,
  0,
  0,
  1,
  1,
  1,
  1,
  2,
  2,
  3,
  3;
Material {
 1.000000;1.000000;1.000000;1.000000;;
 0.000000;
 1.000000;1.000000;1.000000;;
 0.0; 0.0; 0.0;;
 TextureFilename {
  "acs39.ppm";
 }
 }
Material {
 1.000000;1.000000;1.000000;1.000000;;
 0.000000;
 1.000000;1.000000;1.000000;;
 0.0; 0.0; 0.0;;
 TextureFilename {
  "acs39.ppm";
 }
 }
Material {
 1.000000;1.000000;1.000000;1.000000;;
 0.000000;
 1.000000;1.000000;1.000000;;
 0.0; 0.0; 0.0;;
 TextureFilename {
  "acs39.ppm";
 }
 }
Material {
 1.000000;1.000000;1.000000;1.000000;;
 0.000000;
 1.000000;1.000000;1.000000;;
 0.0; 0.0; 0.0;;
 TextureFilename {
  "acs39.ppm";
 }
 }
}
 MeshNormals {
  60;
  -0.668663;0.229977;0.707107;,
  -0.668663;0.229977;0.707107;,
  -0.668663;0.229977;0.707107;,
  -0.668663;0.229977;0.707107;,
  -0.668663;0.229977;0.707107;,
  -0.700898;0.093498;-0.707107;,
  -0.700898;0.093498;-0.707107;,
  -0.700898;0.093498;-0.707107;,
  -0.700898;0.093498;-0.707107;,
  -0.700898;0.093498;-0.707107;,
  -0.612937;0.706573;-0.353642;,
  -0.612937;0.706573;-0.353642;,
  -0.612937;0.706573;-0.353642;,
  -0.261339;0.753613;0.603133;,
  -0.261339;0.753613;0.603133;,
  -0.261339;0.753613;0.603133;,
  -0.261339;0.753613;0.603133;,
  -0.799646;-0.447390;0.400510;,
  -0.799646;-0.447390;0.400510;,
  -0.799646;-0.447390;0.400510;,
  -0.328517;-0.677421;-0.658162;,
  -0.328517;-0.677421;-0.658162;,
  -0.328517;-0.677421;-0.658162;,
  -0.328517;-0.677421;-0.658162;,
  0.668663;0.229977;-0.707107;,
  0.668663;0.229977;-0.707107;,
  0.668663;0.229977;-0.707107;,
  0.668663;0.229977;-0.707107;,
  0.668663;0.229977;-0.707107;,
  0.261339;0.753613;-0.603133;,
  0.261339;0.753613;-0.603133;,
  0.261339;0.753613;-0.603133;,
  0.261339;0.753613;-0.603133;,
  0.799646;-0.447390;-0.400510;,
  0.799646;-0.447390;-0.400510;,
  0.799646;-0.447390;-0.400510;,
  0.700898;0.093498;0.707107;,
  0.700898;0.093498;0.707107;,
  0.700898;0.093498;0.707107;,
  0.700898;0.093498;0.707107;,
  0.700898;0.093498;0.707107;,
  0.612937;0.706573;0.353642;,
  0.612937;0.706573;0.353642;,
  0.612937;0.706573;0.353642;,
  0.328517;-0.677421;0.658162;,
  0.328517;-0.677421;0.658162;,
  0.328517;-0.677421;0.658162;,
  0.328517;-0.677421;0.658162;,
  0.328517;-0.677421;0.658162;,
  0.612937;0.706573;0.353642;,
  0.700898;0.093498;0.707107;,
  0.799646;-0.447390;-0.400510;,
  0.261339;0.753613;-0.603133;,
  0.668663;0.229977;-0.707107;,
  -0.328517;-0.677421;-0.658162;,
  -0.799646;-0.447390;0.400510;,
  -0.261339;0.753613;0.603133;,
  -0.612937;0.706573;-0.353642;,
  -0.700898;0.093498;-0.707107;,
  -0.668663;0.229977;0.707107;;

  20;
  3;12,9,4;,
  3;16,11,3;,
  3;19,2,8;,
  3;23,18,7;,
  3;32,28,6;,
  3;10,31,5;,
  3;22,58,27;,
  3;35,21,26;,
  3;43,40,25;,
  3;30,42,24;,
  3;34,53,39;,
  3;47,33,38;,
  3;15,1,37;,
  3;41,14,36;,
  3;46,50,0;,
  3;17,45,59;,
  3;20,51,44;,
  3;55,54,48;,
  3;29,57,13;,
  3;49,52,56;;
 }
 MeshTextureCoords { 
 60;
 0.296705;0.976563;,
 0.296705;0.976563;,
 0.031250;0.262945;,
 0.031250;0.262945;,
 0.031250;0.262945;,
 0.296705;0.976563;,
 0.296705;0.976563;,
 0.281250;0.262945;,
 0.281250;0.262945;,
 0.281250;0.262945;,
 0.219625;0.933996;,
 0.281250;0.148438;,
 0.281250;0.148438;,
 0.031250;0.061343;,
 0.219625;0.933996;,
 0.219625;0.933996;,
 0.031250;0.148438;,
 0.554688;0.959407;,
 0.031250;0.648438;,
 0.031250;0.648438;,
 0.281250;0.541565;,
 0.554688;0.959407;,
 0.554688;0.959407;,
 0.281250;0.648438;,
 0.281250;0.262945;,
 0.281250;0.262945;,
 0.295017;0.796875;,
 0.295017;0.796875;,
 0.295017;0.796875;,
 0.281250;0.126157;,
 0.281250;0.148438;,
 0.218750;0.840825;,
 0.218750;0.840825;,
 0.281250;0.648438;,
 0.281250;0.648438;,
 0.553278;0.809375;,
 0.295017;0.796875;,
 0.295017;0.796875;,
 0.031250;0.262945;,
 0.031250;0.262945;,
 0.031250;0.262945;,
 0.218750;0.840825;,
 0.031250;0.148438;,
 0.031250;0.148438;,
 0.031250;0.645935;,
 0.553278;0.809375;,
 0.553278;0.809375;,
 0.031250;0.648438;,
 0.031250;0.645935;,
 0.031250;0.126157;,
 0.295017;0.796875;,
 0.281250;0.645935;,
 0.281250;0.126157;,
 0.281250;0.262945;,
 0.281250;0.541565;,
 0.031250;0.541565;,
 0.031250;0.061343;,
 0.281250;0.061343;,
 0.296705;0.976563;,
 0.296705;0.976563;;
 }
}
Frame frm-r_emitter {
  FrameTransformMatrix {
1.000000,0.000000,0.000000,0.000000,
0.000000,1.000000,0.000000,0.000000,
0.000000,0.000000,1.000000,0.000000,
0.000000,0.045436,0.016293,1.000000;;
 }
Mesh r_emitter {
 30;
 -0.007293;-0.000002;-0.007101;,
 -0.007293;-0.000002;-0.007101;,
 -0.005304;0.003038;-0.005164;,
 -0.005304;0.003038;-0.005164;,
 -0.005304;0.003038;-0.005164;,
 -0.005304;0.003038;-0.005164;,
 -0.007293;-0.000002;0.007101;,
 -0.007293;-0.000002;0.007101;,
 -0.005304;0.003038;0.005164;,
 -0.005304;0.003038;0.005164;,
 -0.005304;0.003038;0.005164;,
 0.007293;-0.000002;-0.007101;,
 0.007293;-0.000002;-0.007101;,
 0.005304;0.003038;-0.005164;,
 0.005304;0.003038;-0.005164;,
 0.005304;0.003038;-0.005164;,
 0.007293;-0.000002;0.007101;,
 0.007293;-0.000002;0.007101;,
 0.005304;0.003038;0.005164;,
 0.005304;0.003038;0.005164;,
 0.005304;0.003038;0.005164;,
 0.005304;0.003038;0.005164;,
 0.005304;0.003038;0.005164;,
 0.007293;-0.000002;0.007101;,
 0.005304;0.003038;-0.005164;,
 0.007293;-0.000002;-0.007101;,
 -0.005304;0.003038;0.005164;,
 -0.007293;-0.000002;0.007101;,
 -0.005304;0.003038;-0.005164;,
 -0.007293;-0.000002;-0.007101;;

 10;
 3;10,5,1;,
 3;7,9,0;,
 3;21,15,4;,
 3;8,20,3;,
 3;17,12,14;,
 3;19,16,13;,
 3;18,26,6;,
 3;23,22,27;,
 3;2,24,11;,
 3;29,28,25;;

 MeshMaterialList {
  1;
  10;
  0,
  0,
  0,
  0,
  0,
  0,
  0,
  0,
  0,
  0;
Material {
 1.000000;1.000000;1.000000;1.000000;;
 0.000000;
 1.000000;1.000000;1.000000;;
 0.0; 0.0; 0.0;;
 TextureFilename {
  "acs39.ppm";
 }
 }
}
 MeshNormals {
  30;
  -0.673339;0.656867;-0.339322;,
  -0.673339;0.656867;-0.339322;,
  -0.204962;0.887296;-0.413153;,
  -0.204962;0.887296;-0.413153;,
  -0.204962;0.887296;-0.413153;,
  -0.204962;0.887296;-0.413153;,
  -0.336670;0.652760;0.678644;,
  -0.336670;0.652760;0.678644;,
  -0.517880;0.814671;0.260980;,
  -0.517880;0.814671;0.260980;,
  -0.517880;0.814671;0.260980;,
  0.336670;0.652760;-0.678644;,
  0.336670;0.652760;-0.678644;,
  0.517880;0.814671;-0.260980;,
  0.517880;0.814671;-0.260980;,
  0.517880;0.814671;-0.260980;,
  0.673339;0.656867;0.339322;,
  0.673339;0.656867;0.339322;,
  0.204962;0.887296;0.413154;,
  0.204962;0.887296;0.413154;,
  0.204962;0.887296;0.413154;,
  0.204962;0.887296;0.413154;,
  0.204962;0.887296;0.413154;,
  0.673339;0.656867;0.339322;,
  0.517880;0.814671;-0.260980;,
  0.336670;0.652760;-0.678644;,
  -0.517880;0.814671;0.260980;,
  -0.336670;0.652760;0.678644;,
  -0.204962;0.887296;-0.413153;,
  -0.673339;0.656867;-0.339322;;

  10;
  3;10,5,1;,
  3;7,9,0;,
  3;21,15,4;,
  3;8,20,3;,
  3;17,12,14;,
  3;19,16,13;,
  3;18,26,6;,
  3;23,22,27;,
  3;2,24,11;,
  3;29,28,25;;
 }
 MeshTextureCoords { 
 30;
 0.343750;0.703125;,
 0.343750;0.703125;,
 0.350142;0.709517;,
 0.350142;0.709517;,
 0.350142;0.709517;,
 0.350142;0.709517;,
 0.343750;0.750000;,
 0.343750;0.750000;,
 0.350142;0.743608;,
 0.350142;0.743608;,
 0.350142;0.743608;,
 0.390625;0.703125;,
 0.390625;0.703125;,
 0.384233;0.709517;,
 0.384233;0.709517;,
 0.384233;0.709517;,
 0.390625;0.750000;,
 0.390625;0.750000;,
 0.384233;0.743608;,
 0.384233;0.743608;,
 0.384233;0.743608;,
 0.384233;0.743608;,
 0.384233;0.743608;,
 0.390625;0.750000;,
 0.384233;0.709517;,
 0.390625;0.703125;,
 0.350142;0.743608;,
 0.343750;0.750000;,
 0.350142;0.709517;,
 0.343750;0.703125;;
 }
}
}
Frame frm-l_emitter {
  FrameTransformMatrix {
1.000000,0.000000,0.000000,0.000000,
0.000000,1.000000,0.000000,0.000000,
0.000000,0.000000,1.000000,0.000000,
0.000000,0.045436,-0.016112,1.000000;;
 }
Mesh l_emitter {
 30;
 -0.007293;-0.000002;-0.007101;,
 -0.007293;-0.000002;-0.007101;,
 -0.005304;0.003038;-0.005164;,
 -0.005304;0.003038;-0.005164;,
 -0.005304;0.003038;-0.005164;,
 -0.005304;0.003038;-0.005164;,
 -0.007293;-0.000002;0.007101;,
 -0.007293;-0.000002;0.007101;,
 -0.005304;0.003038;0.005164;,
 -0.005304;0.003038;0.005164;,
 -0.005304;0.003038;0.005164;,
 0.007293;-0.000002;-0.007101;,
 0.007293;-0.000002;-0.007101;,
 0.005304;0.003038;-0.005164;,
 0.005304;0.003038;-0.005164;,
 0.005304;0.003038;-0.005164;,
 0.007293;-0.000002;0.007101;,
 0.007293;-0.000002;0.007101;,
 0.005304;0.003038;0.005164;,
 0.005304;0.003038;0.005164;,
 0.005304;0.003038;0.005164;,
 0.005304;0.003038;0.005164;,
 0.005304;0.003038;0.005164;,
 0.007293;-0.000002;0.007101;,
 0.005304;0.003038;-0.005164;,
 0.007293;-0.000002;-0.007101;,
 -0.005304;0.003038;0.005164;,
 -0.007293;-0.000002;0.007101;,
 -0.005304;0.003038;-0.005164;,
 -0.007293;-0.000002;-0.007101;;

 10;
 3;10,5,1;,
 3;7,9,0;,
 3;21,15,4;,
 3;8,20,3;,
 3;17,12,14;,
 3;19,16,13;,
 3;18,26,6;,
 3;23,22,27;,
 3;2,24,11;,
 3;29,28,25;;

 MeshMaterialList {
  1;
  10;
  0,
  0,
  0,
  0,
  0,
  0,
  0,
  0,
  0,
  0;
Material {
 1.000000;1.000000;1.000000;1.000000;;
 0.000000;
 1.000000;1.000000;1.000000;;
 0.0; 0.0; 0.0;;
 TextureFilename {
  "acs39.ppm";
 }
 }
}
 MeshNormals {
  30;
  -0.673339;0.656868;-0.339322;,
  -0.673339;0.656868;-0.339322;,
  -0.204962;0.887296;-0.413153;,
  -0.204962;0.887296;-0.413153;,
  -0.204962;0.887296;-0.413153;,
  -0.204962;0.887296;-0.413153;,
  -0.336670;0.652760;0.678644;,
  -0.336670;0.652760;0.678644;,
  -0.517880;0.814671;0.260980;,
  -0.517880;0.814671;0.260980;,
  -0.517880;0.814671;0.260980;,
  0.336670;0.652760;-0.678644;,
  0.336670;0.652760;-0.678644;,
  0.517880;0.814671;-0.260980;,
  0.517880;0.814671;-0.260980;,
  0.517880;0.814671;-0.260980;,
  0.673339;0.656868;0.339322;,
  0.673339;0.656868;0.339322;,
  0.204962;0.887296;0.413154;,
  0.204962;0.887296;0.413154;,
  0.204962;0.887296;0.413154;,
  0.204962;0.887296;0.413154;,
  0.204962;0.887296;0.413154;,
  0.673339;0.656868;0.339322;,
  0.517880;0.814671;-0.260980;,
  0.336670;0.652760;-0.678644;,
  -0.517880;0.814671;0.260980;,
  -0.336670;0.652760;0.678644;,
  -0.204962;0.887296;-0.413153;,
  -0.673339;0.656868;-0.339322;;

  10;
  3;10,5,1;,
  3;7,9,0;,
  3;21,15,4;,
  3;8,20,3;,
  3;17,12,14;,
  3;19,16,13;,
  3;18,26,6;,
  3;23,22,27;,
  3;2,24,11;,
  3;29,28,25;;
 }
 MeshTextureCoords { 
 30;
 0.460938;0.703125;,
 0.460938;0.703125;,
 0.468395;0.709517;,
 0.468395;0.709517;,
 0.468395;0.709517;,
 0.468395;0.709517;,
 0.460938;0.750000;,
 0.460938;0.750000;,
 0.468395;0.743608;,
 0.468395;0.743608;,
 0.468395;0.743608;,
 0.515625;0.703125;,
 0.515625;0.703125;,
 0.508168;0.709517;,
 0.508168;0.709517;,
 0.508168;0.709517;,
 0.515625;0.750000;,
 0.515625;0.750000;,
 0.508168;0.743608;,
 0.508168;0.743608;,
 0.508168;0.743608;,
 0.508168;0.743608;,
 0.508168;0.743608;,
 0.515625;0.750000;,
 0.508168;0.709517;,
 0.515625;0.703125;,
 0.468395;0.743608;,
 0.460938;0.750000;,
 0.468395;0.709517;,
 0.460938;0.703125;;
 }
}
}
}
}
}
AnimationSet {
 Animation anim-beam_generator {
  {frm-beam_generator}
  AnimationKey {
  2;
  2;
  1; 3; 0.000000, 0.000000, -0.053779;;,
  60; 3; 0.000000, 0.000000, -0.053779;;;
  }
 }
 Animation anim-l_iface {
  {frm-l_iface}
  AnimationKey {
  2;
  2;
  1; 3; 0.000000, -0.060231, -0.053382;;,
  60; 3; 0.000000, -0.060231, -0.053382;;;
  }
 }
 Animation anim-r_iface {
  {frm-r_iface}
  AnimationKey {
  2;
  2;
  1; 3; 0.000000, -0.060231, 0.056666;;,
  60; 3; 0.000000, -0.060231, 0.056666;;;
  }
 }
 Animation anim-control_box {
  {frm-control_box}
  AnimationKey {
  2;
  2;
  1; 3; 0.000000, 0.000000, 0.167441;;,
  60; 3; 0.000000, 0.000000, 0.167441;;;
  }
 }
 Animation anim-r_emitter {
  {frm-r_emitter}
  AnimationKey {
  2;
  2;
  1; 3; 0.000000, 0.045436, 0.016293;;,
  60; 3; 0.000000, 0.045436, 0.016293;;;
  }
 }
 Animation anim-l_emitter {
  {frm-l_emitter}
  AnimationKey {
  2;
  2;
  1; 3; 0.000000, 0.045436, -0.016112;;,
  60; 3; 0.000000, 0.045436, -0.016112;;;
  }
 }
}
