xof 0302txt 0032
template Header {
 <3D82AB43-62DA-11cf-AB39-0020AF71E433>
 WORD major;
 WORD minor;
 DWORD flags;
}

template Vector {
 <3D82AB5E-62DA-11cf-AB39-0020AF71E433>
 FLOAT x;
 FLOAT y;
 FLOAT z;
}

template Coords2d {
 <F6F23F44-7686-11cf-8F52-0040333594A3>
 FLOAT u;
 FLOAT v;
}

template Matrix4x4 {
 <F6F23F45-7686-11cf-8F52-0040333594A3>
 array FLOAT matrix[16];
}

template ColorRGBA {
 <35FF44E0-6C7C-11cf-8F52-0040333594A3>
 FLOAT red;
 FLOAT green;
 FLOAT blue;
 FLOAT alpha;
}

template ColorRGB {
 <D3E16E81-7835-11cf-8F52-0040333594A3>
 FLOAT red;
 FLOAT green;
 FLOAT blue;
}

template TextureFilename {
 <A42790E1-7810-11cf-8F52-0040333594A3>
 STRING filename;
}

template Material {
 <3D82AB4D-62DA-11cf-AB39-0020AF71E433>
 ColorRGBA faceColor;
 FLOAT power;
 ColorRGB specularColor;
 ColorRGB emissiveColor;
 [...]
}

template MeshFace {
 <3D82AB5F-62DA-11cf-AB39-0020AF71E433>
 DWORD nFaceVertexIndices;
 array DWORD faceVertexIndices[nFaceVertexIndices];
}

template MeshTextureCoords {
 <F6F23F40-7686-11cf-8F52-0040333594A3>
 DWORD nTextureCoords;
 array Coords2d textureCoords[nTextureCoords];
}

template MeshMaterialList {
 <F6F23F42-7686-11cf-8F52-0040333594A3>
 DWORD nMaterials;
 DWORD nFaceIndexes;
 array DWORD faceIndexes[nFaceIndexes];
 [Material]
}

template MeshNormals {
 <F6F23F43-7686-11cf-8F52-0040333594A3>
 DWORD nNormals;
 array Vector normals[nNormals];
 DWORD nFaceNormals;
 array MeshFace faceNormals[nFaceNormals];
}

template Mesh {
 <3D82AB44-62DA-11cf-AB39-0020AF71E433>
 DWORD nVertices;
 array Vector vertices[nVertices];
 DWORD nFaces;
 array MeshFace faces[nFaces];
 [...]
}

template FrameTransformMatrix {
 <F6F23F41-7686-11cf-8F52-0040333594A3>
 Matrix4x4 frameMatrix;
}

template Frame {
 <3D82AB46-62DA-11cf-AB39-0020AF71E433>
 [...]
}
template FloatKeys {
 <10DD46A9-775B-11cf-8F52-0040333594A3>
 DWORD nValues;
 array FLOAT values[nValues];
}

template TimedFloatKeys {
 <F406B180-7B3B-11cf-8F52-0040333594A3>
 DWORD time;
 FloatKeys tfkeys;
}

template AnimationKey {
 <10DD46A8-775B-11cf-8F52-0040333594A3>
 DWORD keyType;
 DWORD nKeys;
 array TimedFloatKeys keys[nKeys];
}

template AnimationOptions {
 <E2BF56C0-840F-11cf-8F52-0040333594A3>
 DWORD openclosed;
 DWORD positionquality;
}

template Animation {
 <3D82AB4F-62DA-11cf-AB39-0020AF71E433>
 [...]
}

template AnimationSet {
 <3D82AB50-62DA-11cf-AB39-0020AF71E433>
 [Animation]
}

Header {
 1;
 0;
 1;
}

Frame frm-tractor_beam {
  FrameTransformMatrix {
1.000000,0.000000,0.000000,0.000000,
0.000000,1.000000,0.000000,0.000000,
0.000000,0.000000,1.000000,0.000000,
0.000000,0.000000,0.000000,1.000000;;
 }
Frame frm-barrel {
  FrameTransformMatrix {
1.000000,0.000000,0.000000,0.000000,
0.000000,1.000000,0.000000,0.000000,
0.000000,0.000000,1.000000,0.000000,
0.000000,0.000000,-0.274849,1.000000;;
 }
Mesh barrel {
 48;
 0.011528;-0.019968;-0.184895;,
 0.011528;-0.019968;-0.184895;,
 0.011528;-0.019968;-0.184895;,
 0.021758;-0.037686;0.184895;,
 0.021758;-0.037686;0.184895;,
 0.043516;0.000000;0.184895;,
 0.043516;0.000000;0.184895;,
 0.023057;-0.000000;-0.184895;,
 0.023057;-0.000000;-0.184895;,
 0.023057;-0.000000;-0.184895;,
 0.023057;-0.000000;-0.184895;,
 0.021758;0.037686;0.184895;,
 0.021758;0.037686;0.184895;,
 0.011528;0.019968;-0.184895;,
 0.011528;0.019968;-0.184895;,
 0.011528;0.019968;-0.184895;,
 0.011528;0.019968;-0.184895;,
 -0.021758;0.037686;0.184895;,
 -0.021758;0.037686;0.184895;,
 -0.011528;0.019968;-0.184895;,
 -0.011528;0.019968;-0.184895;,
 -0.011528;0.019968;-0.184895;,
 -0.011528;0.019968;-0.184895;,
 -0.043516;0.000000;0.184895;,
 -0.043516;0.000000;0.184895;,
 -0.023057;-0.000000;-0.184895;,
 -0.023057;-0.000000;-0.184895;,
 -0.023057;-0.000000;-0.184895;,
 -0.021758;-0.037686;0.184895;,
 -0.021758;-0.037686;0.184895;,
 -0.011528;-0.019968;-0.184895;,
 -0.011528;-0.019968;-0.184895;,
 -0.011528;-0.019968;-0.184895;,
 -0.011528;-0.019968;-0.184895;,
 -0.011528;-0.019968;-0.184895;,
 -0.011528;-0.019968;-0.184895;,
 -0.011528;-0.019968;-0.184895;,
 -0.021758;-0.037686;0.184895;,
 -0.023057;-0.000000;-0.184895;,
 -0.043516;0.000000;0.184895;,
 -0.011528;0.019968;-0.184895;,
 -0.021758;0.037686;0.184895;,
 0.011528;0.019968;-0.184895;,
 0.021758;0.037686;0.184895;,
 0.023057;-0.000000;-0.184895;,
 0.043516;0.000000;0.184895;,
 0.021758;-0.037686;0.184895;,
 0.011528;-0.019968;-0.184895;;

 16;
 3;10,6,4;,
 3;2,9,3;,
 3;16,12,5;,
 3;8,15,45;,
 3;35,29,24;,
 3;27,34,23;,
 3;1,46,28;,
 3;33,0,37;,
 3;22,18,11;,
 3;14,21,43;,
 3;26,39,17;,
 3;20,25,41;,
 3;7,47,32;,
 3;13,44,31;,
 3;19,42,30;,
 3;38,40,36;;

 MeshMaterialList {
  2;
  16;
  0,
  0,
  0,
  0,
  0,
  0,
  0,
  0,
  0,
  0,
  0,
  0,
  1,
  1,
  1,
  1;
Material {
 1.000000;1.000000;1.000000;1.000000;;
 0.000000;
 1.000000;1.000000;1.000000;;
 0.0; 0.0; 0.0;;
 TextureFilename {
  "acs42.ppm";
 }
 }
Material {
 1.000000;1.000000;1.000000;1.000000;;
 0.000000;
 1.000000;1.000000;1.000000;;
 0.0; 0.0; 0.0;;
 TextureFilename {
  "acs42.ppm";
 }
 }
}
 MeshNormals {
  48;
  0.305146;-0.880880;-0.361851;,
  0.305146;-0.880880;-0.361851;,
  0.305146;-0.880880;-0.361851;,
  0.653690;-0.754816;-0.054249;,
  0.653690;-0.754816;-0.054249;,
  0.980534;0.188704;-0.054249;,
  0.980534;0.188704;-0.054249;,
  0.796163;-0.153222;-0.585361;,
  0.796163;-0.153222;-0.585361;,
  0.796163;-0.153222;-0.585361;,
  0.796163;-0.153222;-0.585361;,
  0.326845;0.943520;-0.054249;,
  0.326845;0.943520;-0.054249;,
  0.530776;0.612887;-0.585361;,
  0.530776;0.612887;-0.585361;,
  0.530776;0.612887;-0.585361;,
  0.530776;0.612887;-0.585361;,
  -0.653690;0.754816;-0.054249;,
  -0.653690;0.754816;-0.054249;,
  -0.265388;0.766109;-0.585361;,
  -0.265388;0.766109;-0.585361;,
  -0.265388;0.766109;-0.585361;,
  -0.265388;0.766109;-0.585361;,
  -0.980534;-0.188704;-0.054249;,
  -0.980534;-0.188704;-0.054249;,
  -0.915438;0.176176;-0.361851;,
  -0.915438;0.176176;-0.361851;,
  -0.915438;0.176176;-0.361851;,
  -0.326845;-0.943520;-0.054249;,
  -0.326845;-0.943520;-0.054249;,
  -0.382383;-0.441538;-0.811682;,
  -0.382383;-0.441538;-0.811682;,
  -0.382383;-0.441538;-0.811682;,
  -0.382383;-0.441538;-0.811682;,
  -0.382383;-0.441538;-0.811682;,
  -0.382383;-0.441538;-0.811682;,
  -0.382383;-0.441538;-0.811682;,
  -0.326845;-0.943520;-0.054249;,
  -0.915438;0.176176;-0.361851;,
  -0.980534;-0.188704;-0.054249;,
  -0.265388;0.766109;-0.585361;,
  -0.653690;0.754816;-0.054249;,
  0.530776;0.612887;-0.585361;,
  0.326845;0.943520;-0.054249;,
  0.796163;-0.153222;-0.585361;,
  0.980534;0.188704;-0.054249;,
  0.653690;-0.754816;-0.054249;,
  0.305146;-0.880880;-0.361851;;

  16;
  3;10,6,4;,
  3;2,9,3;,
  3;16,12,5;,
  3;8,15,45;,
  3;35,29,24;,
  3;27,34,23;,
  3;1,46,28;,
  3;33,0,37;,
  3;22,18,11;,
  3;14,21,43;,
  3;26,39,17;,
  3;20,25,41;,
  3;7,47,32;,
  3;13,44,31;,
  3;19,42,30;,
  3;38,40,36;;
 }
 MeshTextureCoords { 
 48;
 0.993787;0.192040;,
 0.993787;0.192040;,
 0.993787;0.192040;,
 0.012488;0.215259;,
 0.012488;0.215259;,
 0.011719;0.113839;,
 0.011719;0.113839;,
 0.562474;0.843750;,
 0.995316;0.110826;,
 0.995316;0.110826;,
 0.995316;0.110826;,
 0.011719;0.023438;,
 0.011719;0.023438;,
 0.516589;0.695354;,
 0.996094;0.028199;,
 0.996094;0.028199;,
 0.996094;0.028199;,
 0.011719;0.023438;,
 0.011719;0.023438;,
 0.424818;0.695354;,
 0.996094;0.028199;,
 0.996094;0.028199;,
 0.996094;0.028199;,
 0.011719;0.113839;,
 0.011719;0.113839;,
 0.995316;0.110826;,
 0.995316;0.110826;,
 0.995316;0.110826;,
 0.012488;0.215259;,
 0.012488;0.215259;,
 0.424818;0.992146;,
 0.424818;0.992146;,
 0.424818;0.992146;,
 0.993787;0.192040;,
 0.993787;0.192040;,
 0.993787;0.192040;,
 0.424818;0.992146;,
 0.012488;0.215259;,
 0.378932;0.843750;,
 0.011719;0.113839;,
 0.424818;0.695354;,
 0.011719;0.023438;,
 0.516589;0.695354;,
 0.011719;0.023438;,
 0.562474;0.843750;,
 0.011719;0.113839;,
 0.012488;0.215259;,
 0.516589;0.992146;;
 }
}
Frame frm-grav_mod1 {
  FrameTransformMatrix {
1.000000,0.000000,0.000000,0.000000,
0.000000,1.000000,0.000000,0.000000,
0.000000,0.000000,1.000000,0.000000,
0.000000,0.000000,-0.107244,1.000000;;
 }
Mesh grav_mod1 {
 60;
 0.030636;-0.053063;-0.029360;,
 0.030636;-0.053063;-0.029360;,
 0.030636;-0.053063;-0.029360;,
 0.030636;-0.053063;0.029360;,
 0.030636;-0.053063;0.029360;,
 0.030636;-0.053063;0.029360;,
 0.030636;-0.053063;0.029360;,
 0.030636;-0.053063;0.029360;,
 0.030636;-0.053063;0.029360;,
 0.061272;0.000000;0.029360;,
 0.061272;0.000000;0.029360;,
 0.061272;0.000000;0.029360;,
 0.061272;-0.000000;-0.029360;,
 0.061272;-0.000000;-0.029360;,
 0.061272;-0.000000;-0.029360;,
 0.061272;-0.000000;-0.029360;,
 0.030636;0.053063;0.029360;,
 0.030636;0.053063;0.029360;,
 0.030636;0.053063;0.029360;,
 0.030636;0.053063;0.029360;,
 0.030636;0.053063;-0.029360;,
 0.030636;0.053063;-0.029360;,
 0.030636;0.053063;-0.029360;,
 0.030636;0.053063;-0.029360;,
 -0.030636;0.053063;0.029360;,
 -0.030636;0.053063;0.029360;,
 -0.030636;0.053063;0.029360;,
 -0.030636;0.053063;0.029360;,
 -0.030636;0.053063;-0.029360;,
 -0.030636;0.053063;-0.029360;,
 -0.030636;0.053063;-0.029360;,
 -0.030636;0.053063;-0.029360;,
 -0.061272;-0.000000;0.029360;,
 -0.061272;-0.000000;0.029360;,
 -0.061272;-0.000000;0.029360;,
 -0.061272;-0.000000;0.029360;,
 -0.061272;-0.000000;-0.029360;,
 -0.061272;-0.000000;-0.029360;,
 -0.061272;-0.000000;-0.029360;,
 -0.030636;-0.053063;0.029360;,
 -0.030636;-0.053063;0.029360;,
 -0.030636;-0.053063;0.029360;,
 -0.030636;-0.053063;-0.029360;,
 -0.030636;-0.053063;-0.029360;,
 -0.030636;-0.053063;-0.029360;,
 -0.030636;-0.053063;-0.029360;,
 -0.030636;-0.053063;-0.029360;,
 -0.030636;-0.053063;-0.029360;,
 -0.030636;-0.053063;-0.029360;,
 -0.030636;-0.053063;0.029360;,
 -0.061272;-0.000000;-0.029360;,
 -0.061272;-0.000000;0.029360;,
 -0.030636;0.053063;-0.029360;,
 -0.030636;0.053063;0.029360;,
 0.030636;0.053063;-0.029360;,
 0.030636;0.053063;0.029360;,
 0.061272;-0.000000;-0.029360;,
 0.061272;0.000000;0.029360;,
 0.030636;-0.053063;0.029360;,
 0.030636;-0.053063;-0.029360;;

 20;
 3;15,11,8;,
 3;2,14,7;,
 3;23,19,10;,
 3;13,22,9;,
 3;47,41,35;,
 3;38,46,34;,
 3;1,6,40;,
 3;45,0,39;,
 3;31,27,18;,
 3;21,30,17;,
 3;37,33,26;,
 3;29,36,25;,
 3;12,59,44;,
 3;20,56,43;,
 3;28,54,42;,
 3;50,52,48;,
 3;32,49,5;,
 3;24,51,4;,
 3;16,53,3;,
 3;57,55,58;;

 MeshMaterialList {
  2;
  20;
  0,
  0,
  0,
  0,
  0,
  0,
  0,
  0,
  0,
  0,
  0,
  0,
  1,
  1,
  1,
  1,
  1,
  1,
  1,
  1;
Material {
 1.000000;1.000000;1.000000;1.000000;;
 0.000000;
 1.000000;1.000000;1.000000;;
 0.0; 0.0; 0.0;;
 TextureFilename {
  "acs42.ppm";
 }
 }
Material {
 1.000000;1.000000;1.000000;1.000000;;
 0.000000;
 1.000000;1.000000;1.000000;;
 0.0; 0.0; 0.0;;
 TextureFilename {
  "acs42.ppm";
 }
 }
}
 MeshNormals {
  60;
  0.310530;-0.896421;-0.316228;,
  0.310530;-0.896421;-0.316228;,
  0.310530;-0.896421;-0.316228;,
  0.392792;-0.453557;0.800000;,
  0.392792;-0.453557;0.800000;,
  0.392792;-0.453557;0.800000;,
  0.392792;-0.453557;0.800000;,
  0.392792;-0.453557;0.800000;,
  0.392792;-0.453557;0.800000;,
  0.931588;0.179284;0.316228;,
  0.931588;0.179284;0.316228;,
  0.931588;0.179284;0.316228;,
  0.817057;-0.157243;-0.554700;,
  0.817057;-0.157243;-0.554700;,
  0.817057;-0.157243;-0.554700;,
  0.817057;-0.157243;-0.554700;,
  0.261116;0.753778;0.603023;,
  0.261116;0.753778;0.603023;,
  0.261116;0.753778;0.603023;,
  0.261116;0.753778;0.603023;,
  0.522233;0.603023;-0.603023;,
  0.522233;0.603023;-0.603023;,
  0.522233;0.603023;-0.603023;,
  0.522233;0.603023;-0.603023;,
  -0.522233;0.603023;0.603023;,
  -0.522233;0.603023;0.603023;,
  -0.522233;0.603023;0.603023;,
  -0.522233;0.603023;0.603023;,
  -0.261117;0.753778;-0.603023;,
  -0.261117;0.753778;-0.603023;,
  -0.261117;0.753778;-0.603023;,
  -0.261117;0.753778;-0.603023;,
  -0.783349;-0.150756;0.603023;,
  -0.783349;-0.150756;0.603023;,
  -0.783349;-0.150756;0.603023;,
  -0.783349;-0.150756;0.603023;,
  -0.918559;0.176777;-0.353553;,
  -0.918559;0.176777;-0.353553;,
  -0.918559;0.176777;-0.353553;,
  -0.306186;-0.883884;0.353553;,
  -0.306186;-0.883884;0.353553;,
  -0.306186;-0.883884;0.353553;,
  -0.361157;-0.417029;-0.834058;,
  -0.361157;-0.417029;-0.834058;,
  -0.361157;-0.417029;-0.834058;,
  -0.361157;-0.417029;-0.834058;,
  -0.361157;-0.417029;-0.834058;,
  -0.361157;-0.417029;-0.834058;,
  -0.361157;-0.417029;-0.834058;,
  -0.306186;-0.883884;0.353553;,
  -0.918559;0.176777;-0.353553;,
  -0.783349;-0.150756;0.603023;,
  -0.261117;0.753778;-0.603023;,
  -0.522233;0.603023;0.603023;,
  0.522233;0.603023;-0.603023;,
  0.261116;0.753778;0.603023;,
  0.817057;-0.157243;-0.554700;,
  0.931588;0.179284;0.316228;,
  0.392792;-0.453557;0.800000;,
  0.310530;-0.896421;-0.316228;;

  20;
  3;15,11,8;,
  3;2,14,7;,
  3;23,19,10;,
  3;13,22,9;,
  3;47,41,35;,
  3;38,46,34;,
  3;1,6,40;,
  3;45,0,39;,
  3;31,27,18;,
  3;21,30,17;,
  3;37,33,26;,
  3;29,36,25;,
  3;12,59,44;,
  3;20,56,43;,
  3;28,54,42;,
  3;50,52,48;,
  3;32,49,5;,
  3;24,51,4;,
  3;16,53,3;,
  3;57,55,58;;
 }
 MeshTextureCoords { 
 60;
 0.019531;0.820312;,
 0.019531;0.820312;,
 0.019531;0.820312;,
 0.515625;0.992187;,
 0.515625;0.992187;,
 0.515625;0.992187;,
 0.195312;0.820312;,
 0.195312;0.820312;,
 0.195312;0.820312;,
 0.195312;0.656250;,
 0.195312;0.656250;,
 0.195312;0.656250;,
 0.562500;0.843750;,
 0.019531;0.656250;,
 0.019531;0.656250;,
 0.019531;0.656250;,
 0.515625;0.695313;,
 0.195312;0.492188;,
 0.195312;0.492188;,
 0.195312;0.492188;,
 0.515625;0.695313;,
 0.019531;0.492188;,
 0.019531;0.492188;,
 0.019531;0.492188;,
 0.421875;0.695313;,
 0.195312;0.492188;,
 0.195312;0.492188;,
 0.195312;0.492188;,
 0.421875;0.695313;,
 0.019531;0.492188;,
 0.019531;0.492188;,
 0.019531;0.492188;,
 0.375000;0.843750;,
 0.195313;0.656250;,
 0.195313;0.656250;,
 0.195313;0.656250;,
 0.019531;0.656250;,
 0.019531;0.656250;,
 0.019531;0.656250;,
 0.195312;0.820313;,
 0.195312;0.820313;,
 0.195312;0.820313;,
 0.421875;0.992188;,
 0.421875;0.992188;,
 0.421875;0.992188;,
 0.019531;0.820312;,
 0.019531;0.820312;,
 0.019531;0.820312;,
 0.421875;0.992188;,
 0.421875;0.992188;,
 0.375000;0.843750;,
 0.375000;0.843750;,
 0.421875;0.695313;,
 0.421875;0.695313;,
 0.515625;0.695313;,
 0.515625;0.695313;,
 0.562500;0.843750;,
 0.562500;0.843750;,
 0.515625;0.992187;,
 0.515625;0.992187;;
 }
}
}
Frame frm-grav_mod3 {
  FrameTransformMatrix {
1.000000,0.000000,0.000000,0.000000,
0.000000,1.000000,0.000000,0.000000,
0.000000,0.000000,1.000000,0.000000,
0.000000,0.000000,0.006749,1.000000;;
 }
Mesh grav_mod3 {
 60;
 0.030636;-0.053063;-0.029360;,
 0.030636;-0.053063;-0.029360;,
 0.030636;-0.053063;-0.029360;,
 0.030636;-0.053063;0.029360;,
 0.030636;-0.053063;0.029360;,
 0.030636;-0.053063;0.029360;,
 0.030636;-0.053063;0.029360;,
 0.030636;-0.053063;0.029360;,
 0.030636;-0.053063;0.029360;,
 0.061272;0.000000;0.029360;,
 0.061272;0.000000;0.029360;,
 0.061272;0.000000;0.029360;,
 0.061272;-0.000000;-0.029360;,
 0.061272;-0.000000;-0.029360;,
 0.061272;-0.000000;-0.029360;,
 0.061272;-0.000000;-0.029360;,
 0.030636;0.053063;0.029360;,
 0.030636;0.053063;0.029360;,
 0.030636;0.053063;0.029360;,
 0.030636;0.053063;0.029360;,
 0.030636;0.053063;-0.029360;,
 0.030636;0.053063;-0.029360;,
 0.030636;0.053063;-0.029360;,
 0.030636;0.053063;-0.029360;,
 -0.030636;0.053063;0.029360;,
 -0.030636;0.053063;0.029360;,
 -0.030636;0.053063;0.029360;,
 -0.030636;0.053063;0.029360;,
 -0.030636;0.053063;-0.029360;,
 -0.030636;0.053063;-0.029360;,
 -0.030636;0.053063;-0.029360;,
 -0.030636;0.053063;-0.029360;,
 -0.061272;-0.000000;0.029360;,
 -0.061272;-0.000000;0.029360;,
 -0.061272;-0.000000;0.029360;,
 -0.061272;-0.000000;0.029360;,
 -0.061272;-0.000000;-0.029360;,
 -0.061272;-0.000000;-0.029360;,
 -0.061272;-0.000000;-0.029360;,
 -0.030636;-0.053063;0.029360;,
 -0.030636;-0.053063;0.029360;,
 -0.030636;-0.053063;0.029360;,
 -0.030636;-0.053063;-0.029360;,
 -0.030636;-0.053063;-0.029360;,
 -0.030636;-0.053063;-0.029360;,
 -0.030636;-0.053063;-0.029360;,
 -0.030636;-0.053063;-0.029360;,
 -0.030636;-0.053063;-0.029360;,
 -0.030636;-0.053063;-0.029360;,
 -0.030636;-0.053063;0.029360;,
 -0.061272;-0.000000;-0.029360;,
 -0.061272;-0.000000;0.029360;,
 -0.030636;0.053063;-0.029360;,
 -0.030636;0.053063;0.029360;,
 0.030636;0.053063;-0.029360;,
 0.030636;0.053063;0.029360;,
 0.061272;-0.000000;-0.029360;,
 0.061272;0.000000;0.029360;,
 0.030636;-0.053063;0.029360;,
 0.030636;-0.053063;-0.029360;;

 20;
 3;15,11,8;,
 3;2,14,7;,
 3;23,19,10;,
 3;13,22,9;,
 3;47,41,35;,
 3;38,46,34;,
 3;1,6,40;,
 3;45,0,39;,
 3;31,27,18;,
 3;21,30,17;,
 3;37,33,26;,
 3;29,36,25;,
 3;12,59,44;,
 3;20,56,43;,
 3;28,54,42;,
 3;50,52,48;,
 3;32,49,5;,
 3;24,51,4;,
 3;16,53,3;,
 3;57,55,58;;

 MeshMaterialList {
  2;
  20;
  0,
  0,
  0,
  0,
  0,
  0,
  0,
  0,
  0,
  0,
  0,
  0,
  1,
  1,
  1,
  1,
  1,
  1,
  1,
  1;
Material {
 1.000000;1.000000;1.000000;1.000000;;
 0.000000;
 1.000000;1.000000;1.000000;;
 0.0; 0.0; 0.0;;
 TextureFilename {
  "acs42.ppm";
 }
 }
Material {
 1.000000;1.000000;1.000000;1.000000;;
 0.000000;
 1.000000;1.000000;1.000000;;
 0.0; 0.0; 0.0;;
 TextureFilename {
  "acs42.ppm";
 }
 }
}
 MeshNormals {
  60;
  0.310530;-0.896421;-0.316228;,
  0.310530;-0.896421;-0.316228;,
  0.310530;-0.896421;-0.316228;,
  0.392792;-0.453557;0.800000;,
  0.392792;-0.453557;0.800000;,
  0.392792;-0.453557;0.800000;,
  0.392792;-0.453557;0.800000;,
  0.392792;-0.453557;0.800000;,
  0.392792;-0.453557;0.800000;,
  0.931588;0.179284;0.316228;,
  0.931588;0.179284;0.316228;,
  0.931588;0.179284;0.316228;,
  0.817057;-0.157243;-0.554700;,
  0.817057;-0.157243;-0.554700;,
  0.817057;-0.157243;-0.554700;,
  0.817057;-0.157243;-0.554700;,
  0.261116;0.753778;0.603023;,
  0.261116;0.753778;0.603023;,
  0.261116;0.753778;0.603023;,
  0.261116;0.753778;0.603023;,
  0.522233;0.603023;-0.603023;,
  0.522233;0.603023;-0.603023;,
  0.522233;0.603023;-0.603023;,
  0.522233;0.603023;-0.603023;,
  -0.522233;0.603023;0.603023;,
  -0.522233;0.603023;0.603023;,
  -0.522233;0.603023;0.603023;,
  -0.522233;0.603023;0.603023;,
  -0.261117;0.753778;-0.603023;,
  -0.261117;0.753778;-0.603023;,
  -0.261117;0.753778;-0.603023;,
  -0.261117;0.753778;-0.603023;,
  -0.783349;-0.150756;0.603023;,
  -0.783349;-0.150756;0.603023;,
  -0.783349;-0.150756;0.603023;,
  -0.783349;-0.150756;0.603023;,
  -0.918559;0.176777;-0.353553;,
  -0.918559;0.176777;-0.353553;,
  -0.918559;0.176777;-0.353553;,
  -0.306186;-0.883884;0.353553;,
  -0.306186;-0.883884;0.353553;,
  -0.306186;-0.883884;0.353553;,
  -0.361157;-0.417029;-0.834058;,
  -0.361157;-0.417029;-0.834058;,
  -0.361157;-0.417029;-0.834058;,
  -0.361157;-0.417029;-0.834058;,
  -0.361157;-0.417029;-0.834058;,
  -0.361157;-0.417029;-0.834058;,
  -0.361157;-0.417029;-0.834058;,
  -0.306186;-0.883884;0.353553;,
  -0.918559;0.176777;-0.353553;,
  -0.783349;-0.150756;0.603023;,
  -0.261117;0.753778;-0.603023;,
  -0.522233;0.603023;0.603023;,
  0.522233;0.603023;-0.603023;,
  0.261116;0.753778;0.603023;,
  0.817057;-0.157243;-0.554700;,
  0.931588;0.179284;0.316228;,
  0.392792;-0.453557;0.800000;,
  0.310530;-0.896421;-0.316228;;

  20;
  3;15,11,8;,
  3;2,14,7;,
  3;23,19,10;,
  3;13,22,9;,
  3;47,41,35;,
  3;38,46,34;,
  3;1,6,40;,
  3;45,0,39;,
  3;31,27,18;,
  3;21,30,17;,
  3;37,33,26;,
  3;29,36,25;,
  3;12,59,44;,
  3;20,56,43;,
  3;28,54,42;,
  3;50,52,48;,
  3;32,49,5;,
  3;24,51,4;,
  3;16,53,3;,
  3;57,55,58;;
 }
 MeshTextureCoords { 
 60;
 0.019531;0.820312;,
 0.019531;0.820312;,
 0.019531;0.820312;,
 0.515625;0.992187;,
 0.515625;0.992187;,
 0.515625;0.992187;,
 0.195312;0.820312;,
 0.195312;0.820312;,
 0.195312;0.820312;,
 0.195312;0.656250;,
 0.195312;0.656250;,
 0.195312;0.656250;,
 0.562500;0.843750;,
 0.019531;0.656250;,
 0.019531;0.656250;,
 0.019531;0.656250;,
 0.515625;0.695313;,
 0.195312;0.492188;,
 0.195312;0.492188;,
 0.195312;0.492188;,
 0.515625;0.695313;,
 0.019531;0.492188;,
 0.019531;0.492188;,
 0.019531;0.492188;,
 0.421875;0.695313;,
 0.195312;0.492188;,
 0.195312;0.492188;,
 0.195312;0.492188;,
 0.421875;0.695313;,
 0.019531;0.492188;,
 0.019531;0.492188;,
 0.019531;0.492188;,
 0.375000;0.843750;,
 0.195313;0.656250;,
 0.195313;0.656250;,
 0.195313;0.656250;,
 0.019531;0.656250;,
 0.019531;0.656250;,
 0.019531;0.656250;,
 0.195312;0.820313;,
 0.195312;0.820313;,
 0.195312;0.820313;,
 0.421875;0.992188;,
 0.421875;0.992188;,
 0.421875;0.992188;,
 0.019531;0.820312;,
 0.019531;0.820312;,
 0.019531;0.820312;,
 0.421875;0.992188;,
 0.421875;0.992188;,
 0.375000;0.843750;,
 0.375000;0.843750;,
 0.421875;0.695313;,
 0.421875;0.695313;,
 0.515625;0.695313;,
 0.515625;0.695313;,
 0.562500;0.843750;,
 0.562500;0.843750;,
 0.515625;0.992187;,
 0.515625;0.992187;;
 }
}
}
Frame frm-grav_mod2 {
  FrameTransformMatrix {
1.000000,0.000000,0.000000,0.000000,
0.000000,1.000000,0.000000,0.000000,
0.000000,0.000000,1.000000,0.000000,
0.000000,0.000000,0.113945,1.000000;;
 }
Mesh grav_mod2 {
 60;
 0.030636;-0.053063;-0.029360;,
 0.030636;-0.053063;-0.029360;,
 0.030636;-0.053063;-0.029360;,
 0.030636;-0.053063;0.029360;,
 0.030636;-0.053063;0.029360;,
 0.030636;-0.053063;0.029360;,
 0.030636;-0.053063;0.029360;,
 0.030636;-0.053063;0.029360;,
 0.030636;-0.053063;0.029360;,
 0.061272;0.000000;0.029360;,
 0.061272;0.000000;0.029360;,
 0.061272;0.000000;0.029360;,
 0.061272;-0.000000;-0.029360;,
 0.061272;-0.000000;-0.029360;,
 0.061272;-0.000000;-0.029360;,
 0.061272;-0.000000;-0.029360;,
 0.030636;0.053063;0.029360;,
 0.030636;0.053063;0.029360;,
 0.030636;0.053063;0.029360;,
 0.030636;0.053063;0.029360;,
 0.030636;0.053063;-0.029360;,
 0.030636;0.053063;-0.029360;,
 0.030636;0.053063;-0.029360;,
 0.030636;0.053063;-0.029360;,
 -0.030636;0.053063;0.029360;,
 -0.030636;0.053063;0.029360;,
 -0.030636;0.053063;0.029360;,
 -0.030636;0.053063;0.029360;,
 -0.030636;0.053063;-0.029360;,
 -0.030636;0.053063;-0.029360;,
 -0.030636;0.053063;-0.029360;,
 -0.030636;0.053063;-0.029360;,
 -0.061272;-0.000000;0.029360;,
 -0.061272;-0.000000;0.029360;,
 -0.061272;-0.000000;0.029360;,
 -0.061272;-0.000000;0.029360;,
 -0.061272;-0.000000;-0.029360;,
 -0.061272;-0.000000;-0.029360;,
 -0.061272;-0.000000;-0.029360;,
 -0.030636;-0.053063;0.029360;,
 -0.030636;-0.053063;0.029360;,
 -0.030636;-0.053063;0.029360;,
 -0.030636;-0.053063;-0.029360;,
 -0.030636;-0.053063;-0.029360;,
 -0.030636;-0.053063;-0.029360;,
 -0.030636;-0.053063;-0.029360;,
 -0.030636;-0.053063;-0.029360;,
 -0.030636;-0.053063;-0.029360;,
 -0.030636;-0.053063;-0.029360;,
 -0.030636;-0.053063;0.029360;,
 -0.061272;-0.000000;-0.029360;,
 -0.061272;-0.000000;0.029360;,
 -0.030636;0.053063;-0.029360;,
 -0.030636;0.053063;0.029360;,
 0.030636;0.053063;-0.029360;,
 0.030636;0.053063;0.029360;,
 0.061272;-0.000000;-0.029360;,
 0.061272;0.000000;0.029360;,
 0.030636;-0.053063;0.029360;,
 0.030636;-0.053063;-0.029360;;

 20;
 3;15,11,8;,
 3;2,14,7;,
 3;23,19,10;,
 3;13,22,9;,
 3;47,41,35;,
 3;38,46,34;,
 3;1,6,40;,
 3;45,0,39;,
 3;31,27,18;,
 3;21,30,17;,
 3;37,33,26;,
 3;29,36,25;,
 3;12,59,44;,
 3;20,56,43;,
 3;28,54,42;,
 3;50,52,48;,
 3;32,49,5;,
 3;24,51,4;,
 3;16,53,3;,
 3;57,55,58;;

 MeshMaterialList {
  2;
  20;
  0,
  0,
  0,
  0,
  0,
  0,
  0,
  0,
  0,
  0,
  0,
  0,
  1,
  1,
  1,
  1,
  1,
  1,
  1,
  1;
Material {
 1.000000;1.000000;1.000000;1.000000;;
 0.000000;
 1.000000;1.000000;1.000000;;
 0.0; 0.0; 0.0;;
 TextureFilename {
  "acs42.ppm";
 }
 }
Material {
 1.000000;1.000000;1.000000;1.000000;;
 0.000000;
 1.000000;1.000000;1.000000;;
 0.0; 0.0; 0.0;;
 TextureFilename {
  "acs42.ppm";
 }
 }
}
 MeshNormals {
  60;
  0.310530;-0.896421;-0.316228;,
  0.310530;-0.896421;-0.316228;,
  0.310530;-0.896421;-0.316228;,
  0.392792;-0.453557;0.800000;,
  0.392792;-0.453557;0.800000;,
  0.392792;-0.453557;0.800000;,
  0.392792;-0.453557;0.800000;,
  0.392792;-0.453557;0.800000;,
  0.392792;-0.453557;0.800000;,
  0.931588;0.179284;0.316228;,
  0.931588;0.179284;0.316228;,
  0.931588;0.179284;0.316228;,
  0.817057;-0.157243;-0.554700;,
  0.817057;-0.157243;-0.554700;,
  0.817057;-0.157243;-0.554700;,
  0.817057;-0.157243;-0.554700;,
  0.261116;0.753778;0.603023;,
  0.261116;0.753778;0.603023;,
  0.261116;0.753778;0.603023;,
  0.261116;0.753778;0.603023;,
  0.522233;0.603023;-0.603023;,
  0.522233;0.603023;-0.603023;,
  0.522233;0.603023;-0.603023;,
  0.522233;0.603023;-0.603023;,
  -0.522233;0.603023;0.603023;,
  -0.522233;0.603023;0.603023;,
  -0.522233;0.603023;0.603023;,
  -0.522233;0.603023;0.603023;,
  -0.261117;0.753778;-0.603023;,
  -0.261117;0.753778;-0.603023;,
  -0.261117;0.753778;-0.603023;,
  -0.261117;0.753778;-0.603023;,
  -0.783349;-0.150756;0.603023;,
  -0.783349;-0.150756;0.603023;,
  -0.783349;-0.150756;0.603023;,
  -0.783349;-0.150756;0.603023;,
  -0.918559;0.176777;-0.353553;,
  -0.918559;0.176777;-0.353553;,
  -0.918559;0.176777;-0.353553;,
  -0.306186;-0.883884;0.353553;,
  -0.306186;-0.883884;0.353553;,
  -0.306186;-0.883884;0.353553;,
  -0.361157;-0.417029;-0.834058;,
  -0.361157;-0.417029;-0.834058;,
  -0.361157;-0.417029;-0.834058;,
  -0.361157;-0.417029;-0.834058;,
  -0.361157;-0.417029;-0.834058;,
  -0.361157;-0.417029;-0.834058;,
  -0.361157;-0.417029;-0.834058;,
  -0.306186;-0.883884;0.353553;,
  -0.918559;0.176777;-0.353553;,
  -0.783349;-0.150756;0.603023;,
  -0.261117;0.753778;-0.603023;,
  -0.522233;0.603023;0.603023;,
  0.522233;0.603023;-0.603023;,
  0.261116;0.753778;0.603023;,
  0.817057;-0.157243;-0.554700;,
  0.931588;0.179284;0.316228;,
  0.392792;-0.453557;0.800000;,
  0.310530;-0.896421;-0.316228;;

  20;
  3;15,11,8;,
  3;2,14,7;,
  3;23,19,10;,
  3;13,22,9;,
  3;47,41,35;,
  3;38,46,34;,
  3;1,6,40;,
  3;45,0,39;,
  3;31,27,18;,
  3;21,30,17;,
  3;37,33,26;,
  3;29,36,25;,
  3;12,59,44;,
  3;20,56,43;,
  3;28,54,42;,
  3;50,52,48;,
  3;32,49,5;,
  3;24,51,4;,
  3;16,53,3;,
  3;57,55,58;;
 }
 MeshTextureCoords { 
 60;
 0.019531;0.820312;,
 0.019531;0.820312;,
 0.019531;0.820312;,
 0.515625;0.992187;,
 0.515625;0.992187;,
 0.515625;0.992187;,
 0.195312;0.820312;,
 0.195312;0.820312;,
 0.195312;0.820312;,
 0.195312;0.656250;,
 0.195312;0.656250;,
 0.195312;0.656250;,
 0.562500;0.843750;,
 0.019531;0.656250;,
 0.019531;0.656250;,
 0.019531;0.656250;,
 0.515625;0.695313;,
 0.195312;0.492188;,
 0.195312;0.492188;,
 0.195312;0.492188;,
 0.515625;0.695313;,
 0.019531;0.492188;,
 0.019531;0.492188;,
 0.019531;0.492188;,
 0.421875;0.695313;,
 0.195312;0.492188;,
 0.195312;0.492188;,
 0.195312;0.492188;,
 0.421875;0.695313;,
 0.019531;0.492188;,
 0.019531;0.492188;,
 0.019531;0.492188;,
 0.375000;0.843750;,
 0.195313;0.656250;,
 0.195313;0.656250;,
 0.195313;0.656250;,
 0.019531;0.656250;,
 0.019531;0.656250;,
 0.019531;0.656250;,
 0.195312;0.820313;,
 0.195312;0.820313;,
 0.195312;0.820313;,
 0.421875;0.992188;,
 0.421875;0.992188;,
 0.421875;0.992188;,
 0.019531;0.820312;,
 0.019531;0.820312;,
 0.019531;0.820312;,
 0.421875;0.992188;,
 0.421875;0.992188;,
 0.375000;0.843750;,
 0.375000;0.843750;,
 0.421875;0.695313;,
 0.421875;0.695313;,
 0.515625;0.695313;,
 0.515625;0.695313;,
 0.562500;0.843750;,
 0.562500;0.843750;,
 0.515625;0.992187;,
 0.515625;0.992187;;
 }
}
}
}
Frame frm-body {
  FrameTransformMatrix {
1.000000,0.000000,0.000000,0.000000,
0.000000,1.000000,0.000000,0.000000,
0.000000,0.000000,1.000000,0.000000,
0.000000,-0.018370,0.061850,1.000000;;
 }
Mesh body {
 60;
 0.057702;0.025131;0.178440;,
 0.057702;0.025131;0.178440;,
 0.057702;0.025131;0.178440;,
 0.057702;0.025131;0.178440;,
 0.057703;0.091256;0.108097;,
 0.057703;0.091256;0.108097;,
 0.057703;0.091256;0.108097;,
 0.057703;0.091256;0.108097;,
 0.057703;0.091256;0.108097;,
 0.057703;0.091256;-0.151755;,
 0.057703;0.091256;-0.151755;,
 0.057703;0.091256;-0.151755;,
 0.077391;-0.040492;-0.151870;,
 0.077391;-0.040492;-0.151870;,
 0.077391;-0.040492;-0.151870;,
 0.077391;-0.040492;-0.151870;,
 0.057702;-0.040492;0.178440;,
 0.057702;-0.040492;0.178440;,
 0.057702;-0.040492;0.178440;,
 -0.058408;0.025131;0.178440;,
 -0.058408;0.025131;0.178440;,
 -0.058408;0.025131;0.178440;,
 -0.058408;0.025131;0.178440;,
 -0.058409;0.091256;0.108097;,
 -0.058409;0.091256;0.108097;,
 -0.058409;0.091256;0.108097;,
 -0.058409;0.091256;0.108097;,
 -0.058409;0.091256;-0.151755;,
 -0.058409;0.091256;-0.151755;,
 -0.058409;0.091256;-0.151755;,
 -0.058409;0.091256;-0.151755;,
 -0.078338;-0.040492;-0.151870;,
 -0.078338;-0.040492;-0.151870;,
 -0.078338;-0.040492;-0.151870;,
 -0.078338;-0.040492;-0.151870;,
 -0.078338;-0.040492;-0.151870;,
 -0.058408;-0.040492;0.178440;,
 -0.058408;-0.040492;0.178440;,
 -0.058408;-0.040492;0.178440;,
 -0.058408;-0.040492;0.178440;,
 0.077391;-0.040492;0.108245;,
 0.077391;-0.040492;0.108245;,
 0.077391;-0.040492;0.108245;,
 0.077391;-0.040492;0.108245;,
 -0.078338;-0.040492;0.108245;,
 -0.078338;-0.040492;0.108245;,
 -0.078338;-0.040492;0.108245;,
 -0.078338;-0.040492;0.108245;,
 -0.078338;-0.040492;0.108245;,
 0.077391;-0.040492;0.108245;,
 -0.058408;-0.040492;0.178440;,
 -0.078338;-0.040492;-0.151870;,
 -0.058409;0.091256;-0.151755;,
 -0.058409;0.091256;0.108097;,
 -0.058408;0.025131;0.178440;,
 0.057702;-0.040492;0.178440;,
 0.077391;-0.040492;-0.151870;,
 0.057703;0.091256;-0.151755;,
 0.057703;0.091256;0.108097;,
 0.057702;0.025131;0.178440;;

 20;
 3;3,22,39;,
 3;18,2,38;,
 3;8,26,21;,
 3;1,7,20;,
 3;11,30,25;,
 3;6,10,24;,
 3;0,17,43;,
 3;5,59,42;,
 3;37,47,35;,
 3;16,36,34;,
 3;41,55,33;,
 3;15,40,32;,
 3;14,9,4;,
 3;49,13,58;,
 3;46,50,19;,
 3;29,31,45;,
 3;23,28,44;,
 3;27,57,12;,
 3;51,52,56;,
 3;54,53,48;;

 MeshMaterialList {
  6;
  20;
  0,
  0,
  1,
  1,
  2,
  2,
  3,
  3,
  4,
  4,
  4,
  4,
  3,
  3,
  3,
  3,
  3,
  5,
  5,
  3;
Material {
 1.000000;1.000000;1.000000;1.000000;;
 0.000000;
 1.000000;1.000000;1.000000;;
 0.0; 0.0; 0.0;;
 TextureFilename {
  "acs42.ppm";
 }
 }
Material {
 1.000000;1.000000;1.000000;1.000000;;
 0.000000;
 1.000000;1.000000;1.000000;;
 0.0; 0.0; 0.0;;
 TextureFilename {
  "acs42.ppm";
 }
 }
Material {
 1.000000;1.000000;1.000000;1.000000;;
 0.000000;
 1.000000;1.000000;1.000000;;
 0.0; 0.0; 0.0;;
 TextureFilename {
  "acs42.ppm";
 }
 }
Material {
 1.000000;1.000000;1.000000;1.000000;;
 0.000000;
 1.000000;1.000000;1.000000;;
 0.0; 0.0; 0.0;;
 TextureFilename {
  "acs42.ppm";
 }
 }
Material {
 1.000000;1.000000;1.000000;1.000000;;
 0.000000;
 1.000000;1.000000;1.000000;;
 0.0; 0.0; 0.0;;
 TextureFilename {
  "acs42.ppm";
 }
 }
Material {
 1.000000;1.000000;1.000000;1.000000;;
 0.000000;
 1.000000;1.000000;1.000000;;
 0.0; 0.0; 0.0;;
 TextureFilename {
  "acs42.ppm";
 }
 }
}
 MeshNormals {
  60;
  0.494148;0.236178;0.836682;,
  0.494148;0.236178;0.836682;,
  0.494148;0.236178;0.836682;,
  0.494148;0.236178;0.836682;,
  0.651046;0.672905;0.351195;,
  0.651046;0.672905;0.351195;,
  0.651046;0.672905;0.351195;,
  0.651046;0.672905;0.351195;,
  0.651046;0.672905;0.351195;,
  0.385123;0.836689;-0.389399;,
  0.385123;0.836689;-0.389399;,
  0.385123;0.836689;-0.389399;,
  0.682229;-0.242351;-0.689804;,
  0.682229;-0.242351;-0.689804;,
  0.682229;-0.242351;-0.689804;,
  0.682229;-0.242351;-0.689804;,
  0.376499;-0.782055;0.496627;,
  0.376499;-0.782055;0.496627;,
  0.376499;-0.782055;0.496627;,
  -0.494135;0.435761;0.752291;,
  -0.494135;0.435761;0.752291;,
  -0.494135;0.435761;0.752291;,
  -0.494135;0.435761;0.752291;,
  -0.510332;0.829995;0.225098;,
  -0.510332;0.829995;0.225098;,
  -0.510332;0.829995;0.225098;,
  -0.510332;0.829995;0.225098;,
  -0.638144;0.419793;-0.645403;,
  -0.638144;0.419793;-0.645403;,
  -0.638144;0.419793;-0.645403;,
  -0.638144;0.419793;-0.645403;,
  -0.241254;-0.939288;-0.243998;,
  -0.241254;-0.939288;-0.243998;,
  -0.241254;-0.939288;-0.243998;,
  -0.241254;-0.939288;-0.243998;,
  -0.241254;-0.939288;-0.243998;,
  -0.302808;-0.629552;0.715522;,
  -0.302808;-0.629552;0.715522;,
  -0.302808;-0.629552;0.715522;,
  -0.302808;-0.629552;0.715522;,
  0.860303;-0.495535;0.119683;,
  0.860303;-0.495535;0.119683;,
  0.860303;-0.495535;0.119683;,
  0.860303;-0.495535;0.119683;,
  -0.985160;-0.136766;0.103703;,
  -0.985160;-0.136766;0.103703;,
  -0.985160;-0.136766;0.103703;,
  -0.985160;-0.136766;0.103703;,
  -0.985160;-0.136766;0.103703;,
  0.860303;-0.495535;0.119683;,
  -0.302808;-0.629552;0.715522;,
  -0.241254;-0.939288;-0.243998;,
  -0.638144;0.419793;-0.645403;,
  -0.510332;0.829995;0.225098;,
  -0.494135;0.435761;0.752291;,
  0.376499;-0.782055;0.496627;,
  0.682229;-0.242351;-0.689804;,
  0.385123;0.836689;-0.389399;,
  0.651046;0.672905;0.351195;,
  0.494148;0.236178;0.836682;;

  20;
  3;3,22,39;,
  3;18,2,38;,
  3;8,26,21;,
  3;1,7,20;,
  3;11,30,25;,
  3;6,10,24;,
  3;0,17,43;,
  3;5,59,42;,
  3;37,47,35;,
  3;16,36,34;,
  3;41,55,33;,
  3;15,40,32;,
  3;14,9,4;,
  3;49,13,58;,
  3;46,50,19;,
  3;29,31,45;,
  3;23,28,44;,
  3;27,57,12;,
  3;51,52,56;,
  3;54,53,48;;
 }
 MeshTextureCoords { 
 60;
 0.980469;0.547412;,
 0.260914;0.477256;,
 0.259902;0.254044;,
 0.259902;0.254044;,
 0.834890;0.406250;,
 0.834890;0.406250;,
 0.305771;0.387395;,
 0.260914;0.248697;,
 0.260914;0.248697;,
 0.297113;0.406250;,
 0.987980;0.387395;,
 0.987980;0.387395;,
 0.875000;1.000000;,
 0.296875;0.687500;,
 0.296875;0.687500;,
 0.988281;0.382812;,
 0.304688;0.363058;,
 0.980469;0.687500;,
 0.259902;0.471605;,
 0.980469;0.547412;,
 0.047085;0.477256;,
 0.047085;0.477256;,
 0.049129;0.254044;,
 0.834889;0.406250;,
 0.305771;0.230119;,
 0.305771;0.230119;,
 0.047085;0.248697;,
 0.663806;0.695313;,
 0.297113;0.406250;,
 0.297113;0.406250;,
 0.987980;0.230119;,
 0.296875;0.687500;,
 0.988281;0.226563;,
 0.988281;0.226563;,
 0.988281;0.226563;,
 0.988281;0.226563;,
 0.304687;0.246558;,
 0.304687;0.246558;,
 0.049129;0.471605;,
 0.049129;0.471605;,
 0.449960;0.382813;,
 0.449960;0.382813;,
 0.835196;0.687500;,
 0.835196;0.687500;,
 0.835196;0.687500;,
 0.835196;0.687500;,
 0.835196;0.687500;,
 0.449960;0.226563;,
 0.835196;0.687500;,
 0.835196;0.687500;,
 0.980469;0.687500;,
 0.632813;1.000000;,
 0.663806;0.695313;,
 0.834889;0.406250;,
 0.980469;0.547412;,
 0.304688;0.363058;,
 0.875000;1.000000;,
 0.844381;0.695313;,
 0.834890;0.406250;,
 0.980469;0.547412;;
 }
}
Frame frm-energy {
  FrameTransformMatrix {
1.000000,0.000000,0.000000,0.000000,
0.000000,1.000000,0.000000,0.000000,
0.000000,0.000000,1.000000,0.000000,
0.000023,0.070711,0.074368,1.000000;;
 }
Mesh energy {
 30;
 -0.055354;-0.037326;0.094924;,
 -0.055354;-0.037326;0.094924;,
 -0.055354;0.011506;0.043162;,
 -0.055354;0.011506;0.043162;,
 -0.037900;-0.010562;0.104040;,
 -0.037900;-0.010562;0.104040;,
 -0.037900;-0.010562;0.104040;,
 -0.037900;-0.010562;0.104040;,
 -0.037900;0.019793;0.071532;,
 -0.037900;0.019793;0.071532;,
 -0.037900;0.019793;0.071532;,
 0.055354;-0.037326;0.094924;,
 0.055354;-0.037326;0.094924;,
 0.055354;0.011506;0.043162;,
 0.055354;0.011506;0.043162;,
 0.037900;-0.010562;0.104040;,
 0.037900;-0.010562;0.104040;,
 0.037900;-0.010562;0.104040;,
 0.037900;0.019793;0.071532;,
 0.037900;0.019793;0.071532;,
 0.037900;0.019793;0.071532;,
 0.037900;0.019793;0.071532;,
 0.037900;0.019793;0.071532;,
 0.037900;-0.010562;0.104040;,
 0.055354;0.011506;0.043162;,
 0.055354;-0.037326;0.094924;,
 -0.037900;0.019793;0.071532;,
 -0.037900;-0.010562;0.104040;,
 -0.055354;0.011506;0.043162;,
 -0.055354;-0.037326;0.094924;;

 10;
 3;10,3,1;,
 3;7,9,0;,
 3;21,8,6;,
 3;17,20,5;,
 3;19,14,2;,
 3;26,18,28;,
 3;4,29,12;,
 3;16,27,11;,
 3;15,25,13;,
 3;22,23,24;;

 MeshMaterialList {
  3;
  10;
  0,
  0,
  1,
  1,
  2,
  2,
  2,
  2,
  0,
  0;
Material {
 1.000000;1.000000;1.000000;1.000000;;
 0.000000;
 1.000000;1.000000;1.000000;;
 0.0; 0.0; 0.0;;
 TextureFilename {
  "acs42.ppm";
 }
 }
Material {
 1.000000;1.000000;1.000000;1.000000;;
 0.000000;
 1.000000;1.000000;1.000000;;
 0.0; 0.0; 0.0;;
 TextureFilename {
  "acs42.ppm";
 }
 }
Material {
 1.000000;1.000000;1.000000;1.000000;;
 0.000000;
 1.000000;1.000000;1.000000;;
 0.0; 0.0; 0.0;;
 TextureFilename {
  "acs42.ppm";
 }
 }
}
 MeshNormals {
  30;
  -0.678965;0.204618;0.705080;,
  -0.678965;0.204618;0.705080;,
  -0.332926;0.940363;-0.069841;,
  -0.332926;0.940363;-0.069841;,
  -0.219507;0.342768;0.913415;,
  -0.219507;0.342768;0.913415;,
  -0.219507;0.342768;0.913415;,
  -0.219507;0.342768;0.913415;,
  -0.512283;0.778203;0.363271;,
  -0.512283;0.778203;0.363271;,
  -0.512283;0.778203;0.363271;,
  0.339746;-0.097059;0.935496;,
  0.339746;-0.097059;0.935496;,
  0.666327;0.718845;0.198165;,
  0.666327;0.718845;0.198165;,
  0.532198;0.407105;0.742314;,
  0.532198;0.407105;0.742314;,
  0.532198;0.407105;0.742314;,
  0.202935;0.934302;0.293081;,
  0.202935;0.934302;0.293081;,
  0.202935;0.934302;0.293081;,
  0.202935;0.934302;0.293081;,
  0.202935;0.934302;0.293081;,
  0.532198;0.407105;0.742314;,
  0.666327;0.718845;0.198165;,
  0.339746;-0.097059;0.935496;,
  -0.512283;0.778203;0.363271;,
  -0.219507;0.342768;0.913415;,
  -0.332926;0.940363;-0.069841;,
  -0.678965;0.204618;0.705080;;

  10;
  3;10,3,1;,
  3;7,9,0;,
  3;21,8,6;,
  3;17,20,5;,
  3;19,14,2;,
  3;26,18,28;,
  3;4,29,12;,
  3;16,27,11;,
  3;15,25,13;,
  3;22,23,24;;
 }
 MeshTextureCoords { 
 30;
 0.226563;0.562500;,
 0.226563;0.562500;,
 0.226563;0.757812;,
 0.227398;0.757813;,
 0.269531;0.728252;,
 0.023311;0.971957;,
 0.023311;0.971957;,
 0.269387;0.594209;,
 0.023311;0.850487;,
 0.269531;0.716286;,
 0.269531;0.716286;,
 0.227187;0.570313;,
 0.227187;0.570313;,
 0.227398;0.757813;,
 0.226563;0.570313;,
 0.269387;0.594209;,
 0.269531;0.599873;,
 0.277470;0.971957;,
 0.268765;0.599873;,
 0.268765;0.599873;,
 0.277470;0.850487;,
 0.277470;0.850487;,
 0.269531;0.716286;,
 0.269387;0.594209;,
 0.227398;0.757813;,
 0.226563;0.562500;,
 0.268765;0.728252;,
 0.269531;0.728252;,
 0.226563;0.757812;,
 0.227187;0.757813;;
 }
}
}
}
}
AnimationSet {
 Animation anim-barrel {
  {frm-barrel}
  AnimationKey {
  2;
  2;
  1; 3; 0.000000, 0.000000, -0.274849;;,
  60; 3; 0.000000, 0.000000, -0.274849;;;
  }
 }
 Animation anim-grav_mod1 {
  {frm-grav_mod1}
  AnimationKey {
  2;
  2;
  1; 3; 0.000000, 0.000000, -0.107244;;,
  60; 3; 0.000000, 0.000000, -0.107244;;;
  }
 }
 Animation anim-grav_mod3 {
  {frm-grav_mod3}
  AnimationKey {
  2;
  2;
  1; 3; 0.000000, 0.000000, 0.006749;;,
  60; 3; 0.000000, 0.000000, 0.006749;;;
  }
 }
 Animation anim-grav_mod2 {
  {frm-grav_mod2}
  AnimationKey {
  2;
  2;
  1; 3; 0.000000, 0.000000, 0.113945;;,
  60; 3; 0.000000, 0.000000, 0.113945;;;
  }
 }
 Animation anim-body {
  {frm-body}
  AnimationKey {
  2;
  2;
  1; 3; 0.000000, -0.018370, 0.061850;;,
  60; 3; 0.000000, -0.018370, 0.061850;;;
  }
 }
 Animation anim-energy {
  {frm-energy}
  AnimationKey {
  2;
  2;
  1; 3; 0.000023, 0.070711, 0.074368;;,
  60; 3; 0.000023, 0.070711, 0.074368;;;
  }
 }
}
