xof 0302txt 0032
template Header {
 <3D82AB43-62DA-11cf-AB39-0020AF71E433>
 WORD major;
 WORD minor;
 DWORD flags;
}

template Vector {
 <3D82AB5E-62DA-11cf-AB39-0020AF71E433>
 FLOAT x;
 FLOAT y;
 FLOAT z;
}

template Coords2d {
 <F6F23F44-7686-11cf-8F52-0040333594A3>
 FLOAT u;
 FLOAT v;
}

template Matrix4x4 {
 <F6F23F45-7686-11cf-8F52-0040333594A3>
 array FLOAT matrix[16];
}

template ColorRGBA {
 <35FF44E0-6C7C-11cf-8F52-0040333594A3>
 FLOAT red;
 FLOAT green;
 FLOAT blue;
 FLOAT alpha;
}

template ColorRGB {
 <D3E16E81-7835-11cf-8F52-0040333594A3>
 FLOAT red;
 FLOAT green;
 FLOAT blue;
}

template TextureFilename {
 <A42790E1-7810-11cf-8F52-0040333594A3>
 STRING filename;
}

template Material {
 <3D82AB4D-62DA-11cf-AB39-0020AF71E433>
 ColorRGBA faceColor;
 FLOAT power;
 ColorRGB specularColor;
 ColorRGB emissiveColor;
 [...]
}

template MeshFace {
 <3D82AB5F-62DA-11cf-AB39-0020AF71E433>
 DWORD nFaceVertexIndices;
 array DWORD faceVertexIndices[nFaceVertexIndices];
}

template MeshTextureCoords {
 <F6F23F40-7686-11cf-8F52-0040333594A3>
 DWORD nTextureCoords;
 array Coords2d textureCoords[nTextureCoords];
}

template MeshMaterialList {
 <F6F23F42-7686-11cf-8F52-0040333594A3>
 DWORD nMaterials;
 DWORD nFaceIndexes;
 array DWORD faceIndexes[nFaceIndexes];
 [Material]
}

template MeshNormals {
 <F6F23F43-7686-11cf-8F52-0040333594A3>
 DWORD nNormals;
 array Vector normals[nNormals];
 DWORD nFaceNormals;
 array MeshFace faceNormals[nFaceNormals];
}

template Mesh {
 <3D82AB44-62DA-11cf-AB39-0020AF71E433>
 DWORD nVertices;
 array Vector vertices[nVertices];
 DWORD nFaces;
 array MeshFace faces[nFaces];
 [...]
}

template FrameTransformMatrix {
 <F6F23F41-7686-11cf-8F52-0040333594A3>
 Matrix4x4 frameMatrix;
}

template Frame {
 <3D82AB46-62DA-11cf-AB39-0020AF71E433>
 [...]
}
template FloatKeys {
 <10DD46A9-775B-11cf-8F52-0040333594A3>
 DWORD nValues;
 array FLOAT values[nValues];
}

template TimedFloatKeys {
 <F406B180-7B3B-11cf-8F52-0040333594A3>
 DWORD time;
 FloatKeys tfkeys;
}

template AnimationKey {
 <10DD46A8-775B-11cf-8F52-0040333594A3>
 DWORD keyType;
 DWORD nKeys;
 array TimedFloatKeys keys[nKeys];
}

template AnimationOptions {
 <E2BF56C0-840F-11cf-8F52-0040333594A3>
 DWORD openclosed;
 DWORD positionquality;
}

template Animation {
 <3D82AB4F-62DA-11cf-AB39-0020AF71E433>
 [...]
}

template AnimationSet {
 <3D82AB50-62DA-11cf-AB39-0020AF71E433>
 [Animation]
}

Header {
 1;
 0;
 1;
}

Frame frm-acs56 {
  FrameTransformMatrix {
1.000000,0.000000,0.000000,0.000000,
0.000000,1.000000,0.000000,0.000000,
0.000000,0.000000,1.000000,0.000000,
0.000000,0.000000,0.000000,1.000000;;
 }
Frame frm-wepbas {
  FrameTransformMatrix {
1.000000,0.000000,0.000000,0.000000,
0.000000,1.000000,0.000000,0.000000,
0.000000,0.000000,1.000000,0.000000,
0.000000,0.051194,-0.018205,1.000000;;
 }
Mesh wepbas {
 62;
 0.057776;0.019308;0.167315;,
 0.057776;0.019308;0.167315;,
 0.057776;0.019308;0.167315;,
 0.057999;0.070114;0.120029;,
 0.057999;0.070114;0.120029;,
 0.057999;0.070114;0.120029;,
 0.057999;0.070114;-0.051674;,
 0.057999;0.070114;-0.051674;,
 0.057999;0.070114;-0.051674;,
 0.099000;-0.050806;-0.128325;,
 0.099000;-0.050806;-0.128325;,
 0.099000;-0.050806;-0.128325;,
 0.057776;-0.050806;0.167315;,
 0.057776;-0.050806;0.167315;,
 0.057776;-0.050806;0.167315;,
 -0.058483;0.019308;0.167315;,
 -0.058483;0.019308;0.167315;,
 -0.058483;0.019308;0.167315;,
 -0.058708;0.070114;0.120029;,
 -0.058708;0.070114;0.120029;,
 -0.058708;0.070114;0.120029;,
 -0.058708;0.070114;-0.051674;,
 -0.058708;0.070114;-0.051674;,
 -0.058708;0.070114;-0.051674;,
 -0.100211;-0.050806;-0.128325;,
 -0.100211;-0.050806;-0.128325;,
 -0.100211;-0.050806;-0.128325;,
 -0.100211;-0.050806;-0.128325;,
 -0.100211;-0.050806;-0.128325;,
 -0.058483;-0.050806;0.167315;,
 -0.058483;-0.050806;0.167315;,
 -0.058483;-0.050806;0.167315;,
 -0.058483;-0.050806;0.167315;,
 0.099000;0.019318;-0.128325;,
 0.099000;0.019318;-0.128325;,
 0.099000;0.019318;-0.128325;,
 0.099000;0.019318;-0.128325;,
 0.099000;0.019318;-0.128325;,
 -0.100211;0.019318;-0.128325;,
 -0.100211;0.019318;-0.128325;,
 -0.100211;0.019318;-0.128325;,
 -0.100211;0.019318;-0.128325;,
 -0.100211;0.019318;-0.128325;,
 0.099000;-0.050806;0.120189;,
 0.099000;-0.050806;0.120189;,
 -0.100211;-0.050806;0.120189;,
 -0.100211;-0.050806;0.120189;,
 0.099000;-0.050806;0.120189;,
 -0.100211;0.019313;0.120189;,
 0.099000;0.019313;0.120189;,
 -0.100211;0.019318;-0.128325;,
 0.099000;0.019318;-0.128325;,
 -0.058483;-0.050806;0.167315;,
 -0.100211;-0.050806;-0.128325;,
 -0.058708;0.070114;-0.051674;,
 -0.058708;0.070114;0.120029;,
 -0.058483;0.019308;0.167315;,
 0.057776;-0.050806;0.167315;,
 0.099000;-0.050806;-0.128325;,
 0.057999;0.070114;-0.051674;,
 0.057999;0.070114;0.120029;,
 0.057776;0.019308;0.167315;;

 28;
 3;2,17,32;,
 3;14,1,31;,
 3;5,20,16;,
 3;0,4,15;,
 3;8,23,19;,
 3;3,7,18;,
 3;11,28,42;,
 3;37,10,41;,
 3;30,45,27;,
 3;13,29,26;,
 3;44,12,25;,
 3;9,43,24;,
 3;36,6,60;,
 3;49,35,60;,
 3;48,56,55;,
 3;61,57,47;,
 3;49,61,47;,
 3;40,53,46;,
 3;48,39,46;,
 3;22,59,34;,
 3;38,21,33;,
 3;58,51,49;,
 3;47,58,49;,
 3;52,56,48;,
 3;46,52,48;,
 3;54,50,48;,
 3;55,54,48;,
 3;60,61,49;;

 MeshMaterialList {
  6;
  28;
  0,
  0,
  1,
  1,
  1,
  1,
  2,
  2,
  3,
  3,
  3,
  3,
  4,
  4,
  5,
  4,
  4,
  5,
  5,
  1,
  1,
  4,
  4,
  5,
  5,
  5,
  5,
  4;
Material {
 1.000000;1.000000;1.000000;1.000000;;
 0.000000;
 1.000000;1.000000;1.000000;;
 0.0; 0.0; 0.0;;
 TextureFilename {
  "acs57.ppm";
 }
 }
Material {
 1.000000;1.000000;1.000000;1.000000;;
 0.000000;
 1.000000;1.000000;1.000000;;
 0.0; 0.0; 0.0;;
 TextureFilename {
  "acs57.ppm";
 }
 }
Material {
 1.000000;1.000000;1.000000;1.000000;;
 0.000000;
 1.000000;1.000000;1.000000;;
 0.0; 0.0; 0.0;;
 TextureFilename {
  "acs57.ppm";
 }
 }
Material {
 1.000000;1.000000;1.000000;1.000000;;
 0.000000;
 1.000000;1.000000;1.000000;;
 0.0; 0.0; 0.0;;
 TextureFilename {
  "acs57.ppm";
 }
 }
Material {
 1.000000;1.000000;1.000000;1.000000;;
 0.000000;
 1.000000;1.000000;1.000000;;
 0.0; 0.0; 0.0;;
 TextureFilename {
  "acs57.ppm";
 }
 }
Material {
 1.000000;1.000000;1.000000;1.000000;;
 0.000000;
 1.000000;1.000000;1.000000;;
 0.0; 0.0; 0.0;;
 TextureFilename {
  "acs57.ppm";
 }
 }
}
 MeshNormals {
  62;
  0.408289;0.240152;0.880697;,
  0.408289;0.240152;0.880697;,
  0.408289;0.240152;0.880697;,
  0.419225;0.819869;0.389955;,
  0.419225;0.819869;0.389955;,
  0.419225;0.819869;0.389955;,
  0.200007;0.968212;-0.150211;,
  0.200007;0.968212;-0.150211;,
  0.200007;0.968212;-0.150211;,
  0.666667;-0.333333;-0.666667;,
  0.666667;-0.333333;-0.666667;,
  0.666667;-0.333333;-0.666667;,
  0.292232;-0.707107;0.643895;,
  0.292232;-0.707107;0.643895;,
  0.292232;-0.707107;0.643895;,
  -0.310409;0.442878;0.841134;,
  -0.310409;0.442878;0.841134;,
  -0.310409;0.442878;0.841134;,
  -0.310099;0.906435;0.286730;,
  -0.310099;0.906435;0.286730;,
  -0.310099;0.906435;0.286730;,
  -0.337795;0.906116;-0.254653;,
  -0.337795;0.906116;-0.254653;,
  -0.337795;0.906116;-0.254653;,
  -0.235702;-0.942809;-0.235702;,
  -0.235702;-0.942809;-0.235702;,
  -0.235702;-0.942809;-0.235702;,
  -0.235702;-0.942809;-0.235702;,
  -0.235702;-0.942809;-0.235702;,
  -0.367190;-0.447214;0.815581;,
  -0.367190;-0.447214;0.815581;,
  -0.367190;-0.447214;0.815581;,
  -0.367190;-0.447214;0.815581;,
  0.556204;0.680213;-0.477439;,
  0.556204;0.680213;-0.477439;,
  0.556204;0.680213;-0.477439;,
  0.556204;0.680213;-0.477439;,
  0.556204;0.680213;-0.477439;,
  -0.662200;0.388315;-0.640861;,
  -0.662200;0.388315;-0.640861;,
  -0.662200;0.388315;-0.640861;,
  -0.662200;0.388315;-0.640861;,
  -0.662200;0.388315;-0.640861;,
  0.736514;-0.554700;0.387112;,
  0.736514;-0.554700;0.387112;,
  -0.922240;-0.316228;0.222427;,
  -0.922240;-0.316228;0.222427;,
  0.736514;-0.554700;0.387112;,
  -0.872569;0.343840;0.346983;,
  0.925609;0.264178;0.271031;,
  -0.662200;0.388315;-0.640861;,
  0.556204;0.680213;-0.477439;,
  -0.367190;-0.447214;0.815581;,
  -0.235702;-0.942809;-0.235702;,
  -0.337795;0.906116;-0.254653;,
  -0.310099;0.906435;0.286730;,
  -0.310409;0.442878;0.841134;,
  0.292232;-0.707107;0.643895;,
  0.666667;-0.333333;-0.666667;,
  0.200007;0.968212;-0.150211;,
  0.419225;0.819869;0.389955;,
  0.408289;0.240152;0.880697;;

  28;
  3;2,17,32;,
  3;14,1,31;,
  3;5,20,16;,
  3;0,4,15;,
  3;8,23,19;,
  3;3,7,18;,
  3;11,28,42;,
  3;37,10,41;,
  3;30,45,27;,
  3;13,29,26;,
  3;44,12,25;,
  3;9,43,24;,
  3;36,6,60;,
  3;49,35,60;,
  3;48,56,55;,
  3;61,57,47;,
  3;49,61,47;,
  3;40,53,46;,
  3;48,39,46;,
  3;22,59,34;,
  3;38,21,33;,
  3;58,51,49;,
  3;47,58,49;,
  3;52,56,48;,
  3;46,52,48;,
  3;54,50,48;,
  3;55,54,48;,
  3;60,61,49;;
 }
 MeshTextureCoords { 
 62;
 0.695313;0.406250;,
 0.695313;0.664063;,
 0.695313;0.664063;,
 0.562500;0.406250;,
 0.562500;0.406250;,
 0.562500;0.406250;,
 0.195313;0.687500;,
 0.195313;0.406250;,
 0.195313;0.406250;,
 0.976563;0.539063;,
 0.703125;0.976563;,
 0.703125;0.976563;,
 0.945313;0.968750;,
 0.945313;0.968750;,
 0.789063;0.664063;,
 0.695313;0.664063;,
 0.695313;0.664063;,
 0.695313;0.406250;,
 0.562500;0.664063;,
 0.562500;0.664063;,
 0.562500;0.664063;,
 0.195313;0.664063;,
 0.195313;0.664063;,
 0.195313;0.664063;,
 0.812500;0.539063;,
 0.812500;0.539063;,
 0.812500;0.539063;,
 0.812500;0.539063;,
 0.703125;0.695313;,
 0.851563;0.968750;,
 0.851563;0.968750;,
 0.789063;0.406250;,
 0.789063;0.406250;,
 0.031250;0.320313;,
 0.031250;0.320313;,
 0.023438;0.828125;,
 0.023438;0.828125;,
 0.796875;0.976563;,
 0.031250;0.757813;,
 0.023438;0.828125;,
 0.023438;0.828125;,
 0.796875;0.695313;,
 0.796875;0.695313;,
 0.976563;0.898438;,
 0.976563;0.898438;,
 0.812500;0.898438;,
 0.562500;0.976563;,
 0.562500;0.976563;,
 0.562500;0.828125;,
 0.562500;0.828125;,
 0.023438;0.828125;,
 0.023438;0.828125;,
 0.687500;0.976563;,
 0.031250;0.976563;,
 0.195313;0.687500;,
 0.562500;0.687500;,
 0.687500;0.828125;,
 0.687500;0.976563;,
 0.031250;0.976563;,
 0.195313;0.406250;,
 0.562500;0.687500;,
 0.687500;0.828125;;
 }
}
Frame frm-wepbar1 {
  FrameTransformMatrix {
1.000000,0.000000,0.000000,0.000000,
0.000000,1.000000,0.000000,0.000000,
0.000000,0.000000,1.000000,0.000000,
-0.000000,-0.012669,-0.071473,1.000000;;
 }
Mesh wepbar1 {
 32;
 -0.020395;-0.020395;-0.353210;,
 -0.020395;-0.020395;-0.353210;,
 -0.020395;-0.020395;-0.353210;,
 -0.020395;0.020395;-0.353210;,
 -0.020395;0.020395;-0.353210;,
 -0.020395;0.020395;-0.353210;,
 0.020395;-0.020395;-0.353210;,
 0.020395;-0.020395;-0.353210;,
 0.020395;-0.020395;-0.353210;,
 0.020395;0.020395;-0.353210;,
 0.020395;0.020395;-0.353210;,
 0.020395;0.020395;-0.353210;,
 -0.036499;-0.036499;-0.022084;,
 -0.036499;-0.036499;-0.022084;,
 -0.036499;-0.036499;-0.022084;,
 -0.036499;0.036499;-0.022084;,
 -0.036499;0.036499;-0.022084;,
 -0.036499;0.036499;-0.022084;,
 0.036499;-0.036499;-0.022084;,
 0.036499;-0.036499;-0.022084;,
 0.036499;-0.036499;-0.022084;,
 0.036499;0.036499;-0.022084;,
 0.036499;0.036499;-0.022084;,
 0.036499;0.036499;-0.022084;,
 0.036499;0.036499;-0.022084;,
 0.036499;-0.036499;-0.022084;,
 -0.036499;0.036499;-0.022084;,
 -0.036499;-0.036499;-0.022084;,
 0.020395;0.020395;-0.353210;,
 0.020395;-0.020395;-0.353210;,
 -0.020395;0.020395;-0.353210;,
 -0.020395;-0.020395;-0.353210;;

 12;
 3;20,8,11;,
 3;23,19,10;,
 3;22,9,5;,
 3;17,21,4;,
 3;16,3,2;,
 3;14,15,1;,
 3;13,0,7;,
 3;18,12,6;,
 3;27,25,24;,
 3;26,27,24;,
 3;30,28,29;,
 3;31,30,29;;

 MeshMaterialList {
  4;
  12;
  0,
  0,
  0,
  0,
  1,
  1,
  1,
  1,
  2,
  2,
  3,
  3;
Material {
 1.000000;1.000000;1.000000;1.000000;;
 0.000000;
 1.000000;1.000000;1.000000;;
 0.0; 0.0; 0.0;;
 TextureFilename {
  "acs57.ppm";
 }
 }
Material {
 1.000000;1.000000;1.000000;1.000000;;
 0.000000;
 1.000000;1.000000;1.000000;;
 0.0; 0.0; 0.0;;
 TextureFilename {
  "acs57.ppm";
 }
 }
Material {
 1.000000;1.000000;1.000000;1.000000;;
 0.000000;
 1.000000;1.000000;1.000000;;
 0.0; 0.0; 0.0;;
 }
Material {
 1.000000;1.000000;1.000000;1.000000;;
 0.000000;
 1.000000;1.000000;1.000000;;
 0.0; 0.0; 0.0;;
 TextureFilename {
  "acs56.ppm";
 }
 }
}
 MeshNormals {
  32;
  -0.795822;-0.397911;-0.456436;,
  -0.795822;-0.397911;-0.456436;,
  -0.795822;-0.397911;-0.456436;,
  -0.322496;0.644993;-0.692806;,
  -0.322496;0.644993;-0.692806;,
  -0.322496;0.644993;-0.692806;,
  0.322496;-0.644993;-0.692806;,
  0.322496;-0.644993;-0.692806;,
  0.322496;-0.644993;-0.692806;,
  0.795822;0.397911;-0.456436;,
  0.795822;0.397911;-0.456436;,
  0.795822;0.397911;-0.456436;,
  -0.344082;-0.688165;0.638777;,
  -0.344082;-0.688165;0.638777;,
  -0.344082;-0.688165;0.638777;,
  -0.835402;0.417701;0.357253;,
  -0.835402;0.417701;0.357253;,
  -0.835402;0.417701;0.357253;,
  0.835402;-0.417701;0.357253;,
  0.835402;-0.417701;0.357253;,
  0.835402;-0.417701;0.357253;,
  0.344082;0.688165;0.638777;,
  0.344082;0.688165;0.638777;,
  0.344082;0.688165;0.638777;,
  0.344082;0.688165;0.638777;,
  0.835402;-0.417701;0.357253;,
  -0.835402;0.417701;0.357253;,
  -0.344082;-0.688165;0.638777;,
  0.795822;0.397911;-0.456436;,
  0.322496;-0.644993;-0.692806;,
  -0.322496;0.644993;-0.692806;,
  -0.795822;-0.397911;-0.456436;;

  12;
  3;20,8,11;,
  3;23,19,10;,
  3;22,9,5;,
  3;17,21,4;,
  3;16,3,2;,
  3;14,15,1;,
  3;13,0,7;,
  3;18,12,6;,
  3;27,25,24;,
  3;26,27,24;,
  3;30,28,29;,
  3;31,30,29;;
 }
 MeshTextureCoords { 
 32;
 0.968750;0.144531;,
 0.968750;0.144531;,
 0.968750;0.144531;,
 0.968750;0.083333;,
 0.968750;0.020833;,
 0.968750;0.020833;,
 0.968750;0.218750;,
 0.968750;0.218750;,
 0.971354;0.145833;,
 0.968750;0.082031;,
 0.968750;0.082031;,
 0.968750;0.082031;,
 0.022135;0.162760;,
 0.022135;0.162760;,
 0.022135;0.162760;,
 0.023438;0.059896;,
 0.023438;0.059896;,
 0.023438;0.023438;,
 0.023438;0.218750;,
 0.020833;0.169271;,
 0.020833;0.169271;,
 0.023438;0.055990;,
 0.023438;0.055990;,
 0.023438;0.055990;,
 0.000000;0.000000;,
 0.000000;0.000000;,
 0.000000;0.000000;,
 0.000000;0.000000;,
 0.562500;0.250000;,
 0.562500;0.367188;,
 0.453125;0.250000;,
 0.453125;0.367188;;
 }
}
Frame frm-wepbar3 {
  FrameTransformMatrix {
1.000000,0.000000,0.000000,0.000000,
0.000000,1.000000,0.000000,0.000000,
0.000000,0.000000,1.000000,0.000000,
0.000000,0.000231,-0.130884,1.000000;;
 }
Mesh wepbar3 {
 31;
 -0.048939;-0.049133;0.020117;,
 -0.048939;-0.049133;0.020117;,
 -0.048939;-0.049133;0.020117;,
 -0.048939;-0.049519;-0.020233;,
 -0.048939;-0.049519;-0.020233;,
 -0.048939;-0.049519;-0.020233;,
 -0.048939;0.047767;0.020117;,
 -0.048939;0.047767;0.020117;,
 -0.048939;0.047767;0.020117;,
 -0.048939;0.048359;-0.020233;,
 -0.048939;0.048359;-0.020233;,
 -0.048939;0.048359;-0.020233;,
 0.048939;-0.049133;0.020117;,
 0.048939;-0.049133;0.020117;,
 0.048939;-0.049133;0.020117;,
 0.048939;-0.049519;-0.020233;,
 0.048939;-0.049519;-0.020233;,
 0.048939;-0.049519;-0.020233;,
 0.048939;0.047767;0.020117;,
 0.048939;0.047767;0.020117;,
 0.048939;0.047767;0.020117;,
 0.048939;0.048359;-0.020233;,
 0.048939;0.048359;-0.020233;,
 0.048939;0.048359;-0.020233;,
 0.048939;0.047767;0.020117;,
 0.048939;-0.049519;-0.020233;,
 0.048939;-0.049133;0.020117;,
 -0.048939;0.048359;-0.020233;,
 -0.048939;0.047767;0.020117;,
 -0.048939;-0.049519;-0.020233;,
 -0.048939;-0.049133;0.020117;;

 12;
 3;11,5,2;,
 3;8,10,1;,
 3;22,17,4;,
 3;9,21,3;,
 3;20,14,16;,
 3;23,19,15;,
 3;7,0,13;,
 3;18,6,12;,
 3;29,25,26;,
 3;30,29,26;,
 3;23,27,28;,
 3;24,23,28;;

 MeshMaterialList {
  4;
  12;
  0,
  0,
  1,
  1,
  2,
  2,
  3,
  3,
  0,
  0,
  2,
  2;
Material {
 1.000000;1.000000;1.000000;1.000000;;
 0.000000;
 1.000000;1.000000;1.000000;;
 0.0; 0.0; 0.0;;
 TextureFilename {
  "acs57.ppm";
 }
 }
Material {
 1.000000;1.000000;1.000000;1.000000;;
 0.000000;
 1.000000;1.000000;1.000000;;
 0.0; 0.0; 0.0;;
 TextureFilename {
  "acs57.ppm";
 }
 }
Material {
 1.000000;1.000000;1.000000;1.000000;;
 0.000000;
 1.000000;1.000000;1.000000;;
 0.0; 0.0; 0.0;;
 TextureFilename {
  "acs57.ppm";
 }
 }
Material {
 1.000000;1.000000;1.000000;1.000000;;
 0.000000;
 1.000000;1.000000;1.000000;;
 0.0; 0.0; 0.0;;
 TextureFilename {
  "acs57.ppm";
 }
 }
}
 MeshNormals {
  31;
  -0.815197;-0.407580;0.411499;,
  -0.815197;-0.407580;0.411499;,
  -0.815197;-0.407580;0.411499;,
  -0.334760;-0.669490;-0.663113;,
  -0.334760;-0.669490;-0.663113;,
  -0.334760;-0.669490;-0.663113;,
  -0.331179;0.662286;0.672085;,
  -0.331179;0.662286;0.672085;,
  -0.331179;0.662286;0.672085;,
  -0.818502;0.409207;-0.403241;,
  -0.818502;0.409207;-0.403241;,
  -0.818502;0.409207;-0.403241;,
  0.331925;-0.663819;0.670202;,
  0.331925;-0.663819;0.670202;,
  0.331925;-0.663819;0.670202;,
  0.817802;-0.408882;-0.404988;,
  0.817802;-0.408882;-0.404988;,
  0.817802;-0.408882;-0.404988;,
  0.814505;0.407209;0.413233;,
  0.814505;0.407209;0.413233;,
  0.814505;0.407209;0.413233;,
  0.335530;0.670989;-0.661206;,
  0.335530;0.670989;-0.661206;,
  0.335530;0.670989;-0.661206;,
  0.814505;0.407209;0.413233;,
  0.817802;-0.408882;-0.404988;,
  0.331925;-0.663819;0.670202;,
  -0.818502;0.409207;-0.403241;,
  -0.331179;0.662286;0.672085;,
  -0.334760;-0.669490;-0.663113;,
  -0.815197;-0.407580;0.411499;;

  12;
  3;11,5,2;,
  3;8,10,1;,
  3;22,17,4;,
  3;9,21,3;,
  3;20,14,16;,
  3;23,19,15;,
  3;7,0,13;,
  3;18,6,12;,
  3;29,25,26;,
  3;30,29,26;,
  3;23,27,28;,
  3;24,23,28;;
 }
 MeshTextureCoords { 
 31;
 0.617188;0.226563;,
 0.804688;0.382813;,
 0.804688;0.382813;,
 0.617188;0.398438;,
 0.617188;0.398438;,
 0.968750;0.382813;,
 0.617188;0.398438;,
 0.617188;0.398438;,
 0.804688;0.234375;,
 0.617188;0.226563;,
 0.968750;0.234375;,
 0.968750;0.234375;,
 0.789063;0.226563;,
 0.789063;0.226563;,
 0.968750;0.523438;,
 0.804688;0.523438;,
 0.804688;0.523438;,
 0.789063;0.398438;,
 0.789063;0.398438;,
 0.968750;0.382813;,
 0.968750;0.382813;,
 0.789063;0.226563;,
 0.789063;0.226563;,
 0.804688;0.382813;,
 0.968750;0.382813;,
 0.968750;0.523438;,
 0.804688;0.523438;,
 0.804688;0.234375;,
 0.968750;0.234375;,
 0.968750;0.382813;,
 0.804688;0.382813;;
 }
}
}
Frame frm-wepbar2 {
  FrameTransformMatrix {
1.000000,0.000000,0.000000,0.000000,
0.000000,1.000000,0.000000,0.000000,
0.000000,0.000000,1.000000,0.000000,
0.000000,0.000231,-0.221524,1.000000;;
 }
Mesh wepbar2 {
 30;
 -0.044045;-0.041763;0.020117;,
 -0.044045;-0.041763;0.020117;,
 -0.044045;-0.041763;0.020117;,
 -0.044045;-0.042091;-0.020233;,
 -0.044045;-0.042091;-0.020233;,
 -0.044045;-0.042091;-0.020233;,
 -0.044045;0.040602;0.020117;,
 -0.044045;0.040602;0.020117;,
 -0.044045;0.040602;0.020117;,
 -0.044045;0.041105;-0.020233;,
 -0.044045;0.041105;-0.020233;,
 -0.044045;0.041105;-0.020233;,
 0.044045;-0.041763;0.020117;,
 0.044045;-0.041763;0.020117;,
 0.044045;-0.041763;0.020117;,
 0.044045;-0.042091;-0.020233;,
 0.044045;0.040602;0.020117;,
 0.044045;0.040602;0.020117;,
 0.044045;0.040602;0.020117;,
 0.044045;0.041105;-0.020233;,
 0.044045;0.041105;-0.020233;,
 0.044045;0.041105;-0.020233;,
 0.044045;0.041105;-0.020233;,
 0.044045;0.040602;0.020117;,
 0.044045;-0.042091;-0.020233;,
 0.044045;-0.041763;0.020117;,
 -0.044045;0.041105;-0.020233;,
 -0.044045;0.040602;0.020117;,
 -0.044045;-0.042091;-0.020233;,
 -0.044045;-0.041763;0.020117;;

 12;
 3;11,5,2;,
 3;8,10,1;,
 3;21,15,4;,
 3;9,20,3;,
 3;18,14,24;,
 3;19,17,24;,
 3;7,0,13;,
 3;16,6,12;,
 3;28,24,25;,
 3;29,28,25;,
 3;22,26,27;,
 3;23,22,27;;

 MeshMaterialList {
  4;
  12;
  0,
  0,
  1,
  1,
  2,
  2,
  3,
  3,
  2,
  2,
  0,
  0;
Material {
 1.000000;1.000000;1.000000;1.000000;;
 0.000000;
 1.000000;1.000000;1.000000;;
 0.0; 0.0; 0.0;;
 TextureFilename {
  "acs57.ppm";
 }
 }
Material {
 1.000000;1.000000;1.000000;1.000000;;
 0.000000;
 1.000000;1.000000;1.000000;;
 0.0; 0.0; 0.0;;
 TextureFilename {
  "acs57.ppm";
 }
 }
Material {
 1.000000;1.000000;1.000000;1.000000;;
 0.000000;
 1.000000;1.000000;1.000000;;
 0.0; 0.0; 0.0;;
 TextureFilename {
  "acs57.ppm";
 }
 }
Material {
 1.000000;1.000000;1.000000;1.000000;;
 0.000000;
 1.000000;1.000000;1.000000;;
 0.0; 0.0; 0.0;;
 TextureFilename {
  "acs57.ppm";
 }
 }
}
 MeshNormals {
  30;
  -0.815392;-0.407682;0.411012;,
  -0.815392;-0.407682;0.411012;,
  -0.815392;-0.407682;0.411012;,
  -0.334545;-0.669068;-0.663648;,
  -0.334545;-0.669068;-0.663648;,
  -0.334545;-0.669068;-0.663648;,
  -0.331499;0.662947;0.671275;,
  -0.331499;0.662947;0.671275;,
  -0.331499;0.662947;0.671275;,
  -0.818201;0.409068;-0.403994;,
  -0.818201;0.409068;-0.403994;,
  -0.818201;0.409068;-0.403994;,
  0.332135;-0.664248;0.669673;,
  0.332135;-0.664248;0.669673;,
  0.332135;-0.664248;0.669673;,
  0.817606;-0.408789;-0.405478;,
  0.814803;0.407370;0.412487;,
  0.814803;0.407370;0.412487;,
  0.814803;0.407370;0.412487;,
  0.335198;0.670344;-0.662028;,
  0.335198;0.670344;-0.662028;,
  0.335198;0.670344;-0.662028;,
  0.335198;0.670344;-0.662028;,
  0.814803;0.407370;0.412487;,
  0.817606;-0.408789;-0.405478;,
  0.332135;-0.664248;0.669673;,
  -0.818201;0.409068;-0.403994;,
  -0.331499;0.662947;0.671275;,
  -0.334545;-0.669068;-0.663648;,
  -0.815392;-0.407682;0.411012;;

  12;
  3;11,5,2;,
  3;8,10,1;,
  3;21,15,4;,
  3;9,20,3;,
  3;18,14,24;,
  3;19,17,24;,
  3;7,0,13;,
  3;16,6,12;,
  3;28,24,25;,
  3;29,28,25;,
  3;22,26,27;,
  3;23,22,27;;
 }
 MeshTextureCoords { 
 30;
 0.617188;0.226563;,
 0.804688;0.523438;,
 0.804688;0.523438;,
 0.617188;0.398438;,
 0.617188;0.398438;,
 0.968750;0.523438;,
 0.617188;0.398438;,
 0.617188;0.398438;,
 0.804688;0.382813;,
 0.617188;0.226563;,
 0.968750;0.382813;,
 0.968750;0.382813;,
 0.789063;0.226563;,
 0.789063;0.226563;,
 0.804688;0.382813;,
 0.789063;0.398438;,
 0.789063;0.398438;,
 0.804688;0.523438;,
 0.804688;0.523438;,
 0.968750;0.523438;,
 0.789063;0.226563;,
 0.789063;0.226563;,
 0.968750;0.234375;,
 0.804688;0.234375;,
 0.968750;0.382813;,
 0.804688;0.382813;,
 0.968750;0.382813;,
 0.804688;0.382813;,
 0.968750;0.234375;,
 0.804688;0.234375;;
 }
}
}
Frame frm-wepemt {
  FrameTransformMatrix {
1.000000,0.000000,0.000000,0.000000,
0.000000,1.000000,0.000000,0.000000,
0.000000,0.000000,1.000000,0.000000,
0.000000,-0.000783,-0.353075,1.000000;;
 }
}
}
}
}
AnimationSet {
 Animation anim-wepbas {
  {frm-wepbas}
  AnimationKey {
  2;
  2;
  1; 3; 0.000000, 0.051194, -0.018205;;,
  2; 3; 0.000000, 0.051194, -0.018205;;;
  }
 }
 Animation anim-wepbar1 {
  {frm-wepbar1}
  AnimationKey {
  2;
  2;
  1; 3; -0.000000, -0.012669, -0.071473;;,
  2; 3; -0.000000, -0.012669, -0.071473;;;
  }
 }
 Animation anim-wepbar3 {
  {frm-wepbar3}
  AnimationKey {
  2;
  2;
  1; 3; 0.000000, 0.000231, -0.130884;;,
  2; 3; 0.000000, 0.000231, -0.130884;;;
  }
 }
 Animation anim-wepbar2 {
  {frm-wepbar2}
  AnimationKey {
  2;
  2;
  1; 3; 0.000000, 0.000231, -0.221524;;,
  2; 3; 0.000000, 0.000231, -0.221524;;;
  }
 }
 Animation anim-wepemt {
  {frm-wepemt}
  AnimationKey {
  2;
  2;
  1; 3; 0.000000, -0.000783, -0.353075;;,
  2; 3; 0.000000, -0.000783, -0.353075;;;
  }
 }
}
