xof 0302txt 0032
template Header {
 <3D82AB43-62DA-11cf-AB39-0020AF71E433>
 WORD major;
 WORD minor;
 DWORD flags;
}

template Vector {
 <3D82AB5E-62DA-11cf-AB39-0020AF71E433>
 FLOAT x;
 FLOAT y;
 FLOAT z;
}

template Coords2d {
 <F6F23F44-7686-11cf-8F52-0040333594A3>
 FLOAT u;
 FLOAT v;
}

template Matrix4x4 {
 <F6F23F45-7686-11cf-8F52-0040333594A3>
 array FLOAT matrix[16];
}

template ColorRGBA {
 <35FF44E0-6C7C-11cf-8F52-0040333594A3>
 FLOAT red;
 FLOAT green;
 FLOAT blue;
 FLOAT alpha;
}

template ColorRGB {
 <D3E16E81-7835-11cf-8F52-0040333594A3>
 FLOAT red;
 FLOAT green;
 FLOAT blue;
}

template TextureFilename {
 <A42790E1-7810-11cf-8F52-0040333594A3>
 STRING filename;
}

template Material {
 <3D82AB4D-62DA-11cf-AB39-0020AF71E433>
 ColorRGBA faceColor;
 FLOAT power;
 ColorRGB specularColor;
 ColorRGB emissiveColor;
 [...]
}

template MeshFace {
 <3D82AB5F-62DA-11cf-AB39-0020AF71E433>
 DWORD nFaceVertexIndices;
 array DWORD faceVertexIndices[nFaceVertexIndices];
}

template MeshTextureCoords {
 <F6F23F40-7686-11cf-8F52-0040333594A3>
 DWORD nTextureCoords;
 array Coords2d textureCoords[nTextureCoords];
}

template MeshMaterialList {
 <F6F23F42-7686-11cf-8F52-0040333594A3>
 DWORD nMaterials;
 DWORD nFaceIndexes;
 array DWORD faceIndexes[nFaceIndexes];
 [Material]
}

template MeshNormals {
 <F6F23F43-7686-11cf-8F52-0040333594A3>
 DWORD nNormals;
 array Vector normals[nNormals];
 DWORD nFaceNormals;
 array MeshFace faceNormals[nFaceNormals];
}

template Mesh {
 <3D82AB44-62DA-11cf-AB39-0020AF71E433>
 DWORD nVertices;
 array Vector vertices[nVertices];
 DWORD nFaces;
 array MeshFace faces[nFaces];
 [...]
}

template FrameTransformMatrix {
 <F6F23F41-7686-11cf-8F52-0040333594A3>
 Matrix4x4 frameMatrix;
}

template Frame {
 <3D82AB46-62DA-11cf-AB39-0020AF71E433>
 [...]
}
template FloatKeys {
 <10DD46A9-775B-11cf-8F52-0040333594A3>
 DWORD nValues;
 array FLOAT values[nValues];
}

template TimedFloatKeys {
 <F406B180-7B3B-11cf-8F52-0040333594A3>
 DWORD time;
 FloatKeys tfkeys;
}

template AnimationKey {
 <10DD46A8-775B-11cf-8F52-0040333594A3>
 DWORD keyType;
 DWORD nKeys;
 array TimedFloatKeys keys[nKeys];
}

template AnimationOptions {
 <E2BF56C0-840F-11cf-8F52-0040333594A3>
 DWORD openclosed;
 DWORD positionquality;
}

template Animation {
 <3D82AB4F-62DA-11cf-AB39-0020AF71E433>
 [...]
}

template AnimationSet {
 <3D82AB50-62DA-11cf-AB39-0020AF71E433>
 [Animation]
}

Header {
 1;
 0;
 1;
}

Frame frm-wep07 {
  FrameTransformMatrix {
1.000000,0.000000,0.000000,0.000000,
0.000000,1.000000,0.000000,0.000000,
0.000000,0.000000,1.000000,0.000000,
0.000000,0.000000,0.000000,1.000000;;
 }
Frame frm-wepbas {
  FrameTransformMatrix {
1.000000,0.000000,0.000000,0.000000,
0.000000,1.000000,0.000000,0.000000,
0.000000,0.000000,1.000000,0.000000,
0.000000,0.085716,-0.034059,1.000000;;
 }
Mesh wepbas {
 96;
 0.049300;-0.085390;0.033991;,
 0.049300;-0.085390;0.033991;,
 0.049300;-0.085390;0.033991;,
 0.049300;-0.085390;0.033991;,
 0.049300;-0.085390;0.033991;,
 0.049300;-0.085390;-0.067115;,
 0.049300;-0.085390;-0.067115;,
 0.049300;-0.085390;-0.067115;,
 0.049300;-0.085390;-0.067115;,
 0.049300;-0.085390;-0.067115;,
 0.049300;-0.085390;-0.067115;,
 0.098600;0.000000;0.033991;,
 0.098600;0.000000;0.033991;,
 0.098600;0.000000;0.033991;,
 0.098600;0.000000;0.033991;,
 0.098600;0.000000;0.033991;,
 0.098600;0.000000;-0.067115;,
 0.098600;0.000000;-0.067115;,
 0.098600;0.000000;-0.067115;,
 0.049300;0.085390;0.033991;,
 0.049300;0.085390;0.033991;,
 0.049300;0.085390;0.033991;,
 0.049300;0.085390;0.033991;,
 0.049300;0.085390;0.033991;,
 0.049300;0.085390;-0.067115;,
 0.049300;0.085390;-0.067115;,
 0.049300;0.085390;-0.067115;,
 0.049300;0.085390;-0.067115;,
 -0.049300;0.085390;0.033991;,
 -0.049300;0.085390;0.033991;,
 -0.049300;0.085390;0.033991;,
 -0.049300;0.085390;0.033991;,
 -0.049300;0.085390;0.033991;,
 -0.049300;0.085390;-0.067115;,
 -0.049300;0.085390;-0.067115;,
 -0.049300;0.085390;-0.067115;,
 -0.049300;0.085390;-0.067115;,
 -0.098600;0.000000;0.033991;,
 -0.098600;0.000000;0.033991;,
 -0.098600;0.000000;0.033991;,
 -0.098600;0.000000;0.033991;,
 -0.098600;0.000000;0.033991;,
 -0.098600;0.000000;-0.067115;,
 -0.098600;0.000000;-0.067115;,
 -0.098600;0.000000;-0.067115;,
 -0.098600;0.000000;-0.067115;,
 -0.049300;-0.085390;0.033991;,
 -0.049300;-0.085390;0.033991;,
 -0.049300;-0.085390;0.033991;,
 -0.049300;-0.085390;0.033991;,
 -0.049300;-0.085390;0.033991;,
 -0.049300;-0.085390;-0.067115;,
 -0.049300;-0.085390;-0.067115;,
 -0.049300;-0.085390;-0.067115;,
 0.027115;-0.046965;0.371982;,
 0.027115;-0.046965;0.371982;,
 0.027115;-0.046965;0.371982;,
 0.054230;0.000000;0.371982;,
 0.054230;0.000000;0.371982;,
 0.054230;0.000000;0.371982;,
 0.054230;0.000000;0.371982;,
 0.027115;0.046965;0.371982;,
 0.027115;0.046965;0.371982;,
 0.027115;0.046965;0.371982;,
 0.027115;0.046965;0.371982;,
 -0.027115;0.046965;0.371982;,
 -0.027115;0.046965;0.371982;,
 -0.027115;0.046965;0.371982;,
 -0.027115;0.046965;0.371982;,
 -0.054230;0.000000;0.371982;,
 -0.054230;0.000000;0.371982;,
 -0.054230;0.000000;0.371982;,
 -0.027115;-0.046965;0.371982;,
 -0.027115;-0.046965;0.371982;,
 -0.027115;-0.046965;0.371982;,
 -0.027115;-0.046965;0.371982;,
 -0.027115;-0.046965;0.371982;,
 -0.027115;-0.046965;0.371982;,
 -0.027115;-0.046965;0.371982;,
 -0.054230;0.000000;0.371982;,
 -0.027115;0.046965;0.371982;,
 0.027115;0.046965;0.371982;,
 0.054230;0.000000;0.371982;,
 0.027115;-0.046965;0.371982;,
 -0.049300;-0.085390;-0.067115;,
 -0.049300;-0.085390;0.033991;,
 -0.098600;0.000000;-0.067115;,
 -0.098600;0.000000;0.033991;,
 -0.049300;0.085390;-0.067115;,
 -0.049300;0.085390;0.033991;,
 0.049300;0.085390;-0.067115;,
 0.049300;0.085390;0.033991;,
 0.098600;0.000000;-0.067115;,
 0.098600;0.000000;0.033991;,
 0.049300;-0.085390;-0.067115;,
 0.049300;-0.085390;0.033991;;

 32;
 3;27,18,10;,
 3;36,26,9;,
 3;45,35,8;,
 3;53,44,7;,
 3;25,23,15;,
 3;17,24,14;,
 3;43,41,32;,
 3;34,42,31;,
 3;52,50,40;,
 3;86,51,39;,
 3;33,30,22;,
 3;90,88,21;,
 3;6,4,49;,
 3;84,5,48;,
 3;16,13,3;,
 3;94,92,2;,
 3;68,71,77;,
 3;64,67,76;,
 3;60,63,75;,
 3;56,59,74;,
 3;70,38,47;,
 3;73,69,46;,
 3;55,1,12;,
 3;58,54,11;,
 3;57,93,20;,
 3;62,82,19;,
 3;72,85,0;,
 3;83,78,95;,
 3;61,91,29;,
 3;66,81,28;,
 3;65,89,37;,
 3;79,80,87;;

 MeshMaterialList {
  4;
  32;
  0,
  0,
  0,
  0,
  1,
  1,
  1,
  1,
  1,
  1,
  2,
  2,
  2,
  2,
  1,
  1,
  3,
  3,
  3,
  3,
  1,
  1,
  1,
  1,
  1,
  1,
  2,
  2,
  2,
  2,
  1,
  1;
Material {
 1.000000;1.000000;1.000000;1.000000;;
 0.000000;
 1.000000;1.000000;1.000000;;
 0.0; 0.0; 0.0;;
 TextureFilename {
  "Wep07a.ppm";
 }
 }
Material {
 1.000000;1.000000;1.000000;1.000000;;
 0.000000;
 1.000000;1.000000;1.000000;;
 0.0; 0.0; 0.0;;
 TextureFilename {
  "Wep07a.ppm";
 }
 }
Material {
 1.000000;1.000000;1.000000;1.000000;;
 0.000000;
 1.000000;1.000000;1.000000;;
 0.0; 0.0; 0.0;;
 TextureFilename {
  "Wep07a.ppm";
 }
 }
Material {
 1.000000;1.000000;1.000000;1.000000;;
 0.000000;
 1.000000;1.000000;1.000000;;
 0.0; 0.0; 0.0;;
 TextureFilename {
  "Wep07a.ppm";
 }
 }
}
 MeshNormals {
  96;
  0.499467;-0.863869;0.065288;,
  0.499467;-0.863869;0.065288;,
  0.499467;-0.863869;0.065288;,
  0.499467;-0.863869;0.065288;,
  0.499467;-0.863869;0.065288;,
  0.180579;-0.521286;-0.834058;,
  0.180579;-0.521286;-0.834058;,
  0.180579;-0.521286;-0.834058;,
  0.180579;-0.521286;-0.834058;,
  0.180579;-0.521286;-0.834058;,
  0.180579;-0.521286;-0.834058;,
  0.997866;0.000617;0.065288;,
  0.997866;0.000617;0.065288;,
  0.997866;0.000617;0.065288;,
  0.997866;0.000617;0.065288;,
  0.997866;0.000617;0.065288;,
  0.931589;-0.179284;-0.316228;,
  0.931589;-0.179284;-0.316228;,
  0.931589;-0.179284;-0.316228;,
  0.498399;0.864486;0.065288;,
  0.498399;0.864486;0.065288;,
  0.498399;0.864486;0.065288;,
  0.498399;0.864486;0.065288;,
  0.498399;0.864486;0.065288;,
  0.522233;0.603023;-0.603023;,
  0.522233;0.603023;-0.603023;,
  0.522233;0.603023;-0.603023;,
  0.522233;0.603023;-0.603023;,
  -0.499467;0.863869;0.065288;,
  -0.499467;0.863869;0.065288;,
  -0.499467;0.863869;0.065288;,
  -0.499467;0.863869;0.065288;,
  -0.499467;0.863869;0.065288;,
  -0.261117;0.753778;-0.603023;,
  -0.261117;0.753778;-0.603023;,
  -0.261117;0.753778;-0.603023;,
  -0.261117;0.753778;-0.603023;,
  -0.997866;-0.000617;0.065288;,
  -0.997866;-0.000617;0.065288;,
  -0.997866;-0.000617;0.065288;,
  -0.997866;-0.000617;0.065288;,
  -0.997866;-0.000617;0.065288;,
  -0.783349;0.150755;-0.603023;,
  -0.783349;0.150755;-0.603023;,
  -0.783349;0.150755;-0.603023;,
  -0.783349;0.150755;-0.603023;,
  -0.498399;-0.864486;0.065288;,
  -0.498399;-0.864486;0.065288;,
  -0.498399;-0.864486;0.065288;,
  -0.498399;-0.864486;0.065288;,
  -0.498399;-0.864486;0.065288;,
  -0.612372;-0.707107;-0.353553;,
  -0.612372;-0.707107;-0.353553;,
  -0.612372;-0.707107;-0.353553;,
  0.593614;-0.685447;0.421646;,
  0.593614;-0.685447;0.421646;,
  0.593614;-0.685447;0.421646;,
  0.766389;0.147492;0.625215;,
  0.766389;0.147492;0.625215;,
  0.766389;0.147492;0.625215;,
  0.766389;0.147492;0.625215;,
  0.255463;0.737458;0.625215;,
  0.255463;0.737458;0.625215;,
  0.255463;0.737458;0.625215;,
  0.255463;0.737458;0.625215;,
  -0.510926;0.589966;0.625215;,
  -0.510926;0.589966;0.625215;,
  -0.510926;0.589966;0.625215;,
  -0.510926;0.589966;0.625215;,
  -0.890421;-0.171362;0.421646;,
  -0.890421;-0.171362;0.421646;,
  -0.890421;-0.171362;0.421646;,
  -0.183829;-0.530669;0.827404;,
  -0.183829;-0.530669;0.827404;,
  -0.183829;-0.530669;0.827404;,
  -0.183829;-0.530669;0.827404;,
  -0.183829;-0.530669;0.827404;,
  -0.183829;-0.530669;0.827404;,
  -0.183829;-0.530669;0.827404;,
  -0.890421;-0.171362;0.421646;,
  -0.510926;0.589966;0.625215;,
  0.255463;0.737458;0.625215;,
  0.766389;0.147492;0.625215;,
  0.593614;-0.685447;0.421646;,
  -0.612372;-0.707107;-0.353553;,
  -0.498399;-0.864486;0.065288;,
  -0.783349;0.150755;-0.603023;,
  -0.997866;-0.000617;0.065288;,
  -0.261117;0.753778;-0.603023;,
  -0.499467;0.863869;0.065288;,
  0.522233;0.603023;-0.603023;,
  0.498399;0.864486;0.065288;,
  0.931589;-0.179284;-0.316228;,
  0.997866;0.000617;0.065288;,
  0.180579;-0.521286;-0.834058;,
  0.499467;-0.863869;0.065288;;

  32;
  3;27,18,10;,
  3;36,26,9;,
  3;45,35,8;,
  3;53,44,7;,
  3;25,23,15;,
  3;17,24,14;,
  3;43,41,32;,
  3;34,42,31;,
  3;52,50,40;,
  3;86,51,39;,
  3;33,30,22;,
  3;90,88,21;,
  3;6,4,49;,
  3;84,5,48;,
  3;16,13,3;,
  3;94,92,2;,
  3;68,71,77;,
  3;64,67,76;,
  3;60,63,75;,
  3;56,59,74;,
  3;70,38,47;,
  3;73,69,46;,
  3;55,1,12;,
  3;58,54,11;,
  3;57,93,20;,
  3;62,82,19;,
  3;72,85,0;,
  3;83,78,95;,
  3;61,91,29;,
  3;66,81,28;,
  3;65,89,37;,
  3;79,80,87;;
 }
 MeshTextureCoords { 
 96;
 0.145778;0.263641;,
 0.431045;0.945178;,
 0.431045;0.945178;,
 0.431045;0.945178;,
 0.145778;0.263641;,
 0.020931;0.262274;,
 0.020931;0.262274;,
 0.922852;0.937500;,
 0.922852;0.937500;,
 0.922852;0.937500;,
 0.922852;0.937500;,
 0.431463;0.746094;,
 0.431463;0.746094;,
 0.431463;0.746094;,
 0.431463;0.746094;,
 0.431463;0.746094;,
 0.554688;0.746094;,
 0.554688;0.746094;,
 0.980469;0.730469;,
 0.431881;0.550452;,
 0.431881;0.550452;,
 0.145778;0.263641;,
 0.145778;0.263641;,
 0.431881;0.550452;,
 0.555106;0.550452;,
 0.555106;0.550452;,
 0.922852;0.523438;,
 0.922852;0.523438;,
 0.145110;0.062907;,
 0.145110;0.062907;,
 0.145110;0.062907;,
 0.431881;0.550452;,
 0.431881;0.550452;,
 0.020264;0.061540;,
 0.555106;0.550452;,
 0.807617;0.523438;,
 0.807617;0.523438;,
 0.431463;0.746094;,
 0.431463;0.746094;,
 0.431463;0.746094;,
 0.431463;0.746094;,
 0.431463;0.746094;,
 0.554688;0.746094;,
 0.554688;0.746094;,
 0.750000;0.730469;,
 0.750000;0.730469;,
 0.431045;0.945178;,
 0.431045;0.945178;,
 0.145110;0.062907;,
 0.145110;0.062907;,
 0.431045;0.945178;,
 0.554269;0.945178;,
 0.554269;0.945178;,
 0.807617;0.937500;,
 0.019531;0.847070;,
 0.019531;0.847070;,
 0.704733;0.275964;,
 0.019531;0.746094;,
 0.019531;0.746094;,
 0.735638;0.152344;,
 0.735638;0.152344;,
 0.576656;0.221942;,
 0.019531;0.645117;,
 0.704733;0.028723;,
 0.704733;0.028723;,
 0.019531;0.645117;,
 0.576708;0.108407;,
 0.642923;0.028723;,
 0.642923;0.028723;,
 0.019531;0.746094;,
 0.019531;0.746094;,
 0.612018;0.152344;,
 0.576708;0.108407;,
 0.019531;0.847070;,
 0.642923;0.275964;,
 0.642923;0.275964;,
 0.642923;0.275964;,
 0.642923;0.275964;,
 0.576708;0.108407;,
 0.019531;0.746094;,
 0.019531;0.645117;,
 0.576656;0.221942;,
 0.019531;0.746094;,
 0.576656;0.221942;,
 0.020264;0.061540;,
 0.145110;0.062907;,
 0.554688;0.746094;,
 0.431463;0.746094;,
 0.020264;0.061540;,
 0.431881;0.550452;,
 0.020931;0.262274;,
 0.145778;0.263641;,
 0.554688;0.746094;,
 0.431463;0.746094;,
 0.554269;0.945178;,
 0.145778;0.263641;;
 }
}
}
Frame frm-wepbar2 {
  FrameTransformMatrix {
1.000000,0.000000,0.000000,0.000000,
0.000000,1.000000,0.000000,0.000000,
0.000000,0.000000,1.000000,0.000000,
0.000000,0.085716,-0.034059,1.000000;;
 }
Mesh wepbar2 {
 48;
 0.049300;-0.085390;-0.122939;,
 0.049300;-0.085390;-0.122939;,
 0.049300;-0.085390;-0.122939;,
 0.049300;-0.085390;-0.122939;,
 0.034017;-0.059773;-0.067178;,
 0.034017;-0.059773;-0.067178;,
 0.068034;0.000000;-0.067178;,
 0.068034;0.000000;-0.067178;,
 0.098600;0.000000;-0.122939;,
 0.098600;0.000000;-0.122939;,
 0.098600;0.000000;-0.122939;,
 0.098600;0.000000;-0.122939;,
 0.034017;0.059773;-0.067178;,
 0.034017;0.059773;-0.067178;,
 0.049300;0.085390;-0.122939;,
 0.049300;0.085390;-0.122939;,
 0.049300;0.085390;-0.122939;,
 0.049300;0.085390;-0.122939;,
 -0.034017;0.059773;-0.067178;,
 -0.034017;0.059773;-0.067178;,
 -0.049300;0.085390;-0.122939;,
 -0.049300;0.085390;-0.122939;,
 -0.049300;0.085390;-0.122939;,
 -0.068034;0.000000;-0.067178;,
 -0.068034;0.000000;-0.067178;,
 -0.098600;0.000000;-0.122939;,
 -0.098600;0.000000;-0.122939;,
 -0.098600;0.000000;-0.122939;,
 -0.098600;0.000000;-0.122939;,
 -0.098600;0.000000;-0.122939;,
 -0.098600;0.000000;-0.122939;,
 -0.034017;-0.059773;-0.067178;,
 -0.034017;-0.059773;-0.067178;,
 -0.049300;-0.085390;-0.122939;,
 -0.049300;-0.085390;-0.122939;,
 -0.049300;-0.085390;-0.122939;,
 -0.049300;-0.085390;-0.122939;,
 -0.034017;-0.059773;-0.067178;,
 -0.098600;0.000000;-0.122939;,
 -0.068034;0.000000;-0.067178;,
 -0.049300;0.085390;-0.122939;,
 -0.034017;0.059773;-0.067178;,
 0.049300;0.085390;-0.122939;,
 0.034017;0.059773;-0.067178;,
 0.098600;0.000000;-0.122939;,
 0.068034;0.000000;-0.067178;,
 0.034017;-0.059773;-0.067178;,
 0.049300;-0.085390;-0.122939;;

 16;
 3;11,7,5;,
 3;3,10,4;,
 3;17,13,6;,
 3;9,16,45;,
 3;35,32,24;,
 3;30,34,23;,
 3;2,46,31;,
 3;33,1,37;,
 3;22,19,12;,
 3;15,21,43;,
 3;29,39,18;,
 3;20,28,41;,
 3;0,36,27;,
 3;8,47,26;,
 3;14,44,25;,
 3;40,42,38;;

 MeshMaterialList {
  3;
  16;
  0,
  0,
  0,
  0,
  0,
  0,
  1,
  1,
  1,
  1,
  0,
  0,
  2,
  2,
  2,
  2;
Material {
 1.000000;1.000000;1.000000;1.000000;;
 0.000000;
 1.000000;1.000000;1.000000;;
 0.0; 0.0; 0.0;;
 TextureFilename {
  "Wep07a.ppm";
 }
 }
Material {
 1.000000;1.000000;1.000000;1.000000;;
 0.000000;
 1.000000;1.000000;1.000000;;
 0.0; 0.0; 0.0;;
 TextureFilename {
  "Wep07a.ppm";
 }
 }
Material {
 1.000000;1.000000;1.000000;1.000000;;
 0.000000;
 1.000000;1.000000;1.000000;;
 0.0; 0.0; 0.0;;
 TextureFilename {
  "Wep07a.ppm";
 }
 }
}
 MeshNormals {
  48;
  0.318414;-0.921333;-0.223066;,
  0.318414;-0.921333;-0.223066;,
  0.318414;-0.921333;-0.223066;,
  0.318414;-0.921333;-0.223066;,
  0.578949;-0.667111;0.468808;,
  0.578949;-0.667111;0.468808;,
  0.866146;0.166829;0.471125;,
  0.866146;0.166829;0.471125;,
  0.959263;-0.182690;-0.215495;,
  0.959263;-0.182690;-0.215495;,
  0.959263;-0.182690;-0.215495;,
  0.959263;-0.182690;-0.215495;,
  0.290945;0.836638;0.464098;,
  0.290945;0.836638;0.464098;,
  0.639593;0.736741;-0.219392;,
  0.639593;0.736741;-0.219392;,
  0.639593;0.736741;-0.219392;,
  0.639593;0.736741;-0.219392;,
  -0.578949;0.667111;0.468808;,
  -0.578949;0.667111;0.468808;,
  -0.323150;0.935037;0.145873;,
  -0.323150;0.935037;0.145873;,
  -0.323150;0.935037;0.145873;,
  -0.866146;-0.166829;0.471125;,
  -0.866146;-0.166829;0.471125;,
  -0.702676;0.133824;-0.698812;,
  -0.702676;0.133824;-0.698812;,
  -0.702676;0.133824;-0.698812;,
  -0.702676;0.133824;-0.698812;,
  -0.702676;0.133824;-0.698812;,
  -0.702676;0.133824;-0.698812;,
  -0.290945;-0.836638;0.464098;,
  -0.290945;-0.836638;0.464098;,
  -0.648091;-0.746530;0.150568;,
  -0.648091;-0.746530;0.150568;,
  -0.648091;-0.746530;0.150568;,
  -0.648091;-0.746530;0.150568;,
  -0.290945;-0.836638;0.464098;,
  -0.702676;0.133824;-0.698812;,
  -0.866146;-0.166829;0.471125;,
  -0.323150;0.935037;0.145873;,
  -0.578949;0.667111;0.468808;,
  0.639593;0.736741;-0.219392;,
  0.290945;0.836638;0.464098;,
  0.959263;-0.182690;-0.215495;,
  0.866146;0.166829;0.471125;,
  0.578949;-0.667111;0.468808;,
  0.318414;-0.921333;-0.223066;;

  16;
  3;11,7,5;,
  3;3,10,4;,
  3;17,13,6;,
  3;9,16,45;,
  3;35,32,24;,
  3;30,34,23;,
  3;2,46,31;,
  3;33,1,37;,
  3;22,19,12;,
  3;15,21,43;,
  3;29,39,18;,
  3;20,28,41;,
  3;0,36,27;,
  3;8,47,26;,
  3;14,44,25;,
  3;40,42,38;;
 }
 MeshTextureCoords { 
 48;
 0.921875;0.453125;,
 0.625000;0.636719;,
 0.625000;0.636719;,
 0.621094;0.937500;,
 0.562500;0.881250;,
 0.562500;0.881250;,
 0.562500;0.750000;,
 0.562500;0.750000;,
 0.980469;0.253906;,
 0.621094;0.750000;,
 0.621094;0.750000;,
 0.621094;0.750000;,
 0.562500;0.674258;,
 0.562500;0.618750;,
 0.921875;0.054688;,
 0.625000;0.636719;,
 0.621094;0.562500;,
 0.621094;0.562500;,
 0.562500;0.618750;,
 0.562500;0.841367;,
 0.621094;0.562500;,
 0.625000;0.878906;,
 0.625000;0.878906;,
 0.562500;0.750000;,
 0.562500;0.750000;,
 0.746094;0.253906;,
 0.746094;0.253906;,
 0.746094;0.253906;,
 0.621094;0.750000;,
 0.621094;0.750000;,
 0.621094;0.750000;,
 0.562500;0.841367;,
 0.562500;0.881250;,
 0.625000;0.878906;,
 0.621094;0.937500;,
 0.621094;0.937500;,
 0.804688;0.453125;,
 0.562500;0.841367;,
 0.746094;0.253906;,
 0.562500;0.750000;,
 0.804687;0.054688;,
 0.562500;0.618750;,
 0.921875;0.054688;,
 0.562500;0.674258;,
 0.980469;0.253906;,
 0.562500;0.750000;,
 0.562500;0.674258;,
 0.921875;0.453125;;
 }
}
Frame frm-wepbar1 {
  FrameTransformMatrix {
1.000000,0.000000,0.000000,0.000000,
0.000000,1.000000,0.000000,0.000000,
0.000000,0.000000,1.000000,0.000000,
0.000000,0.000000,0.000000,1.000000;;
 }
Mesh wepbar1 {
 102;
 0.014805;-0.025643;-0.431173;,
 0.014805;-0.025643;-0.431173;,
 0.014805;-0.025643;-0.431173;,
 0.014805;-0.025643;-0.431173;,
 0.000000;-0.000000;-0.494372;,
 0.000000;-0.000000;-0.494372;,
 0.000000;-0.000000;-0.494372;,
 0.000000;-0.000000;-0.494372;,
 0.000000;-0.000000;-0.494372;,
 0.013341;-0.000000;-0.378997;,
 0.013341;-0.000000;-0.378997;,
 0.013341;-0.000000;-0.378997;,
 0.013341;-0.000000;-0.378997;,
 0.013341;-0.000000;-0.378997;,
 0.029610;-0.000000;-0.431173;,
 0.029610;-0.000000;-0.431173;,
 0.029610;-0.000000;-0.431173;,
 0.029610;-0.000000;-0.431173;,
 0.006670;0.011553;-0.378997;,
 0.006670;0.011553;-0.378997;,
 0.006670;0.011553;-0.378997;,
 0.006670;0.011553;-0.378997;,
 0.006670;0.011553;-0.378997;,
 0.014805;0.025643;-0.431173;,
 0.014805;0.025643;-0.431173;,
 0.014805;0.025643;-0.431173;,
 0.014805;0.025643;-0.431173;,
 -0.006670;0.011553;-0.378997;,
 -0.006670;0.011553;-0.378997;,
 -0.006670;0.011553;-0.378997;,
 -0.006670;0.011553;-0.378997;,
 -0.006670;0.011553;-0.378997;,
 -0.014805;0.025643;-0.431173;,
 -0.014805;0.025643;-0.431173;,
 -0.014805;0.025643;-0.431173;,
 -0.014805;0.025643;-0.431173;,
 -0.013341;-0.000000;-0.378997;,
 -0.013341;-0.000000;-0.378997;,
 -0.013341;-0.000000;-0.378997;,
 -0.013341;-0.000000;-0.378997;,
 -0.013341;-0.000000;-0.378997;,
 -0.029610;-0.000000;-0.431173;,
 -0.029610;-0.000000;-0.431173;,
 -0.029610;-0.000000;-0.431173;,
 -0.029610;-0.000000;-0.431173;,
 -0.006670;-0.011553;-0.378997;,
 -0.006670;-0.011553;-0.378997;,
 -0.006670;-0.011553;-0.378997;,
 -0.006670;-0.011553;-0.378997;,
 -0.006670;-0.011553;-0.378997;,
 -0.014805;-0.025643;-0.431173;,
 -0.014805;-0.025643;-0.431173;,
 -0.014805;-0.025643;-0.431173;,
 -0.014805;-0.025643;-0.431173;,
 0.006670;-0.011553;-0.378997;,
 0.006670;-0.011553;-0.378997;,
 0.006670;-0.011553;-0.378997;,
 0.006670;-0.011553;-0.378997;,
 0.006670;-0.011553;-0.378997;,
 0.047092;-0.000000;-0.123051;,
 0.047092;-0.000000;-0.123051;,
 0.047092;-0.000000;-0.123051;,
 0.047092;-0.000000;-0.123051;,
 0.047092;-0.000000;-0.123051;,
 0.047092;-0.000000;-0.123051;,
 0.023546;0.040783;-0.123051;,
 0.023546;0.040783;-0.123051;,
 0.023546;0.040783;-0.123051;,
 -0.023546;0.040783;-0.123051;,
 -0.023546;0.040783;-0.123051;,
 -0.023546;0.040783;-0.123051;,
 -0.023546;0.040783;-0.123051;,
 -0.047092;-0.000000;-0.123051;,
 -0.047092;-0.000000;-0.123051;,
 -0.047092;-0.000000;-0.123051;,
 -0.047092;-0.000000;-0.123051;,
 -0.023546;-0.040783;-0.123051;,
 -0.023546;-0.040783;-0.123051;,
 -0.023546;-0.040783;-0.123051;,
 -0.023546;-0.040783;-0.123051;,
 0.023546;-0.040783;-0.123051;,
 0.023546;-0.040783;-0.123051;,
 0.023546;-0.040783;-0.123051;,
 0.023546;-0.040783;-0.123051;,
 -0.023546;-0.040783;-0.123051;,
 -0.047092;-0.000000;-0.123051;,
 -0.023546;0.040783;-0.123051;,
 0.023546;0.040783;-0.123051;,
 0.047092;-0.000000;-0.123051;,
 0.006670;-0.011553;-0.378997;,
 -0.014805;-0.025643;-0.431173;,
 -0.006670;-0.011553;-0.378997;,
 -0.029610;-0.000000;-0.431173;,
 -0.013341;-0.000000;-0.378997;,
 -0.014805;0.025643;-0.431173;,
 -0.006670;0.011553;-0.378997;,
 0.014805;0.025643;-0.431173;,
 0.006670;0.011553;-0.378997;,
 0.029610;-0.000000;-0.431173;,
 0.013341;-0.000000;-0.378997;,
 0.000000;-0.000000;-0.494372;,
 0.014805;-0.025643;-0.431173;;

 34;
 3;17,13,58;,
 3;3,16,57;,
 3;26,22,12;,
 3;15,25,11;,
 3;8,24,14;,
 3;7,98,2;,
 3;35,31,21;,
 3;23,34,20;,
 3;6,33,96;,
 3;5,1,53;,
 3;44,40,30;,
 3;32,43,29;,
 3;4,42,94;,
 3;0,56,49;,
 3;52,101,48;,
 3;51,47,39;,
 3;41,50,38;,
 3;100,90,92;,
 3;79,82,64;,
 3;75,78,63;,
 3;71,74,62;,
 3;67,70,61;,
 3;81,55,10;,
 3;60,80,9;,
 3;59,99,19;,
 3;66,88,18;,
 3;65,97,28;,
 3;69,87,27;,
 3;68,95,37;,
 3;73,86,36;,
 3;77,46,54;,
 3;83,76,89;,
 3;72,93,45;,
 3;84,85,91;;

 MeshMaterialList {
  2;
  34;
  0,
  0,
  0,
  0,
  0,
  0,
  1,
  1,
  1,
  1,
  0,
  0,
  0,
  1,
  1,
  0,
  0,
  0,
  0,
  0,
  0,
  0,
  0,
  0,
  0,
  0,
  1,
  1,
  0,
  0,
  1,
  1,
  0,
  0;
Material {
 1.000000;1.000000;1.000000;1.000000;;
 0.000000;
 1.000000;1.000000;1.000000;;
 0.0; 0.0; 0.0;;
 TextureFilename {
  "Wep07a.ppm";
 }
 }
Material {
 1.000000;1.000000;1.000000;1.000000;;
 0.000000;
 1.000000;1.000000;1.000000;;
 0.0; 0.0; 0.0;;
 TextureFilename {
  "Wep07a.ppm";
 }
 }
}
 MeshNormals {
  102;
  0.395641;-0.918376;0.007280;,
  0.395641;-0.918376;0.007280;,
  0.395641;-0.918376;0.007280;,
  0.395641;-0.918376;0.007280;,
  0.000000;-0.000000;-1.000000;,
  0.000000;-0.000000;-1.000000;,
  0.000000;-0.000000;-1.000000;,
  0.000000;-0.000000;-1.000000;,
  0.000000;-0.000000;-1.000000;,
  0.996251;-0.002752;0.086460;,
  0.996251;-0.002752;0.086460;,
  0.996251;-0.002752;0.086460;,
  0.996251;-0.002752;0.086460;,
  0.996251;-0.002752;0.086460;,
  0.993158;-0.116553;0.007280;,
  0.993158;-0.116553;0.007280;,
  0.993158;-0.116553;0.007280;,
  0.993158;-0.116553;0.007280;,
  0.500509;0.861403;0.086460;,
  0.500509;0.861403;0.086460;,
  0.500509;0.861403;0.086460;,
  0.500509;0.861403;0.086460;,
  0.500509;0.861403;0.086460;,
  0.597517;0.801823;0.007280;,
  0.597517;0.801823;0.007280;,
  0.597517;0.801823;0.007280;,
  0.597517;0.801823;0.007280;,
  -0.495742;0.864155;0.086460;,
  -0.495742;0.864155;0.086460;,
  -0.495742;0.864155;0.086460;,
  -0.495742;0.864155;0.086460;,
  -0.495742;0.864155;0.086460;,
  -0.395641;0.918376;0.007280;,
  -0.395641;0.918376;0.007280;,
  -0.395641;0.918376;0.007280;,
  -0.395641;0.918376;0.007280;,
  -0.996251;0.002752;0.086460;,
  -0.996251;0.002752;0.086460;,
  -0.996251;0.002752;0.086460;,
  -0.996251;0.002752;0.086460;,
  -0.996251;0.002752;0.086460;,
  -0.993158;0.116553;0.007280;,
  -0.993158;0.116553;0.007280;,
  -0.993158;0.116553;0.007280;,
  -0.993158;0.116553;0.007280;,
  -0.500509;-0.861403;0.086460;,
  -0.500509;-0.861403;0.086460;,
  -0.500509;-0.861403;0.086460;,
  -0.500509;-0.861403;0.086460;,
  -0.500509;-0.861403;0.086460;,
  -0.597517;-0.801823;0.007280;,
  -0.597517;-0.801823;0.007280;,
  -0.597517;-0.801823;0.007280;,
  -0.597517;-0.801823;0.007280;,
  0.495742;-0.864155;0.086460;,
  0.495742;-0.864155;0.086460;,
  0.495742;-0.864155;0.086460;,
  0.495742;-0.864155;0.086460;,
  0.495742;-0.864155;0.086460;,
  0.624042;0.120097;0.772106;,
  0.624042;0.120097;0.772106;,
  0.624042;0.120097;0.772106;,
  0.624042;0.120097;0.772106;,
  0.624042;0.120097;0.772106;,
  0.624042;0.120097;0.772106;,
  0.320556;0.925365;0.202348;,
  0.320556;0.925365;0.202348;,
  0.320556;0.925365;0.202348;,
  -0.575373;0.664384;0.477011;,
  -0.575373;0.664384;0.477011;,
  -0.575373;0.664384;0.477011;,
  -0.575373;0.664384;0.477011;,
  -0.863060;-0.166096;0.477011;,
  -0.863060;-0.166096;0.477011;,
  -0.863060;-0.166096;0.477011;,
  -0.863060;-0.166096;0.477011;,
  -0.287686;-0.830480;0.477011;,
  -0.287686;-0.830480;0.477011;,
  -0.287686;-0.830480;0.477011;,
  -0.287686;-0.830480;0.477011;,
  0.641111;-0.740292;0.202348;,
  0.641111;-0.740292;0.202348;,
  0.641111;-0.740292;0.202348;,
  0.641111;-0.740292;0.202348;,
  -0.287686;-0.830480;0.477011;,
  -0.863060;-0.166096;0.477011;,
  -0.575373;0.664384;0.477011;,
  0.320556;0.925365;0.202348;,
  0.624042;0.120097;0.772106;,
  0.495742;-0.864155;0.086460;,
  -0.597517;-0.801823;0.007280;,
  -0.500509;-0.861403;0.086460;,
  -0.993158;0.116553;0.007280;,
  -0.996251;0.002752;0.086460;,
  -0.395641;0.918376;0.007280;,
  -0.495742;0.864155;0.086460;,
  0.597517;0.801823;0.007280;,
  0.500509;0.861403;0.086460;,
  0.993158;-0.116553;0.007280;,
  0.996251;-0.002752;0.086460;,
  0.000000;-0.000000;-1.000000;,
  0.395641;-0.918376;0.007280;;

  34;
  3;17,13,58;,
  3;3,16,57;,
  3;26,22,12;,
  3;15,25,11;,
  3;8,24,14;,
  3;7,98,2;,
  3;35,31,21;,
  3;23,34,20;,
  3;6,33,96;,
  3;5,1,53;,
  3;44,40,30;,
  3;32,43,29;,
  3;4,42,94;,
  3;0,56,49;,
  3;52,101,48;,
  3;51,47,39;,
  3;41,50,38;,
  3;100,90,92;,
  3;79,82,64;,
  3;75,78,63;,
  3;71,74,62;,
  3;67,70,61;,
  3;81,55,10;,
  3;60,80,9;,
  3;59,99,19;,
  3;66,88,18;,
  3;65,97,28;,
  3;69,87,27;,
  3;68,95,37;,
  3;73,86,36;,
  3;77,46,54;,
  3;83,76,89;,
  3;72,93,45;,
  3;84,85,91;;
 }
 MeshTextureCoords { 
 102;
 0.438451;0.372890;,
 0.438451;0.372890;,
 0.439708;0.487169;,
 0.439708;0.487169;,
 0.496094;0.429688;,
 0.496094;0.421875;,
 0.496094;0.421875;,
 0.496094;0.429688;,
 0.496094;0.429688;,
 0.381167;0.433431;,
 0.381167;0.433431;,
 0.381167;0.433431;,
 0.381167;0.433431;,
 0.350446;0.429688;,
 0.439708;0.428223;,
 0.439708;0.428223;,
 0.439708;0.428223;,
 0.416312;0.429688;,
 0.381167;0.406873;,
 0.381167;0.406873;,
 0.381574;0.398531;,
 0.381574;0.398531;,
 0.381167;0.406873;,
 0.438451;0.372890;,
 0.439708;0.369277;,
 0.439708;0.369277;,
 0.439708;0.369277;,
 0.381574;0.440581;,
 0.381574;0.440581;,
 0.381167;0.406873;,
 0.381167;0.406873;,
 0.381574;0.440581;,
 0.439708;0.369277;,
 0.438451;0.466221;,
 0.438451;0.466221;,
 0.438451;0.466221;,
 0.381167;0.433431;,
 0.381167;0.433431;,
 0.381167;0.433431;,
 0.381167;0.433431;,
 0.381167;0.433431;,
 0.439708;0.428223;,
 0.439708;0.428223;,
 0.439708;0.428223;,
 0.439708;0.428223;,
 0.381167;0.459989;,
 0.381574;0.440581;,
 0.381167;0.459989;,
 0.381574;0.440581;,
 0.381574;0.440581;,
 0.439708;0.487169;,
 0.439708;0.487169;,
 0.438451;0.466221;,
 0.438451;0.466221;,
 0.381574;0.398531;,
 0.381167;0.459989;,
 0.381574;0.398531;,
 0.381167;0.459989;,
 0.350446;0.456246;,
 0.027344;0.429688;,
 0.027344;0.429688;,
 0.027344;0.429688;,
 0.027344;0.429688;,
 0.027344;0.429688;,
 0.027344;0.429688;,
 0.027344;0.347656;,
 0.027344;0.335938;,
 0.027344;0.335938;,
 0.027344;0.335938;,
 0.027344;0.496094;,
 0.027344;0.335938;,
 0.027344;0.335938;,
 0.027344;0.429688;,
 0.027344;0.429688;,
 0.027344;0.429688;,
 0.027344;0.429688;,
 0.027344;0.496094;,
 0.027344;0.496094;,
 0.027344;0.523438;,
 0.027344;0.523438;,
 0.027344;0.523437;,
 0.027344;0.523437;,
 0.027344;0.523437;,
 0.027344;0.347656;,
 0.027344;0.523438;,
 0.027344;0.429688;,
 0.027344;0.335938;,
 0.027344;0.347656;,
 0.027344;0.429688;,
 0.381574;0.398531;,
 0.439708;0.487169;,
 0.381167;0.459989;,
 0.439708;0.428223;,
 0.381167;0.433431;,
 0.439708;0.369277;,
 0.381167;0.406873;,
 0.438451;0.372890;,
 0.381574;0.398531;,
 0.439708;0.428223;,
 0.381167;0.433431;,
 0.496094;0.429688;,
 0.438451;0.372890;;
 }
}
Frame frm-wepemt {
  FrameTransformMatrix {
1.000000,0.000000,0.000000,0.000000,
0.000000,1.000000,0.000000,0.000000,
0.000000,0.000000,1.000000,0.000000,
0.000000,-0.000001,-0.494364,1.000000;;
 }
}
}
}
}
AnimationSet {
 Animation anim-wepbas {
  {frm-wepbas}
  AnimationKey {
  2;
  2;
  0; 3; 0.000000, 0.085716, -0.034059;;,
  14; 3; 0.000000, 0.085716, -0.034059;;;
  }
 }
 Animation anim-wepbar2 {
  {frm-wepbar2}
  AnimationKey {
  2;
  2;
  0; 3; 0.000000, 0.085716, -0.034059;;,
  14; 3; 0.000000, 0.085716, -0.034059;;;
  }
 }
 Animation anim-wepbar1 {
  {frm-wepbar1}
  AnimationKey {
  2;
  7;
  0; 3; 0.000000, 0.000000, 0.000000;;,
  1; 3; 0.000000, 0.000000, 0.090526;;,
  6; 3; 0.000000, 0.000000, 0.015088;;,
  7; 3; 0.000000, 0.000000, 0.000000;;,
  8; 3; 0.000000, 0.000000, 0.090484;;,
  13; 3; 0.000000, 0.000000, 0.015081;;,
  14; 3; 0.000000, 0.000000, 0.000000;;;
  }
 }
 Animation anim-wepemt {
  {frm-wepemt}
  AnimationKey {
  2;
  2;
  0; 3; 0.000000, -0.000001, -0.494364;;,
  14; 3; 0.000000, -0.000001, -0.494364;;;
  }
 }
}
