xof 0302txt 0032
template Header {
 <3D82AB43-62DA-11cf-AB39-0020AF71E433>
 WORD major;
 WORD minor;
 DWORD flags;
}

template Vector {
 <3D82AB5E-62DA-11cf-AB39-0020AF71E433>
 FLOAT x;
 FLOAT y;
 FLOAT z;
}

template Coords2d {
 <F6F23F44-7686-11cf-8F52-0040333594A3>
 FLOAT u;
 FLOAT v;
}

template Matrix4x4 {
 <F6F23F45-7686-11cf-8F52-0040333594A3>
 array FLOAT matrix[16];
}

template ColorRGBA {
 <35FF44E0-6C7C-11cf-8F52-0040333594A3>
 FLOAT red;
 FLOAT green;
 FLOAT blue;
 FLOAT alpha;
}

template ColorRGB {
 <D3E16E81-7835-11cf-8F52-0040333594A3>
 FLOAT red;
 FLOAT green;
 FLOAT blue;
}

template TextureFilename {
 <A42790E1-7810-11cf-8F52-0040333594A3>
 STRING filename;
}

template Material {
 <3D82AB4D-62DA-11cf-AB39-0020AF71E433>
 ColorRGBA faceColor;
 FLOAT power;
 ColorRGB specularColor;
 ColorRGB emissiveColor;
 [...]
}

template MeshFace {
 <3D82AB5F-62DA-11cf-AB39-0020AF71E433>
 DWORD nFaceVertexIndices;
 array DWORD faceVertexIndices[nFaceVertexIndices];
}

template MeshTextureCoords {
 <F6F23F40-7686-11cf-8F52-0040333594A3>
 DWORD nTextureCoords;
 array Coords2d textureCoords[nTextureCoords];
}

template MeshMaterialList {
 <F6F23F42-7686-11cf-8F52-0040333594A3>
 DWORD nMaterials;
 DWORD nFaceIndexes;
 array DWORD faceIndexes[nFaceIndexes];
 [Material]
}

template MeshNormals {
 <F6F23F43-7686-11cf-8F52-0040333594A3>
 DWORD nNormals;
 array Vector normals[nNormals];
 DWORD nFaceNormals;
 array MeshFace faceNormals[nFaceNormals];
}

template Mesh {
 <3D82AB44-62DA-11cf-AB39-0020AF71E433>
 DWORD nVertices;
 array Vector vertices[nVertices];
 DWORD nFaces;
 array MeshFace faces[nFaces];
 [...]
}

template FrameTransformMatrix {
 <F6F23F41-7686-11cf-8F52-0040333594A3>
 Matrix4x4 frameMatrix;
}

template Frame {
 <3D82AB46-62DA-11cf-AB39-0020AF71E433>
 [...]
}
template FloatKeys {
 <10DD46A9-775B-11cf-8F52-0040333594A3>
 DWORD nValues;
 array FLOAT values[nValues];
}

template TimedFloatKeys {
 <F406B180-7B3B-11cf-8F52-0040333594A3>
 DWORD time;
 FloatKeys tfkeys;
}

template AnimationKey {
 <10DD46A8-775B-11cf-8F52-0040333594A3>
 DWORD keyType;
 DWORD nKeys;
 array TimedFloatKeys keys[nKeys];
}

template AnimationOptions {
 <E2BF56C0-840F-11cf-8F52-0040333594A3>
 DWORD openclosed;
 DWORD positionquality;
}

template Animation {
 <3D82AB4F-62DA-11cf-AB39-0020AF71E433>
 [...]
}

template AnimationSet {
 <3D82AB50-62DA-11cf-AB39-0020AF71E433>
 [Animation]
}

Header {
 1;
 0;
 1;
}

Frame frm-wep16 {
  FrameTransformMatrix {
1.000000,0.000000,0.000000,0.000000,
0.000000,1.000000,0.000000,0.000000,
0.000000,0.000000,1.000000,0.000000,
0.000000,-0.097954,0.411576,1.000000;;
 }
Frame frm-wepbas1 {
  FrameTransformMatrix {
1.000000,0.000000,0.000000,0.000000,
0.000000,1.000000,0.000000,0.000000,
0.000000,0.000000,1.000000,0.000000,
0.000000,0.097954,-0.411576,1.000000;;
 }
Mesh wepbas1 {
 73;
 -0.113386;0.032237;-0.082320;,
 -0.113386;0.032237;-0.082320;,
 -0.113386;0.032237;-0.082320;,
 -0.058961;-0.009461;0.411600;,
 -0.058961;-0.009461;0.411600;,
 -0.058961;-0.009461;0.411600;,
 -0.058961;-0.098000;0.411600;,
 -0.058961;-0.098000;0.411600;,
 -0.058961;-0.098000;0.411600;,
 -0.058961;-0.098000;0.411600;,
 -0.113386;-0.098000;0.164640;,
 -0.113386;-0.098000;0.164640;,
 -0.113386;-0.098000;0.164640;,
 -0.113386;-0.000000;0.082320;,
 -0.113386;-0.000000;0.082320;,
 -0.113386;-0.000000;0.082320;,
 0.113386;0.032237;-0.082320;,
 0.113386;0.032237;-0.082320;,
 0.113386;0.032237;-0.082320;,
 0.113386;0.098000;-0.082320;,
 0.113386;0.098000;-0.082320;,
 0.113386;0.098000;-0.082320;,
 0.113386;0.098000;0.229615;,
 0.113386;0.098000;0.229615;,
 0.113386;0.098000;0.229615;,
 0.113386;0.098000;0.229615;,
 0.113386;0.098000;0.229615;,
 0.058961;-0.009461;0.411600;,
 0.058961;-0.009461;0.411600;,
 0.058961;-0.009461;0.411600;,
 0.058961;-0.098000;0.411600;,
 0.058961;-0.098000;0.411600;,
 0.113386;-0.098000;0.164640;,
 0.113386;-0.098000;0.164640;,
 0.113386;-0.098000;0.164640;,
 0.113386;-0.000000;0.082320;,
 0.113386;-0.000000;0.082320;,
 0.113386;-0.000000;0.082320;,
 -0.113386;-0.098000;0.323168;,
 -0.113386;-0.098000;0.323168;,
 -0.113386;-0.098000;0.323168;,
 -0.113386;-0.098000;0.323168;,
 -0.113386;0.042693;0.322973;,
 -0.113386;0.042693;0.322973;,
 -0.113386;0.042693;0.322973;,
 -0.113386;0.042693;0.322973;,
 0.113386;0.042693;0.322973;,
 0.113386;0.042693;0.322973;,
 0.113386;0.042693;0.322973;,
 0.113386;0.042693;0.322973;,
 0.113386;-0.098000;0.323168;,
 0.113386;-0.098000;0.323168;,
 0.113386;-0.098000;0.323168;,
 0.113386;-0.098000;0.323168;,
 0.113386;-0.098000;0.323168;,
 0.113386;-0.098000;0.323168;,
 0.113386;0.042693;0.322973;,
 -0.113386;0.042693;0.322973;,
 -0.113386;-0.098000;0.323168;,
 0.113386;-0.000000;0.082320;,
 0.113386;-0.098000;0.164640;,
 0.058961;-0.098000;0.411600;,
 0.058961;-0.009461;0.411600;,
 0.113386;0.098000;0.229615;,
 0.113386;0.098000;-0.082320;,
 0.113386;0.032237;-0.082320;,
 -0.113386;-0.000000;0.082320;,
 -0.113386;-0.098000;0.164640;,
 -0.058961;-0.098000;0.411600;,
 -0.058961;-0.009461;0.411600;,
 -0.113386;0.098000;0.229615;,
 -0.113386;0.098000;-0.082320;,
 -0.113386;0.032237;-0.082320;;

 32;
 3;2,18,37;,
 3;15,1,36;,
 3;71,21,17;,
 3;0,71,16;,
 3;70,26,20;,
 3;71,70,19;,
 3;5,29,49;,
 3;45,4,48;,
 3;9,31,28;,
 3;3,8,27;,
 3;12,34,54;,
 3;41,11,53;,
 3;14,35,33;,
 3;10,13,32;,
 3;70,67,40;,
 3;44,70,39;,
 3;62,30,52;,
 3;47,62,51;,
 3;71,72,66;,
 3;59,65,64;,
 3;66,67,70;,
 3;25,60,59;,
 3;70,71,66;,
 3;59,64,24;,
 3;7,69,43;,
 3;38,6,42;,
 3;23,70,57;,
 3;46,22,57;,
 3;60,63,56;,
 3;50,60,56;,
 3;61,68,58;,
 3;55,61,58;;

 MeshMaterialList {
  6;
  32;
  0,
  0,
  1,
  1,
  2,
  2,
  2,
  2,
  3,
  3,
  0,
  0,
  0,
  0,
  4,
  4,
  5,
  5,
  4,
  5,
  4,
  5,
  4,
  5,
  4,
  4,
  2,
  2,
  5,
  5,
  0,
  0;
Material {
 1.000000;1.000000;1.000000;1.000000;;
 0.000000;
 1.000000;1.000000;1.000000;;
 0.0; 0.0; 0.0;;
 TextureFilename {
  "wep16.ppm";
 }
 }
Material {
 1.000000;1.000000;1.000000;1.000000;;
 0.000000;
 1.000000;1.000000;1.000000;;
 0.0; 0.0; 0.0;;
 TextureFilename {
  "wep16.ppm";
 }
 }
Material {
 1.000000;1.000000;1.000000;1.000000;;
 0.000000;
 1.000000;1.000000;1.000000;;
 0.0; 0.0; 0.0;;
 TextureFilename {
  "wep16.ppm";
 }
 }
Material {
 1.000000;1.000000;1.000000;1.000000;;
 0.000000;
 1.000000;1.000000;1.000000;;
 0.0; 0.0; 0.0;;
 TextureFilename {
  "wep16.ppm";
 }
 }
Material {
 1.000000;1.000000;1.000000;1.000000;;
 0.000000;
 1.000000;1.000000;1.000000;;
 0.0; 0.0; 0.0;;
 TextureFilename {
  "wep16.ppm";
 }
 }
Material {
 1.000000;1.000000;1.000000;1.000000;;
 0.000000;
 1.000000;1.000000;1.000000;;
 0.0; 0.0; 0.0;;
 TextureFilename {
  "wep16.ppm";
 }
 }
}
 MeshNormals {
  73;
  -0.384370;-0.754415;-0.532088;,
  -0.384370;-0.754415;-0.532088;,
  -0.384370;-0.754415;-0.532088;,
  -0.267648;0.541390;0.797033;,
  -0.267648;0.541390;0.797033;,
  -0.267648;0.541390;0.797033;,
  -0.469160;-0.275164;0.839151;,
  -0.469160;-0.275164;0.839151;,
  -0.469160;-0.275164;0.839151;,
  -0.469160;-0.275164;0.839151;,
  -0.554700;-0.794524;-0.247063;,
  -0.554700;-0.794524;-0.247063;,
  -0.554700;-0.794524;-0.247063;,
  -0.707107;-0.557099;-0.435477;,
  -0.707107;-0.557099;-0.435477;,
  -0.707107;-0.557099;-0.435477;,
  0.384370;-0.377207;-0.842600;,
  0.384370;-0.377207;-0.842600;,
  0.384370;-0.377207;-0.842600;,
  0.666667;0.666667;-0.333333;,
  0.666667;0.666667;-0.333333;,
  0.666667;0.666667;-0.333333;,
  0.707107;0.660964;0.251250;,
  0.707107;0.660964;0.251250;,
  0.707107;0.660964;0.251250;,
  0.707107;0.660964;0.251250;,
  0.707107;0.660964;0.251250;,
  0.422173;0.213757;0.880953;,
  0.422173;0.213757;0.880953;,
  0.422173;0.213757;0.880953;,
  0.320784;-0.753336;0.574093;,
  0.320784;-0.753336;0.574093;,
  0.707107;-0.580002;-0.404473;,
  0.707107;-0.580002;-0.404473;,
  0.707107;-0.580002;-0.404473;,
  0.707107;-0.642842;-0.294541;,
  0.707107;-0.642842;-0.294541;,
  0.707107;-0.642842;-0.294541;,
  -0.694860;-0.707016;0.131525;,
  -0.694860;-0.707016;0.131525;,
  -0.694860;-0.707016;0.131525;,
  -0.694860;-0.707016;0.131525;,
  -0.604095;0.558996;0.567972;,
  -0.604095;0.558996;0.567972;,
  -0.604095;0.558996;0.567972;,
  -0.604095;0.558996;0.567972;,
  0.664099;0.582330;0.468898;,
  0.664099;0.582330;0.468898;,
  0.664099;0.582330;0.468898;,
  0.664099;0.582330;0.468898;,
  0.658071;-0.707017;0.258978;,
  0.658071;-0.707017;0.258978;,
  0.658071;-0.707017;0.258978;,
  0.658071;-0.707017;0.258978;,
  0.658071;-0.707017;0.258978;,
  0.658071;-0.707017;0.258978;,
  0.664099;0.582330;0.468898;,
  -0.604095;0.558996;0.567972;,
  -0.694860;-0.707016;0.131525;,
  0.707107;-0.642842;-0.294541;,
  0.707107;-0.580002;-0.404473;,
  0.320784;-0.753336;0.574093;,
  0.422173;0.213757;0.880953;,
  0.707107;0.660964;0.251250;,
  0.666667;0.666667;-0.333333;,
  0.384370;-0.377207;-0.842600;,
  -0.707107;-0.557099;-0.435477;,
  -0.554700;-0.794524;-0.247063;,
  -0.469160;-0.275164;0.839151;,
  -0.267648;0.541390;0.797033;,
  -0.800000;0.590179;0.108114;,
  -0.666667;0.333333;-0.666667;,
  -0.384370;-0.754415;-0.532088;;

  32;
  3;2,18,37;,
  3;15,1,36;,
  3;71,21,17;,
  3;0,71,16;,
  3;70,26,20;,
  3;71,70,19;,
  3;5,29,49;,
  3;45,4,48;,
  3;9,31,28;,
  3;3,8,27;,
  3;12,34,54;,
  3;41,11,53;,
  3;14,35,33;,
  3;10,13,32;,
  3;70,67,40;,
  3;44,70,39;,
  3;62,30,52;,
  3;47,62,51;,
  3;71,72,66;,
  3;59,65,64;,
  3;66,67,70;,
  3;25,60,59;,
  3;70,71,66;,
  3;59,64,24;,
  3;7,69,43;,
  3;38,6,42;,
  3;23,70,57;,
  3;46,22,57;,
  3;60,63,56;,
  3;50,60,56;,
  3;61,68,58;,
  3;55,61,58;;
 }
 MeshTextureCoords { 
 73;
 0.960938;0.390625;,
 0.835938;0.023438;,
 0.835938;0.023438;,
 0.007813;0.484375;,
 0.015625;0.304688;,
 0.015625;0.304688;,
 0.039063;0.710938;,
 0.039063;0.710938;,
 0.007813;0.398438;,
 0.007813;0.398438;,
 0.335938;0.023438;,
 0.335938;0.023438;,
 0.335938;0.023438;,
 0.570313;0.023438;,
 0.570313;0.023438;,
 0.570313;0.023438;,
 0.960938;0.023438;,
 0.960938;0.023438;,
 0.835938;0.390625;,
 0.835938;0.023438;,
 0.835938;0.023438;,
 0.835938;0.023438;,
 0.335938;0.023438;,
 0.335938;0.023438;,
 0.335938;0.390625;,
 0.335938;0.390625;,
 0.335938;0.023438;,
 0.125000;0.484375;,
 0.125000;0.484375;,
 0.015625;0.109375;,
 0.039063;0.710938;,
 0.125000;0.398438;,
 0.335938;0.390625;,
 0.335938;0.390625;,
 0.335938;0.390625;,
 0.570313;0.390625;,
 0.570313;0.390625;,
 0.570313;0.390625;,
 0.187500;0.710938;,
 0.187500;0.710938;,
 0.187500;0.710938;,
 0.171875;0.023438;,
 0.187500;0.484375;,
 0.187500;0.484375;,
 0.187500;0.484375;,
 0.171875;0.390625;,
 0.171875;0.023438;,
 0.187500;0.484375;,
 0.171875;0.023438;,
 0.171875;0.023438;,
 0.187500;0.710938;,
 0.187500;0.710938;,
 0.187500;0.710938;,
 0.171875;0.390625;,
 0.171875;0.390625;,
 0.171875;0.390625;,
 0.187500;0.484375;,
 0.171875;0.390625;,
 0.171875;0.023438;,
 0.570313;0.554688;,
 0.445313;0.710938;,
 0.015625;0.304688;,
 0.039063;0.570313;,
 0.335938;0.390625;,
 0.835938;0.390625;,
 0.835938;0.500000;,
 0.570313;0.554688;,
 0.445313;0.710938;,
 0.015625;0.109375;,
 0.039063;0.570313;,
 0.335938;0.390625;,
 0.835938;0.390625;,
 0.835938;0.500000;;
 }
}
Frame frm-wepbas2 {
  FrameTransformMatrix {
1.000000,0.000000,0.000000,0.000000,
0.000000,1.000000,0.000000,0.000000,
0.000000,0.000000,1.000000,0.000000,
-0.000000,0.027740,0.027373,1.000000;;
 }
Mesh wepbas2 {
 26;
 -0.068828;-0.068828;0.129735;,
 -0.068828;-0.068828;0.129735;,
 -0.068828;-0.068828;-0.129735;,
 -0.068828;-0.068828;-0.129735;,
 -0.068828;-0.068828;-0.129735;,
 -0.068828;0.068828;0.129735;,
 -0.068828;0.068828;-0.129735;,
 -0.068828;0.068828;-0.129735;,
 -0.068828;0.068828;-0.129735;,
 0.068828;-0.068828;0.129735;,
 0.068828;-0.068828;-0.129735;,
 0.068828;-0.068828;-0.129735;,
 0.068828;-0.068828;-0.129735;,
 0.068828;0.068828;0.129735;,
 0.068828;0.068828;0.129735;,
 0.068828;0.068828;-0.129735;,
 0.068828;0.068828;-0.129735;,
 0.068828;0.068828;-0.129735;,
 0.068828;0.068828;-0.129735;,
 0.068828;0.068828;0.129735;,
 0.068828;-0.068828;-0.129735;,
 0.068828;-0.068828;0.129735;,
 -0.068828;0.068828;-0.129735;,
 -0.068828;0.068828;0.129735;,
 -0.068828;-0.068828;-0.129735;,
 -0.068828;-0.068828;0.129735;;

 10;
 3;8,4,1;,
 3;5,7,0;,
 3;17,12,3;,
 3;6,16,2;,
 3;14,9,11;,
 3;15,13,10;,
 3;18,22,23;,
 3;19,18,23;,
 3;24,20,21;,
 3;25,24,21;;

 MeshMaterialList {
  4;
  10;
  0,
  0,
  0,
  0,
  1,
  1,
  2,
  2,
  3,
  3;
Material {
 1.000000;1.000000;1.000000;1.000000;;
 0.000000;
 1.000000;1.000000;1.000000;;
 0.0; 0.0; 0.0;;
 TextureFilename {
  "wep16.ppm";
 }
 }
Material {
 1.000000;1.000000;1.000000;1.000000;;
 0.000000;
 1.000000;1.000000;1.000000;;
 0.0; 0.0; 0.0;;
 TextureFilename {
  "wep16.ppm";
 }
 }
Material {
 1.000000;1.000000;1.000000;1.000000;;
 0.000000;
 1.000000;1.000000;1.000000;;
 0.0; 0.0; 0.0;;
 TextureFilename {
  "wep16.ppm";
 }
 }
Material {
 1.000000;1.000000;1.000000;1.000000;;
 0.000000;
 1.000000;1.000000;1.000000;;
 0.0; 0.0; 0.0;;
 TextureFilename {
  "wep16.ppm";
 }
 }
}
 MeshNormals {
  26;
  -0.894427;-0.447214;0.000000;,
  -0.894427;-0.447214;0.000000;,
  -0.333333;-0.666667;-0.666667;,
  -0.333333;-0.666667;-0.666667;,
  -0.333333;-0.666667;-0.666667;,
  -0.447214;0.894427;0.000000;,
  -0.816497;0.408248;-0.408248;,
  -0.816497;0.408248;-0.408248;,
  -0.816497;0.408248;-0.408248;,
  0.447214;-0.894427;0.000000;,
  0.816497;-0.408248;-0.408248;,
  0.816497;-0.408248;-0.408248;,
  0.816497;-0.408248;-0.408248;,
  0.894427;0.447214;0.000000;,
  0.894427;0.447214;0.000000;,
  0.333333;0.666667;-0.666667;,
  0.333333;0.666667;-0.666667;,
  0.333333;0.666667;-0.666667;,
  0.333333;0.666667;-0.666667;,
  0.894427;0.447214;0.000000;,
  0.816497;-0.408248;-0.408248;,
  0.447214;-0.894427;0.000000;,
  -0.816497;0.408248;-0.408248;,
  -0.447214;0.894427;0.000000;,
  -0.333333;-0.666667;-0.666667;,
  -0.894427;-0.447214;0.000000;;

  10;
  3;8,4,1;,
  3;5,7,0;,
  3;17,12,3;,
  3;6,16,2;,
  3;14,9,11;,
  3;15,13,10;,
  3;18,22,23;,
  3;19,18,23;,
  3;24,20,21;,
  3;25,24,21;;
 }
 MeshTextureCoords { 
 26;
 0.562500;0.718750;,
 0.562500;0.718750;,
 0.820313;0.718750;,
 0.820313;0.718750;,
 0.820313;0.718750;,
 0.562500;0.585938;,
 0.820313;0.585938;,
 0.820313;0.585938;,
 0.820313;0.585938;,
 0.562500;0.585938;,
 0.820313;0.585938;,
 0.820313;0.585938;,
 0.960938;0.718750;,
 0.562500;0.718750;,
 0.562500;0.718750;,
 0.820313;0.718750;,
 0.960938;0.585938;,
 0.960938;0.585938;,
 0.820313;0.585938;,
 0.562500;0.585938;,
 0.820313;0.718750;,
 0.562500;0.718750;,
 0.820313;0.718750;,
 0.562500;0.718750;,
 0.820313;0.585938;,
 0.562500;0.585938;;
 }
}
Frame frm-wepbar {
  FrameTransformMatrix {
1.000000,0.000000,0.000000,0.000000,
0.000000,0.000000,1.000000,0.000000,
0.000000,-1.000000,0.000000,0.000000,
0.000000,0.000000,-0.196714,1.000000;;
 }
Mesh wepbar {
 57;
 0.000000;0.305699;-0.000000;,
 0.000000;0.305699;-0.000000;,
 0.000000;0.305699;-0.000000;,
 0.000000;0.305699;-0.000000;,
 0.000000;0.305699;-0.000000;,
 0.042635;-0.097194;-0.000000;,
 0.042635;-0.097194;-0.000000;,
 0.042635;-0.097194;-0.000000;,
 0.042635;-0.097194;-0.000000;,
 0.042635;-0.097194;-0.000000;,
 0.042635;-0.097194;-0.000000;,
 0.042635;0.305699;-0.000000;,
 0.042635;0.305699;-0.000000;,
 0.042635;0.305699;-0.000000;,
 0.042635;0.305699;-0.000000;,
 0.021317;-0.097194;0.037316;,
 0.021317;0.305699;0.037316;,
 0.021317;0.305699;0.037316;,
 0.021317;0.305699;0.037316;,
 0.021317;0.305699;0.037316;,
 -0.021317;-0.097194;0.037316;,
 -0.021317;-0.097194;0.037316;,
 -0.021317;0.305699;0.037316;,
 -0.021317;0.305699;0.037316;,
 -0.021317;0.305699;0.037316;,
 -0.021317;0.305699;0.037316;,
 -0.042635;-0.097194;-0.000000;,
 -0.042635;-0.097194;-0.000000;,
 -0.042635;0.305699;-0.000000;,
 -0.042635;0.305699;-0.000000;,
 -0.042635;0.305699;-0.000000;,
 -0.042635;0.305699;-0.000000;,
 -0.021317;-0.097194;-0.037316;,
 -0.021317;-0.097194;-0.037316;,
 -0.021317;0.305699;-0.037316;,
 -0.021317;0.305699;-0.037316;,
 -0.021317;0.305699;-0.037316;,
 -0.021317;0.305699;-0.037316;,
 0.021317;-0.097194;-0.037316;,
 0.021317;0.305699;-0.037316;,
 0.021317;0.305699;-0.037316;,
 0.021317;0.305699;-0.037316;,
 0.021317;0.305699;-0.037316;,
 0.021317;0.305699;-0.037316;,
 0.021317;-0.097194;-0.037316;,
 -0.021317;0.305699;-0.037316;,
 -0.021317;-0.097194;-0.037316;,
 -0.042635;0.305699;-0.000000;,
 -0.042635;-0.097194;-0.000000;,
 -0.021317;0.305699;0.037316;,
 -0.021317;-0.097194;0.037316;,
 0.021317;0.305699;0.037316;,
 0.021317;-0.097194;0.037316;,
 0.042635;0.305699;-0.000000;,
 0.042635;-0.097194;-0.000000;,
 0.000000;0.305699;-0.000000;,
 0.000000;-0.097194;-0.000000;;

 22;
 3;33,38,10;,
 3;27,32,9;,
 3;21,26,8;,
 3;15,20,7;,
 3;19,52,6;,
 3;14,18,5;,
 3;4,17,13;,
 3;25,50,52;,
 3;16,24,52;,
 3;3,23,51;,
 3;31,48,50;,
 3;22,30,50;,
 3;2,29,49;,
 3;37,46,48;,
 3;28,36,48;,
 3;1,35,47;,
 3;42,44,46;,
 3;34,41,46;,
 3;0,40,45;,
 3;12,54,44;,
 3;39,11,44;,
 3;55,53,43;;

 MeshMaterialList {
  5;
  22;
  0,
  0,
  0,
  0,
  1,
  1,
  2,
  1,
  1,
  2,
  3,
  3,
  2,
  3,
  3,
  2,
  4,
  4,
  2,
  4,
  4,
  2;
Material {
 1.000000;1.000000;1.000000;1.000000;;
 0.000000;
 1.000000;1.000000;1.000000;;
 0.0; 0.0; 0.0;;
 }
Material {
 1.000000;1.000000;1.000000;1.000000;;
 0.000000;
 1.000000;1.000000;1.000000;;
 0.0; 0.0; 0.0;;
 TextureFilename {
  "wep16.ppm";
 }
 }
Material {
 0.992908;0.985816;0.992908;1.000000;;
 0.000000;
 1.000000;1.000000;1.000000;;
 0.0; 0.0; 0.0;;
 TextureFilename {
  "wep16.ppm";
 }
 }
Material {
 1.000000;1.000000;1.000000;1.000000;;
 0.000000;
 1.000000;1.000000;1.000000;;
 0.0; 0.0; 0.0;;
 TextureFilename {
  "wep16.ppm";
 }
 }
Material {
 1.000000;1.000000;1.000000;1.000000;;
 0.000000;
 1.000000;1.000000;1.000000;;
 0.0; 0.0; 0.0;;
 TextureFilename {
  "wep16.ppm";
 }
 }
}
 MeshNormals {
  57;
  0.000000;1.000000;0.000000;,
  0.000000;1.000000;0.000000;,
  0.000000;1.000000;0.000000;,
  0.000000;1.000000;0.000000;,
  0.000000;1.000000;0.000000;,
  0.589409;-0.800000;0.112235;,
  0.589409;-0.800000;0.112235;,
  0.589409;-0.800000;0.112235;,
  0.589409;-0.800000;0.112235;,
  0.589409;-0.800000;0.112235;,
  0.589409;-0.800000;0.112235;,
  0.817364;0.554700;-0.155642;,
  0.817364;0.554700;-0.155642;,
  0.817364;0.554700;-0.155642;,
  0.817364;0.554700;-0.155642;,
  0.307298;-0.353905;0.883357;,
  0.523987;0.603459;0.601062;,
  0.523987;0.603459;0.601062;,
  0.523987;0.603459;0.601062;,
  0.523987;0.603459;0.601062;,
  -0.523987;-0.603459;0.601062;,
  -0.523987;-0.603459;0.601062;,
  -0.261993;0.603459;0.753125;,
  -0.261993;0.603459;0.753125;,
  -0.261993;0.603459;0.753125;,
  -0.261993;0.603459;0.753125;,
  -0.817364;-0.554700;-0.155642;,
  -0.817364;-0.554700;-0.155642;,
  -0.817363;0.554700;0.155642;,
  -0.817363;0.554700;0.155642;,
  -0.817363;0.554700;0.155642;,
  -0.817363;0.554700;0.155642;,
  -0.261993;-0.603459;-0.753125;,
  -0.261993;-0.603459;-0.753125;,
  -0.523987;0.603459;-0.601062;,
  -0.523987;0.603459;-0.601062;,
  -0.523987;0.603459;-0.601062;,
  -0.523987;0.603459;-0.601062;,
  0.614596;-0.353905;-0.704999;,
  0.261994;0.603459;-0.753125;,
  0.261994;0.603459;-0.753125;,
  0.261994;0.603459;-0.753125;,
  0.261994;0.603459;-0.753125;,
  0.261994;0.603459;-0.753125;,
  0.614596;-0.353905;-0.704999;,
  -0.523987;0.603459;-0.601062;,
  -0.261993;-0.603459;-0.753125;,
  -0.817363;0.554700;0.155642;,
  -0.817364;-0.554700;-0.155642;,
  -0.261993;0.603459;0.753125;,
  -0.523987;-0.603459;0.601062;,
  0.523987;0.603459;0.601062;,
  0.307298;-0.353905;0.883357;,
  0.817364;0.554700;-0.155642;,
  0.589409;-0.800000;0.112235;,
  0.000000;1.000000;0.000000;,
  0.000000;0.000000;0.000000;;

  22;
  3;33,38,10;,
  3;27,32,9;,
  3;21,26,8;,
  3;15,20,7;,
  3;19,52,6;,
  3;14,18,5;,
  3;4,17,13;,
  3;25,50,52;,
  3;16,24,52;,
  3;3,23,51;,
  3;31,48,50;,
  3;22,30,50;,
  3;2,29,49;,
  3;37,46,48;,
  3;28,36,48;,
  3;1,35,47;,
  3;42,44,46;,
  3;34,41,46;,
  3;0,40,45;,
  3;12,54,44;,
  3;39,11,44;,
  3;55,53,43;;
 }
 MeshTextureCoords { 
 57;
 0.144531;0.933594;,
 0.144531;0.933594;,
 0.144531;0.933594;,
 0.144531;0.933594;,
 0.144531;0.933594;,
 0.703125;0.875000;,
 0.703125;0.875000;,
 0.000000;0.000000;,
 0.000000;0.000000;,
 0.000000;0.000000;,
 0.000000;0.000000;,
 0.257813;0.992188;,
 0.257813;0.992188;,
 0.210938;0.933594;,
 0.257813;0.875000;,
 0.000000;0.000000;,
 0.257813;0.929688;,
 0.177734;0.988697;,
 0.257813;0.929688;,
 0.257813;0.929688;,
 0.000000;0.000000;,
 0.000000;0.000000;,
 0.257813;0.992188;,
 0.118462;0.988182;,
 0.257813;0.992188;,
 0.257813;0.992188;,
 0.000000;0.000000;,
 0.000000;0.000000;,
 0.257813;0.929688;,
 0.088270;0.934052;,
 0.257813;0.929688;,
 0.257813;0.929688;,
 0.000000;0.000000;,
 0.000000;0.000000;,
 0.257813;0.875000;,
 0.119110;0.879063;,
 0.257813;0.875000;,
 0.257813;0.875000;,
 0.000000;0.000000;,
 0.257813;0.929688;,
 0.178383;0.879578;,
 0.257813;0.929688;,
 0.257813;0.929688;,
 0.178383;0.879578;,
 0.703125;0.929688;,
 0.119110;0.879063;,
 0.703125;0.875000;,
 0.088270;0.934052;,
 0.703125;0.929688;,
 0.118462;0.988182;,
 0.703125;0.992188;,
 0.177734;0.988697;,
 0.703125;0.929688;,
 0.210938;0.933594;,
 0.703125;0.992188;,
 0.144531;0.933594;,
 0.0;0.0;;
 }
}
Frame frm-wepbar0 {
  FrameTransformMatrix {
1.000000,0.000000,0.000000,0.000000,
0.000000,1.000000,0.000000,0.000000,
0.000000,0.000000,1.000000,0.000000,
0.000000,0.167932,-0.000000,1.000000;;
 }
Frame frm-wepbar1 {
  FrameTransformMatrix {
0.000000,0.000000,-1.000000,0.000000,
-1.000000,-0.000000,-0.000000,0.000000,
-0.000000,1.000000,0.000000,0.000000,
0.000000,0.000000,0.000000,1.000000;;
 }
Mesh wepbar1 {
 30;
 0.035906;-0.016800;0.133875;,
 0.035906;-0.016800;0.133875;,
 0.035906;-0.016800;0.133875;,
 0.035906;-0.016800;-0.137025;,
 0.035906;-0.016800;-0.137025;,
 0.035906;-0.016800;-0.137025;,
 0.035906;0.016800;0.133875;,
 0.035906;0.016800;0.133875;,
 0.035906;0.016800;0.133875;,
 0.035906;0.016800;-0.137025;,
 0.035906;0.016800;-0.137025;,
 0.035906;0.016800;-0.137025;,
 0.069506;-0.016800;0.133875;,
 0.069506;-0.016800;0.133875;,
 0.069506;-0.016800;0.133875;,
 0.069506;-0.016800;-0.137025;,
 0.069506;0.016800;0.133875;,
 0.069506;0.016800;0.133875;,
 0.069506;0.016800;0.133875;,
 0.069506;0.016800;-0.137025;,
 0.069506;0.016800;-0.137025;,
 0.069506;0.016800;-0.137025;,
 0.069506;0.016800;-0.137025;,
 0.069506;0.016800;0.133875;,
 0.069506;-0.016800;-0.137025;,
 0.069506;-0.016800;0.133875;,
 0.035906;0.016800;-0.137025;,
 0.035906;0.016800;0.133875;,
 0.035906;-0.016800;-0.137025;,
 0.035906;-0.016800;0.133875;;

 12;
 3;11,5,2;,
 3;8,10,1;,
 3;21,15,4;,
 3;9,20,3;,
 3;18,14,24;,
 3;19,17,24;,
 3;7,0,13;,
 3;16,6,12;,
 3;28,24,25;,
 3;29,28,25;,
 3;22,26,27;,
 3;23,22,27;;

 MeshMaterialList {
  4;
  12;
  0,
  0,
  1,
  1,
  2,
  2,
  3,
  3,
  2,
  2,
  0,
  0;
Material {
 1.000000;1.000000;1.000000;1.000000;;
 0.000000;
 1.000000;1.000000;1.000000;;
 0.0; 0.0; 0.0;;
 TextureFilename {
  "wep16.ppm";
 }
 }
Material {
 1.000000;1.000000;1.000000;1.000000;;
 0.000000;
 1.000000;1.000000;1.000000;;
 0.0; 0.0; 0.0;;
 TextureFilename {
  "wep16.ppm";
 }
 }
Material {
 1.000000;1.000000;1.000000;1.000000;;
 0.000000;
 1.000000;1.000000;1.000000;;
 0.0; 0.0; 0.0;;
 TextureFilename {
  "wep16.ppm";
 }
 }
Material {
 1.000000;1.000000;1.000000;1.000000;;
 0.000000;
 1.000000;1.000000;1.000000;;
 0.0; 0.0; 0.0;;
 TextureFilename {
  "wep16.ppm";
 }
 }
}
 MeshNormals {
  30;
  -0.816497;-0.408248;0.408248;,
  -0.816497;-0.408248;0.408248;,
  -0.816497;-0.408248;0.408248;,
  -0.333333;-0.666667;-0.666667;,
  -0.333333;-0.666667;-0.666667;,
  -0.333333;-0.666667;-0.666667;,
  -0.333333;0.666667;0.666667;,
  -0.333333;0.666667;0.666667;,
  -0.333333;0.666667;0.666667;,
  -0.816497;0.408248;-0.408248;,
  -0.816497;0.408248;-0.408248;,
  -0.816497;0.408248;-0.408248;,
  0.333333;-0.666667;0.666667;,
  0.333333;-0.666667;0.666667;,
  0.333333;-0.666667;0.666667;,
  0.816497;-0.408248;-0.408248;,
  0.816497;0.408248;0.408248;,
  0.816497;0.408248;0.408248;,
  0.816497;0.408248;0.408248;,
  0.333333;0.666667;-0.666667;,
  0.333333;0.666667;-0.666667;,
  0.333333;0.666667;-0.666667;,
  0.333333;0.666667;-0.666667;,
  0.816497;0.408248;0.408248;,
  0.816497;-0.408248;-0.408248;,
  0.333333;-0.666667;0.666667;,
  -0.816497;0.408248;-0.408248;,
  -0.333333;0.666667;0.666667;,
  -0.333333;-0.666667;-0.666667;,
  -0.816497;-0.408248;0.408248;;

  12;
  3;11,5,2;,
  3;8,10,1;,
  3;21,15,4;,
  3;9,20,3;,
  3;18,14,24;,
  3;19,17,24;,
  3;7,0,13;,
  3;16,6,12;,
  3;28,24,25;,
  3;29,28,25;,
  3;22,26,27;,
  3;23,22,27;;
 }
 MeshTextureCoords { 
 30;
 0.859375;0.437500;,
 0.015625;0.867188;,
 0.015625;0.867188;,
 0.859375;0.554688;,
 0.859375;0.554688;,
 0.703125;0.867188;,
 0.859375;0.554688;,
 0.859375;0.554688;,
 0.015625;0.804688;,
 0.859375;0.437500;,
 0.703125;0.804688;,
 0.703125;0.804688;,
 0.976563;0.437500;,
 0.976563;0.437500;,
 0.015625;0.804688;,
 0.976563;0.554688;,
 0.976563;0.554688;,
 0.015625;0.867188;,
 0.015625;0.867188;,
 0.703125;0.867188;,
 0.976563;0.437500;,
 0.976563;0.437500;,
 0.703125;0.742188;,
 0.015625;0.742188;,
 0.703125;0.804688;,
 0.015625;0.804688;,
 0.703125;0.804688;,
 0.015625;0.804688;,
 0.703125;0.742188;,
 0.015625;0.742188;;
 }
}
}
Frame frm-wepbar2 {
  FrameTransformMatrix {
-0.866025,0.000000,-0.500000,0.000000,
-0.500000,0.000000,0.866025,0.000000,
0.000000,1.000000,-0.000000,0.000000,
0.000000,0.000000,0.000000,1.000000;;
 }
Mesh wepbar2 {
 31;
 0.035906;-0.016800;0.133875;,
 0.035906;-0.016800;0.133875;,
 0.035906;-0.016800;0.133875;,
 0.035906;-0.016800;-0.137025;,
 0.035906;-0.016800;-0.137025;,
 0.035906;-0.016800;-0.137025;,
 0.035906;0.016800;0.133875;,
 0.035906;0.016800;0.133875;,
 0.035906;0.016800;0.133875;,
 0.035906;0.016800;-0.137025;,
 0.035906;0.016800;-0.137025;,
 0.035906;0.016800;-0.137025;,
 0.069506;-0.016800;0.133875;,
 0.069506;-0.016800;0.133875;,
 0.069506;-0.016800;0.133875;,
 0.069506;-0.016800;-0.137025;,
 0.069506;-0.016800;-0.137025;,
 0.069506;-0.016800;-0.137025;,
 0.069506;0.016800;0.133875;,
 0.069506;0.016800;0.133875;,
 0.069506;0.016800;0.133875;,
 0.069506;0.016800;-0.137025;,
 0.069506;0.016800;-0.137025;,
 0.069506;0.016800;-0.137025;,
 0.069506;0.016800;0.133875;,
 0.069506;-0.016800;-0.137025;,
 0.069506;-0.016800;0.133875;,
 0.035906;0.016800;-0.137025;,
 0.035906;0.016800;0.133875;,
 0.035906;-0.016800;-0.137025;,
 0.035906;-0.016800;0.133875;;

 12;
 3;11,5,2;,
 3;8,10,1;,
 3;22,17,4;,
 3;9,21,3;,
 3;20,14,16;,
 3;23,19,15;,
 3;7,0,13;,
 3;18,6,12;,
 3;29,25,26;,
 3;30,29,26;,
 3;23,27,28;,
 3;24,23,28;;

 MeshMaterialList {
  4;
  12;
  0,
  0,
  1,
  1,
  2,
  2,
  3,
  3,
  0,
  0,
  2,
  2;
Material {
 1.000000;1.000000;1.000000;1.000000;;
 0.000000;
 1.000000;1.000000;1.000000;;
 0.0; 0.0; 0.0;;
 TextureFilename {
  "wep16.ppm";
 }
 }
Material {
 1.000000;1.000000;1.000000;1.000000;;
 0.000000;
 1.000000;1.000000;1.000000;;
 0.0; 0.0; 0.0;;
 TextureFilename {
  "wep16.ppm";
 }
 }
Material {
 1.000000;1.000000;1.000000;1.000000;;
 0.000000;
 1.000000;1.000000;1.000000;;
 0.0; 0.0; 0.0;;
 TextureFilename {
  "wep16.ppm";
 }
 }
Material {
 1.000000;1.000000;1.000000;1.000000;;
 0.000000;
 1.000000;1.000000;1.000000;;
 0.0; 0.0; 0.0;;
 TextureFilename {
  "wep16.ppm";
 }
 }
}
 MeshNormals {
  31;
  -0.816497;-0.408248;0.408248;,
  -0.816497;-0.408248;0.408248;,
  -0.816497;-0.408248;0.408248;,
  -0.333333;-0.666667;-0.666667;,
  -0.333333;-0.666667;-0.666667;,
  -0.333333;-0.666667;-0.666667;,
  -0.333333;0.666667;0.666667;,
  -0.333333;0.666667;0.666667;,
  -0.333333;0.666667;0.666667;,
  -0.816497;0.408248;-0.408248;,
  -0.816497;0.408248;-0.408248;,
  -0.816497;0.408248;-0.408248;,
  0.333333;-0.666667;0.666667;,
  0.333333;-0.666667;0.666667;,
  0.333333;-0.666667;0.666667;,
  0.816497;-0.408248;-0.408248;,
  0.816497;-0.408248;-0.408248;,
  0.816497;-0.408248;-0.408248;,
  0.816497;0.408248;0.408248;,
  0.816497;0.408248;0.408248;,
  0.816497;0.408248;0.408248;,
  0.333333;0.666667;-0.666667;,
  0.333333;0.666667;-0.666667;,
  0.333333;0.666667;-0.666667;,
  0.816497;0.408248;0.408248;,
  0.816497;-0.408248;-0.408248;,
  0.333333;-0.666667;0.666667;,
  -0.816497;0.408248;-0.408248;,
  -0.333333;0.666667;0.666667;,
  -0.333333;-0.666667;-0.666667;,
  -0.816497;-0.408248;0.408248;;

  12;
  3;11,5,2;,
  3;8,10,1;,
  3;22,17,4;,
  3;9,21,3;,
  3;20,14,16;,
  3;23,19,15;,
  3;7,0,13;,
  3;18,6,12;,
  3;29,25,26;,
  3;30,29,26;,
  3;23,27,28;,
  3;24,23,28;;
 }
 MeshTextureCoords { 
 31;
 0.859375;0.437500;,
 0.015625;0.804688;,
 0.015625;0.804688;,
 0.859375;0.554688;,
 0.859375;0.554688;,
 0.703125;0.804688;,
 0.859375;0.554688;,
 0.859375;0.554688;,
 0.015625;0.742188;,
 0.859375;0.437500;,
 0.703125;0.742188;,
 0.703125;0.742188;,
 0.976563;0.437500;,
 0.976563;0.437500;,
 0.015625;0.742188;,
 0.703125;0.742188;,
 0.703125;0.742188;,
 0.976563;0.554688;,
 0.976563;0.554688;,
 0.015625;0.804688;,
 0.015625;0.804688;,
 0.976563;0.437500;,
 0.976563;0.437500;,
 0.703125;0.804688;,
 0.015625;0.804688;,
 0.703125;0.867188;,
 0.015625;0.867188;,
 0.703125;0.867188;,
 0.015625;0.867188;,
 0.703125;0.804688;,
 0.015625;0.804688;;
 }
}
}
Frame frm-wepbar3 {
  FrameTransformMatrix {
-0.866025,0.000000,0.500000,0.000000,
0.500000,0.000000,0.866025,0.000000,
-0.000000,1.000000,-0.000000,0.000000,
0.000000,0.000000,0.000000,1.000000;;
 }
Mesh wepbar3 {
 30;
 0.035906;-0.016800;0.133875;,
 0.035906;-0.016800;0.133875;,
 0.035906;-0.016800;0.133875;,
 0.035906;-0.016800;-0.137025;,
 0.035906;-0.016800;-0.137025;,
 0.035906;-0.016800;-0.137025;,
 0.035906;0.016800;0.133875;,
 0.035906;0.016800;0.133875;,
 0.035906;0.016800;0.133875;,
 0.035906;0.016800;-0.137025;,
 0.035906;0.016800;-0.137025;,
 0.035906;0.016800;-0.137025;,
 0.069506;-0.016800;0.133875;,
 0.069506;-0.016800;0.133875;,
 0.069506;-0.016800;0.133875;,
 0.069506;-0.016800;-0.137025;,
 0.069506;0.016800;0.133875;,
 0.069506;0.016800;0.133875;,
 0.069506;0.016800;0.133875;,
 0.069506;0.016800;-0.137025;,
 0.069506;0.016800;-0.137025;,
 0.069506;0.016800;-0.137025;,
 0.069506;0.016800;-0.137025;,
 0.069506;0.016800;0.133875;,
 0.069506;-0.016800;-0.137025;,
 0.069506;-0.016800;0.133875;,
 0.035906;0.016800;-0.137025;,
 0.035906;0.016800;0.133875;,
 0.035906;-0.016800;-0.137025;,
 0.035906;-0.016800;0.133875;;

 12;
 3;11,5,2;,
 3;8,10,1;,
 3;21,15,4;,
 3;9,20,3;,
 3;18,14,24;,
 3;19,17,24;,
 3;7,0,13;,
 3;16,6,12;,
 3;28,24,25;,
 3;29,28,25;,
 3;22,26,27;,
 3;23,22,27;;

 MeshMaterialList {
  4;
  12;
  0,
  0,
  1,
  1,
  2,
  2,
  3,
  3,
  2,
  2,
  0,
  0;
Material {
 1.000000;1.000000;1.000000;1.000000;;
 0.000000;
 1.000000;1.000000;1.000000;;
 0.0; 0.0; 0.0;;
 TextureFilename {
  "wep16.ppm";
 }
 }
Material {
 1.000000;1.000000;1.000000;1.000000;;
 0.000000;
 1.000000;1.000000;1.000000;;
 0.0; 0.0; 0.0;;
 TextureFilename {
  "wep16.ppm";
 }
 }
Material {
 1.000000;1.000000;1.000000;1.000000;;
 0.000000;
 1.000000;1.000000;1.000000;;
 0.0; 0.0; 0.0;;
 TextureFilename {
  "wep16.ppm";
 }
 }
Material {
 1.000000;1.000000;1.000000;1.000000;;
 0.000000;
 1.000000;1.000000;1.000000;;
 0.0; 0.0; 0.0;;
 TextureFilename {
  "wep16.ppm";
 }
 }
}
 MeshNormals {
  30;
  -0.816497;-0.408248;0.408248;,
  -0.816497;-0.408248;0.408248;,
  -0.816497;-0.408248;0.408248;,
  -0.333333;-0.666667;-0.666667;,
  -0.333333;-0.666667;-0.666667;,
  -0.333333;-0.666667;-0.666667;,
  -0.333333;0.666667;0.666667;,
  -0.333333;0.666667;0.666667;,
  -0.333333;0.666667;0.666667;,
  -0.816497;0.408248;-0.408248;,
  -0.816497;0.408248;-0.408248;,
  -0.816497;0.408248;-0.408248;,
  0.333333;-0.666667;0.666667;,
  0.333333;-0.666667;0.666667;,
  0.333333;-0.666667;0.666667;,
  0.816497;-0.408248;-0.408248;,
  0.816497;0.408248;0.408248;,
  0.816497;0.408248;0.408248;,
  0.816497;0.408248;0.408248;,
  0.333333;0.666667;-0.666667;,
  0.333333;0.666667;-0.666667;,
  0.333333;0.666667;-0.666667;,
  0.333333;0.666667;-0.666667;,
  0.816497;0.408248;0.408248;,
  0.816497;-0.408248;-0.408248;,
  0.333333;-0.666667;0.666667;,
  -0.816497;0.408248;-0.408248;,
  -0.333333;0.666667;0.666667;,
  -0.333333;-0.666667;-0.666667;,
  -0.816497;-0.408248;0.408248;;

  12;
  3;11,5,2;,
  3;8,10,1;,
  3;21,15,4;,
  3;9,20,3;,
  3;18,14,24;,
  3;19,17,24;,
  3;7,0,13;,
  3;16,6,12;,
  3;28,24,25;,
  3;29,28,25;,
  3;22,26,27;,
  3;23,22,27;;
 }
 MeshTextureCoords { 
 30;
 0.859375;0.437500;,
 0.015625;0.867188;,
 0.015625;0.867188;,
 0.859375;0.554688;,
 0.859375;0.554688;,
 0.703125;0.867188;,
 0.859375;0.554688;,
 0.859375;0.554688;,
 0.015625;0.804688;,
 0.859375;0.437500;,
 0.703125;0.804688;,
 0.703125;0.804688;,
 0.976563;0.437500;,
 0.976563;0.437500;,
 0.015625;0.804688;,
 0.976563;0.554688;,
 0.976563;0.554688;,
 0.015625;0.867188;,
 0.015625;0.867188;,
 0.703125;0.867188;,
 0.976563;0.437500;,
 0.976563;0.437500;,
 0.703125;0.742188;,
 0.015625;0.742188;,
 0.703125;0.804688;,
 0.015625;0.804688;,
 0.703125;0.804688;,
 0.015625;0.804688;,
 0.703125;0.742188;,
 0.015625;0.742188;;
 }
}
}
Frame frm-wepbar4 {
  FrameTransformMatrix {
0.000000,-0.000000,1.000000,0.000000,
1.000000,-0.000000,-0.000000,0.000000,
0.000000,1.000000,0.000000,0.000000,
0.000000,0.000000,0.000000,1.000000;;
 }
Mesh wepbar4 {
 30;
 0.035906;-0.016800;0.133875;,
 0.035906;-0.016800;0.133875;,
 0.035906;-0.016800;0.133875;,
 0.035906;-0.016800;-0.137025;,
 0.035906;-0.016800;-0.137025;,
 0.035906;-0.016800;-0.137025;,
 0.035906;0.016800;0.133875;,
 0.035906;0.016800;0.133875;,
 0.035906;0.016800;0.133875;,
 0.035906;0.016800;-0.137025;,
 0.035906;0.016800;-0.137025;,
 0.035906;0.016800;-0.137025;,
 0.069506;-0.016800;0.133875;,
 0.069506;-0.016800;0.133875;,
 0.069506;-0.016800;0.133875;,
 0.069506;-0.016800;-0.137025;,
 0.069506;0.016800;0.133875;,
 0.069506;0.016800;0.133875;,
 0.069506;0.016800;0.133875;,
 0.069506;0.016800;-0.137025;,
 0.069506;0.016800;-0.137025;,
 0.069506;0.016800;-0.137025;,
 0.069506;0.016800;-0.137025;,
 0.069506;0.016800;0.133875;,
 0.069506;-0.016800;-0.137025;,
 0.069506;-0.016800;0.133875;,
 0.035906;0.016800;-0.137025;,
 0.035906;0.016800;0.133875;,
 0.035906;-0.016800;-0.137025;,
 0.035906;-0.016800;0.133875;;

 12;
 3;11,5,2;,
 3;8,10,1;,
 3;21,15,4;,
 3;9,20,3;,
 3;18,14,24;,
 3;19,17,24;,
 3;7,0,13;,
 3;16,6,12;,
 3;28,24,25;,
 3;29,28,25;,
 3;22,26,27;,
 3;23,22,27;;

 MeshMaterialList {
  4;
  12;
  0,
  0,
  1,
  1,
  2,
  2,
  3,
  3,
  2,
  2,
  0,
  0;
Material {
 1.000000;1.000000;1.000000;1.000000;;
 0.000000;
 1.000000;1.000000;1.000000;;
 0.0; 0.0; 0.0;;
 TextureFilename {
  "wep16.ppm";
 }
 }
Material {
 1.000000;1.000000;1.000000;1.000000;;
 0.000000;
 1.000000;1.000000;1.000000;;
 0.0; 0.0; 0.0;;
 TextureFilename {
  "wep16.ppm";
 }
 }
Material {
 1.000000;1.000000;1.000000;1.000000;;
 0.000000;
 1.000000;1.000000;1.000000;;
 0.0; 0.0; 0.0;;
 TextureFilename {
  "wep16.ppm";
 }
 }
Material {
 1.000000;1.000000;1.000000;1.000000;;
 0.000000;
 1.000000;1.000000;1.000000;;
 0.0; 0.0; 0.0;;
 TextureFilename {
  "wep16.ppm";
 }
 }
}
 MeshNormals {
  30;
  -0.816497;-0.408248;0.408248;,
  -0.816497;-0.408248;0.408248;,
  -0.816497;-0.408248;0.408248;,
  -0.333333;-0.666667;-0.666667;,
  -0.333333;-0.666667;-0.666667;,
  -0.333333;-0.666667;-0.666667;,
  -0.333333;0.666667;0.666667;,
  -0.333333;0.666667;0.666667;,
  -0.333333;0.666667;0.666667;,
  -0.816497;0.408248;-0.408248;,
  -0.816497;0.408248;-0.408248;,
  -0.816497;0.408248;-0.408248;,
  0.333333;-0.666667;0.666667;,
  0.333333;-0.666667;0.666667;,
  0.333333;-0.666667;0.666667;,
  0.816497;-0.408248;-0.408248;,
  0.816497;0.408248;0.408248;,
  0.816497;0.408248;0.408248;,
  0.816497;0.408248;0.408248;,
  0.333333;0.666667;-0.666667;,
  0.333333;0.666667;-0.666667;,
  0.333333;0.666667;-0.666667;,
  0.333333;0.666667;-0.666667;,
  0.816497;0.408248;0.408248;,
  0.816497;-0.408248;-0.408248;,
  0.333333;-0.666667;0.666667;,
  -0.816497;0.408248;-0.408248;,
  -0.333333;0.666667;0.666667;,
  -0.333333;-0.666667;-0.666667;,
  -0.816497;-0.408248;0.408248;;

  12;
  3;11,5,2;,
  3;8,10,1;,
  3;21,15,4;,
  3;9,20,3;,
  3;18,14,24;,
  3;19,17,24;,
  3;7,0,13;,
  3;16,6,12;,
  3;28,24,25;,
  3;29,28,25;,
  3;22,26,27;,
  3;23,22,27;;
 }
 MeshTextureCoords { 
 30;
 0.859375;0.437500;,
 0.015625;0.867188;,
 0.015625;0.867188;,
 0.859375;0.554688;,
 0.859375;0.554688;,
 0.703125;0.867188;,
 0.859375;0.554688;,
 0.859375;0.554688;,
 0.015625;0.804688;,
 0.859375;0.437500;,
 0.703125;0.804688;,
 0.703125;0.804688;,
 0.976563;0.437500;,
 0.976563;0.437500;,
 0.015625;0.804688;,
 0.976563;0.554688;,
 0.976563;0.554688;,
 0.015625;0.867188;,
 0.015625;0.867188;,
 0.703125;0.867188;,
 0.976563;0.437500;,
 0.976563;0.437500;,
 0.703125;0.742188;,
 0.015625;0.742188;,
 0.703125;0.804688;,
 0.015625;0.804688;,
 0.703125;0.804688;,
 0.015625;0.804688;,
 0.703125;0.742188;,
 0.015625;0.742188;;
 }
}
}
Frame frm-wepbar5 {
  FrameTransformMatrix {
0.866025,0.000000,0.500000,0.000000,
0.500000,0.000000,-0.866025,0.000000,
-0.000000,1.000000,0.000000,0.000000,
0.000000,0.000000,0.000000,1.000000;;
 }
Mesh wepbar5 {
 30;
 0.035906;-0.016800;0.133875;,
 0.035906;-0.016800;0.133875;,
 0.035906;-0.016800;0.133875;,
 0.035906;-0.016800;-0.137025;,
 0.035906;-0.016800;-0.137025;,
 0.035906;-0.016800;-0.137025;,
 0.035906;0.016800;0.133875;,
 0.035906;0.016800;0.133875;,
 0.035906;0.016800;0.133875;,
 0.035906;0.016800;-0.137025;,
 0.035906;0.016800;-0.137025;,
 0.035906;0.016800;-0.137025;,
 0.069506;-0.016800;0.133875;,
 0.069506;-0.016800;0.133875;,
 0.069506;-0.016800;0.133875;,
 0.069506;-0.016800;-0.137025;,
 0.069506;0.016800;0.133875;,
 0.069506;0.016800;0.133875;,
 0.069506;0.016800;0.133875;,
 0.069506;0.016800;-0.137025;,
 0.069506;0.016800;-0.137025;,
 0.069506;0.016800;-0.137025;,
 0.069506;0.016800;-0.137025;,
 0.069506;0.016800;0.133875;,
 0.069506;-0.016800;-0.137025;,
 0.069506;-0.016800;0.133875;,
 0.035906;0.016800;-0.137025;,
 0.035906;0.016800;0.133875;,
 0.035906;-0.016800;-0.137025;,
 0.035906;-0.016800;0.133875;;

 12;
 3;11,5,2;,
 3;8,10,1;,
 3;21,15,4;,
 3;9,20,3;,
 3;18,14,24;,
 3;19,17,24;,
 3;7,0,13;,
 3;16,6,12;,
 3;28,24,25;,
 3;29,28,25;,
 3;22,26,27;,
 3;23,22,27;;

 MeshMaterialList {
  4;
  12;
  0,
  0,
  1,
  1,
  2,
  2,
  3,
  3,
  2,
  2,
  0,
  0;
Material {
 1.000000;1.000000;1.000000;1.000000;;
 0.000000;
 1.000000;1.000000;1.000000;;
 0.0; 0.0; 0.0;;
 TextureFilename {
  "wep16.ppm";
 }
 }
Material {
 1.000000;1.000000;1.000000;1.000000;;
 0.000000;
 1.000000;1.000000;1.000000;;
 0.0; 0.0; 0.0;;
 TextureFilename {
  "wep16.ppm";
 }
 }
Material {
 1.000000;1.000000;1.000000;1.000000;;
 0.000000;
 1.000000;1.000000;1.000000;;
 0.0; 0.0; 0.0;;
 TextureFilename {
  "wep16.ppm";
 }
 }
Material {
 1.000000;1.000000;1.000000;1.000000;;
 0.000000;
 1.000000;1.000000;1.000000;;
 0.0; 0.0; 0.0;;
 TextureFilename {
  "wep16.ppm";
 }
 }
}
 MeshNormals {
  30;
  -0.816497;-0.408248;0.408248;,
  -0.816497;-0.408248;0.408248;,
  -0.816497;-0.408248;0.408248;,
  -0.333333;-0.666667;-0.666667;,
  -0.333333;-0.666667;-0.666667;,
  -0.333333;-0.666667;-0.666667;,
  -0.333333;0.666667;0.666667;,
  -0.333333;0.666667;0.666667;,
  -0.333333;0.666667;0.666667;,
  -0.816497;0.408248;-0.408248;,
  -0.816497;0.408248;-0.408248;,
  -0.816497;0.408248;-0.408248;,
  0.333333;-0.666667;0.666667;,
  0.333333;-0.666667;0.666667;,
  0.333333;-0.666667;0.666667;,
  0.816497;-0.408248;-0.408248;,
  0.816497;0.408248;0.408248;,
  0.816497;0.408248;0.408248;,
  0.816497;0.408248;0.408248;,
  0.333333;0.666667;-0.666667;,
  0.333333;0.666667;-0.666667;,
  0.333333;0.666667;-0.666667;,
  0.333333;0.666667;-0.666667;,
  0.816497;0.408248;0.408248;,
  0.816497;-0.408248;-0.408248;,
  0.333333;-0.666667;0.666667;,
  -0.816497;0.408248;-0.408248;,
  -0.333333;0.666667;0.666667;,
  -0.333333;-0.666667;-0.666667;,
  -0.816497;-0.408248;0.408248;;

  12;
  3;11,5,2;,
  3;8,10,1;,
  3;21,15,4;,
  3;9,20,3;,
  3;18,14,24;,
  3;19,17,24;,
  3;7,0,13;,
  3;16,6,12;,
  3;28,24,25;,
  3;29,28,25;,
  3;22,26,27;,
  3;23,22,27;;
 }
 MeshTextureCoords { 
 30;
 0.859375;0.437500;,
 0.015625;0.867188;,
 0.015625;0.867188;,
 0.859375;0.554688;,
 0.859375;0.554688;,
 0.703125;0.867188;,
 0.859375;0.554688;,
 0.859375;0.554688;,
 0.015625;0.804688;,
 0.859375;0.437500;,
 0.703125;0.804688;,
 0.703125;0.804688;,
 0.976563;0.437500;,
 0.976563;0.437500;,
 0.015625;0.804688;,
 0.976563;0.554688;,
 0.976563;0.554688;,
 0.015625;0.867188;,
 0.015625;0.867188;,
 0.703125;0.867188;,
 0.976563;0.437500;,
 0.976563;0.437500;,
 0.703125;0.742188;,
 0.015625;0.742188;,
 0.703125;0.804688;,
 0.015625;0.804688;,
 0.703125;0.804688;,
 0.015625;0.804688;,
 0.703125;0.742188;,
 0.015625;0.742188;;
 }
}
}
Frame frm-wepbar6 {
  FrameTransformMatrix {
0.866025,0.000000,-0.500000,0.000000,
-0.500000,0.000000,-0.866025,0.000000,
0.000000,1.000000,0.000000,0.000000,
0.000000,0.000000,0.000000,1.000000;;
 }
Mesh wepbar6 {
 31;
 0.035906;-0.016800;0.133875;,
 0.035906;-0.016800;0.133875;,
 0.035906;-0.016800;0.133875;,
 0.035906;-0.016800;-0.137025;,
 0.035906;-0.016800;-0.137025;,
 0.035906;-0.016800;-0.137025;,
 0.035906;0.016800;0.133875;,
 0.035906;0.016800;0.133875;,
 0.035906;0.016800;0.133875;,
 0.035906;0.016800;-0.137025;,
 0.035906;0.016800;-0.137025;,
 0.035906;0.016800;-0.137025;,
 0.069506;-0.016800;0.133875;,
 0.069506;-0.016800;0.133875;,
 0.069506;-0.016800;0.133875;,
 0.069506;-0.016800;-0.137025;,
 0.069506;-0.016800;-0.137025;,
 0.069506;-0.016800;-0.137025;,
 0.069506;0.016800;0.133875;,
 0.069506;0.016800;0.133875;,
 0.069506;0.016800;0.133875;,
 0.069506;0.016800;-0.137025;,
 0.069506;0.016800;-0.137025;,
 0.069506;0.016800;-0.137025;,
 0.069506;0.016800;0.133875;,
 0.069506;-0.016800;-0.137025;,
 0.069506;-0.016800;0.133875;,
 0.035906;0.016800;-0.137025;,
 0.035906;0.016800;0.133875;,
 0.035906;-0.016800;-0.137025;,
 0.035906;-0.016800;0.133875;;

 12;
 3;11,5,2;,
 3;8,10,1;,
 3;22,17,4;,
 3;9,21,3;,
 3;20,14,16;,
 3;23,19,15;,
 3;7,0,13;,
 3;18,6,12;,
 3;29,25,26;,
 3;30,29,26;,
 3;23,27,28;,
 3;24,23,28;;

 MeshMaterialList {
  4;
  12;
  0,
  0,
  1,
  1,
  2,
  2,
  3,
  3,
  0,
  0,
  2,
  2;
Material {
 1.000000;1.000000;1.000000;1.000000;;
 0.000000;
 1.000000;1.000000;1.000000;;
 0.0; 0.0; 0.0;;
 TextureFilename {
  "wep16.ppm";
 }
 }
Material {
 1.000000;1.000000;1.000000;1.000000;;
 0.000000;
 1.000000;1.000000;1.000000;;
 0.0; 0.0; 0.0;;
 TextureFilename {
  "wep16.ppm";
 }
 }
Material {
 1.000000;1.000000;1.000000;1.000000;;
 0.000000;
 1.000000;1.000000;1.000000;;
 0.0; 0.0; 0.0;;
 TextureFilename {
  "wep16.ppm";
 }
 }
Material {
 1.000000;1.000000;1.000000;1.000000;;
 0.000000;
 1.000000;1.000000;1.000000;;
 0.0; 0.0; 0.0;;
 TextureFilename {
  "wep16.ppm";
 }
 }
}
 MeshNormals {
  31;
  -0.816497;-0.408248;0.408248;,
  -0.816497;-0.408248;0.408248;,
  -0.816497;-0.408248;0.408248;,
  -0.333333;-0.666667;-0.666667;,
  -0.333333;-0.666667;-0.666667;,
  -0.333333;-0.666667;-0.666667;,
  -0.333333;0.666667;0.666667;,
  -0.333333;0.666667;0.666667;,
  -0.333333;0.666667;0.666667;,
  -0.816497;0.408248;-0.408248;,
  -0.816497;0.408248;-0.408248;,
  -0.816497;0.408248;-0.408248;,
  0.333333;-0.666667;0.666667;,
  0.333333;-0.666667;0.666667;,
  0.333333;-0.666667;0.666667;,
  0.816497;-0.408248;-0.408248;,
  0.816497;-0.408248;-0.408248;,
  0.816497;-0.408248;-0.408248;,
  0.816497;0.408248;0.408248;,
  0.816497;0.408248;0.408248;,
  0.816497;0.408248;0.408248;,
  0.333333;0.666667;-0.666667;,
  0.333333;0.666667;-0.666667;,
  0.333333;0.666667;-0.666667;,
  0.816497;0.408248;0.408248;,
  0.816497;-0.408248;-0.408248;,
  0.333333;-0.666667;0.666667;,
  -0.816497;0.408248;-0.408248;,
  -0.333333;0.666667;0.666667;,
  -0.333333;-0.666667;-0.666667;,
  -0.816497;-0.408248;0.408248;;

  12;
  3;11,5,2;,
  3;8,10,1;,
  3;22,17,4;,
  3;9,21,3;,
  3;20,14,16;,
  3;23,19,15;,
  3;7,0,13;,
  3;18,6,12;,
  3;29,25,26;,
  3;30,29,26;,
  3;23,27,28;,
  3;24,23,28;;
 }
 MeshTextureCoords { 
 31;
 0.859375;0.437500;,
 0.015625;0.804688;,
 0.015625;0.804688;,
 0.859375;0.554688;,
 0.859375;0.554688;,
 0.703125;0.804688;,
 0.859375;0.554688;,
 0.859375;0.554688;,
 0.015625;0.742188;,
 0.859375;0.437500;,
 0.703125;0.742188;,
 0.703125;0.742188;,
 0.976563;0.437500;,
 0.976563;0.437500;,
 0.015625;0.742188;,
 0.703125;0.742188;,
 0.703125;0.742188;,
 0.976563;0.554688;,
 0.976563;0.554688;,
 0.015625;0.804688;,
 0.015625;0.804688;,
 0.976563;0.437500;,
 0.976563;0.437500;,
 0.703125;0.804688;,
 0.015625;0.804688;,
 0.703125;0.867188;,
 0.015625;0.867188;,
 0.703125;0.867188;,
 0.015625;0.867188;,
 0.703125;0.804688;,
 0.015625;0.804688;;
 }
}
}
}
Frame frm-wepemt {
  FrameTransformMatrix {
1.000000,0.000000,0.000000,0.000000,
0.000000,0.000000,-1.000000,0.000000,
0.000000,1.000000,0.000000,0.000000,
0.000000,0.304517,-0.000102,1.000000;;
 }
}
}
}
Frame frm-wepbas3 {
  FrameTransformMatrix {
1.000000,0.000000,0.000000,0.000000,
0.000000,0.862827,-0.505500,0.000000,
0.000000,0.505500,0.862827,0.000000,
-0.000000,0.050025,0.341699,1.000000;;
 }
Mesh wepbas3 {
 8;
 0.058500;-0.016000;0.090000;,
 -0.058500;-0.016000;0.090000;,
 0.039000;0.016000;-0.050000;,
 0.039000;0.016000;0.030000;,
 0.058500;-0.016000;-0.050000;,
 -0.039000;0.016000;-0.050000;,
 -0.039000;0.016000;0.030000;,
 -0.058500;-0.016000;-0.050000;;

 10;
 3;6,5,7;,
 3;1,6,7;,
 3;2,4,7;,
 3;5,2,7;,
 3;3,0,4;,
 3;2,3,4;,
 3;3,2,6;,
 3;2,5,6;,
 3;0,3,6;,
 3;1,0,6;;

 MeshMaterialList {
  1;
  10;
  0,
  0,
  0,
  0,
  0,
  0,
  0,
  0,
  0,
  0;
Material {
 1.000000;1.000000;1.000000;1.000000;;
 0.000000;
 1.000000;1.000000;1.000000;;
 0.0; 0.0; 0.0;;
 TextureFilename {
  "wep16.ppm";
 }
 }
}
 MeshNormals {
  8;
  0.326594;0.873938;0.359958;,
  -0.499877;0.821120;0.275471;,
  0.267003;0.788046;-0.554700;,
  0.499672;0.855203;0.137679;,
  0.763788;0.465432;-0.447214;,
  -0.438009;0.779838;-0.447214;,
  -0.329323;0.926612;0.181483;,
  -0.603828;0.367957;-0.707107;;

  10;
  3;6,5,7;,
  3;1,6,7;,
  3;2,4,7;,
  3;5,2,7;,
  3;3,0,4;,
  3;2,3,4;,
  3;3,2,6;,
  3;2,5,6;,
  3;0,3,6;,
  3;1,0,6;;
 }
 MeshTextureCoords { 
 8;
 0.726563;0.765625;,
 0.726563;0.945313;,
 0.937500;0.796875;,
 0.820313;0.796875;,
 0.976563;0.765625;,
 0.937500;0.914063;,
 0.820313;0.914063;,
 0.976563;0.945313;;
 }
}
}
}
}
AnimationSet {
 Animation anim-wep16 {
  {frm-wep16}
  AnimationKey {
  2;
  2;
  1; 3; 0.000000, -0.097954, 0.411576;;,
  15; 3; 0.000000, -0.097954, 0.411576;;;
  }
 }
 Animation anim-wepbas1 {
  {frm-wepbas1}
  AnimationKey {
  2;
  2;
  1; 3; 0.000000, 0.097954, -0.411576;;,
  15; 3; 0.000000, 0.097954, -0.411576;;;
  }
 }
 Animation anim-wepbas2 {
  {frm-wepbas2}
  AnimationKey {
  2;
  2;
  1; 3; -0.000000, 0.027740, 0.027373;;,
  15; 3; -0.000000, 0.027740, 0.027373;;;
  }
 }
 Animation anim-wepbar {
  {frm-wepbar}
  AnimationKey {
  0;
  4;
  1; 4; 0.707107, 0.707107, 0.000000, 0.000000;;,
  8; 4; 0.016374, 0.016374, 0.706917, -0.706917;;,
  9; 4; 0.139045, 0.139045, -0.693301, 0.693301;;,
  15; 4; 0.706350, 0.706350, -0.032703, 0.032703;;;
  }
  AnimationKey {
  2;
  3;
  1; 3; 0.000000, 0.000000, -0.196714;;,
  2; 3; 0.000000, 0.000000, -0.106935;;,
  15; 3; 0.000000, 0.000000, -0.196714;;;
  }
 }
 Animation anim-wepbar0 {
  {frm-wepbar0}
  AnimationKey {
  2;
  2;
  1; 3; 0.000000, 0.167932, -0.000000;;,
  15; 3; 0.000000, 0.167932, -0.000000;;;
  }
 }
 Animation anim-wepbar1 {
  {frm-wepbar1}
  AnimationKey {
  0;
  2;
  1; 4; 0.500000, -0.500000, 0.500000, -0.500000;;,
  15; 4; 0.500000, -0.500000, 0.500000, -0.500000;;;
  }
 }
 Animation anim-wepbar2 {
  {frm-wepbar2}
  AnimationKey {
  0;
  2;
  1; 4; -0.183013, 0.183013, -0.683013, 0.683013;;,
  15; 4; -0.183013, 0.183013, -0.683013, 0.683013;;;
  }
 }
 Animation anim-wepbar3 {
  {frm-wepbar3}
  AnimationKey {
  0;
  2;
  1; 4; 0.183013, -0.183013, -0.683013, 0.683013;;,
  15; 4; 0.183013, -0.183013, -0.683013, 0.683013;;;
  }
 }
 Animation anim-wepbar4 {
  {frm-wepbar4}
  AnimationKey {
  0;
  2;
  1; 4; 0.500000, -0.500000, -0.500000, 0.500000;;,
  15; 4; 0.500000, -0.500000, -0.500000, 0.500000;;;
  }
 }
 Animation anim-wepbar5 {
  {frm-wepbar5}
  AnimationKey {
  0;
  2;
  1; 4; 0.683013, -0.683013, -0.183013, 0.183013;;,
  15; 4; 0.683013, -0.683013, -0.183013, 0.183013;;;
  }
 }
 Animation anim-wepbar6 {
  {frm-wepbar6}
  AnimationKey {
  0;
  2;
  1; 4; 0.683013, -0.683013, 0.183013, -0.183013;;,
  15; 4; 0.683013, -0.683013, 0.183013, -0.183013;;;
  }
 }
 Animation anim-wepemt {
  {frm-wepemt}
  AnimationKey {
  0;
  2;
  1; 4; 0.707107, -0.707107, 0.000000, 0.000000;;,
  15; 4; 0.707107, -0.707107, 0.000000, 0.000000;;;
  }
  AnimationKey {
  2;
  2;
  1; 3; 0.000000, 0.304517, -0.000102;;,
  15; 3; 0.000000, 0.304517, -0.000102;;;
  }
 }
 Animation anim-wepbas3 {
  {frm-wepbas3}
  AnimationKey {
  0;
  2;
  1; 4; 0.965098, -0.261891, 0.000000, 0.000000;;,
  15; 4; 0.965098, -0.261891, 0.000000, 0.000000;;;
  }
  AnimationKey {
  2;
  2;
  1; 3; -0.000000, 0.050025, 0.341699;;,
  15; 3; -0.000000, 0.050025, 0.341699;;;
  }
 }
}
