xof 0302txt 0032
template Header {
 <3D82AB43-62DA-11cf-AB39-0020AF71E433>
 WORD major;
 WORD minor;
 DWORD flags;
}

template Vector {
 <3D82AB5E-62DA-11cf-AB39-0020AF71E433>
 FLOAT x;
 FLOAT y;
 FLOAT z;
}

template Coords2d {
 <F6F23F44-7686-11cf-8F52-0040333594A3>
 FLOAT u;
 FLOAT v;
}

template Matrix4x4 {
 <F6F23F45-7686-11cf-8F52-0040333594A3>
 array FLOAT matrix[16];
}

template ColorRGBA {
 <35FF44E0-6C7C-11cf-8F52-0040333594A3>
 FLOAT red;
 FLOAT green;
 FLOAT blue;
 FLOAT alpha;
}

template ColorRGB {
 <D3E16E81-7835-11cf-8F52-0040333594A3>
 FLOAT red;
 FLOAT green;
 FLOAT blue;
}

template TextureFilename {
 <A42790E1-7810-11cf-8F52-0040333594A3>
 STRING filename;
}

template Material {
 <3D82AB4D-62DA-11cf-AB39-0020AF71E433>
 ColorRGBA faceColor;
 FLOAT power;
 ColorRGB specularColor;
 ColorRGB emissiveColor;
 [...]
}

template MeshFace {
 <3D82AB5F-62DA-11cf-AB39-0020AF71E433>
 DWORD nFaceVertexIndices;
 array DWORD faceVertexIndices[nFaceVertexIndices];
}

template MeshTextureCoords {
 <F6F23F40-7686-11cf-8F52-0040333594A3>
 DWORD nTextureCoords;
 array Coords2d textureCoords[nTextureCoords];
}

template MeshMaterialList {
 <F6F23F42-7686-11cf-8F52-0040333594A3>
 DWORD nMaterials;
 DWORD nFaceIndexes;
 array DWORD faceIndexes[nFaceIndexes];
 [Material]
}

template MeshNormals {
 <F6F23F43-7686-11cf-8F52-0040333594A3>
 DWORD nNormals;
 array Vector normals[nNormals];
 DWORD nFaceNormals;
 array MeshFace faceNormals[nFaceNormals];
}

template Mesh {
 <3D82AB44-62DA-11cf-AB39-0020AF71E433>
 DWORD nVertices;
 array Vector vertices[nVertices];
 DWORD nFaces;
 array MeshFace faces[nFaces];
 [...]
}

template FrameTransformMatrix {
 <F6F23F41-7686-11cf-8F52-0040333594A3>
 Matrix4x4 frameMatrix;
}

template Frame {
 <3D82AB46-62DA-11cf-AB39-0020AF71E433>
 [...]
}
template FloatKeys {
 <10DD46A9-775B-11cf-8F52-0040333594A3>
 DWORD nValues;
 array FLOAT values[nValues];
}

template TimedFloatKeys {
 <F406B180-7B3B-11cf-8F52-0040333594A3>
 DWORD time;
 FloatKeys tfkeys;
}

template AnimationKey {
 <10DD46A8-775B-11cf-8F52-0040333594A3>
 DWORD keyType;
 DWORD nKeys;
 array TimedFloatKeys keys[nKeys];
}

template AnimationOptions {
 <E2BF56C0-840F-11cf-8F52-0040333594A3>
 DWORD openclosed;
 DWORD positionquality;
}

template Animation {
 <3D82AB4F-62DA-11cf-AB39-0020AF71E433>
 [...]
}

template AnimationSet {
 <3D82AB50-62DA-11cf-AB39-0020AF71E433>
 [Animation]
}

Header {
 1;
 0;
 1;
}

Frame frm-wep12 {
  FrameTransformMatrix {
1.000000,0.000000,0.000000,0.000000,
0.000000,1.000000,0.000000,0.000000,
0.000000,0.000000,1.000000,0.000000,
0.000000,0.000000,0.000000,1.000000;;
 }
Frame frm-wepbas1 {
  FrameTransformMatrix {
1.000000,0.000000,0.000000,0.000000,
0.000000,1.000000,0.000000,0.000000,
0.000000,0.000000,1.000000,0.000000,
0.000000,0.130466,-0.031795,1.000000;;
 }
Mesh wepbas1 {
 80;
 0.082537;0.049602;0.239021;,
 0.082537;0.049602;0.239021;,
 0.082537;0.049602;0.239021;,
 0.082537;0.049602;0.239021;,
 0.082537;0.049602;0.239021;,
 0.082855;0.180117;0.108507;,
 0.082855;0.180117;0.108507;,
 0.082855;0.180117;0.108507;,
 0.082855;0.180117;0.108507;,
 0.082855;0.180117;0.108507;,
 0.082855;0.180117;-0.152523;,
 0.082855;0.180117;-0.152523;,
 0.082855;0.180117;-0.152523;,
 0.158909;-0.130515;-0.152523;,
 0.158909;-0.130515;-0.152523;,
 0.158909;-0.130515;-0.152523;,
 0.082537;-0.130515;0.239021;,
 0.082537;-0.130515;0.239021;,
 0.082537;-0.130515;0.239021;,
 -0.083547;0.049602;0.239021;,
 -0.083547;0.049602;0.239021;,
 -0.083547;0.049602;0.239021;,
 -0.083547;0.049602;0.239021;,
 -0.083869;0.180117;0.108507;,
 -0.083869;0.180117;0.108507;,
 -0.083869;0.180117;0.108507;,
 -0.083869;0.180117;0.108507;,
 -0.083869;0.180117;-0.152523;,
 -0.083869;0.180117;-0.152523;,
 -0.083869;0.180117;-0.152523;,
 -0.160853;-0.130515;-0.152523;,
 -0.160853;-0.130515;-0.152523;,
 -0.160853;-0.130515;-0.152523;,
 -0.160853;-0.130515;-0.152523;,
 -0.160853;-0.130515;-0.152523;,
 -0.083547;-0.130515;0.239021;,
 -0.083547;-0.130515;0.239021;,
 -0.083547;-0.130515;0.239021;,
 -0.083547;-0.130515;0.239021;,
 0.158909;0.049625;-0.152523;,
 0.158909;0.049625;-0.152523;,
 0.158909;0.049625;-0.152523;,
 0.158909;0.049625;-0.152523;,
 0.158909;0.049625;-0.152523;,
 -0.160853;0.049625;-0.152523;,
 -0.160853;0.049625;-0.152523;,
 -0.160853;0.049625;-0.152523;,
 -0.160853;0.049625;-0.152523;,
 -0.160853;0.049625;-0.152523;,
 0.158909;0.049614;0.108735;,
 0.158909;0.049614;0.108735;,
 0.158909;0.049614;0.108735;,
 0.158909;0.049614;0.108735;,
 -0.160853;0.049614;0.108735;,
 -0.160853;0.049614;0.108735;,
 -0.160853;0.049614;0.108735;,
 -0.160853;0.049614;0.108735;,
 0.158909;-0.130515;0.108735;,
 0.158909;-0.130515;0.108735;,
 0.158909;-0.130515;0.108735;,
 0.158909;-0.130515;0.108735;,
 -0.160853;-0.130515;0.108735;,
 -0.160853;-0.130515;0.108735;,
 -0.160853;-0.130515;0.108735;,
 -0.160853;-0.130515;0.108735;,
 0.158909;-0.130515;0.108735;,
 -0.160853;0.049614;0.108735;,
 0.158909;0.049614;0.108735;,
 -0.160853;0.049625;-0.152523;,
 0.158909;0.049625;-0.152523;,
 -0.083547;-0.130515;0.239021;,
 -0.160853;-0.130515;-0.152523;,
 -0.083869;0.180117;-0.152523;,
 -0.083869;0.180117;0.108507;,
 -0.083547;0.049602;0.239021;,
 0.082537;-0.130515;0.239021;,
 0.158909;-0.130515;-0.152523;,
 0.082855;0.180117;-0.152523;,
 0.082855;0.180117;0.108507;,
 0.082537;0.049602;0.239021;;

 28;
 3;4,22,38;,
 3;18,3,37;,
 3;9,26,21;,
 3;2,8,20;,
 3;12,29,25;,
 3;7,11,24;,
 3;15,34,48;,
 3;43,14,47;,
 3;36,63,33;,
 3;17,35,32;,
 3;60,16,31;,
 3;13,59,30;,
 3;42,10,6;,
 3;52,41,5;,
 3;56,19,23;,
 3;1,75,58;,
 3;51,0,57;,
 3;46,71,62;,
 3;55,45,61;,
 3;28,77,40;,
 3;44,27,39;,
 3;76,69,50;,
 3;65,76,49;,
 3;70,74,54;,
 3;64,70,53;,
 3;72,68,66;,
 3;73,72,66;,
 3;78,79,67;;

 MeshMaterialList {
  13;
  28;
  0,
  0,
  1,
  1,
  2,
  2,
  3,
  3,
  4,
  4,
  4,
  4,
  5,
  5,
  6,
  7,
  7,
  8,
  8,
  3,
  3,
  9,
  9,
  10,
  10,
  11,
  11,
  12;
Material {
 1.000000;1.000000;1.000000;1.000000;;
 0.000000;
 1.000000;1.000000;1.000000;;
 0.0; 0.0; 0.0;;
 TextureFilename {
  "wep12.ppm";
 }
 }
Material {
 1.000000;1.000000;1.000000;1.000000;;
 0.000000;
 1.000000;1.000000;1.000000;;
 0.0; 0.0; 0.0;;
 TextureFilename {
  "wep12.ppm";
 }
 }
Material {
 1.000000;1.000000;1.000000;1.000000;;
 0.000000;
 1.000000;1.000000;1.000000;;
 0.0; 0.0; 0.0;;
 TextureFilename {
  "wep12.ppm";
 }
 }
Material {
 1.000000;1.000000;1.000000;1.000000;;
 0.000000;
 1.000000;1.000000;1.000000;;
 0.0; 0.0; 0.0;;
 TextureFilename {
  "wep12.ppm";
 }
 }
Material {
 1.000000;1.000000;1.000000;1.000000;;
 0.000000;
 1.000000;1.000000;1.000000;;
 0.0; 0.0; 0.0;;
 TextureFilename {
  "wep12.ppm";
 }
 }
Material {
 1.000000;1.000000;1.000000;1.000000;;
 0.000000;
 1.000000;1.000000;1.000000;;
 0.0; 0.0; 0.0;;
 TextureFilename {
  "wep12.ppm";
 }
 }
Material {
 1.000000;1.000000;1.000000;1.000000;;
 0.000000;
 1.000000;1.000000;1.000000;;
 0.0; 0.0; 0.0;;
 TextureFilename {
  "wep12.ppm";
 }
 }
Material {
 1.000000;1.000000;1.000000;1.000000;;
 0.000000;
 1.000000;1.000000;1.000000;;
 0.0; 0.0; 0.0;;
 TextureFilename {
  "wep12.ppm";
 }
 }
Material {
 1.000000;1.000000;1.000000;1.000000;;
 0.000000;
 1.000000;1.000000;1.000000;;
 0.0; 0.0; 0.0;;
 TextureFilename {
  "wep12.ppm";
 }
 }
Material {
 1.000000;1.000000;1.000000;1.000000;;
 0.000000;
 1.000000;1.000000;1.000000;;
 0.0; 0.0; 0.0;;
 TextureFilename {
  "wep12.ppm";
 }
 }
Material {
 1.000000;1.000000;1.000000;1.000000;;
 0.000000;
 1.000000;1.000000;1.000000;;
 0.0; 0.0; 0.0;;
 TextureFilename {
  "wep12.ppm";
 }
 }
Material {
 1.000000;1.000000;1.000000;1.000000;;
 0.000000;
 1.000000;1.000000;1.000000;;
 0.0; 0.0; 0.0;;
 TextureFilename {
  "wep12.ppm";
 }
 }
Material {
 1.000000;1.000000;1.000000;1.000000;;
 0.000000;
 1.000000;1.000000;1.000000;;
 0.0; 0.0; 0.0;;
 TextureFilename {
  "wep12.ppm";
 }
 }
}
 MeshNormals {
  80;
  0.490086;0.347165;0.799557;,
  0.490086;0.347165;0.799557;,
  0.490086;0.347165;0.799557;,
  0.490086;0.347165;0.799557;,
  0.490086;0.347165;0.799557;,
  0.490756;0.798811;0.347937;,
  0.490756;0.798811;0.347937;,
  0.490756;0.798811;0.347937;,
  0.490756;0.798811;0.347937;,
  0.490756;0.798811;0.347937;,
  0.472667;0.822551;-0.316222;,
  0.472667;0.822551;-0.316222;,
  0.472667;0.822551;-0.316222;,
  0.666667;-0.333333;-0.666667;,
  0.666667;-0.333333;-0.666667;,
  0.666667;-0.333333;-0.666667;,
  0.351531;-0.707107;0.613536;,
  0.351531;-0.707107;0.613536;,
  0.351531;-0.707107;0.613536;,
  -0.487511;0.347699;0.800898;,
  -0.487511;0.347699;0.800898;,
  -0.487511;0.347699;0.800898;,
  -0.487511;0.347699;0.800898;,
  -0.488186;0.800150;0.348475;,
  -0.488186;0.800150;0.348475;,
  -0.488186;0.800150;0.348475;,
  -0.488186;0.800150;0.348475;,
  -0.412641;0.722523;-0.554696;,
  -0.412641;0.722523;-0.554696;,
  -0.412641;0.722523;-0.554696;,
  -0.235702;-0.942809;-0.235702;,
  -0.235702;-0.942809;-0.235702;,
  -0.235702;-0.942809;-0.235702;,
  -0.235702;-0.942809;-0.235702;,
  -0.235702;-0.942809;-0.235702;,
  -0.442589;-0.447214;0.777248;,
  -0.442589;-0.447214;0.777248;,
  -0.442589;-0.447214;0.777248;,
  -0.442589;-0.447214;0.777248;,
  0.682640;0.184405;-0.707105;,
  0.682640;0.184405;-0.707105;,
  0.682640;0.184405;-0.707105;,
  0.682640;0.184405;-0.707105;,
  0.682640;0.184405;-0.707105;,
  -0.682149;0.186216;-0.707105;,
  -0.682149;0.186216;-0.707105;,
  -0.682149;0.186216;-0.707105;,
  -0.682149;0.186216;-0.707105;,
  -0.682149;0.186216;-0.707105;,
  0.932806;0.254285;0.255369;,
  0.932806;0.254285;0.255369;,
  0.932806;0.254285;0.255369;,
  0.932806;0.254285;0.255369;,
  -0.931486;0.256684;0.257775;,
  -0.931486;0.256684;0.257775;,
  -0.931486;0.256684;0.257775;,
  -0.931486;0.256684;0.257775;,
  0.802984;-0.554700;0.218001;,
  0.802984;-0.554700;0.218001;,
  0.802984;-0.554700;0.218001;,
  0.802984;-0.554700;0.218001;,
  -0.914878;-0.316228;0.250994;,
  -0.914878;-0.316228;0.250994;,
  -0.914878;-0.316228;0.250994;,
  -0.914878;-0.316228;0.250994;,
  0.802984;-0.554700;0.218001;,
  -0.931486;0.256684;0.257775;,
  0.932806;0.254285;0.255369;,
  -0.682149;0.186216;-0.707105;,
  0.682640;0.184405;-0.707105;,
  -0.442589;-0.447214;0.777248;,
  -0.235702;-0.942809;-0.235702;,
  -0.412641;0.722523;-0.554696;,
  -0.488186;0.800150;0.348475;,
  -0.487511;0.347699;0.800898;,
  0.351531;-0.707107;0.613536;,
  0.666667;-0.333333;-0.666667;,
  0.472667;0.822551;-0.316222;,
  0.490756;0.798811;0.347937;,
  0.490086;0.347165;0.799557;;

  28;
  3;4,22,38;,
  3;18,3,37;,
  3;9,26,21;,
  3;2,8,20;,
  3;12,29,25;,
  3;7,11,24;,
  3;15,34,48;,
  3;43,14,47;,
  3;36,63,33;,
  3;17,35,32;,
  3;60,16,31;,
  3;13,59,30;,
  3;42,10,6;,
  3;52,41,5;,
  3;56,19,23;,
  3;1,75,58;,
  3;51,0,57;,
  3;46,71,62;,
  3;55,45,61;,
  3;28,77,40;,
  3;44,27,39;,
  3;76,69,50;,
  3;65,76,49;,
  3;70,74,54;,
  3;64,70,53;,
  3;72,68,66;,
  3;73,72,66;,
  3;78,79,67;;
 }
 MeshTextureCoords { 
 80;
 0.375000;0.437500;,
 0.375000;0.437500;,
 0.750000;0.265625;,
 0.718750;0.429688;,
 0.718750;0.429688;,
 0.671875;0.203125;,
 0.671875;0.203125;,
 0.382813;0.046875;,
 0.929688;0.265625;,
 0.929688;0.265625;,
 0.921875;0.203125;,
 0.640625;0.046875;,
 0.640625;0.046875;,
 0.039063;0.429688;,
 0.593750;0.968750;,
 0.593750;0.968750;,
 0.109375;0.054688;,
 0.109375;0.054688;,
 0.718750;0.257813;,
 0.937500;0.921875;,
 0.750000;0.429688;,
 0.750000;0.429688;,
 0.554688;0.429688;,
 0.796875;0.820313;,
 0.382813;0.210938;,
 0.382813;0.210938;,
 0.929688;0.429688;,
 0.359375;0.664063;,
 0.359375;0.664063;,
 0.640625;0.210938;,
 0.343750;0.429688;,
 0.343750;0.429688;,
 0.343750;0.429688;,
 0.343750;0.429688;,
 0.289063;0.968750;,
 0.273438;0.054688;,
 0.273438;0.054688;,
 0.554688;0.257813;,
 0.554688;0.257813;,
 0.593750;0.796875;,
 0.593750;0.796875;,
 0.921875;0.054688;,
 0.921875;0.054688;,
 0.593750;0.796875;,
 0.289063;0.796875;,
 0.265625;0.734375;,
 0.265625;0.734375;,
 0.289063;0.796875;,
 0.289063;0.796875;,
 0.015625;0.914063;,
 0.015625;0.914063;,
 0.523438;0.437500;,
 0.671875;0.054688;,
 0.523438;0.257813;,
 0.523438;0.257813;,
 0.015625;0.734375;,
 0.937500;0.781250;,
 0.523438;0.257813;,
 0.523438;0.257813;,
 0.039063;0.179688;,
 0.039063;0.179688;,
 0.015625;0.914063;,
 0.015625;0.914063;,
 0.351563;0.179688;,
 0.523438;0.437500;,
 0.015625;0.734375;,
 0.671875;0.203125;,
 0.937500;0.781250;,
 0.921875;0.203125;,
 0.265625;0.914063;,
 0.375000;0.437500;,
 0.265625;0.914063;,
 0.921875;0.054688;,
 0.671875;0.054688;,
 0.375000;0.257813;,
 0.375000;0.257813;,
 0.265625;0.734375;,
 0.523438;0.664063;,
 0.937500;0.921875;,
 0.796875;0.820313;;
 }
}
Frame frm-wepbas2 {
  FrameTransformMatrix {
1.000000,0.000000,0.000000,0.000000,
0.000000,1.000000,0.000000,0.000000,
0.000000,0.000000,1.000000,0.000000,
-0.000003,0.129660,0.199602,1.000000;;
 }
Mesh wepbas2 {
 25;
 -0.072044;-0.058917;0.018162;,
 -0.072044;-0.058917;0.018162;,
 -0.072044;0.018162;-0.058917;,
 -0.049328;-0.016672;0.031736;,
 -0.049328;-0.016672;0.031736;,
 -0.049328;-0.016672;0.031736;,
 -0.049328;0.031242;-0.016672;,
 -0.049328;0.031242;-0.016672;,
 -0.049328;0.031242;-0.016672;,
 0.072044;-0.058917;0.018162;,
 0.072044;0.018162;-0.058917;,
 0.049328;-0.016672;0.031736;,
 0.049328;-0.016672;0.031736;,
 0.049328;-0.016672;0.031736;,
 0.049328;0.031242;-0.016672;,
 0.049328;0.031242;-0.016672;,
 0.049328;0.031242;-0.016672;,
 0.049328;0.031242;-0.016672;,
 0.049328;-0.016672;0.031736;,
 0.072044;0.018162;-0.058917;,
 0.072044;-0.058917;0.018162;,
 -0.049328;0.031242;-0.016672;,
 -0.049328;-0.016672;0.031736;,
 -0.072044;0.018162;-0.058917;,
 -0.072044;-0.058917;0.018162;;

 10;
 3;8,2,1;,
 3;5,7,0;,
 3;16,10,23;,
 3;6,15,23;,
 3;13,9,19;,
 3;14,12,19;,
 3;4,24,20;,
 3;11,3,20;,
 3;18,17,22;,
 3;17,21,22;;

 MeshMaterialList {
  5;
  10;
  0,
  0,
  1,
  1,
  2,
  2,
  3,
  3,
  4,
  4;
Material {
 1.000000;1.000000;1.000000;1.000000;;
 0.000000;
 1.000000;1.000000;1.000000;;
 0.0; 0.0; 0.0;;
 TextureFilename {
  "wep12.ppm";
 }
 }
Material {
 1.000000;1.000000;1.000000;1.000000;;
 0.000000;
 1.000000;1.000000;1.000000;;
 0.0; 0.0; 0.0;;
 TextureFilename {
  "wep12.ppm";
 }
 }
Material {
 1.000000;1.000000;1.000000;1.000000;;
 0.000000;
 1.000000;1.000000;1.000000;;
 0.0; 0.0; 0.0;;
 TextureFilename {
  "wep12.ppm";
 }
 }
Material {
 1.000000;1.000000;1.000000;1.000000;;
 0.000000;
 1.000000;1.000000;1.000000;;
 0.0; 0.0; 0.0;;
 TextureFilename {
  "wep12.ppm";
 }
 }
Material {
 1.000000;1.000000;1.000000;1.000000;;
 0.000000;
 1.000000;1.000000;1.000000;;
 0.0; 0.0; 0.0;;
 TextureFilename {
  "wep12.ppm";
 }
 }
}
 MeshNormals {
  25;
  -0.712515;0.165783;0.681791;,
  -0.712515;0.165783;0.681791;,
  -0.354920;0.929847;-0.097042;,
  -0.220210;0.295416;0.929643;,
  -0.220210;0.295416;0.929643;,
  -0.220210;0.295416;0.929643;,
  -0.551068;0.755598;0.354113;,
  -0.551068;0.755598;0.354113;,
  -0.551068;0.755598;0.354113;,
  0.356465;-0.106567;0.928211;,
  0.710246;0.683460;0.168621;,
  0.565035;0.375804;0.734511;,
  0.565035;0.375804;0.734511;,
  0.565035;0.375804;0.734511;,
  0.228596;0.916716;0.327681;,
  0.228596;0.916716;0.327681;,
  0.228596;0.916716;0.327681;,
  0.228596;0.916716;0.327681;,
  0.565035;0.375804;0.734511;,
  0.710246;0.683460;0.168621;,
  0.356465;-0.106567;0.928211;,
  -0.551068;0.755598;0.354113;,
  -0.220210;0.295416;0.929643;,
  -0.354920;0.929847;-0.097042;,
  -0.712515;0.165783;0.681791;;

  10;
  3;8,2,1;,
  3;5,7,0;,
  3;16,10,23;,
  3;6,15,23;,
  3;13,9,19;,
  3;14,12,19;,
  3;4,24,20;,
  3;11,3,20;,
  3;18,17,22;,
  3;17,21,22;;
 }
 MeshTextureCoords { 
 25;
 0.699219;0.956380;,
 0.699219;0.956380;,
 0.698568;0.839193;,
 0.726563;0.843750;,
 0.726563;0.843750;,
 0.640625;0.934245;,
 0.726563;0.937500;,
 0.639974;0.867839;,
 0.639974;0.867839;,
 0.679688;0.851563;,
 0.773438;0.820313;,
 0.726563;0.937500;,
 0.640625;0.875000;,
 0.640625;0.875000;,
 0.640625;0.937500;,
 0.726563;0.843750;,
 0.726563;0.843750;,
 0.703125;0.726563;,
 0.640625;0.726563;,
 0.679688;0.960938;,
 0.773438;0.960938;,
 0.703125;0.828125;,
 0.640625;0.828125;,
 0.773438;0.960938;,
 0.773438;0.820313;;
 }
}
}
}
Frame frm-wepbar1 {
  FrameTransformMatrix {
1.000000,0.000000,0.000000,0.000000,
0.000000,1.000000,0.000000,0.000000,
0.000000,0.000000,1.000000,0.000000,
0.000000,0.139928,-0.379044,1.000000;;
 }
Mesh wepbar1 {
 48;
 0.075660;-0.080079;0.041046;,
 0.075660;-0.080079;0.041046;,
 0.075660;-0.080079;0.041046;,
 0.075660;-0.080079;0.135539;,
 0.075660;-0.080079;0.135539;,
 0.075660;-0.080079;0.135539;,
 0.075660;-0.080079;0.135539;,
 0.075660;-0.080079;0.135539;,
 0.075660;0.080079;0.041046;,
 0.075660;0.080079;0.041046;,
 0.075660;0.080079;0.041046;,
 0.075660;0.080079;0.135539;,
 0.075660;0.080079;0.135539;,
 0.075660;0.080079;0.135539;,
 0.075660;0.080079;0.135539;,
 -0.075660;-0.080079;0.041046;,
 -0.075660;-0.080079;0.041046;,
 -0.075660;-0.080079;0.041046;,
 -0.075660;-0.080079;0.135539;,
 -0.075660;-0.080079;0.135539;,
 -0.075660;-0.080079;0.135539;,
 -0.075660;-0.080079;0.135539;,
 -0.075660;-0.080079;0.135539;,
 -0.075660;0.080079;0.041046;,
 -0.075660;0.080079;0.041046;,
 -0.075660;0.080079;0.041046;,
 -0.075660;0.080079;0.135539;,
 -0.075660;0.080079;0.135539;,
 -0.075660;0.080079;0.135539;,
 -0.075660;0.080079;0.135539;,
 0.061174;-0.061174;0.197597;,
 0.061174;0.061174;0.197597;,
 0.061174;0.061174;0.197597;,
 -0.061174;-0.061174;0.197597;,
 -0.061174;0.061174;0.197597;,
 -0.061174;0.061174;0.197597;,
 -0.061174;0.061174;0.197597;,
 -0.061174;-0.061174;0.197597;,
 0.061174;0.061174;0.197597;,
 0.061174;-0.061174;0.197597;,
 -0.075660;0.080079;0.135539;,
 -0.075660;0.080079;0.041046;,
 -0.075660;-0.080079;0.135539;,
 -0.075660;-0.080079;0.041046;,
 0.075660;0.080079;0.135539;,
 0.075660;0.080079;0.041046;,
 0.075660;-0.080079;0.135539;,
 0.075660;-0.080079;0.041046;;

 17;
 3;14,7,2;,
 3;10,13,1;,
 3;33,35,22;,
 3;34,29,21;,
 3;25,17,20;,
 3;28,24,19;,
 3;30,37,6;,
 3;37,18,5;,
 3;4,42,16;,
 3;0,3,15;,
 3;27,12,9;,
 3;23,26,8;,
 3;36,32,40;,
 3;31,11,40;,
 3;38,39,44;,
 3;39,46,44;,
 4;41,45,47,43;;

 MeshMaterialList {
  9;
  17;
  0,
  0,
  1,
  1,
  2,
  2,
  3,
  3,
  4,
  4,
  5,
  5,
  6,
  6,
  7,
  7,
  8;
Material {
 1.000000;1.000000;1.000000;1.000000;;
 0.000000;
 1.000000;1.000000;1.000000;;
 0.0; 0.0; 0.0;;
 TextureFilename {
  "wep12.ppm";
 }
 }
Material {
 1.000000;1.000000;1.000000;1.000000;;
 0.000000;
 1.000000;1.000000;1.000000;;
 0.0; 0.0; 0.0;;
 TextureFilename {
  "wep12.ppm";
 }
 }
Material {
 1.000000;1.000000;1.000000;1.000000;;
 0.000000;
 1.000000;1.000000;1.000000;;
 0.0; 0.0; 0.0;;
 TextureFilename {
  "wep12.ppm";
 }
 }
Material {
 1.000000;1.000000;1.000000;1.000000;;
 0.000000;
 1.000000;1.000000;1.000000;;
 0.0; 0.0; 0.0;;
 TextureFilename {
  "wep12.ppm";
 }
 }
Material {
 1.000000;1.000000;1.000000;1.000000;;
 0.000000;
 1.000000;1.000000;1.000000;;
 0.0; 0.0; 0.0;;
 TextureFilename {
  "wep12.ppm";
 }
 }
Material {
 1.000000;1.000000;1.000000;1.000000;;
 0.000000;
 1.000000;1.000000;1.000000;;
 0.0; 0.0; 0.0;;
 TextureFilename {
  "wep12.ppm";
 }
 }
Material {
 1.000000;1.000000;1.000000;1.000000;;
 0.000000;
 1.000000;1.000000;1.000000;;
 0.0; 0.0; 0.0;;
 TextureFilename {
  "wep12.ppm";
 }
 }
Material {
 1.000000;1.000000;1.000000;1.000000;;
 0.000000;
 1.000000;1.000000;1.000000;;
 0.0; 0.0; 0.0;;
 TextureFilename {
  "wep12.ppm";
 }
 }
Material {
 1.000000;1.000000;1.000000;1.000000;;
 0.000000;
 1.000000;1.000000;1.000000;;
 0.0; 0.0; 0.0;;
 TextureFilename {
  "wep12.ppm";
 }
 }
}
 MeshNormals {
  48;
  0.816497;-0.408248;-0.408248;,
  0.816497;-0.408248;-0.408248;,
  0.816497;-0.408248;-0.408248;,
  0.442852;-0.877977;0.181766;,
  0.442852;-0.877977;0.181766;,
  0.442852;-0.877977;0.181766;,
  0.442852;-0.877977;0.181766;,
  0.442852;-0.877977;0.181766;,
  0.408248;0.816497;-0.408248;,
  0.408248;0.816497;-0.408248;,
  0.408248;0.816497;-0.408248;,
  0.883410;0.437851;0.166953;,
  0.883410;0.437851;0.166953;,
  0.883410;0.437851;0.166953;,
  0.883410;0.437851;0.166953;,
  -0.408248;-0.816497;-0.408248;,
  -0.408248;-0.816497;-0.408248;,
  -0.408248;-0.816497;-0.408248;,
  -0.883410;-0.437851;0.166953;,
  -0.883410;-0.437851;0.166953;,
  -0.883410;-0.437851;0.166953;,
  -0.883410;-0.437851;0.166953;,
  -0.883410;-0.437851;0.166953;,
  -0.816497;0.408248;-0.408248;,
  -0.816497;0.408248;-0.408248;,
  -0.816497;0.408248;-0.408248;,
  -0.442852;0.877977;0.181766;,
  -0.442852;0.877977;0.181766;,
  -0.442852;0.877977;0.181766;,
  -0.442852;0.877977;0.181766;,
  0.848810;-0.416899;0.325141;,
  0.424405;0.833799;0.353072;,
  0.424405;0.833799;0.353072;,
  -0.424405;-0.833799;0.353072;,
  -0.848810;0.416899;0.325141;,
  -0.848810;0.416899;0.325141;,
  -0.848810;0.416899;0.325141;,
  -0.424405;-0.833799;0.353072;,
  0.424405;0.833799;0.353072;,
  0.848810;-0.416899;0.325141;,
  -0.442852;0.877977;0.181766;,
  -0.816497;0.408248;-0.408248;,
  -0.883410;-0.437851;0.166953;,
  -0.408248;-0.816497;-0.408248;,
  0.883410;0.437851;0.166953;,
  0.408248;0.816497;-0.408248;,
  0.442852;-0.877977;0.181766;,
  0.816497;-0.408248;-0.408248;;

  17;
  3;14,7,2;,
  3;10,13,1;,
  3;33,35,22;,
  3;34,29,21;,
  3;25,17,20;,
  3;28,24,19;,
  3;30,37,6;,
  3;37,18,5;,
  3;4,42,16;,
  3;0,3,15;,
  3;27,12,9;,
  3;23,26,8;,
  3;36,32,40;,
  3;31,11,40;,
  3;38,39,44;,
  3;39,46,44;,
  4;41,45,47,43;;
 }
 MeshTextureCoords { 
 48;
 0.257813;0.617188;,
 0.390625;0.468750;,
 0.390625;0.468750;,
 0.171875;0.617188;,
 0.171875;0.617188;,
 0.132813;0.609375;,
 0.132813;0.609375;,
 0.296875;0.468750;,
 0.257813;0.468750;,
 0.257813;0.468750;,
 0.390625;0.625000;,
 0.132813;0.460938;,
 0.171875;0.468750;,
 0.296875;0.625000;,
 0.296875;0.625000;,
 0.257813;0.468750;,
 0.257813;0.468750;,
 0.390625;0.625000;,
 0.132813;0.460938;,
 0.296875;0.625000;,
 0.296875;0.625000;,
 0.132813;0.609375;,
 0.132813;0.609375;,
 0.257813;0.617188;,
 0.390625;0.468750;,
 0.390625;0.468750;,
 0.171875;0.617188;,
 0.171875;0.617188;,
 0.296875;0.468750;,
 0.132813;0.460938;,
 0.070313;0.593750;,
 0.070313;0.476563;,
 0.070313;0.476563;,
 0.070313;0.593750;,
 0.070313;0.476563;,
 0.070313;0.476563;,
 0.070313;0.593750;,
 0.070313;0.476563;,
 0.070313;0.593750;,
 0.070313;0.476563;,
 0.132813;0.609375;,
 0.445313;0.468750;,
 0.171875;0.468750;,
 0.445313;0.617188;,
 0.132813;0.609375;,
 0.593750;0.468750;,
 0.132813;0.460938;,
 0.593750;0.617188;;
 }
}
Frame frm-wepbar2 {
  FrameTransformMatrix {
1.000000,0.000000,0.000000,0.000000,
0.000000,1.000000,0.000000,0.000000,
0.000000,0.000000,1.000000,0.000000,
-0.000000,0.000000,0.329281,1.000000;;
 }
Mesh wepbar2 {
 50;
 -0.048876;-0.048876;-0.286878;,
 -0.048876;-0.048876;-0.286878;,
 -0.048876;0.048876;-0.286878;,
 -0.048876;0.048876;-0.286878;,
 0.048876;-0.048876;-0.286878;,
 0.048876;0.048876;-0.286878;,
 0.048876;0.048876;-0.286878;,
 -0.073315;-0.073315;-0.347033;,
 -0.073315;-0.073315;-0.347033;,
 -0.073315;-0.073315;-0.347033;,
 -0.073315;-0.073315;-0.347033;,
 -0.073315;-0.073315;-0.347033;,
 -0.073315;0.073315;-0.347033;,
 -0.073315;0.073315;-0.347033;,
 -0.073315;0.073315;-0.347033;,
 -0.073315;0.073315;-0.347033;,
 -0.073315;0.073315;-0.347033;,
 0.073315;-0.073315;-0.347033;,
 0.073315;-0.073315;-0.347033;,
 0.073315;-0.073315;-0.347033;,
 0.073315;-0.073315;-0.347033;,
 0.073315;-0.073315;-0.347033;,
 0.073315;0.073315;-0.347033;,
 0.073315;0.073315;-0.347033;,
 0.073315;0.073315;-0.347033;,
 0.073315;0.073315;-0.347033;,
 -0.042522;-0.042522;-0.568723;,
 -0.042522;-0.042522;-0.568723;,
 -0.042522;-0.042522;-0.568723;,
 -0.042522;0.042522;-0.568723;,
 -0.042522;0.042522;-0.568723;,
 0.042522;-0.042522;-0.568723;,
 0.042522;-0.042522;-0.568723;,
 0.042522;-0.042522;-0.568723;,
 0.042522;0.042522;-0.568723;,
 0.042522;0.042522;-0.568723;,
 0.042522;0.042522;-0.568723;,
 0.042522;0.042522;-0.568723;,
 0.042522;0.042522;-0.568723;,
 0.042522;-0.042522;-0.568723;,
 -0.042522;0.042522;-0.568723;,
 -0.042522;-0.042522;-0.568723;,
 0.073315;0.073315;-0.347033;,
 0.073315;-0.073315;-0.347033;,
 -0.073315;0.073315;-0.347033;,
 -0.073315;-0.073315;-0.347033;,
 0.048876;0.048876;-0.286878;,
 0.048876;-0.048876;-0.286878;,
 -0.048876;0.048876;-0.286878;,
 -0.048876;-0.048876;-0.286878;;

 18;
 3;11,21,1;,
 3;20,4,0;,
 3;37,33,28;,
 3;30,36,27;,
 3;16,10,3;,
 3;9,49,2;,
 3;35,25,19;,
 3;32,34,18;,
 3;24,15,6;,
 3;14,48,5;,
 3;23,46,47;,
 3;17,22,47;,
 3;26,31,8;,
 3;39,43,7;,
 3;29,41,13;,
 3;41,45,12;,
 3;38,40,42;,
 3;40,44,42;;

 MeshMaterialList {
  9;
  18;
  0,
  0,
  1,
  1,
  2,
  2,
  3,
  3,
  4,
  4,
  5,
  5,
  6,
  6,
  7,
  7,
  8,
  8;
Material {
 1.000000;1.000000;1.000000;1.000000;;
 0.000000;
 1.000000;1.000000;1.000000;;
 0.0; 0.0; 0.0;;
 TextureFilename {
  "wep12.ppm";
 }
 }
Material {
 1.000000;1.000000;1.000000;1.000000;;
 0.000000;
 1.000000;1.000000;1.000000;;
 0.0; 0.0; 0.0;;
 TextureFilename {
  "wep12.ppm";
 }
 }
Material {
 1.000000;1.000000;1.000000;1.000000;;
 0.000000;
 1.000000;1.000000;1.000000;;
 0.0; 0.0; 0.0;;
 TextureFilename {
  "wep12.ppm";
 }
 }
Material {
 1.000000;1.000000;1.000000;1.000000;;
 0.000000;
 1.000000;1.000000;1.000000;;
 0.0; 0.0; 0.0;;
 TextureFilename {
  "wep12.ppm";
 }
 }
Material {
 1.000000;1.000000;1.000000;1.000000;;
 0.000000;
 1.000000;1.000000;1.000000;;
 0.0; 0.0; 0.0;;
 TextureFilename {
  "wep12.ppm";
 }
 }
Material {
 1.000000;1.000000;1.000000;1.000000;;
 0.000000;
 1.000000;1.000000;1.000000;;
 0.0; 0.0; 0.0;;
 TextureFilename {
  "wep12.ppm";
 }
 }
Material {
 1.000000;1.000000;1.000000;1.000000;;
 0.000000;
 1.000000;1.000000;1.000000;;
 0.0; 0.0; 0.0;;
 TextureFilename {
  "wep12.ppm";
 }
 }
Material {
 1.000000;1.000000;1.000000;1.000000;;
 0.000000;
 1.000000;1.000000;1.000000;;
 0.0; 0.0; 0.0;;
 TextureFilename {
  "wep12.ppm";
 }
 }
Material {
 1.000000;1.000000;1.000000;1.000000;;
 0.000000;
 1.000000;1.000000;1.000000;;
 0.0; 0.0; 0.0;;
 TextureFilename {
  "wep12.ppm";
 }
 }
}
 MeshNormals {
  50;
  -0.392674;-0.785348;0.478577;,
  -0.392674;-0.785348;0.478577;,
  -0.785348;0.392674;0.478577;,
  -0.785348;0.392674;0.478577;,
  0.785348;-0.392674;0.478577;,
  0.392674;0.785348;0.478577;,
  0.392674;0.785348;0.478577;,
  -0.688588;-0.704093;0.173493;,
  -0.688588;-0.704093;0.173493;,
  -0.688588;-0.704093;0.173493;,
  -0.688588;-0.704093;0.173493;,
  -0.688588;-0.704093;0.173493;,
  -0.704093;0.688588;0.173493;,
  -0.704093;0.688588;0.173493;,
  -0.704093;0.688588;0.173493;,
  -0.704093;0.688588;0.173493;,
  -0.704093;0.688588;0.173493;,
  0.704093;-0.688588;0.173493;,
  0.704093;-0.688588;0.173493;,
  0.704093;-0.688588;0.173493;,
  0.704093;-0.688588;0.173493;,
  0.704093;-0.688588;0.173493;,
  0.688588;0.704093;0.173493;,
  0.688588;0.704093;0.173493;,
  0.688588;0.704093;0.173493;,
  0.688588;0.704093;0.173493;,
  -0.604852;-0.302426;-0.736677;,
  -0.604852;-0.302426;-0.736677;,
  -0.604852;-0.302426;-0.736677;,
  -0.377042;0.754083;-0.537771;,
  -0.377042;0.754083;-0.537771;,
  0.377042;-0.754083;-0.537771;,
  0.377042;-0.754083;-0.537771;,
  0.377042;-0.754083;-0.537771;,
  0.604852;0.302426;-0.736677;,
  0.604852;0.302426;-0.736677;,
  0.604852;0.302426;-0.736677;,
  0.604852;0.302426;-0.736677;,
  0.604852;0.302426;-0.736677;,
  0.377042;-0.754083;-0.537771;,
  -0.377042;0.754083;-0.537771;,
  -0.604852;-0.302426;-0.736677;,
  0.688588;0.704093;0.173493;,
  0.704093;-0.688588;0.173493;,
  -0.704093;0.688588;0.173493;,
  -0.688588;-0.704093;0.173493;,
  0.392674;0.785348;0.478577;,
  0.785348;-0.392674;0.478577;,
  -0.785348;0.392674;0.478577;,
  -0.392674;-0.785348;0.478577;;

  18;
  3;11,21,1;,
  3;20,4,0;,
  3;37,33,28;,
  3;30,36,27;,
  3;16,10,3;,
  3;9,49,2;,
  3;35,25,19;,
  3;32,34,18;,
  3;24,15,6;,
  3;14,48,5;,
  3;23,46,47;,
  3;17,22,47;,
  3;26,31,8;,
  3;39,43,7;,
  3;29,41,13;,
  3;41,45,12;,
  3;38,40,42;,
  3;40,44,42;;
 }
 MeshTextureCoords { 
 50;
 0.640625;0.500000;,
 0.640625;0.500000;,
 0.640625;0.500000;,
 0.640625;0.500000;,
 0.640625;0.593750;,
 0.640625;0.500000;,
 0.640625;0.500000;,
 0.726736;0.633849;,
 0.726736;0.633849;,
 0.703125;0.617188;,
 0.703125;0.617188;,
 0.703125;0.476563;,
 0.734375;0.640625;,
 0.734375;0.640625;,
 0.703125;0.617188;,
 0.703125;0.617188;,
 0.703125;0.476563;,
 0.703125;0.476563;,
 0.725030;0.786745;,
 0.725030;0.786745;,
 0.703125;0.617188;,
 0.703125;0.617188;,
 0.703125;0.617188;,
 0.703125;0.617188;,
 0.703125;0.476563;,
 0.726112;0.632212;,
 0.945772;0.660926;,
 0.625000;0.710938;,
 0.625000;0.710938;,
 0.953125;0.671875;,
 0.625000;0.625000;,
 0.946855;0.758517;,
 0.944720;0.758607;,
 0.710938;0.710938;,
 0.945801;0.661423;,
 0.945801;0.661423;,
 0.710938;0.625000;,
 0.710938;0.625000;,
 0.945313;0.500000;,
 0.946855;0.758517;,
 0.945313;0.585938;,
 0.953125;0.750000;,
 0.726563;0.468750;,
 0.725653;0.785595;,
 0.726563;0.609375;,
 0.734375;0.781250;,
 0.640625;0.593750;,
 0.640625;0.500000;,
 0.640625;0.593750;,
 0.640625;0.593750;;
 }
}
Frame frm-wepemt {
  FrameTransformMatrix {
1.000000,0.000000,0.000000,0.000000,
0.000000,1.000000,0.000000,0.000000,
0.000000,0.000000,1.000000,0.000000,
-0.001249,-0.000384,-0.568644,1.000000;;
 }
}
}
}
}
AnimationSet {
 Animation anim-wepbas1 {
  {frm-wepbas1}
  AnimationKey {
  2;
  2;
  1; 3; 0.000000, 0.130466, -0.031795;;,
  15; 3; 0.000000, 0.130466, -0.031795;;;
  }
 }
 Animation anim-wepbas2 {
  {frm-wepbas2}
  AnimationKey {
  2;
  2;
  1; 3; -0.000003, 0.129660, 0.199602;;,
  15; 3; -0.000003, 0.129660, 0.199602;;;
  }
 }
 Animation anim-wepbar1 {
  {frm-wepbar1}
  AnimationKey {
  2;
  2;
  1; 3; 0.000000, 0.139928, -0.379044;;,
  15; 3; 0.000000, 0.139928, -0.379044;;;
  }
 }
 Animation anim-wepbar2 {
  {frm-wepbar2}
  AnimationKey {
  2;
  2;
  1; 3; -0.000000, 0.000000, 0.329281;;,
  15; 3; -0.000000, 0.000000, 0.329281;;;
  }
 }
 Animation anim-wepemt {
  {frm-wepemt}
  AnimationKey {
  2;
  2;
  1; 3; -0.001249, -0.000384, -0.568644;;,
  15; 3; -0.001249, -0.000384, -0.568644;;;
  }
 }
}
