xof 0302txt 0032
template Header {
 <3D82AB43-62DA-11cf-AB39-0020AF71E433>
 WORD major;
 WORD minor;
 DWORD flags;
}

template Vector {
 <3D82AB5E-62DA-11cf-AB39-0020AF71E433>
 FLOAT x;
 FLOAT y;
 FLOAT z;
}

template Coords2d {
 <F6F23F44-7686-11cf-8F52-0040333594A3>
 FLOAT u;
 FLOAT v;
}

template Matrix4x4 {
 <F6F23F45-7686-11cf-8F52-0040333594A3>
 array FLOAT matrix[16];
}

template ColorRGBA {
 <35FF44E0-6C7C-11cf-8F52-0040333594A3>
 FLOAT red;
 FLOAT green;
 FLOAT blue;
 FLOAT alpha;
}

template ColorRGB {
 <D3E16E81-7835-11cf-8F52-0040333594A3>
 FLOAT red;
 FLOAT green;
 FLOAT blue;
}

template TextureFilename {
 <A42790E1-7810-11cf-8F52-0040333594A3>
 STRING filename;
}

template Material {
 <3D82AB4D-62DA-11cf-AB39-0020AF71E433>
 ColorRGBA faceColor;
 FLOAT power;
 ColorRGB specularColor;
 ColorRGB emissiveColor;
 [...]
}

template MeshFace {
 <3D82AB5F-62DA-11cf-AB39-0020AF71E433>
 DWORD nFaceVertexIndices;
 array DWORD faceVertexIndices[nFaceVertexIndices];
}

template MeshTextureCoords {
 <F6F23F40-7686-11cf-8F52-0040333594A3>
 DWORD nTextureCoords;
 array Coords2d textureCoords[nTextureCoords];
}

template MeshMaterialList {
 <F6F23F42-7686-11cf-8F52-0040333594A3>
 DWORD nMaterials;
 DWORD nFaceIndexes;
 array DWORD faceIndexes[nFaceIndexes];
 [Material]
}

template MeshNormals {
 <F6F23F43-7686-11cf-8F52-0040333594A3>
 DWORD nNormals;
 array Vector normals[nNormals];
 DWORD nFaceNormals;
 array MeshFace faceNormals[nFaceNormals];
}

template Mesh {
 <3D82AB44-62DA-11cf-AB39-0020AF71E433>
 DWORD nVertices;
 array Vector vertices[nVertices];
 DWORD nFaces;
 array MeshFace faces[nFaces];
 [...]
}

template FrameTransformMatrix {
 <F6F23F41-7686-11cf-8F52-0040333594A3>
 Matrix4x4 frameMatrix;
}

template Frame {
 <3D82AB46-62DA-11cf-AB39-0020AF71E433>
 [...]
}
template FloatKeys {
 <10DD46A9-775B-11cf-8F52-0040333594A3>
 DWORD nValues;
 array FLOAT values[nValues];
}

template TimedFloatKeys {
 <F406B180-7B3B-11cf-8F52-0040333594A3>
 DWORD time;
 FloatKeys tfkeys;
}

template AnimationKey {
 <10DD46A8-775B-11cf-8F52-0040333594A3>
 DWORD keyType;
 DWORD nKeys;
 array TimedFloatKeys keys[nKeys];
}

template AnimationOptions {
 <E2BF56C0-840F-11cf-8F52-0040333594A3>
 DWORD openclosed;
 DWORD positionquality;
}

template Animation {
 <3D82AB4F-62DA-11cf-AB39-0020AF71E433>
 [...]
}

template AnimationSet {
 <3D82AB50-62DA-11cf-AB39-0020AF71E433>
 [Animation]
}

Header {
 1;
 0;
 1;
}

Frame frm-root {
  FrameTransformMatrix {
1.000000,0.000000,0.000000,0.000000,
0.000000,1.000000,0.000000,0.000000,
0.000000,0.000000,1.000000,0.000000,
0.000000,0.000000,0.000000,1.000000;;
 }
Frame frm-bound1 {
  FrameTransformMatrix {
1.000000,0.000000,0.000000,0.000000,
0.000000,1.000000,0.000000,0.000000,
0.000000,0.000000,1.000000,0.000000,
0.000000,0.055593,-0.000008,1.000000;;
 }
Mesh bound1 {
 103;
 10.329629;-6.422131;-0.000000;,
 10.329629;-6.422131;-0.000000;,
 10.329629;-6.422131;-0.000000;,
 10.322461;6.376981;-0.000000;,
 10.322461;6.376981;-0.000000;,
 10.322461;6.376981;-0.000000;,
 10.322461;6.376981;-0.000000;,
 12.988908;8.270887;0.000001;,
 12.988908;8.270887;0.000001;,
 12.988908;8.270887;0.000001;,
 7.304151;-6.422131;7.304151;,
 7.304151;-6.422131;7.304151;,
 7.304151;-6.422131;7.304151;,
 7.299081;6.376981;7.299081;,
 7.299081;6.376981;7.299081;,
 7.299081;6.376981;7.299081;,
 7.299081;6.376981;7.299081;,
 9.184547;8.270887;9.184547;,
 9.184547;8.270887;9.184547;,
 9.184547;8.270887;9.184547;,
 7.304151;-6.422131;-7.304151;,
 7.304151;-6.422131;-7.304151;,
 7.304151;-6.422131;-7.304151;,
 7.299081;6.376981;-7.299081;,
 7.299081;6.376981;-7.299081;,
 7.299081;6.376981;-7.299081;,
 0.000000;-6.422131;10.329627;,
 0.000000;-6.422131;10.329627;,
 0.000000;-6.422131;10.329627;,
 0.000000;6.376981;10.322459;,
 0.000000;6.376981;10.322459;,
 0.000000;6.376981;10.322459;,
 0.000000;6.376981;10.322459;,
 0.000000;8.270887;12.988902;,
 0.000000;8.270887;12.988902;,
 0.000000;8.270887;12.988902;,
 -7.304151;-6.422131;7.304151;,
 -7.304151;-6.422131;7.304151;,
 -7.304151;-6.422131;7.304151;,
 -7.299081;6.376981;7.299081;,
 -7.299081;6.376981;7.299081;,
 -7.299081;6.376981;7.299081;,
 -7.299081;6.376981;7.299081;,
 -9.184547;8.270887;9.184547;,
 -9.184547;8.270887;9.184547;,
 -9.184547;8.270887;9.184547;,
 -10.329627;-6.422131;-0.000000;,
 -10.329627;-6.422131;-0.000000;,
 -10.329627;-6.422131;-0.000000;,
 -10.322459;6.376981;-0.000000;,
 -10.322459;6.376981;-0.000000;,
 -10.322459;6.376981;-0.000000;,
 -10.322459;6.376981;-0.000000;,
 -12.988902;8.270887;0.000001;,
 -12.988902;8.270887;0.000001;,
 -7.304151;-6.422131;-7.304151;,
 -7.304151;-6.422131;-7.304151;,
 -7.304151;-6.422131;-7.304151;,
 -7.299081;6.376981;-7.299081;,
 -7.299081;6.376981;-7.299081;,
 -7.299081;6.376981;-7.299081;,
 -7.299081;6.376981;-7.299081;,
 -9.184547;8.270887;-9.184547;,
 -9.184547;8.270887;-9.184547;,
 9.184547;8.270887;-9.184547;,
 9.184547;8.270887;-9.184547;,
 9.184547;8.270887;-9.184547;,
 0.000000;-6.422131;-10.329627;,
 0.000000;-6.422131;-10.329627;,
 0.000000;-6.422131;-10.329627;,
 0.000000;6.376981;-10.322459;,
 0.000000;6.376981;-10.322459;,
 0.000000;6.376981;-10.322459;,
 0.000000;6.376981;-10.322459;,
 0.000000;6.376981;-10.322459;,
 0.000000;8.270887;-12.988902;,
 0.000000;8.270887;-12.988902;,
 0.000000;8.270887;-12.988902;,
 0.000000;8.270887;-12.988902;,
 0.000000;8.270887;-12.988902;,
 0.000000;6.376981;-10.322459;,
 0.000000;-6.422131;-10.329627;,
 9.184547;8.270887;-9.184547;,
 -9.184547;8.270887;-9.184547;,
 -7.299081;6.376981;-7.299081;,
 -7.304151;-6.422131;-7.304151;,
 -12.988902;8.270887;0.000001;,
 -10.322459;6.376981;-0.000000;,
 -10.329627;-6.422131;-0.000000;,
 -9.184547;8.270887;9.184547;,
 -7.299081;6.376981;7.299081;,
 -7.304151;-6.422131;7.304151;,
 0.000000;8.270887;12.988902;,
 0.000000;6.376981;10.322459;,
 0.000000;-6.422131;10.329627;,
 7.299081;6.376981;-7.299081;,
 7.304151;-6.422131;-7.304151;,
 9.184547;8.270887;9.184547;,
 7.299081;6.376981;7.299081;,
 7.304151;-6.422131;7.304151;,
 12.988908;8.270887;0.000001;,
 10.322461;6.376981;-0.000000;,
 10.329629;-6.422131;-0.000000;;

 44;
 3;16,12,2;,
 3;6,15,1;,
 3;19,14,5;,
 3;9,18,4;,
 3;32,28,11;,
 3;13,31,10;,
 3;35,30,98;,
 3;17,34,98;,
 3;8,3,25;,
 3;66,7,24;,
 3;65,23,74;,
 3;78,64,73;,
 3;42,38,27;,
 3;29,41,26;,
 3;45,40,93;,
 3;33,44,93;,
 3;101,0,22;,
 3;95,101,21;,
 3;54,43,92;,
 3;63,53,92;,
 3;77,62,92;,
 3;52,48,37;,
 3;39,51,36;,
 3;86,50,90;,
 3;89,86,90;,
 3;61,57,47;,
 3;49,60,46;,
 3;83,59,87;,
 3;86,83,87;,
 3;72,69,56;,
 3;58,71,55;,
 3;76,70,84;,
 3;83,75,84;,
 3;95,20,68;,
 3;80,95,67;,
 3;102,99,94;,
 3;96,102,94;,
 3;81,96,94;,
 3;88,85,81;,
 3;91,88,81;,
 3;94,91,81;,
 3;100,82,79;,
 3;97,100,79;,
 3;92,97,79;;

 MeshNormals {
  103;
  0.824442;-0.554381;0.113832;,
  0.824442;-0.554381;0.113832;,
  0.824442;-0.554381;0.113832;,
  0.882160;-0.470022;-0.029552;,
  0.882160;-0.470022;-0.029552;,
  0.882160;-0.470022;-0.029552;,
  0.882160;-0.470022;-0.029552;,
  0.960893;-0.243071;-0.132672;,
  0.960893;-0.243071;-0.132672;,
  0.960893;-0.243071;-0.132672;,
  0.572861;-0.315754;0.756393;,
  0.572861;-0.315754;0.756393;,
  0.572861;-0.315754;0.756393;,
  0.644678;-0.470022;0.602885;,
  0.644678;-0.470022;0.602885;,
  0.644678;-0.470022;0.602885;,
  0.644678;-0.470022;0.602885;,
  0.773266;-0.243072;0.585641;,
  0.773266;-0.243072;0.585641;,
  0.773266;-0.243072;0.585641;,
  0.663460;-0.554381;-0.502477;,
  0.663460;-0.554381;-0.502477;,
  0.663460;-0.554381;-0.502477;,
  0.602885;-0.470022;-0.644678;,
  0.602885;-0.470022;-0.644678;,
  0.602885;-0.470022;-0.644678;,
  -0.082086;-0.799880;0.594520;,
  -0.082086;-0.799880;0.594520;,
  -0.082086;-0.799880;0.594520;,
  0.029552;-0.470022;0.882160;,
  0.029552;-0.470022;0.882160;,
  0.029552;-0.470022;0.882160;,
  0.029552;-0.470022;0.882160;,
  0.101992;0.666284;0.738690;,
  0.101992;0.666284;0.738690;,
  0.101992;0.666284;0.738690;,
  -0.663460;-0.554381;0.502477;,
  -0.663460;-0.554381;0.502477;,
  -0.663460;-0.554381;0.502477;,
  -0.602885;-0.470022;0.644678;,
  -0.602885;-0.470022;0.644678;,
  -0.602885;-0.470022;0.644678;,
  -0.602885;-0.470022;0.644678;,
  -0.466256;-0.635295;0.615634;,
  -0.466256;-0.635295;0.615634;,
  -0.466256;-0.635295;0.615634;,
  -0.832265;-0.554378;-0.000000;,
  -0.832265;-0.554378;-0.000000;,
  -0.832265;-0.554378;-0.000000;,
  -0.882160;-0.470022;0.029552;,
  -0.882160;-0.470022;0.029552;,
  -0.882160;-0.470022;0.029552;,
  -0.882160;-0.470022;0.029552;,
  -0.960893;-0.243071;0.132671;,
  -0.960893;-0.243071;0.132671;,
  -0.572861;-0.315754;-0.756393;,
  -0.572861;-0.315754;-0.756393;,
  -0.572861;-0.315754;-0.756393;,
  -0.644678;-0.470022;-0.602885;,
  -0.644678;-0.470022;-0.602885;,
  -0.644678;-0.470022;-0.602885;,
  -0.644678;-0.470022;-0.602885;,
  -0.773267;-0.243072;-0.585640;,
  -0.773267;-0.243072;-0.585640;,
  0.466256;-0.635295;-0.615634;,
  0.466256;-0.635295;-0.615634;,
  0.466256;-0.635295;-0.615634;,
  0.082086;-0.799880;-0.594520;,
  0.082086;-0.799880;-0.594520;,
  0.082086;-0.799880;-0.594520;,
  -0.029552;-0.470022;-0.882160;,
  -0.029552;-0.470022;-0.882160;,
  -0.029552;-0.470022;-0.882160;,
  -0.029552;-0.470022;-0.882160;,
  -0.029552;-0.470022;-0.882160;,
  -0.101992;0.666284;-0.738690;,
  -0.101992;0.666284;-0.738690;,
  -0.101992;0.666284;-0.738690;,
  -0.101992;0.666284;-0.738690;,
  -0.101992;0.666284;-0.738690;,
  -0.029552;-0.470022;-0.882160;,
  0.082086;-0.799880;-0.594520;,
  0.466256;-0.635295;-0.615634;,
  -0.773267;-0.243072;-0.585640;,
  -0.644678;-0.470022;-0.602885;,
  -0.572861;-0.315754;-0.756393;,
  -0.960893;-0.243071;0.132671;,
  -0.882160;-0.470022;0.029552;,
  -0.832265;-0.554378;-0.000000;,
  -0.466256;-0.635295;0.615634;,
  -0.602885;-0.470022;0.644678;,
  -0.663460;-0.554381;0.502477;,
  0.101992;0.666284;0.738690;,
  0.029552;-0.470022;0.882160;,
  -0.082086;-0.799880;0.594520;,
  0.602885;-0.470022;-0.644678;,
  0.663460;-0.554381;-0.502477;,
  0.773266;-0.243072;0.585641;,
  0.644678;-0.470022;0.602885;,
  0.572861;-0.315754;0.756393;,
  0.960893;-0.243071;-0.132672;,
  0.882160;-0.470022;-0.029552;,
  0.824442;-0.554381;0.113832;;

  44;
  3;16,12,2;,
  3;6,15,1;,
  3;19,14,5;,
  3;9,18,4;,
  3;32,28,11;,
  3;13,31,10;,
  3;35,30,98;,
  3;17,34,98;,
  3;8,3,25;,
  3;66,7,24;,
  3;65,23,74;,
  3;78,64,73;,
  3;42,38,27;,
  3;29,41,26;,
  3;45,40,93;,
  3;33,44,93;,
  3;101,0,22;,
  3;95,101,21;,
  3;54,43,92;,
  3;63,53,92;,
  3;77,62,92;,
  3;52,48,37;,
  3;39,51,36;,
  3;86,50,90;,
  3;89,86,90;,
  3;61,57,47;,
  3;49,60,46;,
  3;83,59,87;,
  3;86,83,87;,
  3;72,69,56;,
  3;58,71,55;,
  3;76,70,84;,
  3;83,75,84;,
  3;95,20,68;,
  3;80,95,67;,
  3;102,99,94;,
  3;96,102,94;,
  3;81,96,94;,
  3;88,85,81;,
  3;91,88,81;,
  3;94,91,81;,
  3;100,82,79;,
  3;97,100,79;,
  3;92,97,79;;
 }
}
}
}
AnimationSet {
 Animation anim-bound1 {
  {frm-bound1}
  AnimationKey {
  2;
  2;
  1; 3; 0.000000, 0.055593, -0.000008;;,
  45; 3; 0.000000, 0.055593, -0.000008;;;
  }
 }
}
