xof 0302txt 0032
template Header {
 <3D82AB43-62DA-11cf-AB39-0020AF71E433>
 WORD major;
 WORD minor;
 DWORD flags;
}

template Vector {
 <3D82AB5E-62DA-11cf-AB39-0020AF71E433>
 FLOAT x;
 FLOAT y;
 FLOAT z;
}

template Coords2d {
 <F6F23F44-7686-11cf-8F52-0040333594A3>
 FLOAT u;
 FLOAT v;
}

template Matrix4x4 {
 <F6F23F45-7686-11cf-8F52-0040333594A3>
 array FLOAT matrix[16];
}

template ColorRGBA {
 <35FF44E0-6C7C-11cf-8F52-0040333594A3>
 FLOAT red;
 FLOAT green;
 FLOAT blue;
 FLOAT alpha;
}

template ColorRGB {
 <D3E16E81-7835-11cf-8F52-0040333594A3>
 FLOAT red;
 FLOAT green;
 FLOAT blue;
}

template TextureFilename {
 <A42790E1-7810-11cf-8F52-0040333594A3>
 STRING filename;
}

template Material {
 <3D82AB4D-62DA-11cf-AB39-0020AF71E433>
 ColorRGBA faceColor;
 FLOAT power;
 ColorRGB specularColor;
 ColorRGB emissiveColor;
 [...]
}

template MeshFace {
 <3D82AB5F-62DA-11cf-AB39-0020AF71E433>
 DWORD nFaceVertexIndices;
 array DWORD faceVertexIndices[nFaceVertexIndices];
}

template MeshTextureCoords {
 <F6F23F40-7686-11cf-8F52-0040333594A3>
 DWORD nTextureCoords;
 array Coords2d textureCoords[nTextureCoords];
}

template MeshMaterialList {
 <F6F23F42-7686-11cf-8F52-0040333594A3>
 DWORD nMaterials;
 DWORD nFaceIndexes;
 array DWORD faceIndexes[nFaceIndexes];
 [Material]
}

template MeshNormals {
 <F6F23F43-7686-11cf-8F52-0040333594A3>
 DWORD nNormals;
 array Vector normals[nNormals];
 DWORD nFaceNormals;
 array MeshFace faceNormals[nFaceNormals];
}

template Mesh {
 <3D82AB44-62DA-11cf-AB39-0020AF71E433>
 DWORD nVertices;
 array Vector vertices[nVertices];
 DWORD nFaces;
 array MeshFace faces[nFaces];
 [...]
}

template FrameTransformMatrix {
 <F6F23F41-7686-11cf-8F52-0040333594A3>
 Matrix4x4 frameMatrix;
}

template Frame {
 <3D82AB46-62DA-11cf-AB39-0020AF71E433>
 [...]
}
template FloatKeys {
 <10DD46A9-775B-11cf-8F52-0040333594A3>
 DWORD nValues;
 array FLOAT values[nValues];
}

template TimedFloatKeys {
 <F406B180-7B3B-11cf-8F52-0040333594A3>
 DWORD time;
 FloatKeys tfkeys;
}

template AnimationKey {
 <10DD46A8-775B-11cf-8F52-0040333594A3>
 DWORD keyType;
 DWORD nKeys;
 array TimedFloatKeys keys[nKeys];
}

template AnimationOptions {
 <E2BF56C0-840F-11cf-8F52-0040333594A3>
 DWORD openclosed;
 DWORD positionquality;
}

template Animation {
 <3D82AB4F-62DA-11cf-AB39-0020AF71E433>
 [...]
}

template AnimationSet {
 <3D82AB50-62DA-11cf-AB39-0020AF71E433>
 [Animation]
}

Header {
 1;
 0;
 1;
}

Frame frm-fuselg {
  FrameTransformMatrix {
1.000000,0.000000,0.000000,0.000000,
0.000000,1.000000,0.000000,0.000000,
0.000000,0.000000,1.000000,0.000000,
0.000000,0.055593,-0.000008,1.000000;;
 }
Mesh fuselg {
 195;
 0.000000;8.293392;-0.000000;,
 0.000000;8.293392;-0.000000;,
 0.000000;8.293392;-0.000000;,
 0.000000;8.293392;-0.000000;,
 0.000000;8.293392;-0.000000;,
 0.000000;8.293392;-0.000000;,
 0.000000;8.293392;-0.000000;,
 0.000000;8.293392;-0.000000;,
 0.000000;8.293392;-0.000000;,
 0.000000;8.293392;-0.000000;,
 0.000000;8.293392;-0.000000;,
 0.000000;8.293392;-0.000000;,
 0.000000;8.293392;-0.000000;,
 0.000000;8.293392;-0.000000;,
 10.329629;-6.422131;-0.000000;,
 10.329629;-6.422131;-0.000000;,
 10.322461;6.376981;-0.000000;,
 10.322461;6.376981;-0.000000;,
 10.322461;6.376981;-0.000000;,
 10.322461;6.376981;-0.000000;,
 14.368260;6.857190;-0.000000;,
 14.368260;6.857190;-0.000000;,
 14.368260;6.857190;-0.000000;,
 14.368260;7.426735;-0.000000;,
 14.368260;7.426735;-0.000000;,
 14.368260;7.426735;-0.000000;,
 14.368260;7.426735;-0.000000;,
 14.368260;7.426735;-0.000000;,
 7.304151;-6.422131;7.304151;,
 7.304151;-6.422131;7.304151;,
 7.299081;6.376981;7.299081;,
 7.299081;6.376981;7.299081;,
 7.299081;6.376981;7.299081;,
 10.159898;6.857190;10.159898;,
 10.159898;6.857190;10.159898;,
 10.159898;6.857190;10.159898;,
 10.159898;6.857190;10.159898;,
 10.159898;7.426735;10.159898;,
 10.159898;7.426735;10.159898;,
 10.159898;7.426735;10.159898;,
 7.304151;-6.422131;-7.304151;,
 7.304151;-6.422131;-7.304151;,
 7.299081;6.376981;-7.299081;,
 7.299081;6.376981;-7.299081;,
 7.299081;6.376981;-7.299081;,
 0.000000;-6.422131;10.329627;,
 0.000000;-6.422131;10.329627;,
 0.000000;6.376981;10.322459;,
 0.000000;6.376981;10.322459;,
 0.000000;6.376981;10.322459;,
 0.000000;6.857190;14.368254;,
 0.000000;6.857190;14.368254;,
 0.000000;6.857190;14.368254;,
 0.000000;6.857190;14.368254;,
 0.000000;7.426735;14.368254;,
 0.000000;7.426735;14.368254;,
 0.000000;7.426735;14.368254;,
 0.000000;8.293392;12.671072;,
 0.000000;8.293392;12.671072;,
 0.000000;8.293392;12.671072;,
 0.000000;8.293392;12.671072;,
 0.000000;8.293392;12.671072;,
 -7.304151;-6.422131;7.304151;,
 -7.304151;-6.422131;7.304151;,
 -7.299081;6.376981;7.299081;,
 -7.299081;6.376981;7.299081;,
 -7.299081;6.376981;7.299081;,
 -10.159898;6.857190;10.159898;,
 -10.159898;6.857190;10.159898;,
 -10.159898;6.857190;10.159898;,
 -10.159898;6.857190;10.159898;,
 -10.159898;7.426735;10.159898;,
 -10.159898;7.426735;10.159898;,
 -10.159898;7.426735;10.159898;,
 -10.329627;-6.422131;-0.000000;,
 -10.329627;-6.422131;-0.000000;,
 -10.322459;6.376981;-0.000000;,
 -10.322459;6.376981;-0.000000;,
 -10.322459;6.376981;-0.000000;,
 -14.368254;6.857190;-0.000000;,
 -14.368254;6.857190;-0.000000;,
 -14.368254;6.857190;-0.000000;,
 -14.368254;6.857190;-0.000000;,
 -14.368254;7.426735;-0.000000;,
 -14.368254;7.426735;-0.000000;,
 -14.368254;7.426735;-0.000000;,
 -7.304151;-6.422131;-7.304151;,
 -7.304151;-6.422131;-7.304151;,
 -7.299081;6.376981;-7.299081;,
 -7.299081;6.376981;-7.299081;,
 -7.299081;6.376981;-7.299081;,
 -10.159898;6.857190;-10.159898;,
 -10.159898;6.857190;-10.159898;,
 -10.159898;6.857190;-10.159898;,
 -10.159898;7.426735;-10.159898;,
 -10.159898;7.426735;-10.159898;,
 -10.159898;7.426735;-10.159898;,
 10.159898;6.857190;-10.159898;,
 10.159898;6.857190;-10.159898;,
 10.159898;7.426735;-10.159898;,
 10.159898;7.426735;-10.159898;,
 10.159898;7.426735;-10.159898;,
 10.159898;7.426735;-10.159898;,
 10.159898;7.426735;-10.159898;,
 0.000000;-6.422131;-10.329627;,
 0.000000;-6.422131;-10.329627;,
 0.000000;6.376981;-10.322459;,
 0.000000;6.376981;-10.322459;,
 0.000000;6.376981;-10.322459;,
 0.000000;6.376981;-10.322459;,
 0.000000;6.857190;-14.368254;,
 0.000000;6.857190;-14.368254;,
 0.000000;6.857190;-14.368254;,
 0.000000;6.857190;-14.368254;,
 0.000000;7.426735;-14.368254;,
 0.000000;7.426735;-14.368254;,
 0.000000;7.426735;-14.368254;,
 0.000000;8.293392;-12.671072;,
 0.000000;8.293392;-12.671072;,
 0.000000;8.293392;-12.671072;,
 0.000000;8.293392;-12.671072;,
 0.000000;8.293392;-12.671072;,
 0.000000;8.293392;-6.335536;,
 0.000000;8.293392;-6.335536;,
 0.000000;8.293392;-6.335536;,
 0.000000;8.293392;-6.335536;,
 0.000000;8.293392;6.335536;,
 0.000000;8.293392;6.335536;,
 0.000000;8.293392;6.335536;,
 0.000000;-6.422131;-0.000000;,
 -5.407721;8.293392;2.239952;,
 -10.815441;8.293392;4.479905;,
 -2.239952;8.293392;5.407721;,
 -4.479905;8.293392;10.815441;,
 2.239952;8.293392;5.407721;,
 4.479905;8.293392;10.815441;,
 5.407722;8.293392;2.239952;,
 10.815445;8.293392;4.479905;,
 5.407722;8.293392;-2.239952;,
 10.815445;8.293392;-4.479905;,
 2.239952;8.293392;-5.407721;,
 4.479905;8.293392;-10.815441;,
 -2.239952;8.293392;-5.407721;,
 -4.479905;8.293392;-10.815441;,
 -5.407721;8.293392;-2.239952;,
 -10.815441;8.293392;-4.479905;,
 -4.479905;8.293392;4.479905;,
 0.000000;8.293392;6.335536;,
 4.479905;8.293392;4.479905;,
 6.335540;8.293392;-0.000000;,
 4.479905;8.293392;-4.479905;,
 0.000000;8.293392;-6.335536;,
 -4.479905;8.293392;-4.479905;,
 -6.335536;8.293392;-0.000000;,
 0.000000;8.293392;-12.671072;,
 0.000000;7.426735;-14.368254;,
 0.000000;6.857190;-14.368254;,
 0.000000;6.376981;-10.322459;,
 0.000000;-6.422131;-10.329627;,
 10.159898;7.426735;-10.159898;,
 10.159898;6.857190;-10.159898;,
 -8.959809;8.293392;-8.959809;,
 -10.159898;7.426735;-10.159898;,
 -10.159898;6.857190;-10.159898;,
 -7.299081;6.376981;-7.299081;,
 -7.304151;-6.422131;-7.304151;,
 -12.671072;8.293392;-0.000000;,
 -14.368254;7.426735;-0.000000;,
 -14.368254;6.857190;-0.000000;,
 -10.322459;6.376981;-0.000000;,
 -10.329627;-6.422131;-0.000000;,
 -8.959809;8.293392;8.959809;,
 -10.159898;7.426735;10.159898;,
 -10.159898;6.857190;10.159898;,
 -7.299081;6.376981;7.299081;,
 -7.304151;-6.422131;7.304151;,
 0.000000;8.293392;12.671072;,
 0.000000;7.426735;14.368254;,
 0.000000;6.857190;14.368254;,
 0.000000;6.376981;10.322459;,
 0.000000;-6.422131;10.329627;,
 7.299081;6.376981;-7.299081;,
 7.304151;-6.422131;-7.304151;,
 8.959809;8.293392;8.959809;,
 10.159898;7.426735;10.159898;,
 10.159898;6.857190;10.159898;,
 7.299081;6.376981;7.299081;,
 7.304151;-6.422131;7.304151;,
 12.671081;8.293392;-0.000000;,
 14.368260;7.426735;-0.000000;,
 14.368260;6.857190;-0.000000;,
 10.322461;6.376981;-0.000000;,
 10.329629;-6.422131;-0.000000;,
 0.000000;8.293392;-0.000000;,
 8.959809;8.293392;-8.959809;;

 111;
 3;188,27,103;,
 3;139,188,102;,
 3;194,139,101;,
 3;131,171,130;,
 3;171,146,130;,
 3;130,153,131;,
 3;153,166,131;,
 4;19,32,29,15;,
 3;36,31,18;,
 3;22,35,17;,
 4;26,39,34,21;,
 3;183,38,25;,
 3;137,183,24;,
 3;188,137,23;,
 3;136,149,13;,
 3;148,136,12;,
 4;100,189,20,98;,
 4;116,99,97,113;,
 3;132,146,133;,
 4;30,49,46,28;,
 3;53,48,186;,
 3;33,52,186;,
 4;37,56,51,185;,
 3;61,55,184;,
 3;135,60,184;,
 3;183,135,184;,
 3;134,148,11;,
 3;128,134,10;,
 3;190,16,44;,
 3;160,190,43;,
 3;160,42,109;,
 3;112,160,108;,
 3;146,171,133;,
 4;47,66,63,45;,
 3;70,65,179;,
 3;50,69,179;,
 4;54,73,68,178;,
 3;171,72,177;,
 3;133,171,177;,
 3;59,133,177;,
 3;132,127,9;,
 3;146,132,8;,
 4;181,191,14,41;,
 3;133,58,132;,
 3;57,126,132;,
 3;134,147,135;,
 3;147,176,135;,
 4;64,78,75,62;,
 3;82,77,174;,
 3;67,81,174;,
 4;71,85,80,173;,
 3;166,84,172;,
 3;131,166,172;,
 3;171,131,172;,
 3;130,146,7;,
 3;153,130,6;,
 3;136,148,137;,
 3;148,183,137;,
 3;135,183,134;,
 3;183,148,134;,
 3;138,149,139;,
 3;149,188,139;,
 4;76,90,87,74;,
 4;79,93,89,169;,
 4;83,96,92,168;,
 3;161,95,167;,
 3;145,161,167;,
 3;166,145,167;,
 3;144,153,5;,
 3;152,144,4;,
 3;137,188,136;,
 3;188,149,136;,
 3;140,125,3;,
 3;150,140,2;,
 3;140,150,141;,
 4;88,107,105,86;,
 3;111,106,164;,
 3;91,110,164;,
 4;94,115,156,163;,
 3;121,114,162;,
 3;143,120,162;,
 3;161,143,162;,
 3;142,152,1;,
 3;124,142,0;,
 3;138,150,193;,
 3;149,138,193;,
 3;194,159,155;,
 3;141,194,155;,
 3;119,141,155;,
 3;150,194,141;,
 4;157,181,40,104;,
 3;142,123,143;,
 3;139,194,138;,
 3;194,150,138;,
 3;141,118,140;,
 3;117,122,140;,
 3;143,161,142;,
 3;161,152,142;,
 3;145,166,144;,
 3;166,153,144;,
 3;151,154,143;,
 3;152,161,145;,
 3;144,152,145;,
 3;129,182,192;,
 3;129,175,170;,
 3;158,182,129;,
 3;129,165,158;,
 3;170,165,129;,
 3;180,175,129;,
 3;187,180,129;,
 3;192,187,129;;

 MeshMaterialList {
  6;
  111;
  0,
  0,
  0,
  1,
  1,
  1,
  1,
  2,
  3,
  3,
  4,
  0,
  0,
  0,
  0,
  0,
  4,
  4,
  1,
  2,
  3,
  3,
  4,
  0,
  0,
  0,
  0,
  0,
  3,
  3,
  3,
  3,
  1,
  2,
  3,
  3,
  4,
  1,
  1,
  1,
  1,
  1,
  2,
  1,
  1,
  0,
  0,
  2,
  3,
  3,
  4,
  1,
  1,
  1,
  1,
  1,
  0,
  0,
  0,
  0,
  0,
  0,
  2,
  3,
  4,
  1,
  1,
  1,
  1,
  1,
  0,
  0,
  0,
  0,
  0,
  2,
  3,
  3,
  4,
  1,
  1,
  1,
  1,
  1,
  0,
  0,
  0,
  0,
  0,
  0,
  2,
  1,
  0,
  0,
  0,
  0,
  1,
  1,
  1,
  1,
  1,
  1,
  1,
  5,
  5,
  5,
  5,
  5,
  5,
  5,
  5;
Material {
 1.000000;1.000000;1.000000;1.000000;;
 50.000000;
 1.000000;1.000000;1.000000;;
 0.0; 0.0; 0.0;;
 TextureFilename {
  "ss06.ppm";
 }
 }
Material {
 1.000000;1.000000;1.000000;1.000000;;
 50.000000;
 1.000000;1.000000;1.000000;;
 0.0; 0.0; 0.0;;
 TextureFilename {
  "ss06.ppm";
 }
 }
Material {
 1.000000;1.000000;1.000000;1.000000;;
 50.000000;
 1.000000;1.000000;1.000000;;
 0.0; 0.0; 0.0;;
 TextureFilename {
  "ss06.ppm";
 }
 }
Material {
 1.000000;1.000000;1.000000;1.000000;;
 50.000000;
 1.000000;1.000000;1.000000;;
 0.0; 0.0; 0.0;;
 TextureFilename {
  "ss06.ppm";
 }
 }
Material {
 1.000000;1.000000;1.000000;1.000000;;
 50.000000;
 1.000000;1.000000;1.000000;;
 0.0; 0.0; 0.0;;
 TextureFilename {
  "ss06.ppm";
 }
 }
Material {
 1.000000;1.000000;1.000000;1.000000;;
 50.000000;
 1.000000;1.000000;1.000000;;
 0.0; 0.0; 0.0;;
 TextureFilename {
  "ss06.ppm";
 }
 }
}
 MeshNormals {
  195;
  0.000000;1.000000;0.000000;,
  0.000000;1.000000;0.000000;,
  0.000000;1.000000;0.000000;,
  0.000000;1.000000;0.000000;,
  0.000000;1.000000;0.000000;,
  0.000000;1.000000;0.000000;,
  0.000000;1.000000;0.000000;,
  0.000000;1.000000;0.000000;,
  0.000000;1.000000;0.000000;,
  0.000000;1.000000;0.000000;,
  0.000000;1.000000;0.000000;,
  0.000000;1.000000;0.000000;,
  0.000000;1.000000;0.000000;,
  0.000000;1.000000;0.000000;,
  0.700656;-0.706911;0.096740;,
  0.700656;-0.706911;0.096740;,
  0.615955;-0.785547;-0.059289;,
  0.615955;-0.785547;-0.059289;,
  0.615955;-0.785547;-0.059289;,
  0.615955;-0.785547;-0.059289;,
  0.619909;-0.784568;-0.012858;,
  0.619909;-0.784568;-0.012858;,
  0.619909;-0.784568;-0.012858;,
  0.730151;0.679496;0.071862;,
  0.730151;0.679496;0.071862;,
  0.730151;0.679496;0.071862;,
  0.730151;0.679496;0.071862;,
  0.730151;0.679496;0.071862;,
  0.427033;-0.706911;0.563844;,
  0.427033;-0.706911;0.563844;,
  0.477470;-0.785547;0.393623;,
  0.477470;-0.785547;0.393623;,
  0.477470;-0.785547;0.393623;,
  0.447434;-0.784568;0.429251;,
  0.447434;-0.784568;0.429251;,
  0.447434;-0.784568;0.429251;,
  0.447434;-0.784568;0.429251;,
  0.465480;0.679496;0.567109;,
  0.465480;0.679496;0.567109;,
  0.465480;0.679496;0.567109;,
  0.563844;-0.706911;-0.427033;,
  0.563844;-0.706911;-0.427033;,
  0.393623;-0.785547;-0.477470;,
  0.393623;-0.785547;-0.477470;,
  0.393623;-0.785547;-0.477470;,
  -0.096740;-0.706911;0.700656;,
  -0.096740;-0.706911;0.700656;,
  0.059289;-0.785547;0.615955;,
  0.059289;-0.785547;0.615955;,
  0.059289;-0.785547;0.615955;,
  0.012858;-0.784568;0.619909;,
  0.012858;-0.784568;0.619909;,
  0.012858;-0.784568;0.619909;,
  0.012858;-0.784568;0.619909;,
  -0.071862;0.679496;0.730151;,
  -0.071862;0.679496;0.730151;,
  -0.071862;0.679496;0.730151;,
  0.031994;0.972256;0.231719;,
  0.031994;0.972256;0.231719;,
  0.031994;0.972256;0.231719;,
  0.031994;0.972256;0.231719;,
  0.031994;0.972256;0.231719;,
  -0.563844;-0.706911;0.427033;,
  -0.563844;-0.706911;0.427033;,
  -0.393623;-0.785547;0.477470;,
  -0.393623;-0.785547;0.477470;,
  -0.393623;-0.785547;0.477470;,
  -0.429250;-0.784568;0.447434;,
  -0.429250;-0.784568;0.447434;,
  -0.429250;-0.784568;0.447434;,
  -0.429250;-0.784568;0.447434;,
  -0.567109;0.679496;0.465480;,
  -0.567109;0.679496;0.465480;,
  -0.567109;0.679496;0.465480;,
  -0.700656;-0.706911;-0.096740;,
  -0.700656;-0.706911;-0.096740;,
  -0.741884;-0.664251;0.091541;,
  -0.741884;-0.664251;0.091541;,
  -0.741884;-0.664251;0.091541;,
  -0.619909;-0.784568;0.012858;,
  -0.619909;-0.784568;0.012858;,
  -0.619909;-0.784568;0.012858;,
  -0.619909;-0.784568;0.012858;,
  -0.730151;0.679496;-0.071862;,
  -0.730151;0.679496;-0.071862;,
  -0.730151;0.679496;-0.071862;,
  -0.427033;-0.706911;-0.563844;,
  -0.427033;-0.706911;-0.563844;,
  -0.477470;-0.785547;-0.393623;,
  -0.477470;-0.785547;-0.393623;,
  -0.477470;-0.785547;-0.393623;,
  -0.528646;-0.664129;-0.528646;,
  -0.528646;-0.664129;-0.528646;,
  -0.528646;-0.664129;-0.528646;,
  -0.465480;0.679496;-0.567109;,
  -0.465480;0.679496;-0.567109;,
  -0.465480;0.679496;-0.567109;,
  0.429250;-0.784568;-0.447434;,
  0.429250;-0.784568;-0.447434;,
  0.567109;0.679496;-0.465480;,
  0.567109;0.679496;-0.465480;,
  0.567109;0.679496;-0.465480;,
  0.567109;0.679496;-0.465480;,
  0.567109;0.679496;-0.465480;,
  0.096740;-0.706911;-0.700656;,
  0.096740;-0.706911;-0.700656;,
  -0.059289;-0.785547;-0.615955;,
  -0.059289;-0.785547;-0.615955;,
  -0.059289;-0.785547;-0.615955;,
  -0.059289;-0.785547;-0.615955;,
  -0.012858;-0.784568;-0.619909;,
  -0.012858;-0.784568;-0.619909;,
  -0.012858;-0.784568;-0.619909;,
  -0.012858;-0.784568;-0.619909;,
  0.071862;0.679496;-0.730151;,
  0.071862;0.679496;-0.730151;,
  0.071862;0.679496;-0.730151;,
  -0.031994;0.972256;-0.231719;,
  -0.031994;0.972256;-0.231719;,
  -0.031994;0.972256;-0.231719;,
  -0.031994;0.972256;-0.231719;,
  -0.031994;0.972256;-0.231719;,
  0.000000;1.000000;0.000000;,
  0.000000;1.000000;0.000000;,
  0.000000;1.000000;0.000000;,
  0.000000;1.000000;0.000000;,
  0.000000;1.000000;0.000000;,
  0.000000;1.000000;0.000000;,
  0.000000;1.000000;0.000000;,
  0.000000;-1.000000;0.000000;,
  0.000000;1.000000;0.000000;,
  -0.184376;0.979884;0.076371;,
  0.000000;1.000000;0.000000;,
  -0.076371;0.979884;0.184376;,
  0.000000;1.000000;0.000000;,
  0.076371;0.979884;0.184376;,
  0.000000;1.000000;0.000000;,
  0.184376;0.979884;0.076371;,
  0.000000;1.000000;0.000000;,
  0.184376;0.979884;-0.076371;,
  0.000000;1.000000;0.000000;,
  0.076371;0.979884;-0.184376;,
  0.000000;1.000000;0.000000;,
  -0.076371;0.979884;-0.184376;,
  0.000000;1.000000;0.000000;,
  -0.184376;0.979884;-0.076371;,
  0.000000;1.000000;0.000000;,
  0.000000;1.000000;0.000000;,
  0.000000;1.000000;0.000000;,
  0.000000;1.000000;0.000000;,
  0.000000;1.000000;0.000000;,
  0.000000;1.000000;0.000000;,
  0.000000;1.000000;0.000000;,
  0.000000;1.000000;0.000000;,
  -0.031994;0.972256;-0.231719;,
  0.071862;0.679496;-0.730151;,
  -0.012858;-0.784568;-0.619909;,
  -0.059289;-0.785547;-0.615955;,
  0.096740;-0.706911;-0.700656;,
  0.567109;0.679496;-0.465480;,
  0.429250;-0.784568;-0.447434;,
  -0.186473;0.972256;-0.141227;,
  -0.465480;0.679496;-0.567109;,
  -0.528646;-0.664129;-0.528646;,
  -0.477470;-0.785547;-0.393623;,
  -0.427033;-0.706911;-0.563844;,
  -0.231719;0.972256;0.031994;,
  -0.730151;0.679496;-0.071862;,
  -0.619909;-0.784568;0.012858;,
  -0.741884;-0.664251;0.091541;,
  -0.700656;-0.706911;-0.096740;,
  -0.141227;0.972256;0.186473;,
  -0.567109;0.679496;0.465480;,
  -0.429250;-0.784568;0.447434;,
  -0.393623;-0.785547;0.477470;,
  -0.563844;-0.706911;0.427033;,
  0.031994;0.972256;0.231719;,
  -0.071862;0.679496;0.730151;,
  0.012858;-0.784568;0.619909;,
  0.059289;-0.785547;0.615955;,
  -0.096740;-0.706911;0.700656;,
  0.393623;-0.785547;-0.477470;,
  0.563844;-0.706911;-0.427033;,
  0.186473;0.972256;0.141227;,
  0.465480;0.679496;0.567109;,
  0.447434;-0.784568;0.429251;,
  0.477470;-0.785547;0.393623;,
  0.427033;-0.706911;0.563844;,
  0.231719;0.972256;-0.031994;,
  0.730151;0.679496;0.071862;,
  0.619909;-0.784568;-0.012858;,
  0.615955;-0.785547;-0.059289;,
  0.700656;-0.706911;0.096740;,
  0.000000;1.000000;0.000000;,
  0.141227;0.972256;-0.186473;;

  111;
  3;188,27,103;,
  3;139,188,102;,
  3;194,139,101;,
  3;131,171,130;,
  3;171,146,130;,
  3;130,153,131;,
  3;153,166,131;,
  4;19,32,29,15;,
  3;36,31,18;,
  3;22,35,17;,
  4;26,39,34,21;,
  3;183,38,25;,
  3;137,183,24;,
  3;188,137,23;,
  3;136,149,13;,
  3;148,136,12;,
  4;100,189,20,98;,
  4;116,99,97,113;,
  3;132,146,133;,
  4;30,49,46,28;,
  3;53,48,186;,
  3;33,52,186;,
  4;37,56,51,185;,
  3;61,55,184;,
  3;135,60,184;,
  3;183,135,184;,
  3;134,148,11;,
  3;128,134,10;,
  3;190,16,44;,
  3;160,190,43;,
  3;160,42,109;,
  3;112,160,108;,
  3;146,171,133;,
  4;47,66,63,45;,
  3;70,65,179;,
  3;50,69,179;,
  4;54,73,68,178;,
  3;171,72,177;,
  3;133,171,177;,
  3;59,133,177;,
  3;132,127,9;,
  3;146,132,8;,
  4;181,191,14,41;,
  3;133,58,132;,
  3;57,126,132;,
  3;134,147,135;,
  3;147,176,135;,
  4;64,78,75,62;,
  3;82,77,174;,
  3;67,81,174;,
  4;71,85,80,173;,
  3;166,84,172;,
  3;131,166,172;,
  3;171,131,172;,
  3;130,146,7;,
  3;153,130,6;,
  3;136,148,137;,
  3;148,183,137;,
  3;135,183,134;,
  3;183,148,134;,
  3;138,149,139;,
  3;149,188,139;,
  4;76,90,87,74;,
  4;79,93,89,169;,
  4;83,96,92,168;,
  3;161,95,167;,
  3;145,161,167;,
  3;166,145,167;,
  3;144,153,5;,
  3;152,144,4;,
  3;137,188,136;,
  3;188,149,136;,
  3;140,125,3;,
  3;150,140,2;,
  3;140,150,141;,
  4;88,107,105,86;,
  3;111,106,164;,
  3;91,110,164;,
  4;94,115,156,163;,
  3;121,114,162;,
  3;143,120,162;,
  3;161,143,162;,
  3;142,152,1;,
  3;124,142,0;,
  3;138,150,193;,
  3;149,138,193;,
  3;194,159,155;,
  3;141,194,155;,
  3;119,141,155;,
  3;150,194,141;,
  4;157,181,40,104;,
  3;142,123,143;,
  3;139,194,138;,
  3;194,150,138;,
  3;141,118,140;,
  3;117,122,140;,
  3;143,161,142;,
  3;161,152,142;,
  3;145,166,144;,
  3;166,153,144;,
  3;151,154,143;,
  3;152,161,145;,
  3;144,152,145;,
  3;129,182,192;,
  3;129,175,170;,
  3;158,182,129;,
  3;129,165,158;,
  3;170,165,129;,
  3;180,175,129;,
  3;187,180,129;,
  3;192,187,129;;
 }
 MeshTextureCoords { 
 195;
 0.429554;0.430852;,
 0.429554;0.430852;,
 0.431503;0.436348;,
 0.431503;0.436348;,
 0.429554;0.430852;,
 0.429554;0.430852;,
 0.429554;0.430852;,
 0.429554;0.430852;,
 0.429554;0.430852;,
 0.429554;0.430852;,
 0.431503;0.436348;,
 0.431503;0.436348;,
 0.431503;0.436348;,
 0.431503;0.436348;,
 0.988281;0.871094;,
 0.464844;0.871094;,
 0.131551;0.433724;,
 0.131551;0.433724;,
 0.131551;0.433724;,
 0.464844;0.011719;,
 1.000000;0.995753;,
 1.000000;0.995753;,
 0.020214;0.441318;,
 0.018248;0.436348;,
 0.018248;0.436348;,
 0.018248;0.436348;,
 1.000000;0.895113;,
 0.018248;0.436348;,
 0.722656;0.871094;,
 0.722656;0.871094;,
 0.722656;0.011719;,
 0.213197;0.646349;,
 0.722656;0.011719;,
 0.138973;0.729880;,
 1.982211;0.995753;,
 0.138973;0.729880;,
 0.138973;0.729880;,
 0.017789;0.895113;,
 0.139288;0.733456;,
 1.982211;0.895113;,
 0.722656;0.871094;,
 0.722656;0.871094;,
 0.220620;0.228693;,
 0.220620;0.228693;,
 0.220620;0.228693;,
 0.464844;0.871094;,
 0.988281;0.871094;,
 0.464844;0.011719;,
 0.421485;0.735021;,
 0.988281;0.011719;,
 0.421485;0.851555;,
 1.000000;0.995753;,
 0.421485;0.851555;,
 0.421485;0.851555;,
 1.000000;0.895113;,
 0.431503;0.856523;,
 1.000000;0.895113;,
 0.429554;0.800676;,
 0.429554;0.800676;,
 0.429554;0.800676;,
 0.431503;0.806892;,
 0.431503;0.806892;,
 0.722656;0.871094;,
 0.722656;0.871094;,
 0.722656;0.011719;,
 0.215988;0.647936;,
 0.722656;0.011719;,
 0.135445;0.730339;,
 1.982211;0.995753;,
 0.135445;0.730339;,
 0.135445;0.730339;,
 0.017789;0.895113;,
 0.133989;0.727383;,
 1.982211;0.895113;,
 0.464844;0.871094;,
 0.988281;0.871094;,
 0.464844;0.011719;,
 0.130868;0.437696;,
 0.988281;0.011719;,
 0.016963;0.437696;,
 1.000000;0.995753;,
 0.016963;0.437696;,
 0.016963;0.437696;,
 1.000000;0.895113;,
 0.011562;0.430852;,
 1.000000;0.895113;,
 0.722656;0.871094;,
 0.722656;0.871094;,
 0.722656;0.011719;,
 0.215988;0.227456;,
 0.722656;0.011719;,
 0.135445;0.145054;,
 1.982211;0.995753;,
 0.135445;0.145054;,
 0.017789;0.895113;,
 0.133989;0.134320;,
 1.982211;0.895113;,
 1.982211;0.995753;,
 0.017789;0.995753;,
 1.982211;0.895113;,
 0.017789;0.895113;,
 0.139288;0.139239;,
 0.139288;0.139239;,
 0.139288;0.139239;,
 0.464844;0.871094;,
 0.988281;0.871094;,
 0.421485;0.140371;,
 0.988281;0.011719;,
 0.421485;0.140371;,
 0.421485;0.140371;,
 0.421485;0.023838;,
 0.421485;0.023838;,
 0.421485;0.023838;,
 1.000000;0.995753;,
 0.429554;0.011493;,
 1.000000;0.895113;,
 1.000000;0.895113;,
 0.431503;0.065804;,
 0.431503;0.065804;,
 0.431503;0.065804;,
 0.429554;0.061028;,
 0.429554;0.061028;,
 0.431503;0.251076;,
 0.429554;0.245940;,
 0.429554;0.245940;,
 0.431503;0.251076;,
 0.429554;0.615764;,
 0.429554;0.615764;,
 0.431503;0.621620;,
 0.437137;0.437500;,
 0.272236;0.496228;,
 0.114918;0.561604;,
 0.364391;0.588684;,
 0.299228;0.746516;,
 0.367079;0.594487;,
 0.302654;0.752627;,
 0.275968;0.501851;,
 0.120433;0.567355;,
 0.275968;0.370844;,
 0.120433;0.305340;,
 0.367079;0.278208;,
 0.302654;0.120069;,
 0.364391;0.273019;,
 0.299228;0.115187;,
 0.272236;0.365475;,
 0.114918;0.300099;,
 0.299228;0.561604;,
 0.431503;0.621620;,
 0.302654;0.567355;,
 0.249283;0.436348;,
 0.302654;0.305340;,
 0.429554;0.245940;,
 0.299228;0.300099;,
 0.245245;0.430852;,
 0.429554;0.061028;,
 0.431503;0.016173;,
 1.000000;0.995753;,
 0.464844;0.011719;,
 0.437137;0.290504;,
 0.139288;0.139239;,
 0.138973;0.145162;,
 0.168901;0.169346;,
 0.133989;0.134320;,
 0.017789;0.995753;,
 0.215988;0.227456;,
 0.341302;0.333558;,
 0.060936;0.430852;,
 0.011562;0.430852;,
 1.000000;0.995753;,
 0.130868;0.437696;,
 0.301606;0.437500;,
 0.168901;0.692357;,
 0.133989;0.727383;,
 0.017789;0.995753;,
 0.215988;0.647936;,
 0.341302;0.541442;,
 0.431503;0.806892;,
 0.429554;0.850211;,
 1.000000;0.995753;,
 0.421485;0.735021;,
 0.437137;0.584496;,
 0.722656;0.011719;,
 0.341302;0.333558;,
 0.173804;0.698362;,
 0.139288;0.733456;,
 0.017789;0.995753;,
 0.213197;0.646349;,
 0.341302;0.541442;,
 0.067062;0.436348;,
 1.000000;0.895113;,
 0.020214;0.441318;,
 0.988281;0.011719;,
 0.301606;0.437500;,
 0.431503;0.436348;,
 0.173804;0.174333;;
 }
}
Frame frm-ranteen {
  FrameTransformMatrix {
1.000000,0.000000,0.000000,0.000000,
0.000000,1.000000,0.000000,0.000000,
0.000000,0.000000,1.000000,0.000000,
14.260179,7.140081,-0.000000,1.000000;;
 }
Mesh ranteen {
 112;
 14.652334;-0.000000;0.000006;,
 14.652334;-0.000000;0.000006;,
 14.652334;-0.000000;0.000006;,
 14.652334;-0.000000;0.000006;,
 14.652334;-0.000000;0.000006;,
 0.612876;-0.000002;0.956113;,
 0.612876;-0.000002;0.956113;,
 0.612876;-0.000002;0.956113;,
 0.612876;-0.000002;0.956113;,
 0.709707;-0.000001;0.424517;,
 0.709707;-0.000001;0.424517;,
 0.709707;-0.000001;0.424517;,
 0.709707;-0.000001;0.424517;,
 2.107843;0.000004;0.354041;,
 2.107843;0.000004;0.354041;,
 2.107843;0.000004;0.354041;,
 2.107843;0.000004;0.354041;,
 2.327289;-0.409928;0.406062;,
 2.327289;-0.409928;0.406062;,
 2.327289;-0.409928;0.406062;,
 0.612876;0.963462;0.000004;,
 0.612876;0.963462;0.000004;,
 0.612876;0.963462;0.000004;,
 0.612876;0.963462;0.000004;,
 2.107843;0.354034;0.000010;,
 2.107843;0.354034;0.000010;,
 2.107843;0.354034;0.000010;,
 2.107843;0.354034;0.000010;,
 2.327289;0.436203;0.409956;,
 2.327289;0.436203;0.409956;,
 2.327289;0.436203;0.409956;,
 2.327289;0.436203;0.409956;,
 2.327289;0.436203;0.409956;,
 2.327289;0.436203;0.409956;,
 2.327289;0.436203;0.409956;,
 0.612876;-0.000002;-0.956105;,
 0.612876;-0.000002;-0.956105;,
 0.612876;-0.000002;-0.956105;,
 0.612876;-0.000002;-0.956105;,
 0.612876;-0.000002;-0.956105;,
 0.709707;-0.000001;-0.424509;,
 0.709707;-0.000001;-0.424509;,
 2.107843;0.000004;-0.354020;,
 2.107843;0.000004;-0.354020;,
 2.107843;0.000004;-0.354020;,
 2.107843;0.000004;-0.354020;,
 2.107843;0.000004;-0.354020;,
 2.327289;0.440097;-0.436176;,
 2.327289;0.440097;-0.436176;,
 2.327289;0.440097;-0.436176;,
 2.327289;0.440097;-0.436176;,
 2.327289;0.440097;-0.436176;,
 0.612876;-0.963465;0.000004;,
 0.612876;-0.963465;0.000004;,
 0.612876;-0.963465;0.000004;,
 0.612876;-0.963465;0.000004;,
 0.709707;-0.424515;0.000004;,
 0.709707;-0.424515;0.000004;,
 0.709707;-0.424515;0.000004;,
 0.709707;-0.424515;0.000004;,
 2.107843;-0.354028;0.000011;,
 2.107843;-0.354028;0.000011;,
 2.107843;-0.354028;0.000011;,
 2.107843;-0.354028;0.000011;,
 2.107843;-0.354028;0.000011;,
 2.107843;-0.354028;0.000011;,
 2.327289;-0.406035;-0.440069;,
 2.327289;-0.406035;-0.440069;,
 2.327289;-0.406035;-0.440069;,
 2.327289;-0.406035;-0.440069;,
 2.327289;-0.406035;-0.440069;,
 2.327289;-0.406035;-0.440069;,
 14.207808;0.227587;-0.225620;,
 14.207808;0.227587;-0.225620;,
 14.207808;0.225640;0.197446;,
 14.207808;-0.197425;0.195499;,
 14.207808;-0.197425;0.195499;,
 14.207808;-0.195479;-0.227567;,
 14.207808;-0.195479;-0.227567;,
 14.207808;-0.195479;-0.227567;,
 14.207808;-0.197425;0.195499;,
 14.207808;0.225640;0.197446;,
 14.207808;0.227587;-0.225620;,
 2.581588;-1.526711;-0.772151;,
 2.581588;1.533756;-0.758067;,
 2.581588;1.526714;0.772167;,
 2.581588;-1.533752;0.758083;,
 2.327289;-0.406035;-0.440069;,
 2.204674;-1.015459;-1.024842;,
 2.107843;-0.354028;0.000011;,
 0.709707;-0.424515;0.000004;,
 0.612876;-0.963465;0.000004;,
 0.000309;-0.529539;0.000004;,
 2.327289;0.440097;-0.436176;,
 2.204674;1.024852;-1.015453;,
 2.107843;0.000004;-0.354020;,
 0.709707;-0.000001;-0.424509;,
 0.612876;-0.000002;-0.956105;,
 0.000309;-0.000002;-0.529534;,
 2.327289;0.436203;0.409956;,
 2.204674;1.015463;1.024858;,
 2.107843;0.354034;0.000010;,
 0.709707;0.424511;0.000004;,
 0.612876;0.963462;0.000004;,
 0.000309;0.529536;0.000004;,
 2.327289;-0.409928;0.406062;,
 2.204674;-1.024848;1.015470;,
 2.107843;0.000004;0.354041;,
 0.709707;-0.000001;0.424517;,
 0.612876;-0.000002;0.956113;,
 0.000309;-0.000002;0.529541;,
 14.652334;-0.000000;0.000006;;

 60;
 3;76,19,71;,
 3;4,75,70;,
 3;78,3,69;,
 3;86,83,88;,
 3;106,86,88;,
 3;106,16,65;,
 3;86,106,64;,
 3;83,86,63;,
 3;88,83,62;,
 3;68,18,106;,
 3;88,67,106;,
 3;34,51,94;,
 3;100,33,94;,
 3;77,66,50;,
 3;2,79,49;,
 3;73,1,48;,
 3;87,88,94;,
 3;47,87,94;,
 3;72,93,32;,
 3;0,82,31;,
 3;74,111,30;,
 3;23,104,110;,
 3;8,22,110;,
 3;102,21,7;,
 3;12,102,6;,
 3;27,102,11;,
 3;15,26,10;,
 3;100,25,14;,
 3;106,100,13;,
 3;29,100,106;,
 3;17,28,106;,
 3;81,99,105;,
 3;111,81,105;,
 3;80,111,105;,
 3;107,9,59;,
 3;61,107,58;,
 3;108,5,55;,
 3;57,108,54;,
 3;109,110,92;,
 3;53,109,92;,
 3;88,60,46;,
 3;94,88,45;,
 3;89,56,41;,
 3;44,89,40;,
 3;90,52,39;,
 3;96,90,38;,
 3;91,92,98;,
 3;37,91,98;,
 3;84,85,100;,
 3;94,84,100;,
 3;36,98,104;,
 3;20,35,104;,
 3;96,97,103;,
 3;102,96,103;,
 3;43,96,102;,
 3;24,42,102;,
 3;94,95,101;,
 3;84,94,101;,
 3;85,84,101;,
 3;100,85,101;;

 MeshMaterialList {
  2;
  60;
  0,
  0,
  0,
  1,
  1,
  1,
  1,
  1,
  1,
  1,
  1,
  1,
  1,
  0,
  0,
  0,
  1,
  1,
  0,
  0,
  0,
  0,
  0,
  0,
  0,
  0,
  0,
  1,
  1,
  1,
  1,
  0,
  0,
  0,
  0,
  0,
  0,
  0,
  0,
  0,
  1,
  1,
  0,
  0,
  0,
  0,
  0,
  0,
  1,
  1,
  0,
  0,
  0,
  0,
  0,
  0,
  1,
  1,
  1,
  1;
Material {
 1.000000;1.000000;1.000000;1.000000;;
 50.000000;
 1.000000;1.000000;1.000000;;
 0.0; 0.0; 0.0;;
 TextureFilename {
  "ss06.ppm";
 }
 }
Material {
 1.000000;1.000000;1.000000;1.000000;;
 50.000000;
 1.000000;1.000000;1.000000;;
 0.0; 0.0; 0.0;;
 TextureFilename {
  "ss06.ppm";
 }
 }
}
 MeshNormals {
  112;
  1.000000;-0.000210;0.000210;,
  1.000000;-0.000210;0.000210;,
  1.000000;-0.000210;0.000210;,
  1.000000;-0.000210;0.000210;,
  1.000000;-0.000210;0.000210;,
  0.540076;-0.210945;0.814751;,
  0.540076;-0.210945;0.814751;,
  0.540076;-0.210945;0.814751;,
  0.540076;-0.210945;0.814751;,
  0.881180;0.000000;0.472781;,
  0.881180;0.000000;0.472781;,
  0.881180;0.000000;0.472781;,
  0.881180;0.000000;0.472781;,
  -0.734982;-0.312518;0.601776;,
  -0.734982;-0.312518;0.601776;,
  -0.734982;-0.312518;0.601776;,
  -0.734982;-0.312518;0.601776;,
  0.518830;-0.303629;0.799140;,
  0.518830;-0.303629;0.799140;,
  0.518830;-0.303629;0.799140;,
  0.541860;0.813129;0.212624;,
  0.541860;0.813129;0.212624;,
  0.541860;0.813129;0.212624;,
  0.541860;0.813129;0.212624;,
  -0.830485;0.528172;0.176999;,
  -0.830485;0.528172;0.176999;,
  -0.830485;0.528172;0.176999;,
  -0.830485;0.528172;0.176999;,
  0.739509;0.621776;0.257915;,
  0.739509;0.621776;0.257915;,
  0.739509;0.621776;0.257915;,
  0.739509;0.621776;0.257915;,
  0.739509;0.621776;0.257915;,
  0.739509;0.621776;0.257915;,
  0.739509;0.621776;0.257915;,
  0.540077;0.210945;-0.814751;,
  0.540077;0.210945;-0.814751;,
  0.540077;0.210945;-0.814751;,
  0.540077;0.210945;-0.814751;,
  0.540077;0.210945;-0.814751;,
  0.881181;0.000000;-0.472779;,
  0.881181;0.000000;-0.472779;,
  -0.734980;0.312520;-0.601777;,
  -0.734980;0.312520;-0.601777;,
  -0.734980;0.312520;-0.601777;,
  -0.734980;0.312520;-0.601777;,
  -0.734980;0.312520;-0.601777;,
  0.517634;0.305250;-0.799298;,
  0.517634;0.305250;-0.799298;,
  0.517634;0.305250;-0.799298;,
  0.517634;0.305250;-0.799298;,
  0.517634;0.305250;-0.799298;,
  0.541860;-0.813129;-0.212624;,
  0.541860;-0.813129;-0.212624;,
  0.541860;-0.813129;-0.212624;,
  0.541860;-0.813129;-0.212624;,
  0.881527;-0.472133;0.000000;,
  0.881527;-0.472133;0.000000;,
  0.881527;-0.472133;0.000000;,
  0.881527;-0.472133;0.000000;,
  -0.830484;-0.528173;-0.176999;,
  -0.830484;-0.528173;-0.176999;,
  -0.830484;-0.528173;-0.176999;,
  -0.830484;-0.528173;-0.176999;,
  -0.830484;-0.528173;-0.176999;,
  -0.830484;-0.528173;-0.176999;,
  0.740194;-0.619520;-0.261358;,
  0.740194;-0.619520;-0.261358;,
  0.740194;-0.619520;-0.261358;,
  0.740194;-0.619520;-0.261358;,
  0.740194;-0.619520;-0.261358;,
  0.740194;-0.619520;-0.261358;,
  0.032002;0.896016;-0.442866;,
  0.032002;0.896016;-0.442866;,
  0.031254;0.442870;0.896041;,
  0.030884;-0.896048;0.442882;,
  0.030884;-0.896048;0.442882;,
  0.031632;-0.442878;-0.896024;,
  0.031632;-0.442878;-0.896024;,
  0.031632;-0.442878;-0.896024;,
  0.030884;-0.896048;0.442882;,
  0.031254;0.442870;0.896041;,
  0.032002;0.896016;-0.442866;,
  -0.985825;-0.167088;0.015161;,
  -0.492963;-0.869176;-0.039002;,
  -0.985825;0.167089;-0.015161;,
  -0.492962;0.869176;0.039002;,
  0.740194;-0.619520;-0.261358;,
  0.741978;0.496526;-0.450478;,
  -0.830484;-0.528173;-0.176999;,
  0.881527;-0.472133;0.000000;,
  0.541860;-0.813129;-0.212624;,
  -0.555256;-0.788609;0.264171;,
  0.517634;0.305250;-0.799298;,
  0.931677;0.168154;-0.322028;,
  -0.734980;0.312520;-0.601777;,
  0.881181;0.000000;-0.472779;,
  0.540077;0.210945;-0.814751;,
  -0.553739;-0.262152;-0.790348;,
  0.739509;0.621776;0.257915;,
  0.748853;-0.491287;0.444811;,
  -0.830485;0.528172;0.176999;,
  0.881527;0.472135;0.000000;,
  0.541860;0.813129;0.212624;,
  -0.555256;0.788609;-0.264171;,
  0.518830;-0.303629;0.799140;,
  0.936599;-0.158264;0.312624;,
  -0.734982;-0.312518;0.601776;,
  0.881180;0.000000;0.472781;,
  0.540076;-0.210945;0.814751;,
  -0.553738;0.262152;0.790348;,
  1.000000;-0.000210;0.000210;;

  60;
  3;76,19,71;,
  3;4,75,70;,
  3;78,3,69;,
  3;86,83,88;,
  3;106,86,88;,
  3;106,16,65;,
  3;86,106,64;,
  3;83,86,63;,
  3;88,83,62;,
  3;68,18,106;,
  3;88,67,106;,
  3;34,51,94;,
  3;100,33,94;,
  3;77,66,50;,
  3;2,79,49;,
  3;73,1,48;,
  3;87,88,94;,
  3;47,87,94;,
  3;72,93,32;,
  3;0,82,31;,
  3;74,111,30;,
  3;23,104,110;,
  3;8,22,110;,
  3;102,21,7;,
  3;12,102,6;,
  3;27,102,11;,
  3;15,26,10;,
  3;100,25,14;,
  3;106,100,13;,
  3;29,100,106;,
  3;17,28,106;,
  3;81,99,105;,
  3;111,81,105;,
  3;80,111,105;,
  3;107,9,59;,
  3;61,107,58;,
  3;108,5,55;,
  3;57,108,54;,
  3;109,110,92;,
  3;53,109,92;,
  3;88,60,46;,
  3;94,88,45;,
  3;89,56,41;,
  3;44,89,40;,
  3;90,52,39;,
  3;96,90,38;,
  3;91,92,98;,
  3;37,91,98;,
  3;84,85,100;,
  3;94,84,100;,
  3;36,98,104;,
  3;20,35,104;,
  3;96,97,103;,
  3;102,96,103;,
  3;43,96,102;,
  3;24,42,102;,
  3;94,95,101;,
  3;84,94,101;,
  3;85,84,101;,
  3;100,85,101;;
 }
 MeshTextureCoords { 
 112;
 0.373663;0.449368;,
 0.385712;0.437960;,
 0.373663;0.449368;,
 0.385712;0.437960;,
 0.373663;0.449368;,
 0.041808;0.500001;,
 0.041808;0.500001;,
 0.041808;0.500001;,
 0.278206;0.453126;,
 0.048416;0.361611;,
 0.048416;0.500001;,
 0.048416;0.500001;,
 0.048416;0.500001;,
 0.239612;0.601011;,
 0.239612;0.601011;,
 0.143839;0.499999;,
 0.239612;0.601011;,
 0.233358;0.644692;,
 0.233358;0.644692;,
 0.051631;0.412756;,
 0.278206;0.394713;,
 0.041808;0.185914;,
 0.278206;0.394713;,
 0.278206;0.394713;,
 0.143839;0.384587;,
 0.282173;0.563286;,
 0.143839;0.384587;,
 0.143839;0.384587;,
 0.232890;0.554530;,
 0.232890;0.554530;,
 0.051631;0.461647;,
 0.051631;0.461647;,
 0.051631;0.461647;,
 0.232890;0.554530;,
 0.232890;0.554530;,
 0.278206;0.453126;,
 0.278206;0.453126;,
 0.278206;0.453126;,
 0.041808;0.500001;,
 0.041808;0.500001;,
 0.048416;0.361611;,
 0.048416;0.361611;,
 0.143839;0.499999;,
 0.143839;0.499999;,
 0.143839;0.384587;,
 0.324733;0.601011;,
 0.324733;0.601011;,
 0.334610;0.554116;,
 0.051631;0.461647;,
 0.051631;0.461647;,
 0.051631;0.461647;,
 0.334610;0.554116;,
 0.041808;0.814088;,
 0.278206;0.511539;,
 0.041808;0.814088;,
 0.041808;0.814088;,
 0.048416;0.500001;,
 0.048416;0.638391;,
 0.048416;0.500001;,
 0.048416;0.500001;,
 0.282173;0.638735;,
 0.143839;0.499999;,
 0.282173;0.638735;,
 0.282173;0.638735;,
 0.282173;0.638735;,
 0.282173;0.638735;,
 0.051631;0.412756;,
 0.335078;0.644277;,
 0.335078;0.644277;,
 0.051631;0.461647;,
 0.051631;0.461647;,
 0.051631;0.461647;,
 0.373663;0.424923;,
 0.373663;0.449368;,
 0.373663;0.449368;,
 0.385712;0.437960;,
 0.373663;0.424923;,
 0.373663;0.424923;,
 0.373663;0.449368;,
 0.385712;0.437960;,
 0.373663;0.449368;,
 0.373663;0.424923;,
 0.385712;0.437960;,
 0.375000;0.763694;,
 0.373306;0.437578;,
 0.189346;0.438328;,
 0.191039;0.764444;,
 0.335078;0.644277;,
 0.405377;0.709216;,
 0.143839;0.499999;,
 0.048416;0.638391;,
 0.278206;0.511539;,
 0.232352;0.485231;,
 0.051631;0.412756;,
 0.404249;0.491805;,
 0.324733;0.601011;,
 0.048416;0.500001;,
 0.041808;0.500001;,
 0.232352;0.453126;,
 0.051631;0.412756;,
 0.158968;0.492806;,
 0.282173;0.563286;,
 0.048416;0.361611;,
 0.041808;0.185914;,
 0.232352;0.421021;,
 0.051631;0.461647;,
 0.160097;0.710216;,
 0.143839;0.384587;,
 0.048416;0.500001;,
 0.278206;0.453126;,
 0.232352;0.453126;,
 0.385712;0.437960;;
 }
}
Frame frm-SS3 {
  FrameTransformMatrix {
0.500005,0.000000,0.000000,0.000000,
0.000000,0.500005,0.000000,0.000000,
0.000000,0.000000,0.500005,0.000000,
14.648046,-0.000067,-0.000002,1.000000;;
 }
Mesh SS3 {
 6;
 0.000000;0.000000;-0.500000;,
 -0.500000;0.000000;-0.000000;,
 -0.000000;0.000000;0.500000;,
 0.500000;0.000000;0.000000;,
 0.000000;0.500000;0.000000;,
 0.000000;-0.500000;0.000000;;

 8;
 3;5,3,2;,
 3;4,2,3;,
 3;5,2,1;,
 3;4,1,2;,
 3;5,1,0;,
 3;4,0,1;,
 3;5,0,3;,
 3;4,3,0;;

 MeshMaterialList {
  1;
  8;
  0,
  0,
  0,
  0,
  0,
  0,
  0,
  0;
Material {
 1.000000;0.000000;0.000000;0.500000;;
 0.000000;
 1.000000;1.000000;1.000000;;
 0.0; 0.0; 0.0;;
 }
}
 MeshNormals {
  6;
  0.000000;0.000000;-1.000000;,
  -1.000000;0.000000;-0.000000;,
  -0.000000;0.000000;1.000000;,
  1.000000;0.000000;0.000000;,
  0.000000;1.000000;0.000000;,
  0.000000;-1.000000;0.000000;;

  8;
  3;5,3,2;,
  3;4,2,3;,
  3;5,2,1;,
  3;4,1,2;,
  3;5,1,0;,
  3;4,0,1;,
  3;5,0,3;,
  3;4,3,0;;
 }
 MeshTextureCoords { 
 6;
 0.000000;0.000000;,
 0.000000;0.000000;,
 0.000000;0.000000;,
 0.000000;0.000000;,
 0.000000;0.000000;,
 0.000000;0.000000;;
 }
}
}
}
Frame frm-ranteen1 {
  FrameTransformMatrix {
-1.000000,0.000000,-0.000000,0.000000,
0.000000,1.000000,0.000000,0.000000,
0.000000,0.000000,-1.000000,0.000000,
-14.260179,7.140081,-0.000000,1.000000;;
 }
Mesh ranteen1 {
 112;
 14.652334;-0.000000;-0.000006;,
 14.652334;-0.000000;-0.000006;,
 14.652334;-0.000000;-0.000006;,
 14.652334;-0.000000;-0.000006;,
 14.652334;-0.000000;-0.000006;,
 0.612876;-0.000002;-0.956113;,
 0.612876;-0.000002;-0.956113;,
 0.612876;-0.000002;-0.956113;,
 0.612876;-0.000002;-0.956113;,
 0.709707;-0.000001;-0.424517;,
 0.709707;-0.000001;-0.424517;,
 0.709707;-0.000001;-0.424517;,
 0.709707;-0.000001;-0.424517;,
 2.107843;0.000004;-0.354041;,
 2.107843;0.000004;-0.354041;,
 2.107843;0.000004;-0.354041;,
 2.107843;0.000004;-0.354041;,
 2.327289;-0.409928;-0.406062;,
 2.327289;-0.409928;-0.406062;,
 2.327289;-0.409928;-0.406062;,
 0.612876;0.963462;-0.000004;,
 0.612876;0.963462;-0.000004;,
 0.612876;0.963462;-0.000004;,
 0.612876;0.963462;-0.000004;,
 2.107843;0.354034;-0.000010;,
 2.107843;0.354034;-0.000010;,
 2.107843;0.354034;-0.000010;,
 2.107843;0.354034;-0.000010;,
 2.327289;0.436203;-0.409956;,
 2.327289;0.436203;-0.409956;,
 2.327289;0.436203;-0.409956;,
 2.327289;0.436203;-0.409956;,
 2.327289;0.436203;-0.409956;,
 2.327289;0.436203;-0.409956;,
 2.327289;0.436203;-0.409956;,
 0.612876;-0.000002;0.956105;,
 0.612876;-0.000002;0.956105;,
 0.612876;-0.000002;0.956105;,
 0.612876;-0.000002;0.956105;,
 0.612876;-0.000002;0.956105;,
 0.709707;-0.000001;0.424509;,
 0.709707;-0.000001;0.424509;,
 2.107843;0.000004;0.354020;,
 2.107843;0.000004;0.354020;,
 2.107843;0.000004;0.354020;,
 2.107843;0.000004;0.354020;,
 2.107843;0.000004;0.354020;,
 2.327289;0.440097;0.436176;,
 2.327289;0.440097;0.436176;,
 2.327289;0.440097;0.436176;,
 2.327289;0.440097;0.436176;,
 2.327289;0.440097;0.436176;,
 0.612876;-0.963465;-0.000004;,
 0.612876;-0.963465;-0.000004;,
 0.612876;-0.963465;-0.000004;,
 0.612876;-0.963465;-0.000004;,
 0.709707;-0.424515;-0.000004;,
 0.709707;-0.424515;-0.000004;,
 0.709707;-0.424515;-0.000004;,
 0.709707;-0.424515;-0.000004;,
 2.107843;-0.354028;-0.000011;,
 2.107843;-0.354028;-0.000011;,
 2.107843;-0.354028;-0.000011;,
 2.107843;-0.354028;-0.000011;,
 2.107843;-0.354028;-0.000011;,
 2.107843;-0.354028;-0.000011;,
 2.327289;-0.406035;0.440069;,
 2.327289;-0.406035;0.440069;,
 2.327289;-0.406035;0.440069;,
 2.327289;-0.406035;0.440069;,
 2.327289;-0.406035;0.440069;,
 2.327289;-0.406035;0.440069;,
 14.207808;0.227587;0.225620;,
 14.207808;0.227587;0.225620;,
 14.207808;0.225640;-0.197446;,
 14.207808;-0.197425;-0.195499;,
 14.207808;-0.197425;-0.195499;,
 14.207808;-0.195479;0.227567;,
 14.207808;-0.195479;0.227567;,
 14.207808;-0.195479;0.227567;,
 14.207808;-0.197425;-0.195499;,
 14.207808;0.225640;-0.197446;,
 14.207808;0.227587;0.225620;,
 2.581588;-1.526711;0.772151;,
 2.581588;1.533756;0.758067;,
 2.581588;1.526714;-0.772167;,
 2.581588;-1.533752;-0.758083;,
 2.327289;-0.406035;0.440069;,
 2.204674;-1.015459;1.024842;,
 2.107843;-0.354028;-0.000011;,
 0.709707;-0.424515;-0.000004;,
 0.612876;-0.963465;-0.000004;,
 0.000309;-0.529539;-0.000004;,
 2.327289;0.440097;0.436176;,
 2.204674;1.024852;1.015453;,
 2.107843;0.000004;0.354020;,
 0.709707;-0.000001;0.424509;,
 0.612876;-0.000002;0.956105;,
 0.000309;-0.000002;0.529534;,
 2.327289;0.436203;-0.409956;,
 2.204674;1.015463;-1.024858;,
 2.107843;0.354034;-0.000010;,
 0.709707;0.424511;-0.000004;,
 0.612876;0.963462;-0.000004;,
 0.000309;0.529536;-0.000004;,
 2.327289;-0.409928;-0.406062;,
 2.204674;-1.024848;-1.015470;,
 2.107843;0.000004;-0.354041;,
 0.709707;-0.000001;-0.424517;,
 0.612876;-0.000002;-0.956113;,
 0.000309;-0.000002;-0.529541;,
 14.652334;-0.000000;-0.000006;;

 60;
 3;71,19,76;,
 3;70,75,4;,
 3;69,3,78;,
 3;88,83,86;,
 3;88,86,106;,
 3;65,16,106;,
 3;64,106,86;,
 3;63,86,83;,
 3;62,83,88;,
 3;106,18,68;,
 3;106,67,88;,
 3;94,51,34;,
 3;94,33,100;,
 3;50,66,77;,
 3;49,79,2;,
 3;48,1,73;,
 3;94,88,87;,
 3;94,87,47;,
 3;32,93,72;,
 3;31,82,0;,
 3;30,111,74;,
 3;110,104,23;,
 3;110,22,8;,
 3;7,21,102;,
 3;6,102,12;,
 3;11,102,27;,
 3;10,26,15;,
 3;14,25,100;,
 3;13,100,106;,
 3;106,100,29;,
 3;106,28,17;,
 3;105,99,81;,
 3;105,81,111;,
 3;105,111,80;,
 3;59,9,107;,
 3;58,107,61;,
 3;55,5,108;,
 3;54,108,57;,
 3;92,110,109;,
 3;92,109,53;,
 3;46,60,88;,
 3;45,88,94;,
 3;41,56,89;,
 3;40,89,44;,
 3;39,52,90;,
 3;38,90,96;,
 3;98,92,91;,
 3;98,91,37;,
 3;100,85,84;,
 3;100,84,94;,
 3;104,98,36;,
 3;104,35,20;,
 3;103,97,96;,
 3;103,96,102;,
 3;102,96,43;,
 3;102,42,24;,
 3;101,95,94;,
 3;101,94,84;,
 3;101,84,85;,
 3;101,85,100;;

 MeshMaterialList {
  2;
  60;
  0,
  0,
  0,
  1,
  1,
  1,
  1,
  1,
  1,
  1,
  1,
  1,
  1,
  0,
  0,
  0,
  1,
  1,
  0,
  0,
  0,
  0,
  0,
  0,
  0,
  0,
  0,
  1,
  1,
  1,
  1,
  0,
  0,
  0,
  0,
  0,
  0,
  0,
  0,
  0,
  1,
  1,
  0,
  0,
  0,
  0,
  0,
  0,
  1,
  1,
  0,
  0,
  0,
  0,
  0,
  0,
  1,
  1,
  1,
  1;
Material {
 1.000000;1.000000;1.000000;1.000000;;
 50.000000;
 1.000000;1.000000;1.000000;;
 0.0; 0.0; 0.0;;
 TextureFilename {
  "ss06.ppm";
 }
 }
Material {
 1.000000;1.000000;1.000000;1.000000;;
 50.000000;
 1.000000;1.000000;1.000000;;
 0.0; 0.0; 0.0;;
 TextureFilename {
  "ss06.ppm";
 }
 }
}
 MeshNormals {
  112;
  1.000000;-0.000210;-0.000210;,
  1.000000;-0.000210;-0.000210;,
  1.000000;-0.000210;-0.000210;,
  1.000000;-0.000210;-0.000210;,
  1.000000;-0.000210;-0.000210;,
  0.540076;-0.210945;-0.814751;,
  0.540076;-0.210945;-0.814751;,
  0.540076;-0.210945;-0.814751;,
  0.540076;-0.210945;-0.814751;,
  0.881180;0.000000;-0.472781;,
  0.881180;0.000000;-0.472781;,
  0.881180;0.000000;-0.472781;,
  0.881180;0.000000;-0.472781;,
  -0.734982;-0.312518;-0.601776;,
  -0.734982;-0.312518;-0.601776;,
  -0.734982;-0.312518;-0.601776;,
  -0.734982;-0.312518;-0.601776;,
  0.518830;-0.303629;-0.799140;,
  0.518830;-0.303629;-0.799140;,
  0.518830;-0.303629;-0.799140;,
  0.541860;0.813129;-0.212624;,
  0.541860;0.813129;-0.212624;,
  0.541860;0.813129;-0.212624;,
  0.541860;0.813129;-0.212624;,
  -0.830485;0.528172;-0.176999;,
  -0.830485;0.528172;-0.176999;,
  -0.830485;0.528172;-0.176999;,
  -0.830485;0.528172;-0.176999;,
  0.739509;0.621776;-0.257915;,
  0.739509;0.621776;-0.257915;,
  0.739509;0.621776;-0.257915;,
  0.739509;0.621776;-0.257915;,
  0.739509;0.621776;-0.257915;,
  0.739509;0.621776;-0.257915;,
  0.739509;0.621776;-0.257915;,
  0.540077;0.210945;0.814751;,
  0.540077;0.210945;0.814751;,
  0.540077;0.210945;0.814751;,
  0.540077;0.210945;0.814751;,
  0.540077;0.210945;0.814751;,
  0.881181;0.000000;0.472779;,
  0.881181;0.000000;0.472779;,
  -0.734980;0.312520;0.601777;,
  -0.734980;0.312520;0.601777;,
  -0.734980;0.312520;0.601777;,
  -0.734980;0.312520;0.601777;,
  -0.734980;0.312520;0.601777;,
  0.517634;0.305250;0.799298;,
  0.517634;0.305250;0.799298;,
  0.517634;0.305250;0.799298;,
  0.517634;0.305250;0.799298;,
  0.517634;0.305250;0.799298;,
  0.541860;-0.813129;0.212624;,
  0.541860;-0.813129;0.212624;,
  0.541860;-0.813129;0.212624;,
  0.541860;-0.813129;0.212624;,
  0.881527;-0.472133;-0.000000;,
  0.881527;-0.472133;-0.000000;,
  0.881527;-0.472133;-0.000000;,
  0.881527;-0.472133;-0.000000;,
  -0.830484;-0.528173;0.176999;,
  -0.830484;-0.528173;0.176999;,
  -0.830484;-0.528173;0.176999;,
  -0.830484;-0.528173;0.176999;,
  -0.830484;-0.528173;0.176999;,
  -0.830484;-0.528173;0.176999;,
  0.740194;-0.619520;0.261358;,
  0.740194;-0.619520;0.261358;,
  0.740194;-0.619520;0.261358;,
  0.740194;-0.619520;0.261358;,
  0.740194;-0.619520;0.261358;,
  0.740194;-0.619520;0.261358;,
  0.032002;0.896016;0.442866;,
  0.032002;0.896016;0.442866;,
  0.031254;0.442870;-0.896041;,
  0.030884;-0.896048;-0.442882;,
  0.030884;-0.896048;-0.442882;,
  0.031632;-0.442878;0.896024;,
  0.031632;-0.442878;0.896024;,
  0.031632;-0.442878;0.896024;,
  0.030884;-0.896048;-0.442882;,
  0.031254;0.442870;-0.896041;,
  0.032002;0.896016;0.442866;,
  -0.985825;-0.167088;-0.015161;,
  -0.492963;-0.869176;0.039002;,
  -0.985825;0.167089;0.015161;,
  -0.492962;0.869176;-0.039002;,
  0.740194;-0.619520;0.261358;,
  0.741978;0.496526;0.450478;,
  -0.830484;-0.528173;0.176999;,
  0.881527;-0.472133;-0.000000;,
  0.541860;-0.813129;0.212624;,
  -0.555256;-0.788609;-0.264171;,
  0.517634;0.305250;0.799298;,
  0.931677;0.168154;0.322028;,
  -0.734980;0.312520;0.601777;,
  0.881181;0.000000;0.472779;,
  0.540077;0.210945;0.814751;,
  -0.553739;-0.262152;0.790348;,
  0.739509;0.621776;-0.257915;,
  0.748853;-0.491287;-0.444811;,
  -0.830485;0.528172;-0.176999;,
  0.881527;0.472135;-0.000000;,
  0.541860;0.813129;-0.212624;,
  -0.555256;0.788609;0.264171;,
  0.518830;-0.303629;-0.799140;,
  0.936599;-0.158264;-0.312624;,
  -0.734982;-0.312518;-0.601776;,
  0.881180;0.000000;-0.472781;,
  0.540076;-0.210945;-0.814751;,
  -0.553738;0.262152;-0.790348;,
  1.000000;-0.000210;-0.000210;;

  60;
  3;71,19,76;,
  3;70,75,4;,
  3;69,3,78;,
  3;88,83,86;,
  3;88,86,106;,
  3;65,16,106;,
  3;64,106,86;,
  3;63,86,83;,
  3;62,83,88;,
  3;106,18,68;,
  3;106,67,88;,
  3;94,51,34;,
  3;94,33,100;,
  3;50,66,77;,
  3;49,79,2;,
  3;48,1,73;,
  3;94,88,87;,
  3;94,87,47;,
  3;32,93,72;,
  3;31,82,0;,
  3;30,111,74;,
  3;110,104,23;,
  3;110,22,8;,
  3;7,21,102;,
  3;6,102,12;,
  3;11,102,27;,
  3;10,26,15;,
  3;14,25,100;,
  3;13,100,106;,
  3;106,100,29;,
  3;106,28,17;,
  3;105,99,81;,
  3;105,81,111;,
  3;105,111,80;,
  3;59,9,107;,
  3;58,107,61;,
  3;55,5,108;,
  3;54,108,57;,
  3;92,110,109;,
  3;92,109,53;,
  3;46,60,88;,
  3;45,88,94;,
  3;41,56,89;,
  3;40,89,44;,
  3;39,52,90;,
  3;38,90,96;,
  3;98,92,91;,
  3;98,91,37;,
  3;100,85,84;,
  3;100,84,94;,
  3;104,98,36;,
  3;104,35,20;,
  3;103,97,96;,
  3;103,96,102;,
  3;102,96,43;,
  3;102,42,24;,
  3;101,95,94;,
  3;101,94,84;,
  3;101,84,85;,
  3;101,85,100;;
 }
 MeshTextureCoords { 
 112;
 0.373663;0.449368;,
 0.385712;0.437960;,
 0.373663;0.449368;,
 0.385712;0.437960;,
 0.373663;0.449368;,
 0.041808;0.500001;,
 0.041808;0.500001;,
 0.041808;0.500001;,
 0.278206;0.453126;,
 0.048416;0.361611;,
 0.048416;0.500001;,
 0.048416;0.500001;,
 0.048416;0.500001;,
 0.239612;0.601011;,
 0.239612;0.601011;,
 0.143839;0.499999;,
 0.239612;0.601011;,
 0.233358;0.644692;,
 0.233358;0.644692;,
 0.051631;0.412756;,
 0.278206;0.394713;,
 0.041808;0.185914;,
 0.278206;0.394713;,
 0.278206;0.394713;,
 0.143839;0.384587;,
 0.282173;0.563286;,
 0.143839;0.384587;,
 0.143839;0.384587;,
 0.232890;0.554530;,
 0.232890;0.554530;,
 0.051631;0.461647;,
 0.051631;0.461647;,
 0.051631;0.461647;,
 0.232890;0.554530;,
 0.232890;0.554530;,
 0.278206;0.453126;,
 0.278206;0.453126;,
 0.278206;0.453126;,
 0.041808;0.500001;,
 0.041808;0.500001;,
 0.048416;0.361611;,
 0.048416;0.361611;,
 0.143839;0.499999;,
 0.143839;0.499999;,
 0.143839;0.384587;,
 0.324733;0.601011;,
 0.324733;0.601011;,
 0.334610;0.554116;,
 0.051631;0.461647;,
 0.051631;0.461647;,
 0.051631;0.461647;,
 0.334610;0.554116;,
 0.041808;0.814088;,
 0.278206;0.511539;,
 0.041808;0.814088;,
 0.041808;0.814088;,
 0.048416;0.500001;,
 0.048416;0.638391;,
 0.048416;0.500001;,
 0.048416;0.500001;,
 0.282173;0.638735;,
 0.143839;0.499999;,
 0.282173;0.638735;,
 0.282173;0.638735;,
 0.282173;0.638735;,
 0.282173;0.638735;,
 0.051631;0.412756;,
 0.335078;0.644277;,
 0.335078;0.644277;,
 0.051631;0.461647;,
 0.051631;0.461647;,
 0.051631;0.461647;,
 0.373663;0.424923;,
 0.373663;0.449368;,
 0.373663;0.449368;,
 0.385712;0.437960;,
 0.373663;0.424923;,
 0.373663;0.424923;,
 0.373663;0.449368;,
 0.385712;0.437960;,
 0.373663;0.449368;,
 0.373663;0.424923;,
 0.385712;0.437960;,
 0.375000;0.763694;,
 0.373306;0.437578;,
 0.189346;0.438328;,
 0.191039;0.764444;,
 0.335078;0.644277;,
 0.405377;0.709216;,
 0.143839;0.499999;,
 0.048416;0.638391;,
 0.278206;0.511539;,
 0.232352;0.485231;,
 0.051631;0.412756;,
 0.404249;0.491805;,
 0.324733;0.601011;,
 0.048416;0.500001;,
 0.041808;0.500001;,
 0.232352;0.453126;,
 0.051631;0.412756;,
 0.158968;0.492806;,
 0.282173;0.563286;,
 0.048416;0.361611;,
 0.041808;0.185914;,
 0.232352;0.421021;,
 0.051631;0.461647;,
 0.160097;0.710216;,
 0.143839;0.384587;,
 0.048416;0.500001;,
 0.278206;0.453126;,
 0.232352;0.453126;,
 0.385712;0.437960;;
 }
}
Frame frm-SS28 {
  FrameTransformMatrix {
0.800002,0.000000,0.000000,0.000000,
0.000000,0.800002,0.000000,0.000000,
0.000000,0.000000,0.800002,0.000000,
14.648046,-0.000067,0.000006,1.000000;;
 }
Mesh SS28 {
 6;
 0.000000;0.000000;0.500000;,
 -0.500000;0.000000;0.000000;,
 -0.000000;0.000000;-0.500000;,
 0.500000;0.000000;0.000000;,
 0.000000;0.500000;0.000000;,
 0.000000;-0.500000;0.000000;;

 8;
 3;2,3,5;,
 3;3,2,4;,
 3;1,2,5;,
 3;2,1,4;,
 3;0,1,5;,
 3;1,0,4;,
 3;3,0,5;,
 3;0,3,4;;

 MeshMaterialList {
  1;
  8;
  0,
  0,
  0,
  0,
  0,
  0,
  0,
  0;
Material {
 1.000000;0.000000;0.000000;0.500000;;
 0.000000;
 1.000000;1.000000;1.000000;;
 0.0; 0.0; 0.0;;
 }
}
 MeshNormals {
  6;
  0.000000;0.000000;1.000000;,
  -1.000000;0.000000;0.000000;,
  -0.000000;0.000000;-1.000000;,
  1.000000;0.000000;-0.000000;,
  0.000000;1.000000;0.000000;,
  0.000000;-1.000000;-0.000000;;

  8;
  3;2,3,5;,
  3;3,2,4;,
  3;1,2,5;,
  3;2,1,4;,
  3;0,1,5;,
  3;1,0,4;,
  3;3,0,5;,
  3;0,3,4;;
 }
 MeshTextureCoords { 
 6;
 0.000000;0.000000;,
 0.000000;0.000000;,
 0.000000;0.000000;,
 0.000000;0.000000;,
 0.000000;0.000000;,
 0.000000;0.000000;;
 }
}
}
}
}
AnimationSet {
 Animation anim-fuselg {
  {frm-fuselg}
  AnimationKey {
  2;
  2;
  1; 3; 0.000000, 0.055593, -0.000008;;,
  45; 3; 0.000000, 0.055593, -0.000008;;;
  }
 }
 Animation anim-ranteen {
  {frm-ranteen}
  AnimationKey {
  2;
  2;
  1; 3; 14.260179, 7.140081, -0.000000;;,
  45; 3; 14.260179, 7.140081, -0.000000;;;
  }
 }
 Animation anim-SS3 {
  {frm-SS3}
  AnimationKey {
  1;
  8;
  1; 3; 0.500005, 0.500005, 0.500005;;,
  2; 3; 0.800002, 0.800002, 0.800002;;,
  4; 3; 0.000010, 0.000010, 0.000010;;,
  26; 3; 0.981860, 0.981860, 0.981860;;,
  27; 3; 0.607260, 0.607260, 0.607260;;,
  28; 3; 0.207264, 0.207264, 0.207264;;,
  29; 3; 0.000010, 0.000010, 0.000010;;,
  45; 3; 0.000010, 0.000010, 0.000010;;;
  }
  AnimationKey {
  2;
  2;
  1; 3; 14.648046, -0.000067, -0.000002;;,
  45; 3; 14.648046, -0.000067, -0.000002;;;
  }
 }
 Animation anim-ranteen1 {
  {frm-ranteen1}
  AnimationKey {
  0;
  2;
  1; 4; 0.000000, 0.000000, 1.000000, -0.000000;;,
  45; 4; 0.000000, 0.000000, 1.000000, -0.000000;;;
  }
  AnimationKey {
  2;
  2;
  1; 3; -14.260179, 7.140081, -0.000000;;,
  45; 3; -14.260179, 7.140081, -0.000000;;;
  }
 }
 Animation anim-SS28 {
  {frm-SS28}
  AnimationKey {
  1;
  2;
  1; 3; 0.800002, 0.800002, 0.800002;;,
  45; 3; 0.800002, 0.800002, 0.800002;;;
  }
  AnimationKey {
  2;
  2;
  1; 3; 14.648046, -0.000067, 0.000006;;,
  45; 3; 14.648046, -0.000067, 0.000006;;;
  }
 }
}
