xof 0302txt 0032
template Header {
 <3D82AB43-62DA-11cf-AB39-0020AF71E433>
 WORD major;
 WORD minor;
 DWORD flags;
}

template Vector {
 <3D82AB5E-62DA-11cf-AB39-0020AF71E433>
 FLOAT x;
 FLOAT y;
 FLOAT z;
}

template Coords2d {
 <F6F23F44-7686-11cf-8F52-0040333594A3>
 FLOAT u;
 FLOAT v;
}

template Matrix4x4 {
 <F6F23F45-7686-11cf-8F52-0040333594A3>
 array FLOAT matrix[16];
}

template ColorRGBA {
 <35FF44E0-6C7C-11cf-8F52-0040333594A3>
 FLOAT red;
 FLOAT green;
 FLOAT blue;
 FLOAT alpha;
}

template ColorRGB {
 <D3E16E81-7835-11cf-8F52-0040333594A3>
 FLOAT red;
 FLOAT green;
 FLOAT blue;
}

template TextureFilename {
 <A42790E1-7810-11cf-8F52-0040333594A3>
 STRING filename;
}

template Material {
 <3D82AB4D-62DA-11cf-AB39-0020AF71E433>
 ColorRGBA faceColor;
 FLOAT power;
 ColorRGB specularColor;
 ColorRGB emissiveColor;
 [...]
}

template MeshFace {
 <3D82AB5F-62DA-11cf-AB39-0020AF71E433>
 DWORD nFaceVertexIndices;
 array DWORD faceVertexIndices[nFaceVertexIndices];
}

template MeshTextureCoords {
 <F6F23F40-7686-11cf-8F52-0040333594A3>
 DWORD nTextureCoords;
 array Coords2d textureCoords[nTextureCoords];
}

template MeshMaterialList {
 <F6F23F42-7686-11cf-8F52-0040333594A3>
 DWORD nMaterials;
 DWORD nFaceIndexes;
 array DWORD faceIndexes[nFaceIndexes];
 [Material]
}

template MeshNormals {
 <F6F23F43-7686-11cf-8F52-0040333594A3>
 DWORD nNormals;
 array Vector normals[nNormals];
 DWORD nFaceNormals;
 array MeshFace faceNormals[nFaceNormals];
}

template Mesh {
 <3D82AB44-62DA-11cf-AB39-0020AF71E433>
 DWORD nVertices;
 array Vector vertices[nVertices];
 DWORD nFaces;
 array MeshFace faces[nFaces];
 [...]
}

template FrameTransformMatrix {
 <F6F23F41-7686-11cf-8F52-0040333594A3>
 Matrix4x4 frameMatrix;
}

template Frame {
 <3D82AB46-62DA-11cf-AB39-0020AF71E433>
 [...]
}
template FloatKeys {
 <10DD46A9-775B-11cf-8F52-0040333594A3>
 DWORD nValues;
 array FLOAT values[nValues];
}

template TimedFloatKeys {
 <F406B180-7B3B-11cf-8F52-0040333594A3>
 DWORD time;
 FloatKeys tfkeys;
}

template AnimationKey {
 <10DD46A8-775B-11cf-8F52-0040333594A3>
 DWORD keyType;
 DWORD nKeys;
 array TimedFloatKeys keys[nKeys];
}

template AnimationOptions {
 <E2BF56C0-840F-11cf-8F52-0040333594A3>
 DWORD openclosed;
 DWORD positionquality;
}

template Animation {
 <3D82AB4F-62DA-11cf-AB39-0020AF71E433>
 [...]
}

template AnimationSet {
 <3D82AB50-62DA-11cf-AB39-0020AF71E433>
 [Animation]
}

Header {
 1;
 0;
 1;
}

Frame frm-body {
  FrameTransformMatrix {
1.000000,0.000000,0.000000,0.000000,
0.000000,1.000000,0.000000,0.000000,
0.000000,0.000000,1.000000,0.000000,
-0.000052,0.244434,-1.360135,1.000000;;
 }
Mesh body {
 498;
 0.870163;0.174075;2.559271;,
 0.870163;0.174075;2.559271;,
 0.870163;0.174075;2.559271;,
 0.870163;0.174075;2.559271;,
 0.870163;0.174075;2.559271;,
 0.870163;0.174075;2.559271;,
 0.870163;0.174075;2.559271;,
 0.870163;0.174075;2.559271;,
 0.870163;0.174075;2.559271;,
 0.846000;0.209831;1.013758;,
 0.846000;0.209831;1.013758;,
 0.846000;0.209831;1.013758;,
 0.494326;-0.565145;1.447935;,
 0.494326;-0.565145;1.447935;,
 0.494326;-0.565145;1.447935;,
 0.084123;-0.528888;-0.767251;,
 0.084123;-0.528888;-0.767251;,
 0.685035;-0.565140;1.447932;,
 0.685035;-0.565140;1.447932;,
 0.685035;-0.565140;1.447932;,
 0.767556;-0.564709;2.287012;,
 0.767556;-0.564709;2.287012;,
 0.767556;-0.564709;2.287012;,
 -0.870163;0.174075;2.559269;,
 -0.870163;0.174075;2.559269;,
 -0.870163;0.174075;2.559269;,
 -0.870163;0.174075;2.559269;,
 -0.870163;0.174075;2.559269;,
 -0.870163;0.174075;2.559269;,
 -0.870163;0.174075;2.559269;,
 -0.870163;0.174075;2.559269;,
 -0.846001;0.209831;1.013758;,
 -0.846001;0.209831;1.013758;,
 -0.846001;0.209831;1.013758;,
 0.426890;-0.564743;2.287138;,
 0.426890;-0.564743;2.287138;,
 -0.091339;-0.527407;-0.027226;,
 -0.091339;-0.527407;-0.027226;,
 -0.870163;-0.349206;2.559270;,
 -0.870163;-0.349206;2.559270;,
 -0.870163;-0.349206;2.559270;,
 -0.870163;-0.349206;2.559270;,
 -0.870163;-0.349206;2.559270;,
 -0.846001;-0.343738;1.013758;,
 -0.846001;-0.343738;1.013758;,
 -0.846001;-0.343738;1.013758;,
 -0.846001;-0.343738;1.013758;,
 -0.846001;-0.343738;1.013758;,
 0.082483;-0.528488;-0.029202;,
 0.082483;-0.528488;-0.029202;,
 -0.237967;-0.349951;2.746961;,
 -0.237967;-0.349951;2.746961;,
 -0.237967;-0.349951;2.746961;,
 -0.237967;-0.349951;2.746961;,
 -0.237967;-0.349951;2.746961;,
 -0.237967;-0.349951;2.746961;,
 -0.349462;-0.468606;1.087181;,
 -0.349462;-0.468606;1.087181;,
 -0.349462;-0.468606;1.087181;,
 -0.349462;-0.468606;1.087181;,
 -0.349462;-0.468606;1.087181;,
 -0.292761;-0.509017;0.153157;,
 -0.292761;-0.509017;0.153157;,
 -0.076327;-0.580441;-0.838565;,
 -0.076327;-0.580441;-0.838565;,
 -0.076327;-0.580441;-0.838565;,
 0.237966;-0.349951;2.746961;,
 0.237966;-0.349951;2.746961;,
 0.237966;-0.349951;2.746961;,
 0.237966;-0.349951;2.746961;,
 0.237966;-0.349951;2.746961;,
 0.237966;-0.349951;2.746961;,
 0.349462;-0.468606;1.087181;,
 0.349462;-0.468606;1.087181;,
 0.349462;-0.468606;1.087181;,
 0.349462;-0.468606;1.087181;,
 0.292760;-0.509017;0.153157;,
 0.292760;-0.509017;0.153157;,
 0.292760;-0.509017;0.153157;,
 0.076327;-0.580441;-0.838565;,
 0.076327;-0.580441;-0.838565;,
 0.076327;-0.580441;-0.838565;,
 0.076327;-0.580441;-0.838565;,
 -0.641655;0.209355;0.324850;,
 -0.641655;0.209355;0.324850;,
 -0.641655;0.209355;0.324850;,
 -0.641655;0.209355;0.324850;,
 -0.641655;0.209355;0.324850;,
 0.870163;-0.349206;2.559270;,
 0.870163;-0.349206;2.559270;,
 0.870163;-0.349206;2.559270;,
 0.870163;-0.349206;2.559270;,
 0.870163;-0.349206;2.559270;,
 0.870163;-0.349206;2.559270;,
 0.846000;-0.343738;1.013758;,
 0.846000;-0.343738;1.013758;,
 0.846000;-0.343738;1.013758;,
 0.846000;-0.343738;1.013758;,
 0.846000;-0.343738;1.013758;,
 0.846000;-0.343738;1.013758;,
 -0.081500;-0.528888;-0.767251;,
 -0.081500;-0.528888;-0.767251;,
 -0.470332;-0.642937;1.617084;,
 -0.470332;-0.642937;1.617084;,
 -0.470332;-0.642937;1.617084;,
 -0.474603;-0.643653;2.238816;,
 -0.474603;-0.643653;2.238816;,
 -0.474603;-0.643653;2.238816;,
 -0.707138;-0.644072;2.238783;,
 -0.707138;-0.644072;2.238783;,
 -0.707138;-0.644072;2.238783;,
 -0.705525;-0.642950;1.617507;,
 -0.705525;-0.642950;1.617507;,
 0.707425;-0.644072;2.238918;,
 0.707425;-0.644072;2.238918;,
 0.707425;-0.644072;2.238918;,
 1.112242;0.092168;2.545735;,
 1.112242;0.092168;2.545735;,
 1.249774;0.120852;1.312551;,
 1.249774;0.120852;1.312551;,
 1.249774;0.120852;1.312551;,
 -1.112231;0.092168;2.545735;,
 -1.112231;0.092168;2.545735;,
 -1.249774;0.120852;1.312551;,
 -1.249774;0.120852;1.312551;,
 -1.249774;0.120852;1.312551;,
 -1.112231;-0.301171;2.545735;,
 -1.112231;-0.301171;2.545735;,
 -1.249774;-0.316416;1.312551;,
 -1.249774;-0.316416;1.312551;,
 -1.249774;-0.316416;1.312551;,
 1.112242;-0.301171;2.545735;,
 1.112242;-0.301171;2.545735;,
 1.112242;-0.301171;2.545735;,
 1.249774;-0.316416;1.312551;,
 1.249774;-0.316416;1.312551;,
 1.249774;-0.316416;1.312551;,
 1.249774;-0.316416;1.312551;,
 -0.716926;0.455566;3.160135;,
 0.717074;0.455566;3.160135;,
 0.717074;0.455566;3.160135;,
 0.407226;0.196045;2.747689;,
 0.407226;0.196045;2.747689;,
 0.407226;0.196045;2.747689;,
 0.407226;0.196045;2.747689;,
 0.407226;0.196045;2.747689;,
 0.407226;0.196045;2.747689;,
 0.407226;0.196045;2.747689;,
 -0.416137;0.196045;2.747690;,
 -0.416137;0.196045;2.747690;,
 -0.416137;0.196045;2.747690;,
 -0.416137;0.196045;2.747690;,
 -0.416137;0.196045;2.747690;,
 -0.416137;0.196045;2.747690;,
 0.641568;0.209355;0.324850;,
 0.641568;0.209355;0.324850;,
 0.641568;0.209355;0.324850;,
 -0.496885;-0.294792;-0.868332;,
 -0.496885;-0.294792;-0.868332;,
 -0.496885;-0.294792;-0.868332;,
 0.474694;-0.643653;2.238873;,
 0.474694;-0.643653;2.238873;,
 0.474694;-0.643653;2.238873;,
 0.496899;-0.294792;-0.868332;,
 0.496899;-0.294792;-0.868332;,
 0.496899;-0.294792;-0.868332;,
 0.496899;-0.294792;-0.868332;,
 -0.121134;-0.638910;-0.003141;,
 -0.121134;-0.638910;-0.003141;,
 -0.121134;-0.638910;-0.003141;,
 -0.095060;-0.647500;-0.639561;,
 0.121134;-0.638910;-0.003141;,
 0.121134;-0.638910;-0.003141;,
 0.121134;-0.638910;-0.003141;,
 0.095060;-0.647501;-0.639561;,
 -0.777800;-0.564709;2.287012;,
 -0.777800;-0.564709;2.287012;,
 -0.777800;-0.564709;2.287012;,
 -0.684987;-0.565141;1.447040;,
 -0.684987;-0.565141;1.447040;,
 -0.684987;-0.565141;1.447040;,
 -0.425575;-0.564743;2.287138;,
 -0.425575;-0.564743;2.287138;,
 -0.492746;-0.565145;1.446967;,
 -0.492746;-0.565145;1.446967;,
 -0.492746;-0.565145;1.446967;,
 0.471935;-0.642937;1.617084;,
 0.471935;-0.642937;1.617084;,
 0.471935;-0.642937;1.617084;,
 0.707137;-0.642950;1.617062;,
 0.707137;-0.642950;1.617062;,
 0.707137;-0.642950;1.617062;,
 -0.373033;0.229351;-0.264965;,
 -0.373033;0.229351;-0.264965;,
 -0.373033;0.229351;-0.264965;,
 0.373008;0.229351;-0.264965;,
 0.373008;0.229351;-0.264965;,
 0.373008;0.229351;-0.264965;,
 0.846000;-0.308055;0.879202;,
 0.846000;-0.308055;0.879202;,
 0.846000;-0.308055;0.879202;,
 0.846000;-0.308055;0.879202;,
 0.846000;0.133478;0.879202;,
 0.846000;0.133478;0.879202;,
 0.846000;0.133478;0.879202;,
 0.846000;0.133478;0.879202;,
 -0.846001;-0.308055;0.879203;,
 -0.846001;-0.308055;0.879203;,
 -0.846001;-0.308055;0.879203;,
 -0.846001;-0.308055;0.879203;,
 -0.846001;0.133478;0.879203;,
 -0.846001;0.133478;0.879203;,
 -0.846001;0.133478;0.879203;,
 -0.846001;0.133478;0.879203;,
 1.047887;-0.277167;1.095877;,
 1.047887;-0.277167;1.095877;,
 1.047887;-0.277167;1.095877;,
 1.047887;0.073050;1.095877;,
 1.047887;0.073050;1.095877;,
 1.047887;0.073050;1.095877;,
 -1.047888;0.073000;1.095877;,
 -1.047888;0.073000;1.095877;,
 -1.047888;-0.276756;1.095877;,
 -1.047888;-0.276756;1.095877;,
 -1.047888;-0.276756;1.095877;,
 -0.496997;-0.058672;-0.869868;,
 -0.496997;-0.058672;-0.869868;,
 -0.496997;-0.058672;-0.869868;,
 -0.496997;-0.058672;-0.869868;,
 -0.496997;-0.058672;-0.869868;,
 0.497152;-0.058672;-0.869868;,
 0.497152;-0.058672;-0.869868;,
 0.497152;-0.058672;-0.869868;,
 0.497152;-0.058672;-0.869868;,
 0.497152;-0.058672;-0.869868;,
 -0.998439;0.057611;1.196241;,
 -0.998439;0.057611;1.196241;,
 -0.740124;0.057611;1.197195;,
 -0.740124;0.057611;1.197195;,
 -0.740124;0.057611;1.197195;,
 -0.740124;-0.254102;1.197195;,
 -0.740124;-0.254102;1.197195;,
 -0.740124;-0.254102;1.197195;,
 -0.998439;-0.257115;1.197179;,
 -0.998439;-0.257115;1.197179;,
 1.020045;0.056209;1.196937;,
 1.020045;0.056209;1.196937;,
 1.020045;-0.258766;1.197757;,
 1.020045;-0.258766;1.197757;,
 0.743419;-0.258766;1.196045;,
 0.743419;-0.258766;1.196045;,
 0.743419;-0.258766;1.196045;,
 0.743419;0.056209;1.196923;,
 0.743419;0.056209;1.196923;,
 0.743419;0.056209;1.196923;,
 0.542949;-0.225100;0.879202;,
 0.542949;-0.225100;0.879202;,
 0.542949;-0.225100;0.879202;,
 0.542949;0.041803;0.879202;,
 0.542949;0.041803;0.879202;,
 0.542949;0.041803;0.879202;,
 -0.542950;-0.225100;0.879203;,
 -0.542950;-0.225100;0.879203;,
 -0.542950;-0.225100;0.879203;,
 -0.542950;0.041803;0.879203;,
 -0.542950;0.041803;0.879203;,
 -0.542950;0.041803;0.879203;,
 0.386956;-0.271625;-0.869100;,
 0.386956;-0.271625;-0.869100;,
 0.386956;-0.271625;-0.869100;,
 0.387005;-0.081204;-0.869484;,
 0.387005;-0.081204;-0.869484;,
 0.387005;-0.081204;-0.869484;,
 -0.386867;-0.271625;-0.869100;,
 -0.386867;-0.271625;-0.869100;,
 -0.386867;-0.271625;-0.869100;,
 -0.386889;-0.081204;-0.869484;,
 -0.386889;-0.081204;-0.869484;,
 -0.386889;-0.081204;-0.869484;,
 0.000042;-0.250847;-2.836098;,
 0.000042;-0.250847;-2.836098;,
 0.000042;-0.250847;-2.836098;,
 0.000042;-0.250847;-2.836098;,
 0.000042;-0.250847;-2.836098;,
 0.000042;-0.250847;-2.836098;,
 0.000042;-0.250847;-2.836098;,
 0.436308;-0.011886;-1.632907;,
 0.436308;-0.011886;-1.632907;,
 0.436308;-0.011886;-1.632907;,
 0.210096;-0.157917;-2.559657;,
 0.210096;-0.157917;-2.559657;,
 0.210096;-0.157917;-2.559657;,
 -0.505310;-0.394207;2.255130;,
 -0.505310;-0.394207;2.255130;,
 0.263272;0.157417;-1.680146;,
 0.263272;0.157417;-1.680146;,
 0.263272;0.157417;-1.680146;,
 0.263272;0.157417;-1.680146;,
 0.494318;-0.391650;1.429179;,
 0.494318;-0.391650;1.429179;,
 0.494318;-0.391650;1.429179;,
 -0.263203;0.157417;-1.680146;,
 -0.263203;0.157417;-1.680146;,
 -0.263203;0.157417;-1.680146;,
 -0.263203;0.157417;-1.680146;,
 -0.112100;-0.033118;-2.559657;,
 -0.503210;-0.390172;1.427324;,
 -0.503210;-0.390172;1.427324;,
 -0.503210;-0.390172;1.427324;,
 -0.436209;-0.011886;-1.632907;,
 -0.436209;-0.011886;-1.632907;,
 -0.436209;-0.011886;-1.632907;,
 -0.210012;-0.157917;-2.559657;,
 -0.210012;-0.157917;-2.559657;,
 -0.210012;-0.157917;-2.559657;,
 -0.210012;-0.157917;-2.559657;,
 -0.684633;-0.393912;1.423213;,
 -0.684633;-0.393912;1.423213;,
 -0.684633;-0.393912;1.423213;,
 -0.418710;-0.426960;-1.632907;,
 -0.418710;-0.426960;-1.632907;,
 -0.418710;-0.426960;-1.632907;,
 -0.210012;-0.334410;-2.559657;,
 -0.210012;-0.334410;-2.559657;,
 -0.210012;-0.334410;-2.559657;,
 -0.210012;-0.334410;-2.559657;,
 -0.686493;-0.402020;2.255130;,
 -0.686493;-0.402020;2.255130;,
 -0.260660;-0.579897;-1.680146;,
 -0.260660;-0.579897;-1.680146;,
 -0.112100;-0.459209;-2.559657;,
 -0.112100;-0.459209;-2.559657;,
 0.494318;-0.398585;2.251886;,
 0.494318;-0.398585;2.251886;,
 0.112184;-0.459209;-2.559657;,
 0.112184;-0.459209;-2.559657;,
 0.680683;-0.391661;2.249492;,
 0.680683;-0.391661;2.249492;,
 0.418805;-0.426960;-1.632907;,
 0.418805;-0.426960;-1.632907;,
 0.418805;-0.426960;-1.632907;,
 0.210096;-0.334410;-2.559657;,
 0.210096;-0.334410;-2.559657;,
 0.210096;-0.334410;-2.559657;,
 0.677295;-0.387502;1.421997;,
 0.677295;-0.387502;1.421997;,
 0.677295;-0.387502;1.421997;,
 -0.467488;-0.178063;-1.632907;,
 -0.467488;-0.178063;-1.632907;,
 -0.467488;-0.178063;-1.632907;,
 -0.467488;-0.178063;-1.632907;,
 -0.467488;-0.178063;-1.632907;,
 -0.467488;-0.178063;-1.632907;,
 0.467595;-0.178062;-1.632907;,
 0.467595;-0.178062;-1.632907;,
 0.467595;-0.178062;-1.632907;,
 0.467595;-0.178062;-1.632907;,
 0.467595;-0.178062;-1.632907;,
 0.467595;-0.178062;-1.632907;,
 -0.001547;0.140713;2.835881;,
 -0.001547;0.140713;2.835881;,
 -0.001547;0.140713;2.835881;,
 0.260729;-0.579897;-1.680146;,
 0.260729;-0.579897;-1.680146;,
 -0.542276;-0.164523;3.001838;,
 -0.542276;-0.164523;3.001838;,
 -0.542276;-0.164523;3.001838;,
 -0.542249;0.143038;3.001839;,
 -1.265893;-0.158109;2.356486;,
 1.265899;-0.158109;2.356486;,
 -0.411237;-0.012927;3.001839;,
 -0.542249;0.143038;3.001839;,
 -0.670001;-0.012959;3.001839;,
 -0.542276;-0.164523;3.001838;,
 0.542549;0.142642;3.001838;,
 0.410997;-0.013355;3.001838;,
 0.669860;-0.013211;3.001838;,
 0.542428;-0.169208;3.001838;,
 0.260729;-0.579897;-1.680146;,
 0.543578;-0.010453;3.260135;,
 -0.543018;-0.010453;3.260135;,
 -0.000012;0.287028;-0.264965;,
 -0.000043;0.267682;0.324850;,
 -0.001547;0.140713;2.835881;,
 0.467595;-0.178062;-1.632907;,
 -0.467488;-0.178063;-1.632907;,
 0.677295;-0.387502;1.421997;,
 0.210096;-0.334410;-2.559657;,
 0.418805;-0.426960;-1.632907;,
 0.680683;-0.391661;2.249492;,
 0.112184;-0.459209;-2.559657;,
 0.494318;-0.398585;2.251886;,
 -0.112100;-0.459209;-2.559657;,
 -0.260660;-0.579897;-1.680146;,
 -0.686493;-0.402020;2.255130;,
 -0.210012;-0.334410;-2.559657;,
 -0.418710;-0.426960;-1.632907;,
 -0.684633;-0.393912;1.423213;,
 -0.210012;-0.157917;-2.559657;,
 -0.436209;-0.011886;-1.632907;,
 -0.503210;-0.390172;1.427324;,
 -0.112100;-0.033118;-2.559657;,
 -0.263203;0.157417;-1.680146;,
 0.494318;-0.391650;1.429179;,
 0.112184;-0.033118;-2.559658;,
 0.263272;0.157417;-1.680146;,
 -0.505310;-0.394207;2.255130;,
 0.210096;-0.157917;-2.559657;,
 0.436308;-0.011886;-1.632907;,
 0.000042;-0.250847;-2.836098;,
 -0.386889;-0.081204;-0.869484;,
 -0.386867;-0.271625;-0.869100;,
 0.387005;-0.081204;-0.869484;,
 0.386956;-0.271625;-0.869100;,
 -0.542950;0.041803;0.879203;,
 -0.542950;-0.225100;0.879203;,
 0.542949;0.041803;0.879202;,
 0.542949;-0.225100;0.879202;,
 0.743419;0.056209;1.196923;,
 0.743419;-0.258766;1.196045;,
 1.020045;-0.258766;1.197757;,
 1.020045;0.056209;1.196937;,
 -0.998439;-0.257115;1.197179;,
 -0.740124;-0.254102;1.197195;,
 -0.740124;0.057611;1.197195;,
 -0.998439;0.057611;1.196241;,
 0.497152;-0.058672;-0.869868;,
 -0.496997;-0.058672;-0.869868;,
 -1.047888;-0.276756;1.095877;,
 -1.047888;0.073000;1.095877;,
 1.047887;0.073050;1.095877;,
 1.047887;-0.277167;1.095877;,
 -0.846001;0.133478;0.879203;,
 -0.846001;-0.308055;0.879203;,
 0.846000;0.133478;0.879202;,
 0.846000;-0.308055;0.879202;,
 0.373008;0.229351;-0.264965;,
 -0.373033;0.229351;-0.264965;,
 0.707137;-0.642950;1.617062;,
 0.471935;-0.642937;1.617084;,
 -0.492746;-0.565145;1.446967;,
 -0.425575;-0.564743;2.287138;,
 -0.684987;-0.565141;1.447040;,
 -0.777800;-0.564709;2.287012;,
 0.095060;-0.647501;-0.639561;,
 0.121134;-0.638910;-0.003141;,
 -0.095060;-0.647500;-0.639561;,
 -0.121134;-0.638910;-0.003141;,
 0.496899;-0.294792;-0.868332;,
 0.474694;-0.643653;2.238873;,
 -0.496885;-0.294792;-0.868332;,
 0.641568;0.209355;0.324850;,
 -0.416137;0.196045;2.747690;,
 -0.718809;0.727265;2.693681;,
 0.407226;0.196045;2.747689;,
 0.717074;0.455566;3.160135;,
 -0.551864;0.548026;1.207950;,
 -0.716926;0.455566;3.160135;,
 0.717318;0.727265;2.693681;,
 1.249774;-0.316416;1.312551;,
 1.112242;-0.301171;2.545735;,
 -1.249774;-0.316416;1.312551;,
 -1.112231;-0.301171;2.545735;,
 0.550743;0.548052;1.207638;,
 -1.249774;0.120852;1.312551;,
 -1.112231;0.092168;2.545735;,
 1.249774;0.120852;1.312551;,
 1.112242;0.092168;2.545735;,
 0.707425;-0.644072;2.238918;,
 -0.705525;-0.642950;1.617507;,
 -0.707138;-0.644072;2.238783;,
 -0.474603;-0.643653;2.238816;,
 -0.470332;-0.642937;1.617084;,
 -0.081500;-0.528888;-0.767251;,
 0.846000;-0.343738;1.013758;,
 0.870163;-0.349206;2.559270;,
 -0.641655;0.209355;0.324850;,
 0.076327;-0.580441;-0.838565;,
 0.292760;-0.509017;0.153157;,
 0.349462;-0.468606;1.087181;,
 0.237966;-0.349951;2.746961;,
 -0.076327;-0.580441;-0.838565;,
 -0.292761;-0.509017;0.153157;,
 -0.349462;-0.468606;1.087181;,
 -0.237967;-0.349951;2.746961;,
 0.082483;-0.528488;-0.029202;,
 -0.846001;-0.343738;1.013758;,
 -0.870163;-0.349206;2.559270;,
 -0.091339;-0.527407;-0.027226;,
 0.426890;-0.564743;2.287138;,
 -0.846001;0.209831;1.013758;,
 -0.870163;0.174075;2.559269;,
 0.767556;-0.564709;2.287012;,
 0.685035;-0.565140;1.447932;,
 0.084123;-0.528888;-0.767251;,
 0.494326;-0.565145;1.447935;,
 0.846000;0.209831;1.013758;,
 0.870163;0.174075;2.559271;;

 172;
 4;263,266,278,275;,
 3;369,133,137;,
 4;122,127,42,30;,
 3;463,156,147;,
 3;155,8,11;,
 4;65,170,169,62;,
 4;126,130,47,41;,
 3;361,153,55;,
 3;138,29,152;,
 4;265,213,229,277;,
 4;269,272,260,257;,
 4;125,121,28,33;,
 4;256,201,166,268;,
 3;75,14,188;,
 3;177,40,46;,
 4;185,180,45,60;,
 4;168,173,78,61;,
 3;7,154,463;,
 4;132,117,6,93;,
 4;136,131,92,99;,
 4;110,107,182,176;,
 4;205,219,246,254;,
 4;248,216,200,251;,
 4;162,115,22,35;,
 4;218,215,247,245;,
 6;165,199,98,74,77,82;,
 3;250,198,255;,
 3;368,462,465;,
 4;34,21,91,71;,
 4;172,174,81,76;,
 4;346,337,333,300;,
 4;236,244,224,221;,
 3;239,212,264;,
 3;374,379,376;,
 4;116,120,10,5;,
 3;370,380,366;,
 4;243,242,209,223;,
 4;220,211,238,235;,
 4;274,159,208,262;,
 4;271,234,204,259;,
 4;241,422,425,237;,
 3;87,32,27;,
 4;340,363,335,343;,
 4;308,293,327,318;,
 3;26,457,453;,
 4;382,86,151,360;,
 4;124,31,210,429;,
 4;249,253,421,420;,
 4;175,181,54,39;,
 4;217,203,9,119;,
 3;352,315,325;,
 4;381,194,85,382;,
 6;59,482,478,73,70,53;,
 3;456,84,25;,
 3;458,140,4;,
 3;146,3,139;,
 3;150,83,456;,
 3;456,453,149;,
 3;24,453,456;,
 3;463,458,2;,
 3;145,458,463;,
 4;97,19,13,72;,
 3;453,457,148;,
 3;144,455,458;,
 3;285,291,342;,
 3;284,324,314;,
 4;290,404,297,288;,
 3;283,404,289;,
 4;305,313,311,304;,
 4;441,106,104,58;,
 4;331,334,362,329;,
 3;282,330,323;,
 3;351,310,312;,
 3;281,341,390;,
 3;280,398,401;,
 4;322,392,328,321;,
 4;404,401,303,296;,
 3;279,401,404;,
 3;409,390,392;,
 3;407,287,358;,
 3;357,339,387;,
 3;387,407,356;,
 3;395,320,350;,
 4;37,49,171,167;,
 5;16,80,444,445,48;,
 5;36,447,446,64,101;,
 4;100,63,79,15;,
 4;494,485,488,473;,
 3;345,18,191;,
 3;112,179,317;,
 3;187,12,299;,
 4;298,495,17,344;,
 4;114,161,332,336;,
 4;316,178,184,307;,
 4;105,109,326,292;,
 3;103,183,57;,
 3;96,90,20;,
 6;481,482,56,44,207,158;,
 4;222,206,43,129;,
 4;128,123,429,428;,
 4;135,95,435,214;,
 4;431,430,118,134;,
 3;261,433,240;,
 4;423,424,414,415;,
 3;258,202,252;,
 4;417,416,418,419;,
 4;382,451,197,381;,
 4;359,143,451,382;,
 3;306,440,102;,
 4;190,113,389,386;,
 4;403,391,160,186;,
 4;397,394,108,111;,
 4;472,471,406,400;,
 3;486,442,469;,
 3;189,493,94;,
 4;474,492,468,438;,
 4;469,470,443,486;,
 3;483,52,441;,
 3;489,69,479;,
 4;479,439,449,489;,
 3;381,196,295;,
 3;164,338,355;,
 3;233,270,354;,
 3;353,412,267;,
 4;195,232,286,294;,
 4;451,496,434,231;,
 3;302,193,381;,
 3;381,405,301;,
 4;393,481,157,319;,
 3;450,273,349;,
 3;228,309,348;,
 3;347,411,276;,
 4;163,477,378,388;,
 4;378,477,481,393;,
 4;399,227,192,402;,
 4;226,432,490,476;,
 3;476,437,225;,
 3;230,436,451;,
 3;385,410,427;,
 3;385,396,450;,
 3;384,408,426;,
 3;384,413,448;,
 3;372,380,367;,
 3;370,51,452;,
 3;372,23,38;,
 3;377,379,375;,
 3;374,1,142;,
 3;377,68,89;,
 3;67,141,383;,
 3;50,66,383;,
 3;376,88,0;,
 3;376,379,377;,
 3;375,454,480;,
 3;375,379,374;,
 3;371,380,370;,
 3;365,487,484;,
 3;364,380,372;,
 3;371,452,491;,
 3;475,376,377;,
 3;480,377,375;,
 3;497,374,376;,
 3;454,375,374;,
 3;452,371,370;,
 3;491,372,371;,
 3;487,373,372;,
 3;484,370,373;,
 3;368,464,461;,
 3;369,466,467;,
 3;467,460,369;,
 3;459,466,369;,
 3;465,464,368;,
 3;461,462,368;;

 MeshMaterialList {
  13;
  172;
  0,
  1,
  1,
  2,
  3,
  4,
  1,
  5,
  5,
  6,
  0,
  1,
  6,
  4,
  4,
  4,
  4,
  2,
  1,
  1,
  4,
  6,
  6,
  4,
  7,
  4,
  6,
  1,
  4,
  4,
  8,
  7,
  6,
  9,
  1,
  9,
  6,
  6,
  6,
  6,
  7,
  3,
  10,
  8,
  2,
  3,
  11,
  7,
  4,
  11,
  12,
  3,
  4,
  2,
  2,
  5,
  2,
  2,
  2,
  2,
  2,
  4,
  2,
  2,
  12,
  12,
  10,
  10,
  10,
  4,
  10,
  10,
  12,
  10,
  10,
  10,
  10,
  10,
  10,
  12,
  12,
  12,
  12,
  8,
  8,
  8,
  8,
  8,
  8,
  8,
  8,
  8,
  8,
  8,
  8,
  4,
  4,
  4,
  11,
  11,
  11,
  11,
  6,
  0,
  6,
  0,
  3,
  3,
  8,
  8,
  8,
  8,
  8,
  4,
  4,
  4,
  4,
  4,
  4,
  4,
  3,
  0,
  6,
  0,
  3,
  3,
  3,
  3,
  4,
  6,
  0,
  0,
  4,
  4,
  3,
  3,
  3,
  3,
  6,
  0,
  0,
  6,
  9,
  9,
  9,
  9,
  9,
  9,
  5,
  5,
  9,
  9,
  9,
  9,
  9,
  9,
  9,
  9,
  9,
  9,
  9,
  9,
  9,
  9,
  9,
  9,
  1,
  1,
  1,
  1,
  1,
  1;
Material {
 0.700000;0.700000;0.700000;1.000000;;
 50.000000;
 1.000000;1.000000;1.000000;;
 0.0; 0.0; 0.0;;
 TextureFilename {
  "bom03.ppm";
 }
 }
Material {
 0.700000;0.700000;0.700000;1.000000;;
 50.000000;
 1.000000;1.000000;1.000000;;
 0.0; 0.0; 0.0;;
 TextureFilename {
  "bom03.ppm";
 }
 }
Material {
 0.700000;0.700000;0.700000;1.000000;;
 50.000000;
 1.000000;1.000000;1.000000;;
 0.0; 0.0; 0.0;;
 TextureFilename {
  "bom03.ppm";
 }
 }
Material {
 0.700000;0.700000;0.700000;1.000000;;
 50.000000;
 1.000000;1.000000;1.000000;;
 0.0; 0.0; 0.0;;
 TextureFilename {
  "bom03.ppm";
 }
 }
Material {
 0.700000;0.700000;0.700000;1.000000;;
 50.000000;
 1.000000;1.000000;1.000000;;
 0.0; 0.0; 0.0;;
 TextureFilename {
  "bom03.ppm";
 }
 }
Material {
 1.000000;1.000000;1.000000;1.000000;;
 0.000000;
 1.000000;1.000000;1.000000;;
 0.0; 0.0; 0.0;;
 TextureFilename {
  "bom03.ppm";
 }
 }
Material {
 0.700000;0.700000;0.700000;1.000000;;
 50.000000;
 1.000000;1.000000;1.000000;;
 0.0; 0.0; 0.0;;
 TextureFilename {
  "bom03.ppm";
 }
 }
Material {
 0.700000;0.700000;0.700000;1.000000;;
 50.000000;
 1.000000;1.000000;1.000000;;
 0.0; 0.0; 0.0;;
 TextureFilename {
  "bom03.ppm";
 }
 }
Material {
 0.700000;0.700000;0.700000;1.000000;;
 50.000000;
 1.000000;1.000000;1.000000;;
 0.0; 0.0; 0.0;;
 TextureFilename {
  "bom03.ppm";
 }
 }
Material {
 1.000000;1.000000;1.000000;1.000000;;
 0.000000;
 1.000000;1.000000;1.000000;;
 0.0; 0.0; 0.0;;
 TextureFilename {
  "bom03.ppm";
 }
 }
Material {
 0.700000;0.700000;0.700000;1.000000;;
 50.000000;
 1.000000;1.000000;1.000000;;
 0.0; 0.0; 0.0;;
 TextureFilename {
  "bom03.ppm";
 }
 }
Material {
 0.700000;0.700000;0.700000;1.000000;;
 50.000000;
 1.000000;1.000000;1.000000;;
 0.0; 0.0; 0.0;;
 TextureFilename {
  "bom03.ppm";
 }
 }
Material {
 0.700000;0.700000;0.700000;1.000000;;
 50.000000;
 1.000000;1.000000;1.000000;;
 0.0; 0.0; 0.0;;
 TextureFilename {
  "bom03.ppm";
 }
 }
}
 MeshNormals {
  498;
  0.736143;0.556600;0.385085;,
  0.736143;0.556600;0.385085;,
  0.736143;0.556600;0.385085;,
  0.736143;0.556600;0.385085;,
  0.736143;0.556600;0.385085;,
  0.736143;0.556600;0.385085;,
  0.736143;0.556600;0.385085;,
  0.736143;0.556600;0.385085;,
  0.736143;0.556600;0.385085;,
  0.448355;0.870116;-0.204639;,
  0.448355;0.870116;-0.204639;,
  0.448355;0.870116;-0.204639;,
  0.647255;-0.741331;0.177453;,
  0.647255;-0.741331;0.177453;,
  0.647255;-0.741331;0.177453;,
  -0.412095;-0.870697;0.268449;,
  -0.412095;-0.870697;0.268449;,
  -0.396685;-0.902796;0.166135;,
  -0.396685;-0.902796;0.166135;,
  -0.396685;-0.902796;0.166135;,
  0.573419;-0.705080;0.417197;,
  0.573419;-0.705080;0.417197;,
  0.573419;-0.705080;0.417197;,
  -0.736929;0.555459;0.385227;,
  -0.736929;0.555459;0.385227;,
  -0.736929;0.555459;0.385227;,
  -0.736929;0.555459;0.385227;,
  -0.736929;0.555459;0.385227;,
  -0.736929;0.555459;0.385227;,
  -0.736929;0.555459;0.385227;,
  -0.736929;0.555459;0.385227;,
  -0.448500;0.870027;-0.204696;,
  -0.448500;0.870027;-0.204696;,
  -0.448500;0.870027;-0.204696;,
  -0.448031;-0.786945;0.424247;,
  -0.448031;-0.786945;0.424247;,
  0.506259;-0.711606;-0.487154;,
  0.506259;-0.711606;-0.487154;,
  -0.514937;-0.653455;0.554830;,
  -0.514937;-0.653455;0.554830;,
  -0.514937;-0.653455;0.554830;,
  -0.514937;-0.653455;0.554830;,
  -0.514937;-0.653455;0.554830;,
  -0.473600;-0.855923;-0.207601;,
  -0.473600;-0.855923;-0.207601;,
  -0.473600;-0.855923;-0.207601;,
  -0.473600;-0.855923;-0.207601;,
  -0.473600;-0.855923;-0.207601;,
  -0.505359;-0.714745;-0.483479;,
  -0.505359;-0.714745;-0.483479;,
  0.289280;-0.664179;0.689335;,
  0.289280;-0.664179;0.689335;,
  0.289280;-0.664179;0.689335;,
  0.289280;-0.664179;0.689335;,
  0.289280;-0.664179;0.689335;,
  0.289280;-0.664179;0.689335;,
  0.143246;-0.979012;-0.144967;,
  0.143246;-0.979012;-0.144967;,
  0.143246;-0.979012;-0.144967;,
  0.143246;-0.979012;-0.144967;,
  0.143246;-0.979012;-0.144967;,
  -0.342601;-0.926483;0.155737;,
  -0.342601;-0.926483;0.155737;,
  -0.208647;-0.969322;0.129928;,
  -0.208647;-0.969322;0.129928;,
  -0.208647;-0.969322;0.129928;,
  -0.310136;-0.654435;0.689587;,
  -0.310136;-0.654435;0.689587;,
  -0.310136;-0.654435;0.689587;,
  -0.310136;-0.654435;0.689587;,
  -0.310136;-0.654435;0.689587;,
  -0.310136;-0.654435;0.689587;,
  -0.141903;-0.979207;-0.144975;,
  -0.141903;-0.979207;-0.144975;,
  -0.141903;-0.979207;-0.144975;,
  -0.141903;-0.979207;-0.144975;,
  0.342600;-0.926483;0.155738;,
  0.342600;-0.926483;0.155738;,
  0.342600;-0.926483;0.155738;,
  0.208428;-0.969635;0.127930;,
  0.208428;-0.969635;0.127930;,
  0.208428;-0.969635;0.127930;,
  0.208428;-0.969635;0.127930;,
  -0.279596;0.952728;-0.118896;,
  -0.279596;0.952728;-0.118896;,
  -0.279596;0.952728;-0.118896;,
  -0.279596;0.952728;-0.118896;,
  -0.279596;0.952728;-0.118896;,
  0.519328;-0.668672;0.532143;,
  0.519328;-0.668672;0.532143;,
  0.519328;-0.668672;0.532143;,
  0.519328;-0.668672;0.532143;,
  0.519328;-0.668672;0.532143;,
  0.519328;-0.668672;0.532143;,
  0.472273;-0.857001;-0.206173;,
  0.472273;-0.857001;-0.206173;,
  0.472273;-0.857001;-0.206173;,
  0.472273;-0.857001;-0.206173;,
  0.472273;-0.857001;-0.206173;,
  0.472273;-0.857001;-0.206173;,
  0.414908;-0.867729;0.273675;,
  0.414908;-0.867729;0.273675;,
  -0.671064;-0.732661;-0.113495;,
  -0.671064;-0.732661;-0.113495;,
  -0.671064;-0.732661;-0.113495;,
  -0.135665;-0.983110;-0.122838;,
  -0.135665;-0.983110;-0.122838;,
  -0.135665;-0.983110;-0.122838;,
  0.131653;-0.978280;-0.160110;,
  0.131653;-0.978280;-0.160110;,
  0.131653;-0.978280;-0.160110;,
  0.471627;-0.859461;-0.197216;,
  0.471627;-0.859461;-0.197216;,
  -0.117921;-0.981608;-0.150135;,
  -0.117921;-0.981608;-0.150135;,
  -0.117921;-0.981608;-0.150135;,
  0.652027;0.476172;0.590018;,
  0.652027;0.476172;0.590018;,
  0.834962;0.481292;-0.266827;,
  0.834962;0.481292;-0.266827;,
  0.834962;0.481292;-0.266827;,
  -0.652020;0.476174;0.590024;,
  -0.652020;0.476174;0.590024;,
  -0.834977;0.481259;-0.266839;,
  -0.834977;0.481259;-0.266839;,
  -0.834977;0.481259;-0.266839;,
  -0.573769;-0.568336;0.589731;,
  -0.573769;-0.568336;0.589731;,
  -0.749476;-0.611599;-0.253440;,
  -0.749476;-0.611599;-0.253440;,
  -0.749476;-0.611599;-0.253440;,
  0.573777;-0.568334;0.589725;,
  0.573777;-0.568334;0.589725;,
  0.573777;-0.568334;0.589725;,
  0.749172;-0.612113;-0.253101;,
  0.749172;-0.612113;-0.253101;,
  0.749172;-0.612113;-0.253101;,
  0.749172;-0.612113;-0.253101;,
  -0.308292;-0.166520;0.936604;,
  0.311064;-0.155006;0.937663;,
  0.311064;-0.155006;0.937663;,
  -0.701995;0.546589;0.456556;,
  -0.701995;0.546589;0.456556;,
  -0.701995;0.546589;0.456556;,
  -0.701995;0.546589;0.456556;,
  -0.701995;0.546589;0.456556;,
  -0.701995;0.546589;0.456556;,
  -0.701995;0.546589;0.456556;,
  0.706293;0.546765;0.449665;,
  0.706293;0.546765;0.449665;,
  0.706293;0.546765;0.449665;,
  0.706293;0.546765;0.449665;,
  0.706293;0.546765;0.449665;,
  0.706293;0.546765;0.449665;,
  0.278908;0.952876;-0.119320;,
  0.278908;0.952876;-0.119320;,
  0.278908;0.952876;-0.119320;,
  -0.998909;-0.038744;0.026060;,
  -0.998909;-0.038744;0.026060;,
  -0.998909;-0.038744;0.026060;,
  0.136235;-0.982901;-0.123877;,
  0.136235;-0.982901;-0.123877;,
  0.136235;-0.982901;-0.123877;,
  0.998906;-0.038780;0.026134;,
  0.998906;-0.038780;0.026134;,
  0.998906;-0.038780;0.026134;,
  0.998906;-0.038780;0.026134;,
  0.112068;-0.970432;-0.213783;,
  0.112068;-0.970432;-0.213783;,
  0.112068;-0.970432;-0.213783;,
  0.259293;-0.963549;-0.065885;,
  -0.113715;-0.970166;-0.214119;,
  -0.113715;-0.970166;-0.214119;,
  -0.113715;-0.970166;-0.214119;,
  -0.246464;-0.966493;-0.071744;,
  -0.574530;-0.705508;0.414939;,
  -0.574530;-0.705508;0.414939;,
  -0.574530;-0.705508;0.414939;,
  0.401507;-0.898882;0.175506;,
  0.401507;-0.898882;0.175506;,
  0.401507;-0.898882;0.175506;,
  0.449515;-0.786017;0.424397;,
  0.449515;-0.786017;0.424397;,
  -0.633115;-0.756867;0.162226;,
  -0.633115;-0.756867;0.162226;,
  -0.633115;-0.756867;0.162226;,
  0.698102;-0.708525;-0.103174;,
  0.698102;-0.708525;-0.103174;,
  0.698102;-0.708525;-0.103174;,
  -0.449950;-0.870931;-0.197547;,
  -0.449950;-0.870931;-0.197547;,
  -0.449950;-0.870931;-0.197547;,
  -0.440899;0.892187;-0.098034;,
  -0.440899;0.892187;-0.098034;,
  -0.440899;0.892187;-0.098034;,
  0.440810;0.892236;-0.097989;,
  0.440810;0.892236;-0.097989;,
  0.440810;0.892236;-0.097989;,
  0.701294;0.604911;-0.377186;,
  0.701294;0.604911;-0.377186;,
  0.701294;0.604911;-0.377186;,
  0.701294;0.604911;-0.377186;,
  0.684048;-0.621104;-0.382502;,
  0.684048;-0.621104;-0.382502;,
  0.684048;-0.621104;-0.382502;,
  0.684048;-0.621104;-0.382502;,
  -0.701665;0.599347;-0.385292;,
  -0.701665;0.599347;-0.385292;,
  -0.701665;0.599347;-0.385292;,
  -0.701665;0.599347;-0.385292;,
  -0.684201;-0.622879;-0.379330;,
  -0.684201;-0.622879;-0.379330;,
  -0.684201;-0.622879;-0.379330;,
  -0.684201;-0.622879;-0.379330;,
  0.204200;0.057019;-0.977267;,
  0.204200;0.057019;-0.977267;,
  0.204200;0.057019;-0.977267;,
  0.224700;-0.202342;-0.953188;,
  0.224700;-0.202342;-0.953188;,
  0.224700;-0.202342;-0.953188;,
  -0.235965;-0.185293;-0.953932;,
  -0.235965;-0.185293;-0.953932;,
  -0.223721;0.051361;-0.973299;,
  -0.223721;0.051361;-0.973299;,
  -0.223721;0.051361;-0.973299;,
  -0.991506;0.060693;-0.115028;,
  -0.991506;0.060693;-0.115028;,
  -0.991506;0.060693;-0.115028;,
  -0.991506;0.060693;-0.115028;,
  -0.991506;0.060693;-0.115028;,
  0.991493;0.060938;-0.115012;,
  0.991493;0.060938;-0.115012;,
  0.991493;0.060938;-0.115012;,
  0.991493;0.060938;-0.115012;,
  0.991493;0.060938;-0.115012;,
  0.432203;-0.456992;-0.777405;,
  0.432203;-0.456992;-0.777405;,
  -0.395813;-0.624221;-0.673558;,
  -0.395813;-0.624221;-0.673558;,
  -0.395813;-0.624221;-0.673558;,
  -0.409229;0.640342;-0.649995;,
  -0.409229;0.640342;-0.649995;,
  -0.409229;0.640342;-0.649995;,
  0.423977;0.472916;-0.772395;,
  0.423977;0.472916;-0.772395;,
  -0.483059;-0.479177;-0.732832;,
  -0.483059;-0.479177;-0.732832;,
  -0.482398;0.499630;-0.719487;,
  -0.482398;0.499630;-0.719487;,
  0.406890;0.645217;-0.646634;,
  0.406890;0.645217;-0.646634;,
  0.406890;0.645217;-0.646634;,
  0.395131;-0.621519;-0.676451;,
  0.395131;-0.621519;-0.676451;,
  0.395131;-0.621519;-0.676451;,
  0.757909;0.608042;-0.236343;,
  0.757909;0.608042;-0.236343;,
  0.757909;0.608042;-0.236343;,
  0.766445;-0.600225;-0.228676;,
  0.766445;-0.600225;-0.228676;,
  0.766445;-0.600225;-0.228676;,
  -0.758259;0.607270;-0.237206;,
  -0.758259;0.607270;-0.237206;,
  -0.758259;0.607270;-0.237206;,
  -0.767473;-0.600677;-0.223992;,
  -0.767473;-0.600677;-0.223992;,
  -0.767473;-0.600677;-0.223992;,
  0.783153;0.620806;0.035641;,
  0.783153;0.620806;0.035641;,
  0.783153;0.620806;0.035641;,
  0.784833;-0.616130;0.066483;,
  0.784833;-0.616130;0.066483;,
  0.784833;-0.616130;0.066483;,
  -0.783095;0.620882;0.035614;,
  -0.783095;0.620882;0.035614;,
  -0.783095;0.620882;0.035614;,
  -0.784881;-0.616073;0.066458;,
  -0.784881;-0.616073;0.066458;,
  -0.784881;-0.616073;0.066458;,
  -0.000000;-0.004639;-0.999989;,
  -0.000000;-0.004639;-0.999989;,
  -0.000000;-0.004639;-0.999989;,
  -0.000000;-0.004639;-0.999989;,
  -0.000000;-0.004639;-0.999989;,
  -0.000000;-0.004639;-0.999989;,
  -0.000000;-0.004639;-0.999989;,
  0.894472;0.412596;-0.172291;,
  0.894472;0.412596;-0.172291;,
  0.894472;0.412596;-0.172291;,
  0.860009;0.273471;-0.430811;,
  0.860009;0.273471;-0.430811;,
  0.860009;0.273471;-0.430811;,
  -0.548745;-0.605402;-0.576513;,
  -0.548745;-0.605402;-0.576513;,
  0.367300;0.917256;-0.154053;,
  0.367300;0.917256;-0.154053;,
  0.367300;0.917256;-0.154053;,
  0.367300;0.917256;-0.154053;,
  0.812419;-0.375404;0.446147;,
  0.812419;-0.375404;0.446147;,
  0.812419;-0.375404;0.446147;,
  -0.367358;0.917231;-0.154066;,
  -0.367358;0.917231;-0.154066;,
  -0.367358;0.917231;-0.154066;,
  -0.367358;0.917231;-0.154066;,
  -0.371766;0.795569;-0.478394;,
  -0.792984;-0.422735;0.438717;,
  -0.792984;-0.422735;0.438717;,
  -0.792984;-0.422735;0.438717;,
  -0.894520;0.412501;-0.172272;,
  -0.894520;0.412501;-0.172272;,
  -0.894520;0.412501;-0.172272;,
  -0.860019;0.273454;-0.430801;,
  -0.860019;0.273454;-0.430801;,
  -0.860019;0.273454;-0.430801;,
  -0.860019;0.273454;-0.430801;,
  0.809783;-0.379240;0.447693;,
  0.809783;-0.379240;0.447693;,
  0.809783;-0.379240;0.447693;,
  -0.869003;-0.482224;-0.110879;,
  -0.869003;-0.482224;-0.110879;,
  -0.869003;-0.482224;-0.110879;,
  -0.866273;-0.279562;-0.414025;,
  -0.866273;-0.279562;-0.414025;,
  -0.866273;-0.279562;-0.414025;,
  -0.866273;-0.279562;-0.414025;,
  0.583838;-0.577935;-0.570197;,
  0.583838;-0.577935;-0.570197;,
  -0.362146;-0.929588;-0.068674;,
  -0.362146;-0.929588;-0.068674;,
  -0.378365;-0.814271;-0.440229;,
  -0.378365;-0.814271;-0.440229;,
  0.576222;-0.586166;-0.569542;,
  0.576222;-0.586166;-0.569542;,
  0.378354;-0.814278;-0.440226;,
  0.378354;-0.814278;-0.440226;,
  -0.553230;-0.605538;-0.572067;,
  -0.553230;-0.605538;-0.572067;,
  0.868986;-0.482264;-0.110838;,
  0.868986;-0.482264;-0.110838;,
  0.868986;-0.482264;-0.110838;,
  0.866263;-0.279580;-0.414033;,
  0.866263;-0.279580;-0.414033;,
  0.866263;-0.279580;-0.414033;,
  -0.792408;-0.411351;0.450423;,
  -0.792408;-0.411351;0.450423;,
  -0.792408;-0.411351;0.450423;,
  -0.996591;-0.002556;-0.082456;,
  -0.996591;-0.002556;-0.082456;,
  -0.996591;-0.002556;-0.082456;,
  -0.996591;-0.002556;-0.082456;,
  -0.996591;-0.002556;-0.082456;,
  -0.996591;-0.002556;-0.082456;,
  0.996591;-0.002586;-0.082457;,
  0.996591;-0.002586;-0.082457;,
  0.996591;-0.002586;-0.082457;,
  0.996591;-0.002586;-0.082457;,
  0.996591;-0.002586;-0.082457;,
  0.996591;-0.002586;-0.082457;,
  0.000780;0.482388;0.875957;,
  0.000780;0.482388;0.875957;,
  0.000780;0.482388;0.875957;,
  0.362126;-0.929597;-0.068658;,
  0.362126;-0.929597;-0.068658;,
  -0.073546;-0.744396;0.663676;,
  -0.073546;-0.744396;0.663676;,
  -0.073546;-0.744396;0.663676;,
  -0.025758;0.872043;0.488751;,
  -0.970614;-0.060632;0.232878;,
  0.970617;-0.060632;0.232867;,
  0.836054;0.109994;0.537508;,
  -0.025758;0.872043;0.488751;,
  -0.843800;0.008443;0.536591;,
  -0.073546;-0.744396;0.663676;,
  0.028278;0.869666;0.492831;,
  -0.832000;0.114105;0.542914;,
  0.845119;0.012657;0.534428;,
  0.074598;-0.741722;0.666546;,
  0.362126;-0.929597;-0.068658;,
  0.017568;0.003885;0.999838;,
  -0.013902;-0.011865;0.999833;,
  0.000000;0.999182;-0.040446;,
  0.000008;0.999837;0.018027;,
  0.000780;0.482388;0.875957;,
  0.996591;-0.002586;-0.082457;,
  -0.996591;-0.002556;-0.082456;,
  -0.792408;-0.411351;0.450423;,
  0.866263;-0.279580;-0.414033;,
  0.868986;-0.482264;-0.110838;,
  -0.553230;-0.605538;-0.572067;,
  0.378354;-0.814278;-0.440226;,
  0.576222;-0.586166;-0.569542;,
  -0.378365;-0.814271;-0.440229;,
  -0.362146;-0.929588;-0.068674;,
  0.583838;-0.577935;-0.570197;,
  -0.866273;-0.279562;-0.414025;,
  -0.869003;-0.482224;-0.110879;,
  0.809783;-0.379240;0.447693;,
  -0.860019;0.273454;-0.430801;,
  -0.894520;0.412501;-0.172272;,
  -0.792984;-0.422735;0.438717;,
  -0.371766;0.795569;-0.478394;,
  -0.367358;0.917231;-0.154066;,
  0.812419;-0.375404;0.446147;,
  0.371754;0.795576;-0.478392;,
  0.367300;0.917256;-0.154053;,
  -0.548745;-0.605402;-0.576513;,
  0.860009;0.273471;-0.430811;,
  0.894472;0.412596;-0.172291;,
  -0.000000;-0.004639;-0.999989;,
  -0.784881;-0.616073;0.066458;,
  -0.783095;0.620882;0.035614;,
  0.784833;-0.616130;0.066483;,
  0.783153;0.620806;0.035641;,
  -0.767473;-0.600677;-0.223992;,
  -0.758259;0.607270;-0.237206;,
  0.766445;-0.600225;-0.228676;,
  0.757909;0.608042;-0.236343;,
  0.395131;-0.621519;-0.676451;,
  0.406890;0.645217;-0.646634;,
  -0.482398;0.499630;-0.719487;,
  -0.483059;-0.479177;-0.732832;,
  0.423977;0.472916;-0.772395;,
  -0.409229;0.640342;-0.649995;,
  -0.395813;-0.624221;-0.673558;,
  0.432203;-0.456992;-0.777405;,
  0.991493;0.060938;-0.115012;,
  -0.991506;0.060693;-0.115028;,
  -0.223721;0.051361;-0.973299;,
  -0.235965;-0.185293;-0.953932;,
  0.224700;-0.202342;-0.953188;,
  0.204200;0.057019;-0.977267;,
  -0.684201;-0.622879;-0.379330;,
  -0.701665;0.599347;-0.385292;,
  0.684048;-0.621104;-0.382502;,
  0.701294;0.604911;-0.377186;,
  0.440810;0.892236;-0.097989;,
  -0.440899;0.892187;-0.098034;,
  -0.449950;-0.870931;-0.197547;,
  0.698102;-0.708525;-0.103174;,
  -0.633115;-0.756867;0.162226;,
  0.449515;-0.786017;0.424397;,
  0.401507;-0.898882;0.175506;,
  -0.574530;-0.705508;0.414939;,
  -0.246464;-0.966493;-0.071744;,
  -0.113715;-0.970166;-0.214119;,
  0.259293;-0.963549;-0.065885;,
  0.112068;-0.970432;-0.213783;,
  0.998906;-0.038780;0.026134;,
  0.136235;-0.982901;-0.123877;,
  -0.998909;-0.038744;0.026060;,
  0.278908;0.952876;-0.119320;,
  0.706293;0.546765;0.449665;,
  -0.144728;0.968282;0.203675;,
  -0.701995;0.546589;0.456556;,
  0.311064;-0.155006;0.937663;,
  0.075445;0.972181;-0.221749;,
  -0.308292;-0.166520;0.936604;,
  0.148867;0.967755;0.203196;,
  0.749172;-0.612113;-0.253101;,
  0.573777;-0.568334;0.589725;,
  -0.749476;-0.611599;-0.253440;,
  -0.573769;-0.568336;0.589731;,
  -0.072241;0.972271;-0.222418;,
  -0.834977;0.481259;-0.266839;,
  -0.652020;0.476174;0.590024;,
  0.834962;0.481292;-0.266827;,
  0.652027;0.476172;0.590018;,
  -0.117921;-0.981608;-0.150135;,
  0.471627;-0.859461;-0.197216;,
  0.131653;-0.978280;-0.160110;,
  -0.135665;-0.983110;-0.122838;,
  -0.671064;-0.732661;-0.113495;,
  0.414908;-0.867729;0.273675;,
  0.472273;-0.857001;-0.206173;,
  0.519328;-0.668672;0.532143;,
  -0.279596;0.952728;-0.118896;,
  0.208428;-0.969635;0.127930;,
  0.342600;-0.926483;0.155738;,
  -0.141903;-0.979207;-0.144975;,
  -0.310136;-0.654435;0.689587;,
  -0.208647;-0.969322;0.129928;,
  -0.342601;-0.926483;0.155737;,
  0.143246;-0.979012;-0.144967;,
  0.289280;-0.664179;0.689335;,
  -0.505359;-0.714745;-0.483479;,
  -0.473600;-0.855923;-0.207601;,
  -0.514937;-0.653455;0.554830;,
  0.506259;-0.711606;-0.487154;,
  -0.448031;-0.786945;0.424247;,
  -0.448500;0.870027;-0.204696;,
  -0.736929;0.555459;0.385227;,
  0.573419;-0.705080;0.417197;,
  -0.396685;-0.902796;0.166135;,
  -0.412095;-0.870697;0.268449;,
  0.647255;-0.741331;0.177453;,
  0.448355;0.870116;-0.204639;,
  0.736143;0.556600;0.385085;;

  172;
  4;263,266,278,275;,
  3;369,133,137;,
  4;122,127,42,30;,
  3;463,156,147;,
  3;155,8,11;,
  4;65,170,169,62;,
  4;126,130,47,41;,
  3;361,153,55;,
  3;138,29,152;,
  4;265,213,229,277;,
  4;269,272,260,257;,
  4;125,121,28,33;,
  4;256,201,166,268;,
  3;75,14,188;,
  3;177,40,46;,
  4;185,180,45,60;,
  4;168,173,78,61;,
  3;7,154,463;,
  4;132,117,6,93;,
  4;136,131,92,99;,
  4;110,107,182,176;,
  4;205,219,246,254;,
  4;248,216,200,251;,
  4;162,115,22,35;,
  4;218,215,247,245;,
  6;165,199,98,74,77,82;,
  3;250,198,255;,
  3;368,462,465;,
  4;34,21,91,71;,
  4;172,174,81,76;,
  4;346,337,333,300;,
  4;236,244,224,221;,
  3;239,212,264;,
  3;374,379,376;,
  4;116,120,10,5;,
  3;370,380,366;,
  4;243,242,209,223;,
  4;220,211,238,235;,
  4;274,159,208,262;,
  4;271,234,204,259;,
  4;241,422,425,237;,
  3;87,32,27;,
  4;340,363,335,343;,
  4;308,293,327,318;,
  3;26,457,453;,
  4;382,86,151,360;,
  4;124,31,210,429;,
  4;249,253,421,420;,
  4;175,181,54,39;,
  4;217,203,9,119;,
  3;352,315,325;,
  4;381,194,85,382;,
  6;59,482,478,73,70,53;,
  3;456,84,25;,
  3;458,140,4;,
  3;146,3,139;,
  3;150,83,456;,
  3;456,453,149;,
  3;24,453,456;,
  3;463,458,2;,
  3;145,458,463;,
  4;97,19,13,72;,
  3;453,457,148;,
  3;144,455,458;,
  3;285,291,342;,
  3;284,324,314;,
  4;290,404,297,288;,
  3;283,404,289;,
  4;305,313,311,304;,
  4;441,106,104,58;,
  4;331,334,362,329;,
  3;282,330,323;,
  3;351,310,312;,
  3;281,341,390;,
  3;280,398,401;,
  4;322,392,328,321;,
  4;404,401,303,296;,
  3;279,401,404;,
  3;409,390,392;,
  3;407,287,358;,
  3;357,339,387;,
  3;387,407,356;,
  3;395,320,350;,
  4;37,49,171,167;,
  5;16,80,444,445,48;,
  5;36,447,446,64,101;,
  4;100,63,79,15;,
  4;494,485,488,473;,
  3;345,18,191;,
  3;112,179,317;,
  3;187,12,299;,
  4;298,495,17,344;,
  4;114,161,332,336;,
  4;316,178,184,307;,
  4;105,109,326,292;,
  3;103,183,57;,
  3;96,90,20;,
  6;481,482,56,44,207,158;,
  4;222,206,43,129;,
  4;128,123,429,428;,
  4;135,95,435,214;,
  4;431,430,118,134;,
  3;261,433,240;,
  4;423,424,414,415;,
  3;258,202,252;,
  4;417,416,418,419;,
  4;382,451,197,381;,
  4;359,143,451,382;,
  3;306,440,102;,
  4;190,113,389,386;,
  4;403,391,160,186;,
  4;397,394,108,111;,
  4;472,471,406,400;,
  3;486,442,469;,
  3;189,493,94;,
  4;474,492,468,438;,
  4;469,470,443,486;,
  3;483,52,441;,
  3;489,69,479;,
  4;479,439,449,489;,
  3;381,196,295;,
  3;164,338,355;,
  3;233,270,354;,
  3;353,412,267;,
  4;195,232,286,294;,
  4;451,496,434,231;,
  3;302,193,381;,
  3;381,405,301;,
  4;393,481,157,319;,
  3;450,273,349;,
  3;228,309,348;,
  3;347,411,276;,
  4;163,477,378,388;,
  4;378,477,481,393;,
  4;399,227,192,402;,
  4;226,432,490,476;,
  3;476,437,225;,
  3;230,436,451;,
  3;385,410,427;,
  3;385,396,450;,
  3;384,408,426;,
  3;384,413,448;,
  3;372,380,367;,
  3;370,51,452;,
  3;372,23,38;,
  3;377,379,375;,
  3;374,1,142;,
  3;377,68,89;,
  3;67,141,383;,
  3;50,66,383;,
  3;376,88,0;,
  3;376,379,377;,
  3;375,454,480;,
  3;375,379,374;,
  3;371,380,370;,
  3;365,487,484;,
  3;364,380,372;,
  3;371,452,491;,
  3;475,376,377;,
  3;480,377,375;,
  3;497,374,376;,
  3;454,375,374;,
  3;452,371,370;,
  3;491,372,371;,
  3;487,373,372;,
  3;484,370,373;,
  3;368,464,461;,
  3;369,466,467;,
  3;467,460,369;,
  3;459,466,369;,
  3;465,464,368;,
  3;461,462,368;;
 }
 MeshTextureCoords { 
 498;
 0.080602;0.670291;,
 0.020869;0.775109;,
 0.629859;0.768196;,
 0.584587;0.752050;,
 0.629859;0.768196;,
 0.901785;0.339653;,
 0.902273;0.340629;,
 0.629859;0.768196;,
 0.049413;0.650476;,
 0.388646;0.480495;,
 0.829671;0.002221;,
 0.224579;0.641283;,
 0.697766;0.940095;,
 0.469491;0.230658;,
 0.373366;0.221038;,
 0.466679;0.388891;,
 0.273853;0.595551;,
 0.169307;0.320784;,
 0.774064;0.940091;,
 0.443091;0.196694;,
 0.444285;0.237834;,
 0.443797;0.237834;,
 0.807078;0.840373;,
 0.175349;0.668401;,
 0.629859;0.768196;,
 0.629859;0.768196;,
 0.629859;0.768196;,
 0.046216;0.086615;,
 0.901785;0.339653;,
 0.584587;0.752050;,
 0.911844;0.369340;,
 0.315643;0.572397;,
 0.213658;0.089173;,
 0.829671;0.002221;,
 0.443248;0.283753;,
 0.670787;0.840394;,
 0.086840;0.595830;,
 0.169440;0.320814;,
 0.229385;0.669378;,
 0.484657;0.313478;,
 0.472820;0.254240;,
 0.901785;0.339653;,
 0.902273;0.340629;,
 0.315443;0.147396;,
 0.305568;0.610788;,
 0.491539;0.111965;,
 0.316818;0.277310;,
 0.829671;0.002221;,
 0.086840;0.595830;,
 0.218815;0.321649;,
 0.501106;0.753112;,
 0.013216;0.775091;,
 0.484281;0.314363;,
 0.482996;0.445907;,
 0.483870;0.235619;,
 0.501106;0.753112;,
 0.314635;0.472491;,
 0.397752;0.233561;,
 0.316818;0.277310;,
 0.314635;0.472491;,
 0.437720;0.185952;,
 0.219788;0.453898;,
 0.220212;0.442298;,
 0.510082;0.323940;,
 0.290252;0.611354;,
 0.103708;0.369073;,
 0.611853;0.753112;,
 0.611853;0.753112;,
 0.226989;0.774481;,
 0.484281;0.314363;,
 0.484563;0.313157;,
 0.484657;0.313478;,
 0.556668;0.160212;,
 0.316937;0.277543;,
 0.316937;0.277543;,
 0.316818;0.277310;,
 0.222204;0.290920;,
 0.222214;0.290817;,
 0.222340;0.290679;,
 0.522752;0.383898;,
 0.290252;0.611354;,
 0.091995;0.340605;,
 0.091828;0.340675;,
 0.241502;0.762924;,
 0.241502;0.762924;,
 0.299946;0.178210;,
 0.299946;0.178210;,
 0.299946;0.178210;,
 0.033076;0.669314;,
 0.020869;0.775109;,
 0.484359;0.235619;,
 0.483870;0.235619;,
 0.901785;0.339653;,
 0.911844;0.369340;,
 0.490262;0.132925;,
 0.308836;0.204564;,
 0.487387;0.129235;,
 0.493492;0.125637;,
 0.311141;0.138846;,
 0.829671;0.002221;,
 0.480686;0.325852;,
 0.273853;0.595551;,
 0.311833;0.996681;,
 0.373366;0.221038;,
 0.397752;0.233561;,
 0.229794;0.406987;,
 0.461924;0.236047;,
 0.783021;0.832484;,
 0.087867;0.614018;,
 0.160977;0.406986;,
 0.689912;0.832477;,
 0.197435;0.614018;,
 0.217739;0.996690;,
 0.088607;0.657586;,
 0.229794;0.406987;,
 0.783021;0.832484;,
 0.971979;0.342039;,
 0.971491;0.342039;,
 0.388646;0.480495;,
 0.461895;0.474363;,
 0.988866;0.004662;,
 0.971979;0.342039;,
 0.971002;0.371661;,
 0.461895;0.474363;,
 0.461895;0.474363;,
 0.988866;0.004662;,
 0.971979;0.342039;,
 0.971491;0.342039;,
 0.460050;0.225460;,
 0.459400;0.225425;,
 0.988865;0.004662;,
 0.971979;0.342039;,
 0.971002;0.371661;,
 0.551225;0.442704;,
 0.386977;0.239137;,
 0.386959;0.239462;,
 0.988865;0.004662;,
 0.408020;0.464898;,
 0.603421;0.578379;,
 0.603421;0.578379;,
 0.710475;0.656102;,
 0.651239;0.600434;,
 0.171771;0.764629;,
 0.019389;0.504558;,
 0.629758;0.757616;,
 0.629758;0.757616;,
 0.632220;0.751704;,
 0.629758;0.757616;,
 0.629758;0.757616;,
 0.629758;0.757616;,
 0.629758;0.757616;,
 0.017877;0.237791;,
 0.632220;0.751704;,
 0.459647;0.600434;,
 0.241502;0.762924;,
 0.302303;0.547096;,
 0.241502;0.762924;,
 0.086927;0.500478;,
 0.086927;0.500478;,
 0.043383;0.923897;,
 0.087867;0.614018;,
 0.160977;0.406986;,
 0.689912;0.832477;,
 0.090200;0.223286;,
 0.000000;1.000000;,
 0.090200;0.223286;,
 0.043383;0.923897;,
 0.160977;0.406986;,
 0.354284;0.347487;,
 0.208135;0.441876;,
 0.142395;0.366213;,
 0.229794;0.406987;,
 0.216512;0.274602;,
 0.250788;0.266604;,
 0.112264;0.322779;,
 0.443248;0.283753;,
 0.670787;0.840394;,
 0.484281;0.314363;,
 0.218949;0.321679;,
 0.225956;0.940092;,
 0.556668;0.160212;,
 0.443797;0.237834;,
 0.807078;0.840373;,
 0.316818;0.277310;,
 0.169307;0.320784;,
 0.469491;0.230658;,
 0.197435;0.614018;,
 0.688808;0.996681;,
 0.397752;0.233561;,
 0.443822;0.201180;,
 0.196133;0.656751;,
 0.782906;0.996690;,
 0.505883;0.445240;,
 0.396602;0.245191;,
 0.396602;0.245191;,
 0.539574;0.467701;,
 0.397973;0.486906;,
 0.397973;0.486906;,
 0.324156;0.901001;,
 0.297522;0.138479;,
 0.324156;0.901001;,
 0.324156;0.901001;,
 0.324156;0.901001;,
 0.258540;0.571199;,
 0.324156;0.901001;,
 0.360300;0.964775;,
 0.308836;0.204564;,
 0.291949;0.610422;,
 0.324156;0.901001;,
 0.324156;0.901001;,
 0.258540;0.571199;,
 0.324156;0.901001;,
 0.324156;0.901001;,
 0.324156;0.901001;,
 0.459400;0.225425;,
 0.568377;0.608891;,
 0.354986;0.883848;,
 0.315643;0.572397;,
 0.568377;0.749117;,
 0.360261;0.904281;,
 0.354986;0.883848;,
 0.629534;0.749117;,
 0.386959;0.239462;,
 0.354986;0.883848;,
 0.629534;0.608891;,
 0.441513;0.208400;,
 0.441513;0.208400;,
 0.595846;0.563053;,
 0.000000;1.000000;,
 0.043383;0.923897;,
 0.443340;0.530501;,
 0.443340;0.530501;,
 0.606100;0.555241;,
 0.000000;1.000000;,
 0.043383;0.923897;,
 0.360261;0.904281;,
 0.568377;0.749117;,
 0.068532;0.769751;,
 0.360300;0.964775;,
 0.360300;0.964775;,
 0.360300;0.964775;,
 0.068532;0.908570;,
 0.360300;0.964775;,
 0.360261;0.904281;,
 0.568377;0.608891;,
 0.629534;0.749117;,
 0.354986;0.883848;,
 0.629534;0.608891;,
 0.360261;0.904281;,
 0.068999;0.900018;,
 0.360300;0.964775;,
 0.360300;0.964775;,
 0.360300;0.964775;,
 0.068504;0.772443;,
 0.324156;0.901001;,
 0.325156;0.994351;,
 0.324505;0.993049;,
 0.317730;0.781304;,
 0.325156;0.994351;,
 0.324505;0.993049;,
 0.331783;0.891731;,
 0.325156;0.994351;,
 0.324505;0.993049;,
 0.317730;0.781304;,
 0.325156;0.994351;,
 0.324505;0.993049;,
 0.331783;0.891731;,
 0.096401;0.815848;,
 0.042243;0.978464;,
 0.096435;0.815722;,
 0.000000;1.000000;,
 0.042243;0.978464;,
 0.114558;0.903286;,
 0.000000;1.000000;,
 0.042243;0.978464;,
 0.096365;0.815582;,
 0.114537;0.903460;,
 0.042243;0.978464;,
 0.114558;0.903286;,
 0.354496;0.104003;,
 0.354496;0.104003;,
 0.399196;0.069610;,
 0.354496;0.104003;,
 0.354496;0.104003;,
 0.675376;0.082967;,
 0.675376;0.082967;,
 0.701607;0.498396;,
 0.754833;0.008898;,
 0.496261;0.000618;,
 0.399196;0.069610;,
 0.414821;0.069610;,
 0.681465;0.052872;,
 0.218949;0.321679;,
 0.088607;0.657586;,
 0.694925;0.416900;,
 0.566019;0.389557;,
 0.495512;0.045603;,
 0.495512;0.045603;,
 0.229794;0.406987;,
 0.697763;0.813895;,
 0.197435;0.614018;,
 0.562122;0.310777;,
 0.562122;0.310777;,
 0.500004;0.182952;,
 0.508207;0.036814;,
 0.365445;0.083018;,
 0.298680;0.812820;,
 0.160977;0.406986;,
 0.196133;0.656751;,
 0.000000;1.000000;,
 0.754833;0.008898;,
 0.491867;0.001594;,
 0.681465;0.052872;,
 0.414821;0.069610;,
 0.681465;0.052872;,
 0.681465;0.052872;,
 0.229794;0.406987;,
 0.226098;0.815541;,
 0.197435;0.614018;,
 0.009799;0.476593;,
 0.755321;0.143723;,
 0.496261;0.000618;,
 0.399196;0.069610;,
 0.365307;0.132371;,
 0.681411;0.100195;,
 0.681411;0.100195;,
 0.169307;0.320784;,
 0.087867;0.614018;,
 0.495512;0.045603;,
 0.495512;0.045603;,
 0.396009;0.152289;,
 0.365445;0.083018;,
 0.169307;0.320784;,
 0.087867;0.614018;,
 0.358471;0.127000;,
 0.389370;0.082041;,
 0.218949;0.321679;,
 0.088607;0.657586;,
 0.000000;1.000000;,
 0.755321;0.143723;,
 0.496261;0.000618;,
 0.365445;0.083018;,
 0.681411;0.100195;,
 0.399196;0.069610;,
 0.160977;0.406986;,
 0.770967;0.810878;,
 0.196133;0.656751;,
 0.076869;0.867188;,
 0.000000;1.000000;,
 0.000000;1.000000;,
 0.755321;0.075922;,
 0.755321;0.075922;,
 0.755321;0.075922;,
 0.076869;0.867188;,
 0.000000;1.000000;,
 0.000000;1.000000;,
 0.755321;0.075922;,
 0.755321;0.075922;,
 0.755321;0.075922;,
 0.008640;0.372195;,
 0.008640;0.372195;,
 0.556120;0.615907;,
 0.500004;0.182952;,
 0.495512;0.045603;,
 0.119992;0.674253;,
 0.117257;0.696128;,
 0.117257;0.696128;,
 0.119981;0.674253;,
 0.536905;0.376120;,
 0.532999;0.376120;,
 0.058176;0.720567;,
 0.117247;0.696128;,
 0.134503;0.726377;,
 0.117257;0.696128;,
 0.130066;0.718193;,
 0.172988;0.721961;,
 0.088529;0.714547;,
 0.130106;0.718197;,
 0.007255;0.286951;,
 0.132217;0.674910;,
 0.097998;0.678172;,
 0.397288;0.366049;,
 0.301125;0.366559;,
 0.556120;0.615907;,
 0.000000;1.000000;,
 0.000000;1.000000;,
 0.197435;0.614018;,
 0.681411;0.100195;,
 0.012557;0.242988;,
 0.087867;0.614018;,
 0.354496;0.104003;,
 0.088607;0.657586;,
 0.365445;0.083018;,
 0.005538;0.432380;,
 0.088607;0.657586;,
 0.681411;0.100195;,
 0.000000;1.000000;,
 0.196133;0.656751;,
 0.396009;0.152289;,
 0.689888;0.514997;,
 0.197435;0.614018;,
 0.365307;0.132371;,
 0.694925;0.416900;,
 0.196133;0.656751;,
 0.365445;0.083018;,
 0.566019;0.389557;,
 0.087867;0.614018;,
 0.681465;0.052872;,
 0.000000;1.000000;,
 0.365307;0.132371;,
 0.000000;1.000000;,
 0.096401;0.815848;,
 0.114537;0.903460;,
 0.000000;1.000000;,
 0.331783;0.891731;,
 0.317730;0.781304;,
 0.331783;0.891731;,
 0.317730;0.781304;,
 0.350703;0.886426;,
 0.350282;0.783165;,
 0.000016;0.900018;,
 -0.000974;0.772443;,
 0.000472;0.908570;,
 0.352005;0.779388;,
 0.350843;0.888014;,
 0.000472;0.769751;,
 0.000000;1.000000;,
 0.000000;1.000000;,
 0.386977;0.239137;,
 0.388646;0.480495;,
 0.461895;0.474363;,
 0.460050;0.225460;,
 0.236725;0.092961;,
 0.324156;0.901001;,
 0.239833;0.641165;,
 0.315443;0.147396;,
 0.397973;0.486906;,
 0.396602;0.245191;,
 0.443876;0.200529;,
 0.397752;0.233561;,
 0.302866;0.940095;,
 0.472820;0.254240;,
 0.373366;0.221038;,
 0.472820;0.254240;,
 0.241907;0.645931;,
 0.087631;0.646047;,
 0.241907;0.645931;,
 0.087631;0.646047;,
 0.000000;1.000000;,
 0.461924;0.236047;,
 0.000000;1.000000;,
 0.302303;0.547096;,
 0.109936;0.758350;,
 0.642735;0.560381;,
 0.171771;0.764629;,
 0.710475;0.656102;,
 0.402544;0.607638;,
 0.710475;0.656102;,
 0.642735;0.560381;,
 0.408020;0.464898;,
 0.551225;0.442704;,
 0.411926;0.464898;,
 0.555132;0.442704;,
 0.402505;0.607625;,
 0.411926;0.242953;,
 0.551784;0.288267;,
 0.408020;0.242953;,
 0.547878;0.288267;,
 0.426901;0.233526;,
 0.397752;0.233561;,
 0.461924;0.236047;,
 0.088607;0.657586;,
 0.196133;0.656751;,
 0.197435;0.614018;,
 0.490100;0.131948;,
 0.020869;0.775109;,
 0.299946;0.178210;,
 0.091828;0.340675;,
 0.222214;0.290817;,
 0.316818;0.277310;,
 0.226989;0.774481;,
 0.103695;0.368932;,
 0.220286;0.442415;,
 0.316818;0.277310;,
 0.013216;0.775091;,
 0.088607;0.657586;,
 0.316818;0.277310;,
 0.235570;0.776474;,
 0.087867;0.614018;,
 0.472820;0.254240;,
 0.221471;0.093079;,
 0.235570;0.776474;,
 0.443145;0.241415;,
 0.443063;0.196983;,
 0.196133;0.656751;,
 0.218949;0.321679;,
 0.224579;0.641283;,
 0.020869;0.775109;;
 }
}
Frame frm-rwingzz_1_1 {
  FrameTransformMatrix {
1.000000,0.000000,0.000000,0.000000,
0.000000,1.000000,0.000000,0.000000,
0.000000,0.000000,1.000000,0.000000,
0.000052,-0.081416,1.922547,1.000000;;
 }
Mesh rwingzz_1_1 {
 37;
 -1.146051;0.206567;0.623039;,
 -1.146051;0.206567;0.623039;,
 -1.146051;0.206567;0.623039;,
 -1.285416;0.169751;-0.596205;,
 -1.285416;0.169751;-0.596205;,
 -1.285414;-0.242066;-0.596205;,
 -1.285414;-0.242066;-0.596205;,
 -1.285414;-0.242066;-0.596205;,
 -1.146051;-0.225402;0.623039;,
 -1.146051;-0.225402;0.623039;,
 -1.142391;-0.027826;-0.635511;,
 -1.142391;-0.027826;-0.635511;,
 -1.142391;-0.027826;-0.635511;,
 -1.142391;-0.027826;-0.635511;,
 -2.970016;0.013104;0.990416;,
 -3.008301;-0.016161;0.961126;,
 -2.354018;0.057953;0.176423;,
 -2.407754;-0.066610;0.078181;,
 -2.145262;0.075631;0.608943;,
 -2.879918;0.015996;1.052693;,
 -2.841665;-0.030355;1.077414;,
 -2.120184;-0.091134;0.674731;,
 -2.677568;-0.045322;0.918563;,
 -2.836912;-0.029709;0.602518;,
 -3.121899;-0.006774;1.203724;,
 -2.807529;0.020385;0.659552;,
 -2.710770;0.029121;0.851679;,
 -1.398993;-0.159994;0.571447;,
 -1.688760;-0.127760;-0.398847;,
 -3.070622;0.009984;1.178871;,
 -1.613969;0.121721;-0.153248;,
 -1.443817;0.135842;0.427070;,
 -1.146051;-0.225402;0.623039;,
 -1.285414;-0.242066;-0.596205;,
 -3.252157;0.004030;1.465978;,
 -1.285416;0.169751;-0.596205;,
 -1.146051;0.206567;0.623039;;

 25;
 3;12,4,2;,
 3;7,3,11;,
 4;21,27,31,18;,
 4;15,23,22,20;,
 4;6,9,27,28;,
 4;14,25,23,15;,
 4;8,1,31,27;,
 4;18,31,30,16;,
 4;0,35,30,31;,
 4;16,30,28,17;,
 3;29,24,34;,
 4;35,5,28,30;,
 4;17,28,27,21;,
 3;19,34,20;,
 4;19,26,25,14;,
 4;18,26,22,21;,
 4;20,22,26,19;,
 4;15,24,29,14;,
 4;17,23,25,16;,
 4;16,25,26,18;,
 4;21,22,23,17;,
 4;14,29,34,19;,
 4;20,34,24,15;,
 3;36,32,10;,
 3;13,32,33;;

 MeshMaterialList {
  1;
  25;
  0,
  0,
  0,
  0,
  0,
  0,
  0,
  0,
  0,
  0,
  0,
  0,
  0,
  0,
  0,
  0,
  0,
  0,
  0,
  0,
  0,
  0,
  0,
  0,
  0;
Material {
 0.700000;0.700000;0.700000;1.000000;;
 50.000000;
 1.000000;1.000000;1.000000;;
 0.0; 0.0; 0.0;;
 TextureFilename {
  "bom03.ppm";
 }
 }
}
 MeshNormals {
  37;
  0.558457;0.756826;0.339617;,
  0.558457;0.756826;0.339617;,
  0.558457;0.756826;0.339617;,
  -0.107748;0.716415;-0.689304;,
  -0.107748;0.716415;-0.689304;,
  -0.153611;-0.543066;-0.825520;,
  -0.153611;-0.543066;-0.825520;,
  -0.153611;-0.543066;-0.825520;,
  0.604386;-0.680047;0.415035;,
  0.604386;-0.680047;0.415035;,
  0.917188;0.012682;-0.398254;,
  0.917188;0.012682;-0.398254;,
  0.917188;0.012682;-0.398254;,
  0.917188;0.012682;-0.398254;,
  -0.283485;0.949842;-0.132046;,
  -0.886052;-0.254550;-0.387448;,
  -0.286943;0.910232;-0.298566;,
  -0.647379;-0.359330;-0.672147;,
  0.104117;0.863687;0.493157;,
  0.264382;0.926027;0.269399;,
  0.608887;-0.418763;0.673716;,
  0.173255;-0.520314;0.836215;,
  0.430369;-0.458216;0.777702;,
  -0.812340;-0.326029;-0.483538;,
  -0.720092;0.590719;-0.364031;,
  -0.333231;0.920962;-0.201953;,
  0.207292;0.908616;0.362556;,
  -0.241586;-0.557368;0.794341;,
  -0.631592;-0.433777;-0.642596;,
  -0.297621;0.941327;-0.159140;,
  -0.347023;0.856229;-0.382684;,
  -0.156678;0.798315;0.581502;,
  0.604386;-0.680047;0.415035;,
  -0.153611;-0.543066;-0.825520;,
  0.009559;0.989092;0.146992;,
  -0.107748;0.716415;-0.689304;,
  0.558457;0.756826;0.339617;;

  25;
  3;12,4,2;,
  3;7,3,11;,
  4;21,27,31,18;,
  4;15,23,22,20;,
  4;6,9,27,28;,
  4;14,25,23,15;,
  4;8,1,31,27;,
  4;18,31,30,16;,
  4;0,35,30,31;,
  4;16,30,28,17;,
  3;29,24,34;,
  4;35,5,28,30;,
  4;17,28,27,21;,
  3;19,34,20;,
  4;19,26,25,14;,
  4;18,26,22,21;,
  4;20,22,26,19;,
  4;15,24,29,14;,
  4;17,23,25,16;,
  4;16,25,26,18;,
  4;21,22,23,17;,
  4;14,29,34,19;,
  4;20,34,24,15;,
  3;36,32,10;,
  3;13,32,33;;
 }
 MeshTextureCoords { 
 37;
 0.917369;0.977147;,
 0.753501;0.979766;,
 0.463580;0.235595;,
 0.219179;0.236380;,
 0.463580;0.235595;,
 0.917369;0.977147;,
 0.917369;0.977147;,
 0.212124;0.466034;,
 0.753501;0.979766;,
 0.753501;0.979766;,
 0.463580;0.235595;,
 0.460052;0.465249;,
 0.463580;0.235595;,
 0.460052;0.465249;,
 0.709621;0.210152;,
 0.712128;0.202792;,
 0.830673;0.593019;,
 0.845528;0.570965;,
 0.757754;0.640968;,
 0.673258;0.265089;,
 0.664144;0.266962;,
 0.747170;0.638732;,
 0.707727;0.408188;,
 0.754453;0.271785;,
 0.651256;0.129835;,
 0.751338;0.289828;,
 0.714942;0.403064;,
 0.758238;0.882192;,
 0.903210;0.877332;,
 0.653298;0.146328;,
 0.869603;0.898971;,
 0.767124;0.899449;,
 0.460052;0.465249;,
 0.212124;0.466034;,
 0.588284;0.101344;,
 0.917369;0.977147;,
 0.463580;0.235595;;
 }
}
}
Frame frm-rwingzz4 {
  FrameTransformMatrix {
1.000000,0.000000,0.000000,0.000000,
0.000000,1.000000,0.000000,0.000000,
0.000000,0.000000,1.000000,0.000000,
0.000052,-0.081416,1.922547,1.000000;;
 }
Mesh rwingzz4 {
 39;
 1.146051;0.206567;0.623039;,
 1.146051;0.206567;0.623039;,
 1.146051;0.206567;0.623039;,
 1.285416;0.169751;-0.596205;,
 1.285416;0.169751;-0.596205;,
 1.285416;0.169751;-0.596205;,
 1.285414;-0.242066;-0.596205;,
 1.285414;-0.242066;-0.596205;,
 1.285414;-0.242066;-0.596205;,
 1.146051;-0.225402;0.623039;,
 1.146051;-0.225402;0.623039;,
 1.146051;-0.225402;0.623039;,
 1.142391;-0.027826;-0.635511;,
 1.142391;-0.027826;-0.635511;,
 1.142391;-0.027826;-0.635511;,
 1.142391;-0.027826;-0.635511;,
 2.970016;0.013104;0.990416;,
 3.008301;-0.016161;0.961125;,
 2.354018;0.057953;0.176423;,
 2.407754;-0.066610;0.078181;,
 2.145262;0.075631;0.608943;,
 2.879918;0.015996;1.052693;,
 2.841665;-0.030355;1.077414;,
 2.120184;-0.091134;0.674731;,
 2.677569;-0.045322;0.918562;,
 2.836912;-0.029709;0.602518;,
 3.121899;-0.006774;1.203724;,
 2.807529;0.020385;0.659552;,
 2.710770;0.029121;0.851679;,
 1.398993;-0.159994;0.571446;,
 1.688760;-0.127760;-0.398847;,
 3.070622;0.009984;1.178870;,
 1.613969;0.121721;-0.153248;,
 1.443817;0.135842;0.427070;,
 1.146051;-0.225402;0.623039;,
 1.285414;-0.242066;-0.596205;,
 3.252158;0.004030;1.465978;,
 1.285416;0.169751;-0.596205;,
 1.146051;0.206567;0.623039;;

 25;
 3;14,11,2;,
 3;13,5,8;,
 4;20,33,29,23;,
 4;22,24,25,17;,
 4;30,29,10,7;,
 4;17,25,27,16;,
 4;29,33,1,9;,
 4;18,32,33,20;,
 4;33,32,4,0;,
 4;19,30,32,18;,
 3;36,26,31;,
 4;32,30,6,3;,
 4;23,29,30,19;,
 3;22,36,21;,
 4;16,27,28,21;,
 4;23,24,28,20;,
 4;21,28,24,22;,
 4;16,31,26,17;,
 4;18,27,25,19;,
 4;20,28,27,18;,
 4;19,25,24,23;,
 4;21,36,31,16;,
 4;17,26,36,22;,
 3;38,37,12;,
 3;35,34,15;;

 MeshMaterialList {
  1;
  25;
  0,
  0,
  0,
  0,
  0,
  0,
  0,
  0,
  0,
  0,
  0,
  0,
  0,
  0,
  0,
  0,
  0,
  0,
  0,
  0,
  0,
  0,
  0,
  0,
  0;
Material {
 0.700000;0.700000;0.700000;1.000000;;
 50.000000;
 1.000000;1.000000;1.000000;;
 0.0; 0.0; 0.0;;
 TextureFilename {
  "bom03.ppm";
 }
 }
}
 MeshNormals {
  39;
  -0.558457;0.756826;0.339617;,
  -0.558457;0.756826;0.339617;,
  -0.558457;0.756826;0.339617;,
  0.107749;0.716415;-0.689304;,
  0.107749;0.716415;-0.689304;,
  0.107749;0.716415;-0.689304;,
  0.153611;-0.543066;-0.825520;,
  0.153611;-0.543066;-0.825520;,
  0.153611;-0.543066;-0.825520;,
  -0.604386;-0.680046;0.415035;,
  -0.604386;-0.680046;0.415035;,
  -0.604386;-0.680046;0.415035;,
  -0.917188;0.012682;-0.398253;,
  -0.917188;0.012682;-0.398253;,
  -0.917188;0.012682;-0.398253;,
  -0.917188;0.012682;-0.398253;,
  0.283485;0.949842;-0.132046;,
  0.886052;-0.254550;-0.387449;,
  0.286943;0.910232;-0.298566;,
  0.647379;-0.359330;-0.672147;,
  -0.104117;0.863687;0.493157;,
  -0.264382;0.926027;0.269399;,
  -0.608887;-0.418763;0.673716;,
  -0.173255;-0.520314;0.836215;,
  -0.430368;-0.458216;0.777702;,
  0.812340;-0.326029;-0.483538;,
  0.720092;0.590719;-0.364031;,
  0.333231;0.920962;-0.201953;,
  -0.207292;0.908616;0.362556;,
  0.241587;-0.557368;0.794341;,
  0.631592;-0.433777;-0.642596;,
  0.297621;0.941327;-0.159140;,
  0.347023;0.856229;-0.382684;,
  0.156679;0.798315;0.581502;,
  -0.604386;-0.680046;0.415035;,
  0.153611;-0.543066;-0.825520;,
  -0.009559;0.989092;0.146992;,
  0.107749;0.716415;-0.689304;,
  -0.558457;0.756826;0.339617;;

  25;
  3;14,11,2;,
  3;13,5,8;,
  4;20,33,29,23;,
  4;22,24,25,17;,
  4;30,29,10,7;,
  4;17,25,27,16;,
  4;29,33,1,9;,
  4;18,32,33,20;,
  4;33,32,4,0;,
  4;19,30,32,18;,
  3;36,26,31;,
  4;32,30,6,3;,
  4;23,29,30,19;,
  3;22,36,21;,
  4;16,27,28,21;,
  4;23,24,28,20;,
  4;21,28,24,22;,
  4;16,31,26,17;,
  4;18,27,25,19;,
  4;20,28,27,18;,
  4;19,25,24,23;,
  4;21,36,31,16;,
  4;17,26,36,22;,
  3;38,37,12;,
  3;35,34,15;;
 }
 MeshTextureCoords { 
 39;
 0.753501;0.979766;,
 0.753501;0.979766;,
 0.463580;0.235595;,
 0.917369;0.977147;,
 0.917369;0.977147;,
 0.219179;0.236380;,
 0.917369;0.977147;,
 0.917369;0.977147;,
 0.212124;0.466034;,
 0.753501;0.979766;,
 0.753501;0.979766;,
 0.460052;0.465249;,
 0.460052;0.465249;,
 0.219179;0.236380;,
 0.460052;0.465249;,
 0.219179;0.236380;,
 0.709621;0.210152;,
 0.712128;0.202792;,
 0.830673;0.593019;,
 0.845528;0.570965;,
 0.757754;0.640968;,
 0.673258;0.265089;,
 0.664144;0.266962;,
 0.747170;0.638732;,
 0.707727;0.408188;,
 0.754453;0.271785;,
 0.651256;0.129835;,
 0.751338;0.289828;,
 0.714942;0.403064;,
 0.758238;0.882192;,
 0.903210;0.877332;,
 0.653298;0.146328;,
 0.869603;0.898971;,
 0.767124;0.899449;,
 0.460052;0.465249;,
 0.212124;0.466034;,
 0.588284;0.101344;,
 0.219179;0.236380;,
 0.463580;0.235595;;
 }
}
}
}
AnimationSet {
 Animation anim-body {
  {frm-body}
  AnimationKey {
  2;
  2;
  1; 3; -0.000052, 0.244434, -1.360135;;,
  72; 3; -0.000052, 0.244434, -1.360135;;;
  }
 }
 Animation anim-rwingzz_1_1 {
  {frm-rwingzz_1_1}
  AnimationKey {
  2;
  2;
  1; 3; 0.000052, -0.081416, 1.922547;;,
  72; 3; 0.000052, -0.081416, 1.922547;;;
  }
 }
 Animation anim-rwingzz4 {
  {frm-rwingzz4}
  AnimationKey {
  2;
  2;
  1; 3; 0.000052, -0.081416, 1.922547;;,
  72; 3; 0.000052, -0.081416, 1.922547;;;
  }
 }
}
