xof 0302txt 0032
template Header {
 <3D82AB43-62DA-11cf-AB39-0020AF71E433>
 WORD major;
 WORD minor;
 DWORD flags;
}

template Vector {
 <3D82AB5E-62DA-11cf-AB39-0020AF71E433>
 FLOAT x;
 FLOAT y;
 FLOAT z;
}

template Coords2d {
 <F6F23F44-7686-11cf-8F52-0040333594A3>
 FLOAT u;
 FLOAT v;
}

template Matrix4x4 {
 <F6F23F45-7686-11cf-8F52-0040333594A3>
 array FLOAT matrix[16];
}

template ColorRGBA {
 <35FF44E0-6C7C-11cf-8F52-0040333594A3>
 FLOAT red;
 FLOAT green;
 FLOAT blue;
 FLOAT alpha;
}

template ColorRGB {
 <D3E16E81-7835-11cf-8F52-0040333594A3>
 FLOAT red;
 FLOAT green;
 FLOAT blue;
}

template TextureFilename {
 <A42790E1-7810-11cf-8F52-0040333594A3>
 STRING filename;
}

template Material {
 <3D82AB4D-62DA-11cf-AB39-0020AF71E433>
 ColorRGBA faceColor;
 FLOAT power;
 ColorRGB specularColor;
 ColorRGB emissiveColor;
 [...]
}

template MeshFace {
 <3D82AB5F-62DA-11cf-AB39-0020AF71E433>
 DWORD nFaceVertexIndices;
 array DWORD faceVertexIndices[nFaceVertexIndices];
}

template MeshTextureCoords {
 <F6F23F40-7686-11cf-8F52-0040333594A3>
 DWORD nTextureCoords;
 array Coords2d textureCoords[nTextureCoords];
}

template MeshMaterialList {
 <F6F23F42-7686-11cf-8F52-0040333594A3>
 DWORD nMaterials;
 DWORD nFaceIndexes;
 array DWORD faceIndexes[nFaceIndexes];
 [Material]
}

template MeshNormals {
 <F6F23F43-7686-11cf-8F52-0040333594A3>
 DWORD nNormals;
 array Vector normals[nNormals];
 DWORD nFaceNormals;
 array MeshFace faceNormals[nFaceNormals];
}

template Mesh {
 <3D82AB44-62DA-11cf-AB39-0020AF71E433>
 DWORD nVertices;
 array Vector vertices[nVertices];
 DWORD nFaces;
 array MeshFace faces[nFaces];
 [...]
}

template FrameTransformMatrix {
 <F6F23F41-7686-11cf-8F52-0040333594A3>
 Matrix4x4 frameMatrix;
}

template Frame {
 <3D82AB46-62DA-11cf-AB39-0020AF71E433>
 [...]
}
template FloatKeys {
 <10DD46A9-775B-11cf-8F52-0040333594A3>
 DWORD nValues;
 array FLOAT values[nValues];
}

template TimedFloatKeys {
 <F406B180-7B3B-11cf-8F52-0040333594A3>
 DWORD time;
 FloatKeys tfkeys;
}

template AnimationKey {
 <10DD46A8-775B-11cf-8F52-0040333594A3>
 DWORD keyType;
 DWORD nKeys;
 array TimedFloatKeys keys[nKeys];
}

template AnimationOptions {
 <E2BF56C0-840F-11cf-8F52-0040333594A3>
 DWORD openclosed;
 DWORD positionquality;
}

template Animation {
 <3D82AB4F-62DA-11cf-AB39-0020AF71E433>
 [...]
}

template AnimationSet {
 <3D82AB50-62DA-11cf-AB39-0020AF71E433>
 [Animation]
}

Header {
 1;
 0;
 1;
}

Frame frm-reciever {
  FrameTransformMatrix {
1.000000,0.000000,0.000000,0.000000,
0.000000,1.000000,0.000000,0.000000,
0.000000,0.000000,1.000000,0.000000,
0.000000,0.000000,0.000000,1.000000;;
 }
Mesh reciever {
 76;
 -0.000000;0.000000;-4.898315;,
 -0.000000;0.000000;-4.898315;,
 3.463633;0.000000;-3.463632;,
 3.463633;0.000000;-3.463632;,
 3.463633;0.000000;-3.463632;,
 4.898316;0.000000;0.000000;,
 4.898316;0.000000;0.000000;,
 3.463633;0.000000;3.463633;,
 3.463633;0.000000;3.463633;,
 0.000000;0.000000;4.898316;,
 0.000000;0.000000;4.898316;,
 -3.463633;0.000000;3.463633;,
 -3.463633;0.000000;3.463633;,
 -4.898316;0.000000;0.000000;,
 -4.898316;0.000000;0.000000;,
 -4.898316;0.000000;0.000000;,
 -3.463633;0.000000;-3.463633;,
 -3.463633;0.000000;-3.463633;,
 -3.463633;0.000000;-3.463633;,
 -4.898316;0.000000;0.000000;,
 -3.463633;0.000000;3.463633;,
 0.000000;0.000000;4.898316;,
 3.463633;0.000000;3.463633;,
 4.898316;0.000000;0.000000;,
 3.463633;0.000000;-3.463632;,
 -0.000000;0.000000;-4.898315;,
 -3.463633;1.527981;-3.463633;,
 -0.000000;1.527981;-4.898315;,
 3.463633;-1.527981;-3.463632;,
 3.463633;1.527981;-3.463632;,
 4.898316;-1.527981;0.000000;,
 4.898316;1.527981;0.000000;,
 3.463633;-1.527981;3.463633;,
 3.463633;1.527981;3.463633;,
 0.000000;-4.856168;0.000000;,
 0.000000;4.856168;0.000000;,
 -0.000000;4.330127;-2.500000;,
 -0.000000;2.500000;-4.330126;,
 -3.463633;-1.527981;-3.463633;,
 -0.000000;-2.500000;-4.330127;,
 -0.000000;-4.330127;-2.500000;,
 -1.767767;4.330127;-1.767767;,
 -3.061862;2.500000;-3.061862;,
 -0.000000;-1.527981;-4.898316;,
 -3.061862;-2.500000;-3.061862;,
 -1.767767;-4.330127;-1.767767;,
 -2.500000;4.330127;0.000000;,
 -4.330127;2.500000;0.000000;,
 0.000000;-1.527981;4.898316;,
 -4.330127;-2.500000;0.000000;,
 -2.500000;-4.330127;0.000000;,
 -1.767767;4.330127;1.767767;,
 -3.061862;2.500000;3.061862;,
 0.000000;1.527981;4.898316;,
 -3.061862;-2.500000;3.061862;,
 -1.767767;-4.330127;1.767767;,
 0.000000;4.330127;2.500000;,
 0.000000;2.500000;4.330127;,
 -3.463633;-1.527981;3.463633;,
 0.000000;-2.500000;4.330127;,
 0.000000;-4.330127;2.500000;,
 1.767767;4.330127;1.767767;,
 3.061862;2.500000;3.061862;,
 -3.463633;1.527981;3.463633;,
 3.061862;-2.500000;3.061862;,
 1.767767;-4.330127;1.767767;,
 2.500000;4.330127;0.000000;,
 4.330127;2.500000;0.000000;,
 -4.898316;-1.527981;0.000000;,
 4.330127;-2.500000;0.000000;,
 2.500000;-4.330127;0.000000;,
 1.767767;4.330127;-1.767767;,
 3.061862;2.500000;-3.061862;,
 -4.898316;1.527981;0.000000;,
 3.061862;-2.500000;-3.061862;,
 1.767767;-4.330127;-1.767767;;

 64;
 4;27,37,42,26;,
 4;75,70,69,74;,
 4;4,28,30,6;,
 4;31,67,72,29;,
 4;72,67,66,71;,
 4;37,72,71,36;,
 4;70,65,64,69;,
 4;5,30,32,8;,
 4;33,62,67,31;,
 4;67,62,61,66;,
 4;45,40,39,44;,
 4;40,75,74,39;,
 4;65,60,59,64;,
 4;7,32,48,10;,
 4;53,57,62,33;,
 4;62,57,56,61;,
 4;29,72,37,27;,
 4;47,42,41,46;,
 4;60,55,54,59;,
 4;9,48,58,12;,
 4;63,52,57,53;,
 4;57,52,51,56;,
 4;42,37,36,41;,
 4;26,42,47,73;,
 4;55,50,49,54;,
 4;11,58,68,15;,
 4;73,47,52,63;,
 4;52,47,46,51;,
 4;50,45,44,49;,
 3;71,66,35;,
 3;51,46,35;,
 3;35,66,61;,
 3;56,51,35;,
 3;61,56,35;,
 3;35,46,41;,
 3;36,71,35;,
 3;41,36,35;,
 3;75,40,34;,
 3;55,60,34;,
 3;34,40,45;,
 3;50,55,34;,
 3;34,60,65;,
 3;65,70,34;,
 3;34,70,75;,
 3;45,50,34;,
 4;3,29,27,1;,
 4;0,27,26,17;,
 4;16,26,73,14;,
 4;32,64,59,48;,
 4;30,69,64,32;,
 4;28,74,69,30;,
 4;43,39,74,28;,
 4;38,44,39,43;,
 4;68,49,44,38;,
 4;58,54,49,68;,
 4;48,59,54,58;,
 4;18,38,43,25;,
 4;13,68,38,18;,
 4;19,73,63,20;,
 4;20,63,53,21;,
 4;21,53,33,22;,
 4;22,33,31,23;,
 4;23,31,29,2;,
 4;25,43,28,24;;

 MeshMaterialList {
  1;
  64;
  0,
  0,
  0,
  0,
  0,
  0,
  0,
  0,
  0,
  0,
  0,
  0,
  0,
  0,
  0,
  0,
  0,
  0,
  0,
  0,
  0,
  0,
  0,
  0,
  0,
  0,
  0,
  0,
  0,
  0,
  0,
  0,
  0,
  0,
  0,
  0,
  0,
  0,
  0,
  0,
  0,
  0,
  0,
  0,
  0,
  0,
  0,
  0,
  0,
  0,
  0,
  0,
  0,
  0,
  0,
  0,
  0,
  0,
  0,
  0,
  0,
  0,
  0,
  0;
Material {
 1.000000;1.000000;1.000000;1.000000;;
 50.000000;
 1.000000;1.000000;1.000000;;
 0.0; 0.0; 0.0;;
 TextureFilename {
  "map_light copy.ppm";
 }
 }
}
 MeshNormals {
  76;
  -0.000000;-0.000000;1.000000;,
  -0.000000;-0.000000;1.000000;,
  -0.707107;-0.000000;0.707107;,
  -0.707107;-0.000000;0.707107;,
  -0.707107;-0.000000;0.707107;,
  -1.000000;0.000000;0.000000;,
  -1.000000;0.000000;0.000000;,
  -0.707107;0.000000;-0.707107;,
  -0.707107;0.000000;-0.707107;,
  0.000000;0.000000;-1.000000;,
  0.000000;0.000000;-1.000000;,
  0.707107;0.000000;-0.707107;,
  0.707107;0.000000;-0.707107;,
  1.000000;0.000000;0.000000;,
  1.000000;0.000000;0.000000;,
  1.000000;0.000000;0.000000;,
  0.707107;-0.000000;0.707107;,
  0.707107;-0.000000;0.707107;,
  0.707107;-0.000000;0.707107;,
  1.000000;0.000000;0.000000;,
  0.707107;0.000000;-0.707107;,
  0.000000;0.000000;-1.000000;,
  -0.707107;0.000000;-0.707107;,
  -1.000000;0.000000;0.000000;,
  -0.707107;-0.000000;0.707107;,
  -0.000000;-0.000000;1.000000;,
  0.682040;-0.263900;0.682040;,
  -0.000000;-0.263899;0.964550;,
  -0.682040;0.263899;0.682040;,
  -0.682040;-0.263899;0.682040;,
  -0.964550;0.263899;0.000000;,
  -0.964550;-0.263899;0.000000;,
  -0.682040;0.263900;-0.682040;,
  -0.682040;-0.263899;-0.682040;,
  0.000000;1.000000;0.000000;,
  -0.000000;-1.000000;0.000000;,
  0.000000;-0.881948;0.471346;,
  -0.000000;-0.611863;0.790964;,
  0.682040;0.263900;0.682040;,
  -0.000000;0.611863;0.790964;,
  -0.000000;0.881948;0.471346;,
  0.333292;-0.881948;0.333292;,
  0.559296;-0.611863;0.559296;,
  -0.000000;0.263899;0.964550;,
  0.559296;0.611863;0.559296;,
  0.333292;0.881948;0.333292;,
  0.471346;-0.881948;0.000000;,
  0.790964;-0.611863;0.000000;,
  0.000000;0.263899;-0.964550;,
  0.790964;0.611863;0.000000;,
  0.471346;0.881948;-0.000000;,
  0.333292;-0.881948;-0.333292;,
  0.559296;-0.611863;-0.559296;,
  0.000000;-0.263899;-0.964550;,
  0.559296;0.611863;-0.559296;,
  0.333292;0.881948;-0.333292;,
  -0.000000;-0.881948;-0.471346;,
  0.000000;-0.611863;-0.790964;,
  0.682040;0.263900;-0.682040;,
  0.000000;0.611863;-0.790964;,
  0.000000;0.881948;-0.471346;,
  -0.333292;-0.881948;-0.333292;,
  -0.559296;-0.611863;-0.559296;,
  0.682040;-0.263899;-0.682040;,
  -0.559296;0.611863;-0.559296;,
  -0.333292;0.881948;-0.333292;,
  -0.471346;-0.881948;0.000000;,
  -0.790964;-0.611863;0.000000;,
  0.964550;0.263899;0.000000;,
  -0.790964;0.611863;0.000000;,
  -0.471346;0.881948;0.000000;,
  -0.333292;-0.881948;0.333292;,
  -0.559296;-0.611863;0.559296;,
  0.964550;-0.263899;0.000000;,
  -0.559296;0.611863;0.559296;,
  -0.333292;0.881948;0.333292;;

  64;
  4;27,37,42,26;,
  4;75,70,69,74;,
  4;4,28,30,6;,
  4;31,67,72,29;,
  4;72,67,66,71;,
  4;37,72,71,36;,
  4;70,65,64,69;,
  4;5,30,32,8;,
  4;33,62,67,31;,
  4;67,62,61,66;,
  4;45,40,39,44;,
  4;40,75,74,39;,
  4;65,60,59,64;,
  4;7,32,48,10;,
  4;53,57,62,33;,
  4;62,57,56,61;,
  4;29,72,37,27;,
  4;47,42,41,46;,
  4;60,55,54,59;,
  4;9,48,58,12;,
  4;63,52,57,53;,
  4;57,52,51,56;,
  4;42,37,36,41;,
  4;26,42,47,73;,
  4;55,50,49,54;,
  4;11,58,68,15;,
  4;73,47,52,63;,
  4;52,47,46,51;,
  4;50,45,44,49;,
  3;71,66,35;,
  3;51,46,35;,
  3;35,66,61;,
  3;56,51,35;,
  3;61,56,35;,
  3;35,46,41;,
  3;36,71,35;,
  3;41,36,35;,
  3;75,40,34;,
  3;55,60,34;,
  3;34,40,45;,
  3;50,55,34;,
  3;34,60,65;,
  3;65,70,34;,
  3;34,70,75;,
  3;45,50,34;,
  4;3,29,27,1;,
  4;0,27,26,17;,
  4;16,26,73,14;,
  4;32,64,59,48;,
  4;30,69,64,32;,
  4;28,74,69,30;,
  4;43,39,74,28;,
  4;38,44,39,43;,
  4;68,49,44,38;,
  4;58,54,49,68;,
  4;48,59,54,58;,
  4;18,38,43,25;,
  4;13,68,38,18;,
  4;19,73,63,20;,
  4;20,63,53,21;,
  4;21,53,33,22;,
  4;22,33,31,23;,
  4;23,31,29,2;,
  4;25,43,28,24;;
 }
 MeshTextureCoords { 
 76;
 0.500000;0.000000;,
 0.500000;0.000000;,
 1.000000;0.000000;,
 1.000000;0.000000;,
 0.000000;1.000000;,
 0.000000;0.500000;,
 0.000000;0.500000;,
 0.000000;0.000000;,
 0.000000;0.000000;,
 0.500000;0.000000;,
 0.500000;0.000000;,
 1.000000;0.000000;,
 1.000000;0.000000;,
 1.000000;0.500000;,
 0.000000;0.500000;,
 1.000000;0.500000;,
 0.000000;0.000000;,
 0.000000;0.000000;,
 1.000000;1.000000;,
 0.000000;0.500000;,
 0.000000;1.000000;,
 0.500000;1.000000;,
 1.000000;1.000000;,
 1.000000;0.500000;,
 0.000000;1.000000;,
 0.500000;1.000000;,
 0.138672;0.134766;,
 0.501953;0.134766;,
 0.138672;0.861328;,
 0.865234;0.134766;,
 0.134766;0.498047;,
 0.869141;0.498047;,
 0.138672;0.134766;,
 0.869141;0.865234;,
 0.493857;0.506143;,
 0.501250;0.498750;,
 0.501667;0.365000;,
 0.501667;0.198333;,
 0.869141;0.865234;,
 0.489258;0.803711;,
 0.493310;0.639893;,
 0.368333;0.365000;,
 0.201667;0.198333;,
 0.501953;0.865234;,
 0.801758;0.803711;,
 0.626643;0.640023;,
 0.368333;0.498333;,
 0.201667;0.498333;,
 0.501953;0.134766;,
 0.801758;0.510742;,
 0.626774;0.506689;,
 0.368333;0.631667;,
 0.201667;0.798333;,
 0.501953;0.865234;,
 0.801758;0.198242;,
 0.626904;0.373356;,
 0.501667;0.631667;,
 0.501667;0.798333;,
 0.865234;0.134766;,
 0.489258;0.198242;,
 0.493571;0.373226;,
 0.635000;0.631667;,
 0.801667;0.798333;,
 0.138672;0.861328;,
 0.196289;0.198242;,
 0.360237;0.373096;,
 0.635000;0.498333;,
 0.801667;0.498333;,
 0.869141;0.498047;,
 0.196289;0.510742;,
 0.360107;0.506429;,
 0.635000;0.365000;,
 0.801667;0.198333;,
 0.134766;0.498047;,
 0.196289;0.803711;,
 0.359977;0.639762;;
 }
}
Frame frm-Planet1 {
  FrameTransformMatrix {
1.000000,0.000000,0.000000,0.000000,
0.000000,0.985582,0.169200,0.000000,
0.000000,-0.169200,0.985582,0.000000,
0.000000,0.000000,0.000000,1.000000;;
 }
Mesh Planet1 {
 12;
 1.007949;-0.581940;4.161609;,
 0.581940;-1.007949;4.161609;,
 0.000000;-1.163880;4.161609;,
 -0.581940;-1.007949;4.161609;,
 -1.007949;-0.581940;4.161609;,
 -1.163880;-0.000000;4.161609;,
 -1.007949;0.581940;4.161609;,
 -0.581940;1.007949;4.161609;,
 -0.000000;1.163880;4.161609;,
 0.581940;1.007949;4.161609;,
 1.007949;0.581940;4.161609;,
 1.163880;0.000000;4.161609;;

 1;
 12;0,1,2,3,4,5,6,7,8,9,10,11;;

 MeshMaterialList {
  1;
  1;
  0;
Material {
 0.700000;0.700000;0.700000;1.000000;;
 50.000000;
 1.000000;1.000000;1.000000;;
 0.0; 0.0; 0.0;;
 TextureFilename {
  "planet.1.ppm";
 }
 }
}
 MeshNormals {
  12;
  0.000000;0.000000;-1.000000;,
  0.000000;0.000000;-1.000000;,
  0.000000;0.000000;-1.000000;,
  0.000000;0.000000;-1.000000;,
  0.000000;0.000000;-1.000000;,
  0.000000;0.000000;-1.000000;,
  0.000000;0.000000;-1.000000;,
  0.000000;0.000000;-1.000000;,
  0.000000;0.000000;-1.000000;,
  0.000000;0.000000;-1.000000;,
  0.000000;0.000000;-1.000000;,
  0.000000;0.000000;-1.000000;;

  1;
  12;0,1,2,3,4,5,6,7,8,9,10,11;;
 }
 MeshTextureCoords { 
 12;
 0.789608;0.667205;,
 0.667205;0.789608;,
 0.500000;0.834411;,
 0.332795;0.789608;,
 0.210392;0.667205;,
 0.165589;0.500000;,
 0.210392;0.332795;,
 0.332795;0.210392;,
 0.500000;0.165589;,
 0.667205;0.210392;,
 0.789608;0.332795;,
 0.834411;0.500000;;
 }
}
}
Frame frm-Planet2 {
  FrameTransformMatrix {
-0.541684,0.000000,0.486377,0.000000,
0.000000,0.728000,0.000000,0.000000,
-0.486377,0.000000,-0.541684,0.000000,
1.042195,0.000000,-0.810596,1.000000;;
 }
Mesh Planet2 {
 12;
 0.854972;0.218081;4.184456;,
 0.517879;-0.114153;4.241486;,
 0.057402;-0.235759;4.262361;,
 -0.403076;-0.114153;4.241486;,
 -0.740169;0.218081;4.184456;,
 -0.863553;0.671920;4.106552;,
 -0.740169;1.125759;4.028647;,
 -0.403076;1.457993;3.971617;,
 0.057401;1.579599;3.950742;,
 0.517879;1.457993;3.971617;,
 0.854972;1.125759;4.028647;,
 0.978356;0.671920;4.106552;;

 1;
 12;0,1,2,3,4,5,6,7,8,9,10,11;;

 MeshMaterialList {
  1;
  1;
  0;
Material {
 0.700000;0.700000;0.700000;1.000000;;
 50.000000;
 1.000000;1.000000;1.000000;;
 0.0; 0.0; 0.0;;
 TextureFilename {
  "planet.13.ppm";
 }
 }
}
 MeshNormals {
  12;
  0.000000;-0.169182;-0.985585;,
  0.000000;-0.169182;-0.985585;,
  0.000000;-0.169182;-0.985585;,
  0.000000;-0.169182;-0.985585;,
  0.000000;-0.169182;-0.985585;,
  0.000000;-0.169182;-0.985585;,
  0.000000;-0.169182;-0.985585;,
  0.000000;-0.169182;-0.985585;,
  0.000000;-0.169182;-0.985585;,
  0.000000;-0.169182;-0.985585;,
  0.000000;-0.169182;-0.985585;,
  0.000000;-0.169182;-0.985585;;

  1;
  12;0,1,2,3,4,5,6,7,8,9,10,11;;
 }
 MeshTextureCoords { 
 12;
 0.789699;0.667258;,
 0.667258;0.789699;,
 0.500000;0.834516;,
 0.332742;0.789699;,
 0.210301;0.667258;,
 0.165484;0.500000;,
 0.210301;0.332742;,
 0.332742;0.210301;,
 0.500000;0.165484;,
 0.667258;0.210301;,
 0.789699;0.332742;,
 0.834516;0.500000;;
 }
}
}
}
AnimationSet {
 Animation anim-Planet1 {
  {frm-Planet1}
  AnimationKey {
  0;
  2;
  0; 4; 0.996389, 0.084907, 0.000000, 0.000000;;,
  30; 4; 0.996389, 0.084907, 0.000000, 0.000000;;;
  }
 }
 Animation anim-Planet2 {
  {frm-Planet2}
  AnimationKey {
  0;
  2;
  0; 4; -0.357721, 0.000000, 0.933829, -0.000000;;,
  30; 4; -0.357721, 0.000000, 0.933829, -0.000000;;;
  }
  AnimationKey {
  1;
  2;
  0; 3; 0.728000, 0.728000, 0.728000;;,
  30; 3; 0.728000, 0.728000, 0.728000;;;
  }
  AnimationKey {
  2;
  2;
  0; 3; 1.042195, 0.000000, -0.810596;;,
  30; 3; 1.042195, 0.000000, -0.810596;;;
  }
 }
}
