xof 0302txt 0032
template Header {
 <3D82AB43-62DA-11cf-AB39-0020AF71E433>
 WORD major;
 WORD minor;
 DWORD flags;
}

template Vector {
 <3D82AB5E-62DA-11cf-AB39-0020AF71E433>
 FLOAT x;
 FLOAT y;
 FLOAT z;
}

template Coords2d {
 <F6F23F44-7686-11cf-8F52-0040333594A3>
 FLOAT u;
 FLOAT v;
}

template Matrix4x4 {
 <F6F23F45-7686-11cf-8F52-0040333594A3>
 array FLOAT matrix[16];
}

template ColorRGBA {
 <35FF44E0-6C7C-11cf-8F52-0040333594A3>
 FLOAT red;
 FLOAT green;
 FLOAT blue;
 FLOAT alpha;
}

template ColorRGB {
 <D3E16E81-7835-11cf-8F52-0040333594A3>
 FLOAT red;
 FLOAT green;
 FLOAT blue;
}

template TextureFilename {
 <A42790E1-7810-11cf-8F52-0040333594A3>
 STRING filename;
}

template Material {
 <3D82AB4D-62DA-11cf-AB39-0020AF71E433>
 ColorRGBA faceColor;
 FLOAT power;
 ColorRGB specularColor;
 ColorRGB emissiveColor;
 [...]
}

template MeshFace {
 <3D82AB5F-62DA-11cf-AB39-0020AF71E433>
 DWORD nFaceVertexIndices;
 array DWORD faceVertexIndices[nFaceVertexIndices];
}

template MeshTextureCoords {
 <F6F23F40-7686-11cf-8F52-0040333594A3>
 DWORD nTextureCoords;
 array Coords2d textureCoords[nTextureCoords];
}

template MeshMaterialList {
 <F6F23F42-7686-11cf-8F52-0040333594A3>
 DWORD nMaterials;
 DWORD nFaceIndexes;
 array DWORD faceIndexes[nFaceIndexes];
 [Material]
}

template MeshNormals {
 <F6F23F43-7686-11cf-8F52-0040333594A3>
 DWORD nNormals;
 array Vector normals[nNormals];
 DWORD nFaceNormals;
 array MeshFace faceNormals[nFaceNormals];
}

template Mesh {
 <3D82AB44-62DA-11cf-AB39-0020AF71E433>
 DWORD nVertices;
 array Vector vertices[nVertices];
 DWORD nFaces;
 array MeshFace faces[nFaces];
 [...]
}

template FrameTransformMatrix {
 <F6F23F41-7686-11cf-8F52-0040333594A3>
 Matrix4x4 frameMatrix;
}

template Frame {
 <3D82AB46-62DA-11cf-AB39-0020AF71E433>
 [...]
}
template FloatKeys {
 <10DD46A9-775B-11cf-8F52-0040333594A3>
 DWORD nValues;
 array FLOAT values[nValues];
}

template TimedFloatKeys {
 <F406B180-7B3B-11cf-8F52-0040333594A3>
 DWORD time;
 FloatKeys tfkeys;
}

template AnimationKey {
 <10DD46A8-775B-11cf-8F52-0040333594A3>
 DWORD keyType;
 DWORD nKeys;
 array TimedFloatKeys keys[nKeys];
}

template AnimationOptions {
 <E2BF56C0-840F-11cf-8F52-0040333594A3>
 DWORD openclosed;
 DWORD positionquality;
}

template Animation {
 <3D82AB4F-62DA-11cf-AB39-0020AF71E433>
 [...]
}

template AnimationSet {
 <3D82AB50-62DA-11cf-AB39-0020AF71E433>
 [Animation]
}

Header {
 1;
 0;
 1;
}

Frame frm-nurbs3 {
  FrameTransformMatrix {
1.000000,0.000000,0.000000,0.000000,
0.000000,1.000000,0.000000,0.000000,
0.000000,0.000000,1.000000,0.000000,
0.000000,0.000000,0.000000,1.000000;;
 }
Mesh nurbs3 {
 73;
 0.485187;-1.190834;-0.460994;,
 0.485187;-1.190834;-0.460994;,
 0.485187;-1.190834;-0.460994;,
 0.485187;-1.190834;-0.460994;,
 0.812149;-0.645651;-0.777971;,
 0.812149;-0.645651;-0.777971;,
 0.812149;-0.645651;-0.777971;,
 0.978090;0.013062;-0.969824;,
 0.978090;0.013062;-0.969824;,
 0.978090;0.013062;-0.969824;,
 0.878761;0.713951;-0.853289;,
 0.878761;0.713951;-0.853289;,
 0.878761;0.713951;-0.853289;,
 0.524532;1.285871;-0.508279;,
 0.524532;1.285871;-0.508279;,
 0.524532;1.285871;-0.508279;,
 0.524532;1.285871;-0.508279;,
 0.032676;1.544469;0.037249;,
 0.032676;1.544469;0.037249;,
 0.032676;1.544469;0.037249;,
 0.032676;1.544469;0.037249;,
 0.032676;1.544469;0.037249;,
 0.032676;1.544469;0.037249;,
 0.032676;1.544469;0.037249;,
 0.038174;-1.294752;0.012699;,
 0.038174;-1.294752;0.012699;,
 0.038174;-1.294752;0.012699;,
 0.038174;-1.294752;0.012699;,
 0.038174;-1.294752;0.012699;,
 0.038174;-1.294752;0.012699;,
 0.038174;-1.294752;0.012699;,
 0.038174;-1.294752;0.012699;,
 0.032676;1.544469;0.037249;,
 0.007704;1.232052;-0.685647;,
 0.022027;0.660072;-1.132943;,
 0.024207;0.014372;-1.304368;,
 0.021122;-0.581769;-1.019990;,
 0.013586;-1.107008;-0.613862;,
 -0.487917;1.235430;-0.477464;,
 -0.773762;0.647729;-0.765179;,
 -0.854583;0.014041;-0.872995;,
 -0.681223;-0.549064;-0.693484;,
 -0.391810;-1.018779;-0.406650;,
 -0.734000;1.302100;0.014245;,
 -1.161640;0.701250;0.016395;,
 -1.198773;0.024997;-0.007739;,
 -0.944725;-0.532108;-0.005100;,
 -0.538312;-0.972684;-0.002605;,
 -0.544897;1.365702;0.549391;,
 -0.839342;0.734454;0.846117;,
 -0.823629;0.030872;0.824478;,
 -0.660821;-0.529454;0.655859;,
 -0.381390;-0.982362;0.384313;,
 0.000643;1.356982;0.766864;,
 0.012204;0.741265;1.217342;,
 0.020766;0.035707;1.215197;,
 0.009721;-0.531435;0.929495;,
 0.011934;-1.032611;0.559332;,
 0.553269;1.362114;0.551963;,
 0.905048;0.762633;0.894934;,
 0.933370;0.032306;0.907540;,
 0.746143;-0.593378;0.694742;,
 0.468158;-1.158781;0.432048;,
 0.765547;1.336843;0.007184;,
 1.263430;0.751415;0.006572;,
 1.350461;0.015074;-0.011180;,
 1.161321;-0.680161;-0.016501;,
 0.719964;-1.262029;-0.004257;,
 0.524532;1.285871;-0.508279;,
 0.878761;0.713951;-0.853289;,
 0.978090;0.013062;-0.969824;,
 0.812149;-0.645651;-0.777971;,
 0.485187;-1.190834;-0.460994;;

 80;
 3;34,35,40;,
 3;39,34,40;,
 3;66,67,3;,
 3;6,66,2;,
 3;65,66,5;,
 3;9,65,4;,
 3;64,65,8;,
 3;12,64,7;,
 3;63,64,11;,
 3;16,63,10;,
 3;15,69,34;,
 3;33,14,34;,
 3;35,36,41;,
 3;40,35,41;,
 3;61,62,67;,
 3;66,61,67;,
 3;60,61,66;,
 3;65,60,66;,
 3;59,60,65;,
 3;64,59,65;,
 3;58,59,64;,
 3;63,58,64;,
 3;69,70,35;,
 3;34,69,35;,
 3;36,37,42;,
 3;41,36,42;,
 3;56,57,62;,
 3;61,56,62;,
 3;55,56,61;,
 3;60,55,61;,
 3;54,55,60;,
 3;59,54,60;,
 3;53,54,59;,
 3;58,53,59;,
 3;70,71,36;,
 3;35,70,36;,
 3;33,34,39;,
 3;38,33,39;,
 3;51,52,57;,
 3;56,51,57;,
 3;50,51,56;,
 3;55,50,56;,
 3;49,50,55;,
 3;54,49,55;,
 3;48,49,54;,
 3;53,48,54;,
 3;71,1,37;,
 3;36,71,37;,
 3;38,39,44;,
 3;43,38,44;,
 3;46,47,52;,
 3;51,46,52;,
 3;45,46,51;,
 3;50,45,51;,
 3;44,45,50;,
 3;49,44,50;,
 3;43,44,49;,
 3;48,43,49;,
 3;39,40,45;,
 3;44,39,45;,
 3;40,41,46;,
 3;45,40,46;,
 3;41,42,47;,
 3;46,41,47;,
 3;23,38,43;,
 3;30,62,57;,
 3;22,58,63;,
 3;29,42,37;,
 3;67,62,28;,
 3;47,42,27;,
 3;26,52,47;,
 3;37,0,25;,
 3;24,72,67;,
 3;57,52,31;,
 3;33,38,21;,
 3;53,58,20;,
 3;19,48,53;,
 3;43,48,18;,
 3;17,13,33;,
 3;63,68,32;;

 MeshMaterialList {
  1;
  80;
  0,
  0,
  0,
  0,
  0,
  0,
  0,
  0,
  0,
  0,
  0,
  0,
  0,
  0,
  0,
  0,
  0,
  0,
  0,
  0,
  0,
  0,
  0,
  0,
  0,
  0,
  0,
  0,
  0,
  0,
  0,
  0,
  0,
  0,
  0,
  0,
  0,
  0,
  0,
  0,
  0,
  0,
  0,
  0,
  0,
  0,
  0,
  0,
  0,
  0,
  0,
  0,
  0,
  0,
  0,
  0,
  0,
  0,
  0,
  0,
  0,
  0,
  0,
  0,
  0,
  0,
  0,
  0,
  0,
  0,
  0,
  0,
  0,
  0,
  0,
  0,
  0,
  0,
  0,
  0;
Material {
 1.000000;1.000000;1.000000;1.000000;;
 50.000000;
 1.000000;1.000000;1.000000;;
 0.0; 0.0; 0.0;;
 TextureFilename {
  "bgrnd55.ppm";
 }
 }
}
 MeshNormals {
  73;
  0.341881;-0.819280;-0.460323;,
  0.341881;-0.819280;-0.460323;,
  0.341881;-0.819280;-0.460323;,
  0.341881;-0.819280;-0.460323;,
  0.563944;-0.493018;-0.662495;,
  0.563944;-0.493018;-0.662495;,
  0.563944;-0.493018;-0.662495;,
  0.681328;-0.104817;-0.724434;,
  0.681328;-0.104817;-0.724434;,
  0.681328;-0.104817;-0.724434;,
  0.567257;0.455158;-0.686331;,
  0.567257;0.455158;-0.686331;,
  0.567257;0.455158;-0.686331;,
  0.294659;0.789284;-0.538709;,
  0.294659;0.789284;-0.538709;,
  0.294659;0.789284;-0.538709;,
  0.294659;0.789284;-0.538709;,
  -0.021225;0.995317;-0.094304;,
  -0.021225;0.995317;-0.094304;,
  -0.021225;0.995317;-0.094304;,
  -0.021225;0.995317;-0.094304;,
  -0.021225;0.995317;-0.094304;,
  -0.021225;0.995317;-0.094304;,
  -0.021225;0.995317;-0.094304;,
  -0.226302;-0.972086;0.061938;,
  -0.226302;-0.972086;0.061938;,
  -0.226302;-0.972086;0.061938;,
  -0.226302;-0.972086;0.061938;,
  -0.226302;-0.972086;0.061938;,
  -0.226302;-0.972086;0.061938;,
  -0.226302;-0.972086;0.061938;,
  -0.226302;-0.972086;0.061938;,
  -0.021225;0.995317;-0.094304;,
  -0.124736;0.749268;-0.650414;,
  -0.088392;0.441482;-0.892906;,
  -0.061665;-0.097849;-0.993289;,
  -0.086560;-0.518942;-0.850416;,
  -0.116147;-0.778511;-0.616790;,
  -0.475432;0.734258;-0.484592;,
  -0.654256;0.380584;-0.653532;,
  -0.728760;-0.101044;-0.677273;,
  -0.626022;-0.543738;-0.558968;,
  -0.511610;-0.754613;-0.410870;,
  -0.646915;0.761353;-0.042927;,
  -0.945612;0.322335;-0.043810;,
  -0.986929;-0.161140;0.002377;,
  -0.836542;-0.547875;0.005497;,
  -0.655034;-0.755333;-0.020040;,
  -0.417510;0.786896;0.454401;,
  -0.699133;0.283833;0.656241;,
  -0.698908;-0.212420;0.682939;,
  -0.612558;-0.520545;0.594816;,
  -0.534515;-0.755250;0.379328;,
  0.056390;0.793478;0.605980;,
  -0.021741;0.311231;0.950085;,
  -0.063312;-0.232602;0.970509;,
  -0.091010;-0.498777;0.861939;,
  -0.218733;-0.739584;0.636531;,
  0.462347;0.814462;0.350553;,
  0.651281;0.365161;0.665200;,
  0.642635;-0.174731;0.745982;,
  0.504696;-0.491080;0.710016;,
  0.187712;-0.764578;0.616592;,
  0.569628;0.811186;-0.132289;,
  0.909359;0.414495;-0.035494;,
  0.994946;-0.099518;0.013345;,
  0.874282;-0.484401;0.031413;,
  0.511728;-0.846520;0.146761;,
  0.294659;0.789284;-0.538709;,
  0.567257;0.455158;-0.686331;,
  0.681328;-0.104817;-0.724434;,
  0.563944;-0.493018;-0.662495;,
  0.341881;-0.819280;-0.460323;;

  80;
  3;34,35,40;,
  3;39,34,40;,
  3;66,67,3;,
  3;6,66,2;,
  3;65,66,5;,
  3;9,65,4;,
  3;64,65,8;,
  3;12,64,7;,
  3;63,64,11;,
  3;16,63,10;,
  3;15,69,34;,
  3;33,14,34;,
  3;35,36,41;,
  3;40,35,41;,
  3;61,62,67;,
  3;66,61,67;,
  3;60,61,66;,
  3;65,60,66;,
  3;59,60,65;,
  3;64,59,65;,
  3;58,59,64;,
  3;63,58,64;,
  3;69,70,35;,
  3;34,69,35;,
  3;36,37,42;,
  3;41,36,42;,
  3;56,57,62;,
  3;61,56,62;,
  3;55,56,61;,
  3;60,55,61;,
  3;54,55,60;,
  3;59,54,60;,
  3;53,54,59;,
  3;58,53,59;,
  3;70,71,36;,
  3;35,70,36;,
  3;33,34,39;,
  3;38,33,39;,
  3;51,52,57;,
  3;56,51,57;,
  3;50,51,56;,
  3;55,50,56;,
  3;49,50,55;,
  3;54,49,55;,
  3;48,49,54;,
  3;53,48,54;,
  3;71,1,37;,
  3;36,71,37;,
  3;38,39,44;,
  3;43,38,44;,
  3;46,47,52;,
  3;51,46,52;,
  3;45,46,51;,
  3;50,45,51;,
  3;44,45,50;,
  3;49,44,50;,
  3;43,44,49;,
  3;48,43,49;,
  3;39,40,45;,
  3;44,39,45;,
  3;40,41,46;,
  3;45,40,46;,
  3;41,42,47;,
  3;46,41,47;,
  3;23,38,43;,
  3;30,62,57;,
  3;22,58,63;,
  3;29,42,37;,
  3;67,62,28;,
  3;47,42,27;,
  3;26,52,47;,
  3;37,0,25;,
  3;24,72,67;,
  3;57,52,31;,
  3;33,38,21;,
  3;53,58,20;,
  3;19,48,53;,
  3;43,48,18;,
  3;17,13,33;,
  3;63,68,32;;
 }
 MeshTextureCoords { 
 73;
 0.998047;0.873047;,
 0.998047;0.873047;,
 0.001953;0.873047;,
 0.001953;0.873047;,
 0.001953;0.689453;,
 0.001953;0.689453;,
 0.001953;0.689453;,
 0.001953;0.501953;,
 0.001953;0.501953;,
 0.001953;0.501953;,
 0.001953;0.322266;,
 0.001953;0.322266;,
 0.001953;0.322266;,
 0.994141;0.126953;,
 0.994141;0.126953;,
 0.994141;0.126953;,
 0.001953;0.126953;,
 0.931641;0.005859;,
 0.560547;0.005859;,
 0.431641;0.005859;,
 0.310547;0.005859;,
 0.814453;0.005859;,
 0.181641;0.005859;,
 0.689453;0.005859;,
 0.060547;0.990234;,
 0.935547;0.994141;,
 0.564453;0.990234;,
 0.689453;0.994141;,
 0.189453;0.994141;,
 0.814453;0.990234;,
 0.310547;0.990234;,
 0.435547;0.990234;,
 0.060547;0.005859;,
 0.876953;0.126953;,
 0.876953;0.322266;,
 0.876953;0.501953;,
 0.876953;0.689453;,
 0.876953;0.873047;,
 0.751953;0.126953;,
 0.751953;0.322266;,
 0.751953;0.501953;,
 0.751953;0.689453;,
 0.751953;0.873047;,
 0.626953;0.126953;,
 0.626953;0.322266;,
 0.626953;0.501953;,
 0.626953;0.689453;,
 0.626953;0.873047;,
 0.498047;0.126953;,
 0.498047;0.322266;,
 0.498047;0.501953;,
 0.498047;0.689453;,
 0.498047;0.873047;,
 0.373047;0.126953;,
 0.373047;0.322266;,
 0.373047;0.501953;,
 0.373047;0.689453;,
 0.373047;0.873047;,
 0.251953;0.126953;,
 0.251953;0.322266;,
 0.251953;0.501953;,
 0.251953;0.689453;,
 0.251953;0.873047;,
 0.123047;0.126953;,
 0.123047;0.322266;,
 0.123047;0.501953;,
 0.123047;0.689453;,
 0.123047;0.873047;,
 0.001953;0.126953;,
 0.994141;0.322266;,
 0.994141;0.501953;,
 0.994141;0.689453;,
 0.001953;0.873047;;
 }
}
}
