xof 0302txt 0032
template Header {
 <3D82AB43-62DA-11cf-AB39-0020AF71E433>
 WORD major;
 WORD minor;
 DWORD flags;
}

template Vector {
 <3D82AB5E-62DA-11cf-AB39-0020AF71E433>
 FLOAT x;
 FLOAT y;
 FLOAT z;
}

template Coords2d {
 <F6F23F44-7686-11cf-8F52-0040333594A3>
 FLOAT u;
 FLOAT v;
}

template Matrix4x4 {
 <F6F23F45-7686-11cf-8F52-0040333594A3>
 array FLOAT matrix[16];
}

template ColorRGBA {
 <35FF44E0-6C7C-11cf-8F52-0040333594A3>
 FLOAT red;
 FLOAT green;
 FLOAT blue;
 FLOAT alpha;
}

template ColorRGB {
 <D3E16E81-7835-11cf-8F52-0040333594A3>
 FLOAT red;
 FLOAT green;
 FLOAT blue;
}

template TextureFilename {
 <A42790E1-7810-11cf-8F52-0040333594A3>
 STRING filename;
}

template Material {
 <3D82AB4D-62DA-11cf-AB39-0020AF71E433>
 ColorRGBA faceColor;
 FLOAT power;
 ColorRGB specularColor;
 ColorRGB emissiveColor;
 [...]
}

template MeshFace {
 <3D82AB5F-62DA-11cf-AB39-0020AF71E433>
 DWORD nFaceVertexIndices;
 array DWORD faceVertexIndices[nFaceVertexIndices];
}

template MeshTextureCoords {
 <F6F23F40-7686-11cf-8F52-0040333594A3>
 DWORD nTextureCoords;
 array Coords2d textureCoords[nTextureCoords];
}

template MeshMaterialList {
 <F6F23F42-7686-11cf-8F52-0040333594A3>
 DWORD nMaterials;
 DWORD nFaceIndexes;
 array DWORD faceIndexes[nFaceIndexes];
 [Material]
}

template MeshNormals {
 <F6F23F43-7686-11cf-8F52-0040333594A3>
 DWORD nNormals;
 array Vector normals[nNormals];
 DWORD nFaceNormals;
 array MeshFace faceNormals[nFaceNormals];
}

template Mesh {
 <3D82AB44-62DA-11cf-AB39-0020AF71E433>
 DWORD nVertices;
 array Vector vertices[nVertices];
 DWORD nFaces;
 array MeshFace faces[nFaces];
 [...]
}

template FrameTransformMatrix {
 <F6F23F41-7686-11cf-8F52-0040333594A3>
 Matrix4x4 frameMatrix;
}

template Frame {
 <3D82AB46-62DA-11cf-AB39-0020AF71E433>
 [...]
}
template FloatKeys {
 <10DD46A9-775B-11cf-8F52-0040333594A3>
 DWORD nValues;
 array FLOAT values[nValues];
}

template TimedFloatKeys {
 <F406B180-7B3B-11cf-8F52-0040333594A3>
 DWORD time;
 FloatKeys tfkeys;
}

template AnimationKey {
 <10DD46A8-775B-11cf-8F52-0040333594A3>
 DWORD keyType;
 DWORD nKeys;
 array TimedFloatKeys keys[nKeys];
}

template AnimationOptions {
 <E2BF56C0-840F-11cf-8F52-0040333594A3>
 DWORD openclosed;
 DWORD positionquality;
}

template Animation {
 <3D82AB4F-62DA-11cf-AB39-0020AF71E433>
 [...]
}

template AnimationSet {
 <3D82AB50-62DA-11cf-AB39-0020AF71E433>
 [Animation]
}

Header {
 1;
 0;
 1;
}

Frame frm-acs01 {
  FrameTransformMatrix {
1.000000,0.000000,0.000000,0.000000,
0.000000,1.000000,0.000000,0.000000,
0.000000,0.000000,1.000000,0.000000,
0.000000,0.000000,0.000000,1.000000;;
 }
Frame frm-fuselg {
  FrameTransformMatrix {
1.000000,0.000000,0.000000,0.000000,
0.000000,1.000000,0.000000,0.000000,
0.000000,0.000000,1.000000,0.000000,
0.000000,0.000000,0.000000,1.000000;;
 }
Mesh fuselg {
 282;
 1.590990;-1.590990;0.000000;,
 1.590990;-1.590990;0.000000;,
 1.590990;-1.590990;0.000000;,
 1.590990;-1.590990;0.000000;,
 1.590990;-1.590990;0.000000;,
 1.590990;-1.590990;0.000000;,
 1.590990;-1.590990;0.000000;,
 2.078729;-0.861038;0.000000;,
 2.078729;-0.861038;0.000000;,
 2.078729;-0.861038;0.000000;,
 2.250000;0.000000;0.000000;,
 2.250000;0.000000;0.000000;,
 2.250000;0.000000;0.000000;,
 2.250000;0.000000;0.000000;,
 2.078729;0.861038;0.000000;,
 2.078729;0.861038;0.000000;,
 2.078729;0.861038;0.000000;,
 1.590990;1.590990;0.000000;,
 1.590990;1.590990;0.000000;,
 1.590990;1.590990;0.000000;,
 0.861038;2.078729;0.000000;,
 0.861038;2.078729;0.000000;,
 0.861038;2.078729;0.000000;,
 0.861038;2.078729;0.000000;,
 1.218769;-1.590990;1.022669;,
 1.218769;-1.590990;1.022669;,
 1.592399;-0.861038;1.336181;,
 1.592399;-0.861038;1.336181;,
 1.592399;-0.861038;1.336181;,
 1.723600;0.000000;1.446272;,
 1.723600;0.000000;1.446272;,
 1.723600;0.000000;1.446272;,
 1.723600;0.000000;1.446272;,
 1.592399;0.861038;1.336181;,
 1.592399;0.861038;1.336181;,
 1.592399;0.861038;1.336181;,
 1.218769;1.590990;1.022669;,
 1.218769;1.590990;1.022669;,
 1.218769;1.590990;1.022669;,
 0.659593;2.078729;0.553464;,
 0.659593;2.078729;0.553464;,
 0.659593;2.078729;0.553464;,
 0.659593;2.078729;0.553464;,
 0.659593;2.078729;0.553464;,
 0.276273;-1.590990;1.566819;,
 0.276273;-1.590990;1.566819;,
 0.276273;-1.590990;1.566819;,
 0.360967;-0.861038;2.047148;,
 0.360967;-0.861038;2.047148;,
 0.360967;-0.861038;2.047148;,
 0.390708;0.000000;2.215817;,
 0.390708;0.000000;2.215817;,
 0.390708;0.000000;2.215817;,
 0.360967;0.861038;2.047148;,
 0.360967;0.861038;2.047148;,
 0.360967;0.861038;2.047148;,
 0.276273;1.590990;1.566819;,
 0.276273;1.590990;1.566819;,
 0.276273;1.590990;1.566819;,
 0.149518;2.078729;0.847957;,
 0.149518;2.078729;0.847957;,
 -0.795495;-1.590990;1.377838;,
 -0.795495;-1.590990;1.377838;,
 -0.795495;-1.590990;1.377838;,
 -1.039364;-0.861038;1.800232;,
 -1.039364;-0.861038;1.800232;,
 -1.039364;-0.861038;1.800232;,
 -1.125000;0.000000;1.948557;,
 -1.125000;0.000000;1.948557;,
 -1.125000;0.000000;1.948557;,
 -1.125000;0.000000;1.948557;,
 -1.039364;0.861038;1.800232;,
 -1.039364;0.861038;1.800232;,
 -1.039364;0.861038;1.800232;,
 -0.795495;1.590990;1.377838;,
 -0.795495;1.590990;1.377838;,
 -0.795495;1.590990;1.377838;,
 -0.430519;2.078729;0.745681;,
 -0.430519;2.078729;0.745681;,
 -0.430519;2.078729;0.745681;,
 -1.495042;-1.590990;0.544151;,
 -1.495042;-1.590990;0.544151;,
 -1.495042;-1.590990;0.544151;,
 -1.953366;-0.861038;0.710967;,
 -1.953366;-0.861038;0.710967;,
 -1.953366;-0.861038;0.710967;,
 -2.114308;0.000000;0.769545;,
 -2.114308;0.000000;0.769545;,
 -2.114308;0.000000;0.769545;,
 -2.114308;0.000000;0.769545;,
 -1.953366;0.861038;0.710967;,
 -1.953366;0.861038;0.710967;,
 -1.953366;0.861038;0.710967;,
 -1.495042;1.590990;0.544151;,
 -1.495042;1.590990;0.544151;,
 -1.495042;1.590990;0.544151;,
 -0.809111;2.078729;0.294492;,
 -0.809111;2.078729;0.294492;,
 -0.809111;2.078729;0.294492;,
 -1.495042;-1.590990;-0.544150;,
 -1.495042;-1.590990;-0.544150;,
 -1.495042;-1.590990;-0.544150;,
 -1.953366;-0.861038;-0.710967;,
 -1.953366;-0.861038;-0.710967;,
 -1.953366;-0.861038;-0.710967;,
 -2.114308;0.000000;-0.769545;,
 -2.114308;0.000000;-0.769545;,
 -2.114308;0.000000;-0.769545;,
 -1.953366;0.861038;-0.710967;,
 -1.953366;0.861038;-0.710967;,
 -1.953366;0.861038;-0.710967;,
 -1.495042;1.590990;-0.544150;,
 -1.495042;1.590990;-0.544150;,
 -1.495042;1.590990;-0.544150;,
 -0.809111;2.078729;-0.294492;,
 -0.809111;2.078729;-0.294492;,
 -0.809111;2.078729;-0.294492;,
 -0.809111;2.078729;-0.294492;,
 -0.795495;-1.590990;-1.377838;,
 -0.795495;-1.590990;-1.377838;,
 -0.795495;-1.590990;-1.377838;,
 -0.795495;-1.590990;-1.377838;,
 -1.039365;-0.861038;-1.800232;,
 -1.039365;-0.861038;-1.800232;,
 -1.039365;-0.861038;-1.800232;,
 -1.125000;0.000000;-1.948557;,
 -1.125000;0.000000;-1.948557;,
 -1.125000;0.000000;-1.948557;,
 -1.125000;0.000000;-1.948557;,
 -1.039365;0.861038;-1.800232;,
 -1.039365;0.861038;-1.800232;,
 -1.039365;0.861038;-1.800232;,
 -0.795495;1.590990;-1.377838;,
 -0.795495;1.590990;-1.377838;,
 -0.795495;1.590990;-1.377838;,
 -0.430519;2.078729;-0.745680;,
 -0.430519;2.078729;-0.745680;,
 -0.430519;2.078729;-0.745680;,
 -0.430519;2.078729;-0.745680;,
 0.276272;-1.590990;-1.566819;,
 0.276272;-1.590990;-1.566819;,
 0.360967;-0.861038;-2.047148;,
 0.360967;-0.861038;-2.047148;,
 0.360967;-0.861038;-2.047148;,
 0.390708;0.000000;-2.215817;,
 0.390708;0.000000;-2.215817;,
 0.390708;0.000000;-2.215817;,
 0.390708;0.000000;-2.215817;,
 0.360967;0.861038;-2.047148;,
 0.360967;0.861038;-2.047148;,
 0.360967;0.861038;-2.047148;,
 0.276272;1.590990;-1.566819;,
 0.276272;1.590990;-1.566819;,
 0.276272;1.590990;-1.566819;,
 0.149517;2.078729;-0.847957;,
 0.149517;2.078729;-0.847957;,
 1.218769;-1.590990;-1.022669;,
 1.218769;-1.590990;-1.022669;,
 1.218769;-1.590990;-1.022669;,
 1.592398;-0.861038;-1.336181;,
 1.592398;-0.861038;-1.336181;,
 1.592398;-0.861038;-1.336181;,
 1.723599;0.000000;-1.446272;,
 1.723599;0.000000;-1.446272;,
 1.723599;0.000000;-1.446272;,
 1.592398;0.861038;-1.336181;,
 1.592398;0.861038;-1.336181;,
 1.592398;0.861038;-1.336181;,
 1.218769;1.590990;-1.022669;,
 1.218769;1.590990;-1.022669;,
 1.218769;1.590990;-1.022669;,
 0.659593;2.078729;-0.553464;,
 0.659593;2.078729;-0.553464;,
 0.659593;2.078729;-0.553464;,
 0.360967;-0.861038;-1.937307;,
 0.360967;-0.861038;-1.937307;,
 0.360967;-0.861038;-1.937307;,
 0.390708;0.000000;-2.105976;,
 0.390708;0.000000;-2.105976;,
 -1.125000;0.000000;-1.838715;,
 -1.125000;0.000000;-1.838715;,
 -1.039365;-0.861038;-1.690390;,
 -1.039365;-0.861038;-1.690390;,
 -1.039365;-0.861038;-1.690390;,
 0.276272;-1.590990;-1.456978;,
 -0.795495;-1.590990;-1.267996;,
 1.485411;-0.861038;1.306667;,
 1.485411;-0.861038;1.306667;,
 1.485411;-0.861038;1.306667;,
 1.616613;0.000000;1.416758;,
 1.616613;0.000000;1.416758;,
 2.143013;0.000000;-0.029513;,
 2.143013;0.000000;-0.029513;,
 1.971742;-0.861038;-0.029513;,
 1.971742;-0.861038;-0.029513;,
 1.971742;-0.861038;-0.029513;,
 1.111782;-1.590990;0.993155;,
 1.484003;-1.590990;-0.029513;,
 -1.862620;-0.861038;0.636810;,
 -1.862620;-0.861038;0.636810;,
 -1.862620;-0.861038;0.636810;,
 -2.023562;0.000000;0.695388;,
 -2.023562;0.000000;0.695388;,
 -1.034254;0.000000;1.874399;,
 -1.034254;0.000000;1.874399;,
 -0.948618;-0.861038;1.726074;,
 -0.948618;-0.861038;1.726074;,
 -0.948618;-0.861038;1.726074;,
 -1.404295;-1.590990;0.469993;,
 -0.704749;-1.590990;1.303680;,
 -0.704749;-1.590990;1.303680;,
 -1.404295;-1.590990;0.469993;,
 -0.948618;-0.861038;1.726074;,
 -1.034254;0.000000;1.874399;,
 -2.023562;0.000000;0.695388;,
 -1.862620;-0.861038;0.636810;,
 1.484003;-1.590990;-0.029513;,
 1.111782;-1.590990;0.993155;,
 1.971742;-0.861038;-0.029513;,
 2.143013;0.000000;-0.029513;,
 1.616613;0.000000;1.416758;,
 1.485411;-0.861038;1.306667;,
 -0.795495;-1.590990;-1.267996;,
 0.276272;-1.590990;-1.456978;,
 -1.039365;-0.861038;-1.690390;,
 -1.125000;0.000000;-1.838715;,
 0.390708;0.000000;-2.105976;,
 0.360967;-0.861038;-1.937307;,
 0.659593;2.078729;-0.553464;,
 1.218769;1.590990;-1.022669;,
 1.592398;0.861038;-1.336181;,
 1.723599;0.000000;-1.446272;,
 1.592398;-0.861038;-1.336181;,
 1.218769;-1.590990;-1.022669;,
 0.149517;2.078729;-0.847957;,
 0.276272;1.590990;-1.566819;,
 0.360967;0.861038;-2.047148;,
 0.390708;0.000000;-2.215817;,
 0.360967;-0.861038;-2.047148;,
 0.276272;-1.590990;-1.566819;,
 -0.430519;2.078729;-0.745680;,
 -0.795495;1.590990;-1.377838;,
 -1.039365;0.861038;-1.800232;,
 -1.125000;0.000000;-1.948557;,
 -1.039365;-0.861038;-1.800232;,
 -0.795495;-1.590990;-1.377838;,
 -0.809111;2.078729;-0.294492;,
 -1.495042;1.590990;-0.544150;,
 -1.953366;0.861038;-0.710967;,
 -2.114308;0.000000;-0.769545;,
 -1.953366;-0.861038;-0.710967;,
 -1.495042;-1.590990;-0.544150;,
 -0.809111;2.078729;0.294492;,
 -1.495042;1.590990;0.544151;,
 -1.953366;0.861038;0.710967;,
 -2.114308;0.000000;0.769545;,
 -1.953366;-0.861038;0.710967;,
 -1.495042;-1.590990;0.544151;,
 -0.430519;2.078729;0.745681;,
 -0.795495;1.590990;1.377838;,
 -1.039364;0.861038;1.800232;,
 -1.125000;0.000000;1.948557;,
 -1.039364;-0.861038;1.800232;,
 -0.795495;-1.590990;1.377838;,
 0.149518;2.078729;0.847957;,
 0.276273;1.590990;1.566819;,
 0.360967;0.861038;2.047148;,
 0.390708;0.000000;2.215817;,
 0.360967;-0.861038;2.047148;,
 0.276273;-1.590990;1.566819;,
 0.659593;2.078729;0.553464;,
 1.218769;1.590990;1.022669;,
 1.592399;0.861038;1.336181;,
 1.723600;0.000000;1.446272;,
 1.592399;-0.861038;1.336181;,
 1.218769;-1.590990;1.022669;,
 0.861038;2.078729;0.000000;,
 1.590990;1.590990;0.000000;,
 2.078729;0.861038;0.000000;,
 2.250000;0.000000;0.000000;,
 2.078729;-0.861038;0.000000;,
 1.590990;-1.590990;0.000000;;

 74;
 4;190,192,13,32;,
 4;191,195,9,12;,
 4;194,188,196,197;,
 4;219,189,187,193;,
 4;16,35,31,11;,
 4;19,38,34,15;,
 4;23,43,37,18;,
 4;207,209,63,66;,
 4;186,220,30,28;,
 4;183,185,121,124;,
 4;27,49,46,25;,
 4;29,52,48,26;,
 4;33,55,51,273;,
 4;36,58,54,272;,
 4;42,60,57,271;,
 4;184,176,143,140;,
 4;180,182,123,128;,
 4;178,179,127,147;,
 4;47,65,62,45;,
 4;50,70,64,268;,
 4;53,73,69,267;,
 4;56,76,72,266;,
 4;59,79,75,265;,
 4;208,200,85,82;,
 4;175,177,146,142;,
 4;217,221,274,24;,
 4;206,199,211,210;,
 4;204,202,198,205;,
 4;71,92,89,68;,
 4;74,95,91,260;,
 4;78,98,94,259;,
 4;203,212,262,67;,
 4;173,22,17,170;,
 4;169,277,14,167;,
 4;84,104,101,81;,
 4;88,107,103,83;,
 4;90,110,106,87;,
 4;93,113,109,254;,
 4;97,117,112,253;,
 4;201,213,261,86;,
 4;166,278,10,164;,
 4;163,279,8,161;,
 4;102,122,120,100;,
 4;105,126,244,250;,
 4;108,131,125,249;,
 4;111,134,130,248;,
 4;116,138,133,247;,
 4;215,214,255,256;,
 4;160,7,6,158;,
 4;218,216,5,280;,
 4;181,174,223,222;,
 4;225,226,227,224;,
 4;129,150,145,243;,
 4;132,153,149,242;,
 4;137,155,152,241;,
 4;154,172,168,151;,
 4;235,229,165,148;,
 4;236,230,162,144;,
 4;141,159,157,139;,
 4;237,231,232,238;,
 3;21,171,136;,
 3;234,135,228;,
 3;115,20,240;,
 3;114,41,276;,
 3;96,40,246;,
 3;77,39,252;,
 3;264,270,258;,
 3;156,119,239;,
 3;4,99,118;,
 3;3,245,233;,
 3;80,251,2;,
 3;1,61,257;,
 3;0,44,263;,
 3;281,275,269;;

 MeshMaterialList {
  11;
  74;
  0,
  0,
  1,
  1,
  1,
  1,
  1,
  0,
  0,
  0,
  2,
  2,
  2,
  2,
  2,
  0,
  0,
  0,
  3,
  3,
  3,
  3,
  3,
  0,
  0,
  0,
  4,
  4,
  4,
  4,
  4,
  0,
  5,
  5,
  6,
  6,
  6,
  6,
  6,
  0,
  5,
  5,
  7,
  7,
  7,
  7,
  7,
  0,
  5,
  0,
  0,
  0,
  0,
  0,
  0,
  8,
  8,
  8,
  8,
  8,
  9,
  9,
  9,
  9,
  9,
  9,
  9,
  10,
  10,
  10,
  10,
  10,
  10,
  10;
Material {
 1.000000;1.000000;1.000000;1.000000;;
 0.000000;
 1.000000;1.000000;1.000000;;
 0.0; 0.0; 0.0;;
 TextureFilename {
  "acs01.ppm";
 }
 }
Material {
 1.000000;1.000000;1.000000;1.000000;;
 0.000000;
 1.000000;1.000000;1.000000;;
 0.0; 0.0; 0.0;;
 TextureFilename {
  "acs01.ppm";
 }
 }
Material {
 1.000000;1.000000;1.000000;1.000000;;
 0.000000;
 1.000000;1.000000;1.000000;;
 0.0; 0.0; 0.0;;
 TextureFilename {
  "acs01.ppm";
 }
 }
Material {
 1.000000;1.000000;1.000000;1.000000;;
 0.000000;
 1.000000;1.000000;1.000000;;
 0.0; 0.0; 0.0;;
 TextureFilename {
  "acs01.ppm";
 }
 }
Material {
 0.994350;0.994350;0.994350;1.000000;;
 0.000000;
 1.000000;1.000000;1.000000;;
 0.0; 0.0; 0.0;;
 TextureFilename {
  "acs01.ppm";
 }
 }
Material {
 1.000000;1.000000;1.000000;1.000000;;
 0.000000;
 1.000000;1.000000;1.000000;;
 0.0; 0.0; 0.0;;
 TextureFilename {
  "acs01.ppm";
 }
 }
Material {
 1.000000;1.000000;1.000000;1.000000;;
 0.000000;
 1.000000;1.000000;1.000000;;
 0.0; 0.0; 0.0;;
 TextureFilename {
  "acs01.ppm";
 }
 }
Material {
 1.000000;1.000000;1.000000;1.000000;;
 0.000000;
 1.000000;1.000000;1.000000;;
 0.0; 0.0; 0.0;;
 TextureFilename {
  "acs01.ppm";
 }
 }
Material {
 1.000000;1.000000;1.000000;1.000000;;
 0.000000;
 1.000000;1.000000;1.000000;;
 0.0; 0.0; 0.0;;
 TextureFilename {
  "acs01.ppm";
 }
 }
Material {
 1.000000;1.000000;1.000000;1.000000;;
 0.000000;
 1.000000;1.000000;1.000000;;
 0.0; 0.0; 0.0;;
 TextureFilename {
  "acs01.ppm";
 }
 }
Material {
 1.000000;1.000000;1.000000;1.000000;;
 0.000000;
 1.000000;1.000000;1.000000;;
 0.0; 0.0; 0.0;;
 TextureFilename {
  "acs01.ppm";
 }
 }
}
 MeshNormals {
  282;
  0.085597;-0.991886;0.093998;,
  0.085597;-0.991886;0.093998;,
  0.085597;-0.991886;0.093998;,
  0.085597;-0.991886;0.093998;,
  0.085597;-0.991886;0.093998;,
  0.085597;-0.991886;0.093998;,
  0.085597;-0.991886;0.093998;,
  0.664915;-0.272130;0.695582;,
  0.664915;-0.272130;0.695582;,
  0.664915;-0.272130;0.695582;,
  0.942248;-0.261187;0.209644;,
  0.942248;-0.261187;0.209644;,
  0.942248;-0.261187;0.209644;,
  0.942248;-0.261187;0.209644;,
  0.923263;0.384167;-0.000000;,
  0.923263;0.384167;-0.000000;,
  0.923263;0.384167;-0.000000;,
  0.705433;0.708777;-0.000000;,
  0.705433;0.708777;-0.000000;,
  0.705433;0.708777;-0.000000;,
  0.228979;0.973431;-0.000000;,
  0.228979;0.973431;-0.000000;,
  0.228979;0.973431;-0.000000;,
  0.228979;0.973431;-0.000000;,
  0.445976;-0.893374;-0.054666;,
  0.445976;-0.893374;-0.054666;,
  0.951175;-0.246166;-0.186196;,
  0.951175;-0.246166;-0.186196;,
  0.951175;-0.246166;-0.186196;,
  0.851596;-0.265649;0.451901;,
  0.851596;-0.265649;0.451901;,
  0.851596;-0.265649;0.451901;,
  0.851596;-0.265649;0.451901;,
  0.707261;0.384167;0.593462;,
  0.707261;0.384167;0.593462;,
  0.707261;0.384167;0.593462;,
  0.540393;0.708777;0.453443;,
  0.540393;0.708777;0.453443;,
  0.540393;0.708777;0.453443;,
  0.145492;0.981798;0.122082;,
  0.145492;0.981798;0.122082;,
  0.145492;0.981798;0.122082;,
  0.145492;0.981798;0.122082;,
  0.145492;0.981798;0.122082;,
  0.080059;-0.887380;0.454035;,
  0.080059;-0.887380;0.454035;,
  0.080059;-0.887380;0.454035;,
  0.160323;-0.384167;0.909237;,
  0.160323;-0.384167;0.909237;,
  0.160323;-0.384167;0.909237;,
  0.173648;0.000000;0.984808;,
  0.173648;0.000000;0.984808;,
  0.173648;0.000000;0.984808;,
  0.160323;0.384167;0.909237;,
  0.160323;0.384167;0.909237;,
  0.160323;0.384167;0.909237;,
  0.122497;0.708777;0.694716;,
  0.122497;0.708777;0.694716;,
  0.122497;0.708777;0.694716;,
  0.066439;0.923912;0.376792;,
  0.066439;0.923912;0.376792;,
  -0.285562;-0.956003;0.067174;,
  -0.285562;-0.956003;0.067174;,
  -0.285562;-0.956003;0.067174;,
  -0.948906;-0.257175;0.182860;,
  -0.948906;-0.257175;0.182860;,
  -0.948906;-0.257175;0.182860;,
  -0.649560;-0.263691;0.713119;,
  -0.649560;-0.263691;0.713119;,
  -0.649560;-0.263691;0.713119;,
  -0.649560;-0.263691;0.713119;,
  -0.461632;0.384167;0.799570;,
  -0.461632;0.384167;0.799570;,
  -0.461632;0.384167;0.799570;,
  -0.352716;0.708777;0.610923;,
  -0.352716;0.708777;0.610923;,
  -0.352716;0.708777;0.610923;,
  -0.143688;0.957818;0.248874;,
  -0.143688;0.957818;0.248874;,
  -0.143688;0.957818;0.248874;,
  -0.121066;-0.953990;0.274311;,
  -0.121066;-0.953990;0.274311;,
  -0.121066;-0.953990;0.274311;,
  -0.356665;-0.261401;0.896917;,
  -0.356665;-0.261401;0.896917;,
  -0.356665;-0.261401;0.896917;,
  -0.814525;-0.262964;0.517106;,
  -0.814525;-0.262964;0.517106;,
  -0.814525;-0.262964;0.517106;,
  -0.814525;-0.262964;0.517106;,
  -0.867584;0.384167;0.315775;,
  -0.867584;0.384167;0.315775;,
  -0.867584;0.384167;0.315775;,
  -0.662890;0.708777;0.241272;,
  -0.662890;0.708777;0.241272;,
  -0.662890;0.708777;0.241272;,
  -0.270044;0.957818;0.098288;,
  -0.270044;0.957818;0.098288;,
  -0.270044;0.957818;0.098288;,
  -0.433236;-0.887380;-0.157685;,
  -0.433236;-0.887380;-0.157685;,
  -0.433236;-0.887380;-0.157685;,
  -0.867584;-0.384167;-0.315775;,
  -0.867584;-0.384167;-0.315775;,
  -0.867584;-0.384167;-0.315775;,
  -0.939693;0.000000;-0.342020;,
  -0.939693;0.000000;-0.342020;,
  -0.939693;0.000000;-0.342020;,
  -0.867584;0.384167;-0.315775;,
  -0.867584;0.384167;-0.315775;,
  -0.867584;0.384167;-0.315775;,
  -0.662890;0.708777;-0.241272;,
  -0.662890;0.708777;-0.241272;,
  -0.662890;0.708777;-0.241272;,
  -0.215170;0.973431;-0.078315;,
  -0.215170;0.973431;-0.078315;,
  -0.215170;0.973431;-0.078315;,
  -0.215170;0.973431;-0.078315;,
  0.064442;-0.984161;-0.165150;,
  0.064442;-0.984161;-0.165150;,
  0.064442;-0.984161;-0.165150;,
  0.064442;-0.984161;-0.165150;,
  0.393170;-0.230371;-0.890139;,
  0.393170;-0.230371;-0.890139;,
  0.393170;-0.230371;-0.890139;,
  -0.306403;-0.268621;-0.913214;,
  -0.306403;-0.268621;-0.913214;,
  -0.306403;-0.268621;-0.913214;,
  -0.306403;-0.268621;-0.913214;,
  -0.461632;0.384167;-0.799570;,
  -0.461632;0.384167;-0.799570;,
  -0.461632;0.384167;-0.799570;,
  -0.352716;0.708777;-0.610923;,
  -0.352716;0.708777;-0.610923;,
  -0.352716;0.708777;-0.610923;,
  -0.114490;0.973431;-0.198302;,
  -0.114490;0.973431;-0.198302;,
  -0.114490;0.973431;-0.198302;,
  -0.114490;0.973431;-0.198302;,
  -0.267210;-0.857548;-0.439557;,
  -0.267210;-0.857548;-0.439557;,
  -0.527136;-0.286823;-0.799912;,
  -0.527136;-0.286823;-0.799912;,
  -0.527136;-0.286823;-0.799912;,
  -0.043229;-0.258905;-0.964935;,
  -0.043229;-0.258905;-0.964935;,
  -0.043229;-0.258905;-0.964935;,
  -0.043229;-0.258905;-0.964935;,
  0.160323;0.384167;-0.909237;,
  0.160323;0.384167;-0.909237;,
  0.160323;0.384167;-0.909237;,
  0.122497;0.708777;-0.694716;,
  0.122497;0.708777;-0.694716;,
  0.122497;0.708777;-0.694716;,
  0.066439;0.923912;-0.376792;,
  0.066439;0.923912;-0.376792;,
  0.353177;-0.887380;-0.296351;,
  0.353177;-0.887380;-0.296351;,
  0.353177;-0.887380;-0.296351;,
  0.707261;-0.384167;-0.593463;,
  0.707261;-0.384167;-0.593463;,
  0.707261;-0.384167;-0.593463;,
  0.766044;-0.000000;-0.642788;,
  0.766044;-0.000000;-0.642788;,
  0.766044;-0.000000;-0.642788;,
  0.707261;0.384167;-0.593462;,
  0.707261;0.384167;-0.593462;,
  0.707261;0.384167;-0.593462;,
  0.540393;0.708777;-0.453443;,
  0.540393;0.708777;-0.453443;,
  0.540393;0.708777;-0.453443;,
  0.220142;0.957818;-0.184721;,
  0.220142;0.957818;-0.184721;,
  0.220142;0.957818;-0.184721;,
  -0.769544;-0.192040;-0.609034;,
  -0.769544;-0.192040;-0.609034;,
  -0.769544;-0.192040;-0.609034;,
  -0.614402;-0.603437;-0.508306;,
  -0.614402;-0.603437;-0.508306;,
  0.493249;-0.649031;-0.579193;,
  0.493249;-0.649031;-0.579193;,
  0.659526;-0.125202;-0.741181;,
  0.659526;-0.125202;-0.741181;,
  0.659526;-0.125202;-0.741181;,
  -0.774226;-0.282764;-0.566232;,
  0.681206;-0.182652;-0.708940;,
  0.865525;-0.143321;-0.479923;,
  0.865525;-0.143321;-0.479923;,
  0.865525;-0.143321;-0.479923;,
  0.684497;-0.634148;-0.359611;,
  0.684497;-0.634148;-0.359611;,
  0.356974;-0.613403;0.704490;,
  0.356974;-0.613403;0.704490;,
  0.425217;-0.174029;0.888203;,
  0.425217;-0.174029;0.888203;,
  0.425217;-0.174029;0.888203;,
  0.835646;-0.209687;-0.507669;,
  0.382695;-0.255709;0.887783;,
  -0.062735;-0.161184;0.984928;,
  -0.062735;-0.161184;0.984928;,
  -0.062735;-0.161184;0.984928;,
  -0.067565;-0.621458;0.780528;,
  -0.067565;-0.621458;0.780528;,
  -0.776769;-0.624826;-0.078883;,
  -0.776769;-0.624826;-0.078883;,
  -0.980150;-0.156187;-0.122116;,
  -0.980150;-0.156187;-0.122116;,
  -0.980150;-0.156187;-0.122116;,
  -0.023008;-0.236435;0.971375;,
  -0.960393;-0.228944;-0.158837;,
  -0.960393;-0.228944;-0.158837;,
  -0.023008;-0.236435;0.971375;,
  -0.980150;-0.156187;-0.122116;,
  -0.776769;-0.624826;-0.078883;,
  -0.067565;-0.621458;0.780528;,
  -0.062735;-0.161184;0.984928;,
  0.382695;-0.255709;0.887783;,
  0.835646;-0.209687;-0.507669;,
  0.425217;-0.174029;0.888203;,
  0.356974;-0.613403;0.704490;,
  0.684497;-0.634148;-0.359611;,
  0.865525;-0.143321;-0.479923;,
  0.681206;-0.182652;-0.708940;,
  -0.774226;-0.282764;-0.566232;,
  0.659526;-0.125202;-0.741181;,
  0.493249;-0.649031;-0.579193;,
  -0.614402;-0.603437;-0.508306;,
  -0.769544;-0.192040;-0.609034;,
  0.220142;0.957818;-0.184721;,
  0.540393;0.708777;-0.453443;,
  0.707261;0.384167;-0.593462;,
  0.766044;-0.000000;-0.642788;,
  0.707261;-0.384167;-0.593463;,
  0.353177;-0.887380;-0.296351;,
  0.066439;0.923912;-0.376792;,
  0.122497;0.708777;-0.694716;,
  0.160323;0.384167;-0.909237;,
  -0.043229;-0.258905;-0.964935;,
  -0.527136;-0.286823;-0.799912;,
  -0.267210;-0.857548;-0.439557;,
  -0.114490;0.973431;-0.198302;,
  -0.352716;0.708777;-0.610923;,
  -0.461632;0.384167;-0.799570;,
  -0.306403;-0.268621;-0.913214;,
  0.393170;-0.230371;-0.890139;,
  0.064442;-0.984161;-0.165150;,
  -0.215170;0.973431;-0.078315;,
  -0.662890;0.708777;-0.241272;,
  -0.867584;0.384167;-0.315775;,
  -0.939693;0.000000;-0.342020;,
  -0.867584;-0.384167;-0.315775;,
  -0.433236;-0.887380;-0.157685;,
  -0.270044;0.957818;0.098288;,
  -0.662890;0.708777;0.241272;,
  -0.867584;0.384167;0.315775;,
  -0.814525;-0.262964;0.517106;,
  -0.356665;-0.261401;0.896917;,
  -0.121066;-0.953990;0.274311;,
  -0.143688;0.957818;0.248874;,
  -0.352716;0.708777;0.610923;,
  -0.461632;0.384167;0.799570;,
  -0.649560;-0.263691;0.713119;,
  -0.948906;-0.257175;0.182860;,
  -0.285562;-0.956003;0.067174;,
  0.066439;0.923912;0.376792;,
  0.122497;0.708777;0.694716;,
  0.160323;0.384167;0.909237;,
  0.173648;0.000000;0.984808;,
  0.160323;-0.384167;0.909237;,
  0.080059;-0.887380;0.454035;,
  0.145492;0.981798;0.122082;,
  0.540393;0.708777;0.453443;,
  0.707261;0.384167;0.593462;,
  0.851596;-0.265649;0.451901;,
  0.951175;-0.246166;-0.186196;,
  0.445976;-0.893374;-0.054666;,
  0.228979;0.973431;-0.000000;,
  0.705433;0.708777;-0.000000;,
  0.923263;0.384167;-0.000000;,
  0.942248;-0.261187;0.209644;,
  0.664915;-0.272130;0.695582;,
  0.085597;-0.991886;0.093998;;

  74;
  4;190,192,13,32;,
  4;191,195,9,12;,
  4;194,188,196,197;,
  4;219,189,187,193;,
  4;16,35,31,11;,
  4;19,38,34,15;,
  4;23,43,37,18;,
  4;207,209,63,66;,
  4;186,220,30,28;,
  4;183,185,121,124;,
  4;27,49,46,25;,
  4;29,52,48,26;,
  4;33,55,51,273;,
  4;36,58,54,272;,
  4;42,60,57,271;,
  4;184,176,143,140;,
  4;180,182,123,128;,
  4;178,179,127,147;,
  4;47,65,62,45;,
  4;50,70,64,268;,
  4;53,73,69,267;,
  4;56,76,72,266;,
  4;59,79,75,265;,
  4;208,200,85,82;,
  4;175,177,146,142;,
  4;217,221,274,24;,
  4;206,199,211,210;,
  4;204,202,198,205;,
  4;71,92,89,68;,
  4;74,95,91,260;,
  4;78,98,94,259;,
  4;203,212,262,67;,
  4;173,22,17,170;,
  4;169,277,14,167;,
  4;84,104,101,81;,
  4;88,107,103,83;,
  4;90,110,106,87;,
  4;93,113,109,254;,
  4;97,117,112,253;,
  4;201,213,261,86;,
  4;166,278,10,164;,
  4;163,279,8,161;,
  4;102,122,120,100;,
  4;105,126,244,250;,
  4;108,131,125,249;,
  4;111,134,130,248;,
  4;116,138,133,247;,
  4;215,214,255,256;,
  4;160,7,6,158;,
  4;218,216,5,280;,
  4;181,174,223,222;,
  4;225,226,227,224;,
  4;129,150,145,243;,
  4;132,153,149,242;,
  4;137,155,152,241;,
  4;154,172,168,151;,
  4;235,229,165,148;,
  4;236,230,162,144;,
  4;141,159,157,139;,
  4;237,231,232,238;,
  3;21,171,136;,
  3;234,135,228;,
  3;115,20,240;,
  3;114,41,276;,
  3;96,40,246;,
  3;77,39,252;,
  3;264,270,258;,
  3;156,119,239;,
  3;4,99,118;,
  3;3,245,233;,
  3;80,251,2;,
  3;1,61,257;,
  3;0,44,263;,
  3;281,275,269;;
 }
 MeshTextureCoords { 
 282;
 0.717268;0.722656;,
 0.717268;0.722656;,
 0.717268;0.722656;,
 0.717268;0.722656;,
 0.717268;0.722656;,
 0.110028;0.437500;,
 0.274995;0.436532;,
 0.275031;0.353584;,
 0.275031;0.353584;,
 0.124000;0.352807;,
 0.274969;0.255082;,
 0.276566;0.254030;,
 0.128906;0.252904;,
 0.128906;0.252904;,
 0.275273;0.155612;,
 0.276324;0.148731;,
 0.276324;0.148731;,
 0.275237;0.074115;,
 0.276135;0.071696;,
 0.276135;0.071696;,
 0.988506;0.720703;,
 0.988506;0.720703;,
 0.274610;0.016109;,
 0.275938;0.015625;,
 0.094200;0.437500;,
 0.366653;0.437500;,
 0.366755;0.353587;,
 0.366755;0.353587;,
 0.103320;0.352807;,
 0.366449;0.244778;,
 0.106522;0.252904;,
 0.365205;0.253477;,
 0.106522;0.252904;,
 0.366371;0.158609;,
 0.365205;0.149269;,
 0.365205;0.149269;,
 0.366198;0.063860;,
 0.365206;0.071696;,
 0.365206;0.071696;,
 0.957225;0.889981;,
 0.957225;0.889981;,
 0.957225;0.889981;,
 0.366265;0.018828;,
 0.365189;0.016055;,
 0.604848;0.984073;,
 0.455547;0.437500;,
 0.453504;0.437113;,
 0.455332;0.353232;,
 0.453401;0.353974;,
 0.453401;0.353974;,
 0.454700;0.249320;,
 0.453323;0.244197;,
 0.453323;0.244197;,
 0.454982;0.152445;,
 0.453016;0.158609;,
 0.453016;0.158609;,
 0.455197;0.071696;,
 0.452857;0.063508;,
 0.452857;0.063508;,
 0.455151;0.016915;,
 0.452983;0.019179;,
 0.513203;0.952542;,
 0.543144;0.437148;,
 0.034706;0.437500;,
 0.543184;0.353584;,
 0.543184;0.353584;,
 0.025587;0.352807;,
 0.022384;0.252904;,
 0.544688;0.250728;,
 0.543291;0.250024;,
 0.543291;0.250024;,
 0.544596;0.155999;,
 0.543184;0.152797;,
 0.543184;0.152797;,
 0.544412;0.072083;,
 0.543494;0.071344;,
 0.543494;0.071344;,
 0.787947;0.948771;,
 0.544687;0.016399;,
 0.543511;0.016593;,
 0.453385;0.813445;,
 0.634462;0.437887;,
 0.018878;0.437500;,
 0.634256;0.353974;,
 0.634256;0.353974;,
 0.004906;0.352807;,
 -0.000000;0.252904;,
 0.633950;0.255904;,
 0.633950;0.255904;,
 0.632674;0.251115;,
 0.633868;0.158222;,
 0.632767;0.155612;,
 0.632767;0.155612;,
 0.633687;0.074696;,
 0.633144;0.071696;,
 0.633144;0.071696;,
 0.729157;0.810774;,
 0.633673;0.019918;,
 0.632869;0.016012;,
 0.453385;0.631867;,
 0.724499;0.437113;,
 0.723556;0.437500;,
 0.724366;0.353197;,
 0.723762;0.353974;,
 0.723762;0.353974;,
 0.724221;0.254950;,
 0.723875;0.256291;,
 0.723875;0.256291;,
 0.724019;0.155612;,
 0.723568;0.157835;,
 0.723568;0.157835;,
 0.723751;0.071344;,
 0.723556;0.075083;,
 0.723556;0.075083;,
 0.729157;0.630632;,
 0.729157;0.630632;,
 0.723773;0.017384;,
 0.723376;0.019531;,
 0.513203;0.492771;,
 0.513203;0.492771;,
 0.811555;0.437500;,
 0.048625;0.437500;,
 0.811305;0.353197;,
 0.043773;0.352807;,
 0.043773;0.352807;,
 0.811381;0.255302;,
 0.811381;0.255302;,
 0.042069;0.252904;,
 0.042069;0.252904;,
 0.008699;0.153002;,
 0.811236;0.155260;,
 0.811236;0.155260;,
 0.008421;0.068309;,
 0.811156;0.071696;,
 0.811156;0.071696;,
 0.787947;0.492635;,
 0.787947;0.492635;,
 0.008628;0.015848;,
 0.811308;0.017032;,
 0.099262;0.434920;,
 0.080281;0.437500;,
 0.098865;0.352939;,
 0.085134;0.352807;,
 0.085134;0.352807;,
 0.098570;0.254598;,
 0.098251;0.251796;,
 0.086837;0.252904;,
 0.086837;0.252904;,
 0.098219;0.155612;,
 0.098044;0.152753;,
 0.098044;0.152753;,
 0.098294;0.071696;,
 0.098108;0.067630;,
 0.098108;0.067630;,
 0.098052;0.014335;,
 0.098328;0.016030;,
 0.685440;0.552029;,
 0.186831;0.434920;,
 0.186715;0.437016;,
 0.186583;0.353584;,
 0.186436;0.353100;,
 0.186436;0.353100;,
 0.186555;0.254598;,
 0.186256;0.254598;,
 0.186256;0.254598;,
 0.186906;0.156257;,
 0.186194;0.155128;,
 0.186194;0.155128;,
 0.186831;0.072341;,
 0.186230;0.073631;,
 0.186230;0.073631;,
 0.957225;0.551425;,
 0.187073;0.014980;,
 0.186615;0.016109;,
 0.097916;0.351698;,
 0.084579;0.352807;,
 0.084579;0.352807;,
 0.086283;0.252904;,
 0.086283;0.252904;,
 0.041514;0.252904;,
 0.041514;0.252904;,
 0.008572;0.351947;,
 0.043218;0.352807;,
 0.043218;0.352807;,
 0.079726;0.437500;,
 0.048070;0.437500;,
 0.100404;0.352807;,
 0.365123;0.346642;,
 0.365123;0.346642;,
 0.365525;0.253477;,
 0.103606;0.252904;,
 0.125991;0.252904;,
 0.125991;0.252904;,
 0.277134;0.347486;,
 0.277134;0.347486;,
 0.121084;0.352807;,
 0.365098;0.437070;,
 0.277098;0.437500;,
 0.632490;0.353584;,
 0.632490;0.353584;,
 0.007880;0.352807;,
 0.002974;0.252904;,
 0.632591;0.251115;,
 0.025358;0.252904;,
 0.544605;0.250728;,
 0.544319;0.353971;,
 0.544319;0.353971;,
 0.028561;0.352807;,
 0.021852;0.437500;,
 0.037680;0.437500;,
 0.544523;0.437113;,
 0.632673;0.436726;,
 0.028561;0.352807;,
 0.025358;0.252904;,
 0.002974;0.252904;,
 0.007880;0.352807;,
 0.107113;0.437500;,
 0.091285;0.437500;,
 0.121084;0.352807;,
 0.276886;0.254030;,
 0.103606;0.252904;,
 0.100404;0.352807;,
 0.008721;0.437070;,
 0.097767;0.436391;,
 0.008572;0.351947;,
 0.008364;0.252904;,
 0.097696;0.251796;,
 0.097916;0.351698;,
 0.957225;0.551425;,
 0.186831;0.072341;,
 0.186906;0.156257;,
 0.186555;0.254598;,
 0.186583;0.353584;,
 0.685440;0.552029;,
 0.878018;0.461354;,
 0.098294;0.071696;,
 0.098219;0.155612;,
 0.098570;0.254598;,
 0.098865;0.352939;,
 0.604848;0.461240;,
 0.787947;0.492635;,
 0.008421;0.068309;,
 0.008699;0.153002;,
 0.008919;0.252904;,
 0.811305;0.353197;,
 0.513203;0.492771;,
 0.729157;0.630632;,
 0.723751;0.071344;,
 0.724019;0.155612;,
 0.724221;0.254950;,
 0.724366;0.353197;,
 0.453385;0.631867;,
 0.729157;0.810774;,
 0.633687;0.074696;,
 0.633868;0.158222;,
 -0.000000;0.252904;,
 0.004906;0.352807;,
 0.453385;0.813445;,
 0.787947;0.948771;,
 0.544412;0.072083;,
 0.544596;0.155999;,
 0.022384;0.252904;,
 0.025587;0.352807;,
 0.513203;0.952542;,
 0.878018;0.980052;,
 0.455197;0.071696;,
 0.454982;0.152445;,
 0.454700;0.249320;,
 0.455332;0.353232;,
 0.604848;0.984073;,
 0.957225;0.889981;,
 0.366198;0.063860;,
 0.366371;0.158609;,
 0.366449;0.244778;,
 0.103320;0.352807;,
 0.685440;0.893284;,
 0.988506;0.720703;,
 0.275237;0.074115;,
 0.275273;0.155612;,
 0.274969;0.255082;,
 0.124000;0.352807;,
 0.717268;0.722656;;
 }
}
Frame frm-portal1 {
  FrameTransformMatrix {
0.984904,0.000000,0.173100,0.000000,
0.132600,0.642804,-0.754467,0.000000,
-0.111269,0.766031,0.633100,0.000000,
-0.366880,0.000000,-2.082521,1.000000;;
 }
Mesh portal1 {
 42;
 -0.769860;0.000000;0.000689;,
 -0.769860;0.000000;0.000689;,
 -0.711196;-0.861038;0.161599;,
 -0.711196;-0.861038;0.161599;,
 -0.711196;-0.861038;0.161599;,
 -0.544137;-1.590990;0.619830;,
 -0.544137;-1.590990;0.619830;,
 0.544158;-1.590990;0.619250;,
 0.544158;-1.590990;0.619250;,
 0.710730;-0.861038;0.160841;,
 0.710730;-0.861038;0.160841;,
 0.710730;-0.861038;0.160841;,
 0.769222;0.000000;-0.000132;,
 0.769222;0.000000;-0.000132;,
 -0.789337;0.000000;0.111490;,
 -0.789337;0.000000;0.111490;,
 -0.730673;-0.861038;0.272400;,
 -0.730673;-0.861038;0.272400;,
 -0.730673;-0.861038;0.272400;,
 -0.563613;-1.590990;0.730631;,
 -0.563613;-1.590990;0.730631;,
 0.524682;-1.590990;0.730051;,
 0.524682;-1.590990;0.730051;,
 0.691254;-0.861038;0.271642;,
 0.691254;-0.861038;0.271642;,
 0.691254;-0.861038;0.271642;,
 0.749746;0.000000;0.110669;,
 0.749746;0.000000;0.110669;,
 -0.000319;0.000000;0.000278;,
 -0.000319;0.000000;0.000278;,
 0.749746;0.000000;0.110669;,
 0.691254;-0.861038;0.271642;,
 0.524682;-1.590990;0.730051;,
 -0.563613;-1.590990;0.730631;,
 -0.730673;-0.861038;0.272400;,
 -0.789337;0.000000;0.111490;,
 0.769222;0.000000;-0.000132;,
 0.710730;-0.861038;0.160841;,
 0.544158;-1.590990;0.619250;,
 -0.544137;-1.590990;0.619830;,
 -0.711196;-0.861038;0.161599;,
 -0.769860;0.000000;0.000689;;

 10;
 5;13,28,1,15,27;,
 4;0,4,18,14;,
 4;3,6,20,17;,
 4;5,8,22,19;,
 4;7,11,25,21;,
 4;10,12,26,24;,
 4;9,38,39,2;,
 4;16,33,32,23;,
 5;40,41,29,36,37;,
 4;31,30,35,34;;

 MeshMaterialList {
  1;
  10;
  0,
  0,
  0,
  0,
  0,
  0,
  0,
  0,
  0,
  0;
Material {
 1.000000;1.000000;1.000000;1.000000;;
 0.000000;
 1.000000;1.000000;1.000000;;
 0.0; 0.0; 0.0;;
 TextureFilename {
  "acs01.ppm";
 }
 }
}
 MeshNormals {
  42;
  -0.584900;0.427853;-0.689082;,
  -0.584900;0.427853;-0.689082;,
  -0.613288;-0.364929;-0.700503;,
  -0.613288;-0.364929;-0.700503;,
  -0.613288;-0.364929;-0.700503;,
  -0.368653;-0.815334;-0.446459;,
  -0.368653;-0.815334;-0.446459;,
  0.434282;-0.828548;-0.353423;,
  0.434282;-0.828548;-0.353423;,
  0.745881;-0.333647;-0.576490;,
  0.745881;-0.333647;-0.576490;,
  0.745881;-0.333647;-0.576490;,
  0.658057;0.522910;-0.541780;,
  0.658057;0.522910;-0.541780;,
  -0.586073;0.649031;0.485054;,
  -0.586073;0.649031;0.485054;,
  -0.777883;0.125201;0.615810;,
  -0.777883;0.125201;0.615810;,
  -0.777883;0.125201;0.615810;,
  -0.667901;-0.561620;0.488356;,
  -0.667901;-0.561620;0.488356;,
  0.640319;-0.381727;0.666541;,
  0.640319;-0.381727;0.666541;,
  0.652486;0.192039;0.733064;,
  0.652486;0.192039;0.733064;,
  0.652486;0.192039;0.733064;,
  0.517125;0.603437;0.606997;,
  0.517125;0.603437;0.606997;,
  -0.000410;0.638853;-0.769329;,
  -0.000410;0.638853;-0.769329;,
  0.517125;0.603437;0.606997;,
  0.652486;0.192039;0.733064;,
  0.640319;-0.381727;0.666541;,
  -0.667901;-0.561620;0.488356;,
  -0.777883;0.125201;0.615810;,
  -0.586073;0.649031;0.485054;,
  0.658057;0.522910;-0.541780;,
  0.745881;-0.333647;-0.576490;,
  0.434282;-0.828548;-0.353423;,
  -0.368653;-0.815334;-0.446459;,
  -0.613288;-0.364929;-0.700503;,
  -0.584900;0.427853;-0.689082;;

  10;
  5;13,28,1,15,27;,
  4;0,4,18,14;,
  4;3,6,20,17;,
  4;5,8,22,19;,
  4;7,11,25,21;,
  4;10,12,26,24;,
  4;9,38,39,2;,
  4;16,33,32,23;,
  5;40,41,29,36,37;,
  4;31,30,35,34;;
 }
 MeshTextureCoords { 
 42;
 0.103109;0.995742;,
 0.103109;0.995742;,
 0.100095;0.824033;,
 0.100095;0.824033;,
 0.100095;0.824033;,
 0.083105;0.667834;,
 0.083105;0.667834;,
 0.027189;0.667854;,
 0.027189;0.667854;,
 0.009833;0.823086;,
 0.009833;0.823086;,
 0.009833;0.823086;,
 0.006827;0.994797;,
 0.006827;0.994797;,
 0.104110;0.991970;,
 0.104110;0.991970;,
 0.101096;0.820261;,
 0.101096;0.820261;,
 0.101096;0.820261;,
 0.084106;0.664062;,
 0.084106;0.664062;,
 0.028189;0.664082;,
 0.028189;0.664082;,
 0.010833;0.819314;,
 0.010833;0.819314;,
 0.010833;0.819314;,
 0.007828;0.991025;,
 0.007828;0.991025;,
 0.055164;0.996080;,
 0.055164;0.996080;,
 0.007828;0.991025;,
 0.010833;0.819314;,
 0.028189;0.664082;,
 0.084106;0.664062;,
 0.101096;0.820261;,
 0.104110;0.991970;,
 0.006827;0.994797;,
 0.009833;0.823086;,
 0.027189;0.667854;,
 0.083105;0.667834;,
 0.100095;0.824033;,
 0.103109;0.995742;;
 }
}
Frame frm-engine1 {
  FrameTransformMatrix {
1.000000,0.000000,0.000000,0.000000,
0.000000,0.901826,0.432100,0.000000,
0.000000,-0.432100,0.901826,0.000000,
-0.000830,-0.040929,0.698926,1.000000;;
 }
Mesh engine1 {
 66;
 0.000051;-0.940311;0.000072;,
 0.000051;-0.940311;0.000072;,
 0.000051;-0.940311;0.000072;,
 0.000051;-0.940311;0.000072;,
 0.000051;-0.940311;0.000072;,
 0.179204;0.107736;-0.001243;,
 0.358774;-0.940239;-0.000641;,
 0.358774;-0.940239;-0.000641;,
 0.358774;-0.940239;-0.000641;,
 0.089832;0.107718;0.154266;,
 0.180031;-0.940275;0.310378;,
 0.180031;-0.940275;0.310378;,
 0.180031;-0.940275;0.310378;,
 -0.089529;0.107682;0.154623;,
 -0.178692;-0.940347;0.311091;,
 -0.178692;-0.940347;0.311091;,
 -0.178692;-0.940347;0.311091;,
 -0.179519;0.107664;-0.000529;,
 -0.358670;-0.940383;0.000786;,
 -0.358670;-0.940383;0.000786;,
 -0.358670;-0.940383;0.000786;,
 -0.090148;0.107682;-0.156039;,
 -0.179928;-0.940347;-0.310235;,
 -0.179928;-0.940347;-0.310235;,
 -0.179928;-0.940347;-0.310235;,
 0.089214;0.107718;-0.156395;,
 0.178795;-0.940275;-0.310948;,
 0.178795;-0.940275;-0.310948;,
 0.178795;-0.940275;-0.310948;,
 0.179956;-0.568661;0.310378;,
 0.179956;-0.568661;0.310378;,
 0.179956;-0.568661;0.310378;,
 0.358700;-0.568625;-0.000641;,
 0.358700;-0.568625;-0.000641;,
 0.358700;-0.568625;-0.000641;,
 -0.178766;-0.568733;0.311091;,
 -0.178766;-0.568733;0.311091;,
 -0.178766;-0.568733;0.311091;,
 0.178720;-0.568661;-0.310948;,
 0.178720;-0.568661;-0.310948;,
 0.178720;-0.568661;-0.310948;,
 -0.358745;-0.568770;0.000786;,
 -0.358745;-0.568770;0.000786;,
 -0.358745;-0.568770;0.000786;,
 -0.180003;-0.568734;-0.310235;,
 -0.180003;-0.568734;-0.310235;,
 -0.180003;-0.568734;-0.310235;,
 -0.180003;-0.568734;-0.310235;,
 -0.358745;-0.568770;0.000786;,
 0.178720;-0.568661;-0.310948;,
 -0.178766;-0.568733;0.311091;,
 0.358700;-0.568625;-0.000641;,
 0.179956;-0.568661;0.310378;,
 0.178795;-0.940275;-0.310948;,
 0.089214;0.107718;-0.156395;,
 -0.179928;-0.940347;-0.310235;,
 -0.090148;0.107682;-0.156039;,
 -0.358670;-0.940383;0.000786;,
 -0.179519;0.107664;-0.000529;,
 -0.178692;-0.940347;0.311091;,
 -0.089529;0.107682;0.154623;,
 0.180031;-0.940275;0.310378;,
 0.089832;0.107718;0.154266;,
 0.358774;-0.940239;-0.000641;,
 0.179204;0.107736;-0.001243;,
 0.000051;-0.940311;0.000072;;

 18;
 4;31,9,13,37;,
 4;30,12,8,34;,
 3;7,11,4;,
 4;36,60,17,43;,
 4;35,16,10,29;,
 3;61,15,3;,
 4;42,58,21,46;,
 4;41,20,14,50;,
 3;59,19,2;,
 4;45,56,25,40;,
 4;44,24,18,48;,
 3;57,23,1;,
 4;39,54,5,33;,
 4;38,28,22,47;,
 3;55,27,0;,
 4;32,64,62,52;,
 4;51,6,26,49;,
 3;53,63,65;;

 MeshMaterialList {
  2;
  18;
  0,
  0,
  1,
  0,
  0,
  1,
  0,
  0,
  1,
  0,
  0,
  1,
  0,
  0,
  1,
  0,
  0,
  1;
Material {
 1.000000;1.000000;1.000000;1.000000;;
 0.000000;
 1.000000;1.000000;1.000000;;
 0.0; 0.0; 0.0;;
 TextureFilename {
  "acs01.ppm";
 }
 }
Material {
 1.000000;1.000000;1.000000;1.000000;;
 0.000000;
 1.000000;1.000000;1.000000;;
 0.0; 0.0; 0.0;;
 TextureFilename {
  "acs01.ppm";
 }
 }
}
 MeshNormals {
  66;
  0.000201;-1.000000;0.000000;,
  0.000201;-1.000000;0.000000;,
  0.000201;-1.000000;0.000000;,
  0.000201;-1.000000;0.000000;,
  0.000201;-1.000000;0.000000;,
  0.966541;0.256503;-0.002010;,
  0.707248;-0.706964;-0.001408;,
  0.707248;-0.706964;-0.001408;,
  0.707248;-0.706964;-0.001408;,
  0.484800;0.257516;0.835855;,
  0.328605;-0.755863;0.566295;,
  0.328605;-0.755863;0.566295;,
  0.328605;-0.755863;0.566295;,
  -0.481572;0.257327;0.837777;,
  -0.326047;-0.755994;0.567597;,
  -0.326047;-0.755994;0.567597;,
  -0.326047;-0.755994;0.567597;,
  -0.966642;0.256123;0.001839;,
  -0.654500;-0.756061;0.001302;,
  -0.654500;-0.756061;0.001302;,
  -0.654500;-0.756061;0.001302;,
  -0.485123;0.255110;-0.836406;,
  -0.328301;-0.755995;-0.566295;,
  -0.328301;-0.755995;-0.566295;,
  -0.328301;-0.755995;-0.566295;,
  0.481689;0.255300;-0.838330;,
  0.326352;-0.755863;-0.567596;,
  0.326352;-0.755863;-0.567596;,
  0.326352;-0.755863;-0.567596;,
  0.497434;0.130450;0.857637;,
  0.497434;0.130450;0.857637;,
  0.497434;0.130450;0.857637;,
  0.991516;0.129973;-0.002018;,
  0.991516;0.129973;-0.002018;,
  0.991516;0.129973;-0.002018;,
  -0.494070;0.130253;0.859610;,
  -0.494070;0.130253;0.859610;,
  -0.494070;0.130253;0.859610;,
  0.494056;0.129299;-0.859762;,
  0.494056;0.129299;-0.859762;,
  0.494056;0.129299;-0.859762;,
  -0.991567;0.129578;0.001931;,
  -0.991567;0.129578;0.001931;,
  -0.991567;0.129578;0.001931;,
  -0.497524;0.129102;-0.857790;,
  -0.497524;0.129102;-0.857790;,
  -0.497524;0.129102;-0.857790;,
  -0.497524;0.129102;-0.857790;,
  -0.991567;0.129578;0.001931;,
  0.494056;0.129299;-0.859762;,
  -0.494070;0.130253;0.859610;,
  0.991516;0.129973;-0.002018;,
  0.497434;0.130450;0.857637;,
  0.326352;-0.755863;-0.567596;,
  0.481689;0.255300;-0.838330;,
  -0.328301;-0.755995;-0.566295;,
  -0.485123;0.255110;-0.836406;,
  -0.654500;-0.756061;0.001302;,
  -0.966642;0.256123;0.001839;,
  -0.326047;-0.755994;0.567597;,
  -0.481572;0.257327;0.837777;,
  0.328605;-0.755863;0.566295;,
  0.484800;0.257516;0.835855;,
  0.707248;-0.706964;-0.001408;,
  0.966541;0.256503;-0.002010;,
  0.000201;-1.000000;0.000000;;

  18;
  4;31,9,13,37;,
  4;30,12,8,34;,
  3;7,11,4;,
  4;36,60,17,43;,
  4;35,16,10,29;,
  3;61,15,3;,
  4;42,58,21,46;,
  4;41,20,14,50;,
  3;59,19,2;,
  4;45,56,25,40;,
  4;44,24,18,48;,
  3;57,23,1;,
  4;39,54,5,33;,
  4;38,28,22,47;,
  3;55,27,0;,
  4;32,64,62,52;,
  4;51,6,26,49;,
  3;53,63,65;;
 }
 MeshTextureCoords { 
 66;
 0.373691;0.848532;,
 0.373691;0.848532;,
 0.373691;0.848532;,
 0.373691;0.848532;,
 0.373691;0.848532;,
 0.125000;0.651470;,
 0.285134;0.652344;,
 0.440861;0.873638;,
 0.285134;0.652344;,
 0.125811;0.769587;,
 0.284983;0.768860;,
 0.394099;0.981940;,
 0.284983;0.768860;,
 0.125790;0.886399;,
 0.285933;0.885664;,
 0.334265;0.962229;,
 0.285933;0.885664;,
 0.125011;0.994236;,
 0.285156;0.996058;,
 0.304591;0.823426;,
 0.285156;0.996058;,
 0.125790;0.886695;,
 0.285933;0.886256;,
 0.354441;0.718977;,
 0.285933;0.886256;,
 0.125811;0.769883;,
 0.284983;0.769452;,
 0.414662;0.741771;,
 0.284983;0.769452;,
 0.228199;0.768896;,
 0.228199;0.768896;,
 0.228199;0.768896;,
 0.228350;0.652380;,
 0.228350;0.652380;,
 0.228350;0.652380;,
 0.229149;0.885700;,
 0.229149;0.885700;,
 0.229149;0.885700;,
 0.228199;0.769488;,
 0.228199;0.769488;,
 0.228199;0.769488;,
 0.228372;0.996094;,
 0.228372;0.996094;,
 0.228372;0.996094;,
 0.229149;0.886292;,
 0.229149;0.886292;,
 0.229149;0.886292;,
 0.229149;0.886292;,
 0.228372;0.996094;,
 0.228199;0.769488;,
 0.229149;0.885700;,
 0.228350;0.652380;,
 0.228199;0.768896;,
 0.414662;0.741771;,
 0.125811;0.769883;,
 0.354441;0.718977;,
 0.125790;0.886695;,
 0.304591;0.823426;,
 0.125011;0.994236;,
 0.334265;0.962229;,
 0.125790;0.886399;,
 0.394099;0.981940;,
 0.125811;0.769587;,
 0.440861;0.873638;,
 0.125000;0.651470;,
 0.373691;0.848532;;
 }
}
Frame frm-SS1 {
  FrameTransformMatrix {
0.000010,0.000001,-0.000002,0.000000,
0.000000,0.000009,0.000004,0.000000,
0.000002,-0.000004,0.000009,0.000000,
-0.009087,-0.502378,-0.869722,1.000000;;
 }
Mesh SS1 {
 6;
 0.000000;0.000000;0.100000;,
 0.000000;0.000000;-0.100000;,
 0.000000;-0.100000;0.000000;,
 0.000000;0.100000;0.000000;,
 -0.100000;0.000000;0.000000;,
 0.100000;0.000000;0.000000;;

 8;
 3;1,3,5;,
 3;0,5,3;,
 3;1,5,2;,
 3;0,2,5;,
 3;1,4,3;,
 3;0,3,4;,
 3;1,2,4;,
 3;0,4,2;;

 MeshMaterialList {
  1;
  8;
  0,
  0,
  0,
  0,
  0,
  0,
  0,
  0;
Material {
 0.333333;0.960452;1.000000;0.500000;;
 0.000000;
 0.333333;0.960452;1.000000;;
 0.0; 0.0; 0.0;;
 }
}
 MeshNormals {
  6;
  0.000000;0.000000;1.000000;,
  0.000000;0.000000;-1.000000;,
  0.000000;-1.000000;0.000000;,
  0.000000;1.000000;0.000000;,
  -1.000000;0.000000;0.000000;,
  1.000000;0.000000;0.000000;;

  8;
  3;1,3,5;,
  3;0,5,3;,
  3;1,5,2;,
  3;0,2,5;,
  3;1,4,3;,
  3;0,3,4;,
  3;1,2,4;,
  3;0,4,2;;
 }
 MeshTextureCoords { 
 6;
 0.000000;0.000000;,
 0.000000;0.000000;,
 0.000000;0.000000;,
 0.000000;0.000000;,
 0.000000;0.000000;,
 0.000000;0.000000;;
 }
}
}
}
}
Frame frm-portal2 {
  FrameTransformMatrix {
0.338128,0.000000,0.941100,0.000000,
-0.721029,0.642655,0.259059,0.000000,
-0.604803,-0.766155,0.217300,0.000000,
1.986643,0.000000,0.723465,1.000000;;
 }
Mesh portal2 {
 42;
 0.769896;-0.000001;0.003313;,
 0.769896;-0.000001;0.003313;,
 0.712006;-0.861038;-0.157877;,
 0.712006;-0.861038;-0.157877;,
 0.712006;-0.861038;-0.157877;,
 0.547148;-1.590990;-0.616905;,
 0.547148;-1.590990;-0.616905;,
 -0.541131;-1.590990;-0.621551;,
 -0.541131;-1.590990;-0.621551;,
 -0.709902;-0.861038;-0.163947;,
 -0.709902;-0.861038;-0.163947;,
 -0.709902;-0.861038;-0.163947;,
 -0.769166;-0.000001;-0.003259;,
 -0.769166;-0.000001;-0.003259;,
 0.759581;-0.000001;-0.112517;,
 0.759581;-0.000001;-0.112517;,
 0.701690;-0.861038;-0.273706;,
 0.701690;-0.861038;-0.273706;,
 0.701690;-0.861038;-0.273706;,
 0.536832;-1.590990;-0.732735;,
 0.536832;-1.590990;-0.732735;,
 -0.551447;-1.590990;-0.737381;,
 -0.551447;-1.590990;-0.737381;,
 -0.720218;-0.861038;-0.279777;,
 -0.720218;-0.861038;-0.279777;,
 -0.720218;-0.861038;-0.279777;,
 -0.779482;-0.000001;-0.119088;,
 -0.779482;-0.000001;-0.119088;,
 0.000365;-0.000001;0.000027;,
 0.000365;-0.000001;0.000027;,
 -0.779482;-0.000001;-0.119088;,
 -0.720218;-0.861038;-0.279777;,
 -0.551447;-1.590990;-0.737381;,
 0.536832;-1.590990;-0.732735;,
 0.701690;-0.861038;-0.273706;,
 0.759581;-0.000001;-0.112517;,
 -0.769166;-0.000001;-0.003259;,
 -0.709902;-0.861038;-0.163947;,
 -0.541131;-1.590990;-0.621551;,
 0.547148;-1.590990;-0.616905;,
 0.712006;-0.861038;-0.157877;,
 0.769896;-0.000001;0.003313;;

 10;
 5;13,28,1,15,27;,
 4;0,4,18,14;,
 4;3,6,20,17;,
 4;5,8,22,19;,
 4;7,11,25,21;,
 4;10,12,26,24;,
 4;9,38,39,2;,
 4;16,33,32,23;,
 5;40,41,29,36,37;,
 4;31,30,35,34;;

 MeshMaterialList {
  2;
  10;
  0,
  0,
  0,
  0,
  0,
  0,
  1,
  0,
  1,
  0;
Material {
 1.000000;1.000000;1.000000;1.000000;;
 0.000000;
 1.000000;1.000000;1.000000;;
 0.0; 0.0; 0.0;;
 TextureFilename {
  "acs01.ppm";
 }
 }
Material {
 1.000000;1.000000;1.000000;1.000000;;
 0.000000;
 1.000000;1.000000;1.000000;;
 0.0; 0.0; 0.0;;
 TextureFilename {
  "acs01.ppm";
 }
 }
}
 MeshNormals {
  42;
  0.643750;0.497771;0.581214;,
  0.643750;0.497771;0.581214;,
  0.714120;-0.342435;0.610550;,
  0.714120;-0.342435;0.610550;,
  0.714120;-0.342435;0.610550;,
  0.420599;-0.824487;0.378574;,
  0.420599;-0.824487;0.378574;,
  -0.388307;-0.817610;0.425124;,
  -0.388307;-0.817610;0.425124;,
  -0.648323;-0.359114;0.671353;,
  -0.648323;-0.359114;0.671353;,
  -0.648323;-0.359114;0.671353;,
  -0.609245;0.447130;0.654901;,
  -0.609245;0.447130;0.654901;,
  0.539334;0.611916;-0.578513;,
  0.539334;0.611916;-0.578513;,
  0.687171;0.176551;-0.704717;,
  0.687171;0.176551;-0.704717;,
  0.687171;0.176551;-0.704717;,
  0.657444;-0.423561;-0.623188;,
  0.657444;-0.423561;-0.623188;,
  -0.667565;-0.519979;-0.532897;,
  -0.667565;-0.519979;-0.532897;,
  -0.748736;0.140786;-0.647745;,
  -0.748736;0.140786;-0.647745;,
  -0.748736;0.140786;-0.647745;,
  -0.572050;0.636101;-0.517817;,
  -0.572050;0.636101;-0.517817;,
  -0.003285;0.638853;0.769321;,
  -0.003285;0.638853;0.769321;,
  -0.572050;0.636101;-0.517817;,
  -0.748736;0.140786;-0.647745;,
  -0.667565;-0.519979;-0.532897;,
  0.657444;-0.423561;-0.623188;,
  0.687171;0.176551;-0.704717;,
  0.539334;0.611916;-0.578513;,
  -0.609245;0.447130;0.654901;,
  -0.648323;-0.359114;0.671353;,
  -0.388307;-0.817610;0.425124;,
  0.420599;-0.824487;0.378574;,
  0.714120;-0.342435;0.610550;,
  0.643750;0.497771;0.581214;;

  10;
  5;13,28,1,15,27;,
  4;0,4,18,14;,
  4;3,6,20,17;,
  4;5,8,22,19;,
  4;7,11,25,21;,
  4;10,12,26,24;,
  4;9,38,39,2;,
  4;16,33,32,23;,
  5;40,41,29,36,37;,
  4;31,30,35,34;;
 }
 MeshTextureCoords { 
 42;
 0.005470;0.995445;,
 0.005470;0.995445;,
 0.009693;0.816724;,
 0.008608;0.823902;,
 0.008608;0.823902;,
 0.025746;0.668160;,
 0.025746;0.668160;,
 0.084736;0.668002;,
 0.084736;0.668002;,
 0.101651;0.815751;,
 0.102114;0.823695;,
 0.102114;0.823695;,
 0.105326;0.995222;,
 0.105326;0.995222;,
 0.006029;0.991506;,
 0.006029;0.991506;,
 0.009167;0.819963;,
 0.009167;0.819963;,
 0.009167;0.819963;,
 0.026305;0.664220;,
 0.026305;0.664220;,
 0.085296;0.664062;,
 0.085296;0.664062;,
 0.102673;0.819756;,
 0.102673;0.819756;,
 0.102673;0.819756;,
 0.105885;0.991283;,
 0.105885;0.991283;,
 0.055384;0.995982;,
 0.056394;0.996094;,
 0.105885;0.991283;,
 0.102673;0.819756;,
 0.085296;0.664062;,
 0.026305;0.664220;,
 0.009167;0.819963;,
 0.006029;0.991506;,
 0.104490;0.995445;,
 0.101651;0.815751;,
 0.082332;0.664063;,
 0.030201;0.664063;,
 0.009693;0.816724;,
 0.006920;0.996418;;
 }
}
Frame frm-engine2 {
  FrameTransformMatrix {
-0.999988,0.000400,0.004800,0.000000,
-0.002426,0.819132,-0.573600,0.000000,
-0.004161,-0.573605,-0.819122,0.000000,
0.004245,-0.040905,-0.699195,1.000000;;
 }
Mesh engine2 {
 66;
 -0.000068;-0.940310;0.000025;,
 -0.000068;-0.940310;0.000025;,
 -0.000068;-0.940310;0.000025;,
 -0.000068;-0.940310;0.000025;,
 -0.000068;-0.940310;0.000025;,
 0.179085;0.107736;-0.001289;,
 0.358656;-0.940238;-0.000688;,
 0.358656;-0.940238;-0.000688;,
 0.358656;-0.940238;-0.000688;,
 0.089713;0.107718;0.154219;,
 0.179912;-0.940274;0.310331;,
 0.179912;-0.940274;0.310331;,
 0.179912;-0.940274;0.310331;,
 -0.089648;0.107682;0.154576;,
 -0.178810;-0.940346;0.311044;,
 -0.178810;-0.940346;0.311044;,
 -0.178810;-0.940346;0.311044;,
 -0.179638;0.107664;-0.000576;,
 -0.358789;-0.940383;0.000739;,
 -0.358789;-0.940383;0.000739;,
 -0.358789;-0.940383;0.000739;,
 -0.090266;0.107682;-0.156085;,
 -0.180047;-0.940347;-0.310281;,
 -0.180047;-0.940347;-0.310281;,
 -0.180047;-0.940347;-0.310281;,
 0.089095;0.107718;-0.156442;,
 0.178676;-0.940274;-0.310994;,
 0.178676;-0.940274;-0.310994;,
 0.178676;-0.940274;-0.310994;,
 0.179837;-0.568660;0.310331;,
 0.179837;-0.568660;0.310331;,
 0.179837;-0.568660;0.310331;,
 0.358581;-0.568624;-0.000688;,
 0.358581;-0.568624;-0.000688;,
 0.358581;-0.568624;-0.000688;,
 -0.178885;-0.568733;0.311044;,
 -0.178885;-0.568733;0.311044;,
 -0.178885;-0.568733;0.311044;,
 0.178601;-0.568661;-0.310994;,
 0.178601;-0.568661;-0.310994;,
 0.178601;-0.568661;-0.310994;,
 -0.358864;-0.568769;0.000739;,
 -0.358864;-0.568769;0.000739;,
 -0.358864;-0.568769;0.000739;,
 -0.180122;-0.568733;-0.310281;,
 -0.180122;-0.568733;-0.310281;,
 -0.180122;-0.568733;-0.310281;,
 -0.180122;-0.568733;-0.310281;,
 -0.358864;-0.568769;0.000739;,
 0.178601;-0.568661;-0.310994;,
 -0.178885;-0.568733;0.311044;,
 0.358581;-0.568624;-0.000688;,
 0.179837;-0.568660;0.310331;,
 0.178676;-0.940274;-0.310994;,
 0.089095;0.107718;-0.156442;,
 -0.180047;-0.940347;-0.310281;,
 -0.090266;0.107682;-0.156085;,
 -0.358789;-0.940383;0.000739;,
 -0.179638;0.107664;-0.000576;,
 -0.178810;-0.940346;0.311044;,
 -0.089648;0.107682;0.154576;,
 0.179912;-0.940274;0.310331;,
 0.089713;0.107718;0.154219;,
 0.358656;-0.940238;-0.000688;,
 0.179085;0.107736;-0.001289;,
 -0.000068;-0.940310;0.000025;;

 18;
 4;31,9,13,37;,
 4;30,12,8,34;,
 3;7,11,4;,
 4;36,60,17,43;,
 4;35,16,10,29;,
 3;61,15,3;,
 4;42,58,21,46;,
 4;41,20,14,50;,
 3;59,19,2;,
 4;45,56,25,40;,
 4;44,24,18,48;,
 3;57,23,1;,
 4;39,54,5,33;,
 4;38,28,22,47;,
 3;55,27,0;,
 4;32,64,62,52;,
 4;51,6,26,49;,
 3;53,63,65;;

 MeshMaterialList {
  2;
  18;
  0,
  0,
  1,
  0,
  0,
  1,
  0,
  0,
  1,
  0,
  0,
  1,
  0,
  0,
  1,
  0,
  0,
  1;
Material {
 1.000000;1.000000;1.000000;1.000000;;
 0.000000;
 1.000000;1.000000;1.000000;;
 0.0; 0.0; 0.0;;
 TextureFilename {
  "acs01.ppm";
 }
 }
Material {
 1.000000;1.000000;1.000000;1.000000;;
 0.000000;
 1.000000;1.000000;1.000000;;
 0.0; 0.0; 0.0;;
 TextureFilename {
  "acs01.ppm";
 }
 }
}
 MeshNormals {
  66;
  0.000201;-1.000000;-0.000000;,
  0.000201;-1.000000;-0.000000;,
  0.000201;-1.000000;-0.000000;,
  0.000201;-1.000000;-0.000000;,
  0.000201;-1.000000;-0.000000;,
  0.966541;0.256503;-0.002010;,
  0.707248;-0.706964;-0.001408;,
  0.707248;-0.706964;-0.001408;,
  0.707248;-0.706964;-0.001408;,
  0.484800;0.257516;0.835855;,
  0.328605;-0.755863;0.566295;,
  0.328605;-0.755863;0.566295;,
  0.328605;-0.755863;0.566295;,
  -0.481572;0.257327;0.837777;,
  -0.326047;-0.755994;0.567596;,
  -0.326047;-0.755994;0.567596;,
  -0.326047;-0.755994;0.567596;,
  -0.966642;0.256124;0.001839;,
  -0.654500;-0.756061;0.001302;,
  -0.654500;-0.756061;0.001302;,
  -0.654500;-0.756061;0.001302;,
  -0.485122;0.255110;-0.836406;,
  -0.328301;-0.755995;-0.566295;,
  -0.328301;-0.755995;-0.566295;,
  -0.328301;-0.755995;-0.566295;,
  0.481689;0.255300;-0.838330;,
  0.326352;-0.755863;-0.567597;,
  0.326352;-0.755863;-0.567597;,
  0.326352;-0.755863;-0.567597;,
  0.497434;0.130450;0.857637;,
  0.497434;0.130450;0.857637;,
  0.497434;0.130450;0.857637;,
  0.991516;0.129973;-0.002018;,
  0.991516;0.129973;-0.002018;,
  0.991516;0.129973;-0.002018;,
  -0.494070;0.130253;0.859610;,
  -0.494070;0.130253;0.859610;,
  -0.494070;0.130253;0.859610;,
  0.494056;0.129299;-0.859762;,
  0.494056;0.129299;-0.859762;,
  0.494056;0.129299;-0.859762;,
  -0.991567;0.129578;0.001931;,
  -0.991567;0.129578;0.001931;,
  -0.991567;0.129578;0.001931;,
  -0.497524;0.129102;-0.857790;,
  -0.497524;0.129102;-0.857790;,
  -0.497524;0.129102;-0.857790;,
  -0.497524;0.129102;-0.857790;,
  -0.991567;0.129578;0.001931;,
  0.494056;0.129299;-0.859762;,
  -0.494070;0.130253;0.859610;,
  0.991516;0.129973;-0.002018;,
  0.497434;0.130450;0.857637;,
  0.326352;-0.755863;-0.567597;,
  0.481689;0.255300;-0.838330;,
  -0.328301;-0.755995;-0.566295;,
  -0.485122;0.255110;-0.836406;,
  -0.654500;-0.756061;0.001302;,
  -0.966642;0.256124;0.001839;,
  -0.326047;-0.755994;0.567596;,
  -0.481572;0.257327;0.837777;,
  0.328605;-0.755863;0.566295;,
  0.484800;0.257516;0.835855;,
  0.707248;-0.706964;-0.001408;,
  0.966541;0.256503;-0.002010;,
  0.000201;-1.000000;-0.000000;;

  18;
  4;31,9,13,37;,
  4;30,12,8,34;,
  3;7,11,4;,
  4;36,60,17,43;,
  4;35,16,10,29;,
  3;61,15,3;,
  4;42,58,21,46;,
  4;41,20,14,50;,
  3;59,19,2;,
  4;45,56,25,40;,
  4;44,24,18,48;,
  3;57,23,1;,
  4;39,54,5,33;,
  4;38,28,22,47;,
  3;55,27,0;,
  4;32,64,62,52;,
  4;51,6,26,49;,
  3;53,63,65;;
 }
 MeshTextureCoords { 
 66;
 0.374687;0.853683;,
 0.374687;0.853683;,
 0.374687;0.853683;,
 0.374687;0.853683;,
 0.374687;0.853683;,
 0.125965;0.653401;,
 0.285134;0.652344;,
 0.440285;0.875835;,
 0.285134;0.652344;,
 0.125811;0.766607;,
 0.284983;0.766846;,
 0.393634;0.982364;,
 0.284983;0.766846;,
 0.125973;0.878007;,
 0.285151;0.877271;,
 0.333825;0.962137;,
 0.285151;0.877271;,
 0.125493;0.995202;,
 0.285156;0.996058;,
 0.304587;0.821905;,
 0.285156;0.996058;,
 0.125973;0.878303;,
 0.285151;0.877864;,
 0.354131;0.717943;,
 0.285151;0.877864;,
 0.125811;0.766903;,
 0.284983;0.767438;,
 0.415548;0.742662;,
 0.284983;0.767438;,
 0.228199;0.766882;,
 0.228199;0.766882;,
 0.228199;0.766882;,
 0.228350;0.652380;,
 0.228350;0.652380;,
 0.228350;0.652380;,
 0.228367;0.877307;,
 0.228367;0.877307;,
 0.228367;0.877307;,
 0.228199;0.767474;,
 0.228199;0.767474;,
 0.228199;0.767474;,
 0.228372;0.996094;,
 0.228372;0.996094;,
 0.228372;0.996094;,
 0.228367;0.877900;,
 0.228367;0.877900;,
 0.228367;0.877900;,
 0.228367;0.877900;,
 0.228372;0.996094;,
 0.228199;0.767474;,
 0.228367;0.877307;,
 0.228350;0.652380;,
 0.228199;0.766882;,
 0.415548;0.742662;,
 0.125811;0.766903;,
 0.354131;0.717943;,
 0.125973;0.878303;,
 0.304587;0.821905;,
 0.125493;0.995202;,
 0.333825;0.962137;,
 0.125973;0.878007;,
 0.393634;0.982364;,
 0.125811;0.766607;,
 0.440285;0.875835;,
 0.125965;0.653401;,
 0.374687;0.853683;;
 }
}
Frame frm-SS2 {
  FrameTransformMatrix {
-0.000003,-0.000002,0.000009,0.000000,
-0.000000,0.000010,0.000003,0.000000,
-0.000009,0.000001,-0.000003,0.000000,
0.019127,-0.347381,-0.938937,1.000000;;
 }
Mesh SS2 {
 6;
 0.000000;0.000000;0.100000;,
 0.000000;0.000000;-0.100000;,
 0.000000;-0.100000;0.000000;,
 0.000000;0.100000;0.000000;,
 -0.100000;0.000000;0.000000;,
 0.100000;0.000000;0.000000;;

 8;
 3;1,3,5;,
 3;0,5,3;,
 3;1,5,2;,
 3;0,2,5;,
 3;1,4,3;,
 3;0,3,4;,
 3;1,2,4;,
 3;0,4,2;;

 MeshMaterialList {
  1;
  8;
  0,
  0,
  0,
  0,
  0,
  0,
  0,
  0;
Material {
 0.333333;0.960452;1.000000;0.500000;;
 0.000000;
 0.333333;0.960452;1.000000;;
 0.0; 0.0; 0.0;;
 }
}
 MeshNormals {
  6;
  0.000000;0.000000;1.000000;,
  0.000000;0.000000;-1.000000;,
  0.000000;-1.000000;0.000000;,
  0.000000;1.000000;0.000000;,
  -1.000000;0.000000;0.000000;,
  1.000000;0.000000;0.000000;;

  8;
  3;1,3,5;,
  3;0,5,3;,
  3;1,5,2;,
  3;0,2,5;,
  3;1,4,3;,
  3;0,3,4;,
  3;1,2,4;,
  3;0,4,2;;
 }
 MeshTextureCoords { 
 6;
 0.000000;0.000000;,
 0.000000;0.000000;,
 0.000000;0.000000;,
 0.000000;0.000000;,
 0.000000;0.000000;,
 0.000000;0.000000;;
 }
}
}
}
}
Frame frm-protal3 {
  FrameTransformMatrix {
0.641767,0.000000,-0.766900,0.000000,
0.587499,0.642757,0.491638,0.000000,
0.492930,-0.766070,0.412500,0.000000,
-1.620311,0.000000,1.359651,1.000000;;
 }
Mesh protal3 {
 42;
 -0.769589;-0.000000;0.000146;,
 -0.769589;-0.000000;0.000146;,
 0.769499;-0.000000;-0.001909;,
 0.769499;-0.000000;-0.001909;,
 0.710706;-0.861038;-0.162772;,
 0.710706;-0.861038;-0.162772;,
 0.710706;-0.861038;-0.162772;,
 0.543278;-1.590990;-0.620872;,
 0.543278;-1.590990;-0.620872;,
 -0.545021;-1.590990;-0.619420;,
 -0.545021;-1.590990;-0.619420;,
 -0.711225;-0.861038;-0.160874;,
 -0.711225;-0.861038;-0.160874;,
 -0.711225;-0.861038;-0.160874;,
 -0.769604;-0.000000;-0.115708;,
 -0.769604;-0.000000;-0.115708;,
 0.769486;-0.000000;-0.117762;,
 0.769486;-0.000000;-0.117762;,
 0.710692;-0.861038;-0.278625;,
 0.710692;-0.861038;-0.278625;,
 0.710692;-0.861038;-0.278625;,
 0.543264;-1.590990;-0.736726;,
 0.543264;-1.590990;-0.736726;,
 -0.545035;-1.590990;-0.735274;,
 -0.545035;-1.590990;-0.735274;,
 -0.711239;-0.861038;-0.276728;,
 -0.711239;-0.861038;-0.276728;,
 -0.711239;-0.861038;-0.276728;,
 -0.000045;-0.000000;-0.000881;,
 -0.000045;-0.000000;-0.000881;,
 -0.711239;-0.861038;-0.276728;,
 -0.545035;-1.590990;-0.735274;,
 0.543264;-1.590990;-0.736726;,
 0.710692;-0.861038;-0.278625;,
 0.769486;-0.000000;-0.117762;,
 -0.769604;-0.000000;-0.115708;,
 -0.711225;-0.861038;-0.160874;,
 -0.545021;-1.590990;-0.619420;,
 0.543278;-1.590990;-0.620872;,
 0.710706;-0.861038;-0.162772;,
 0.769499;-0.000000;-0.001909;,
 -0.769589;-0.000000;0.000146;;

 10;
 4;13,1,15,27;,
 5;0,28,3,17,14;,
 4;2,6,20,16;,
 4;5,8,22,19;,
 4;7,10,24,21;,
 4;9,12,26,23;,
 4;11,37,38,4;,
 4;18,32,31,25;,
 4;30,35,34,33;,
 5;39,40,29,41,36;;

 MeshMaterialList {
  1;
  10;
  0,
  0,
  0,
  0,
  0,
  0,
  0,
  0,
  0,
  0;
Material {
 1.000000;1.000000;1.000000;1.000000;;
 0.000000;
 1.000000;1.000000;1.000000;;
 0.0; 0.0; 0.0;;
 TextureFilename {
  "acs01.ppm";
 }
 }
}
 MeshNormals {
  42;
  -0.627706;0.471609;0.619331;,
  -0.627706;0.471609;0.619331;,
  0.628838;0.470948;0.618685;,
  0.628838;0.470948;0.618685;,
  0.682083;-0.351481;0.641268;,
  0.682083;-0.351481;0.641268;,
  0.682083;-0.351481;0.641268;,
  0.405798;-0.820655;0.402311;,
  0.405798;-0.820655;0.402311;,
  -0.405191;-0.820743;0.402741;,
  -0.405191;-0.820743;0.402741;,
  -0.681299;-0.351264;0.642219;,
  -0.681299;-0.351264;0.642219;,
  -0.681299;-0.351264;0.642219;,
  -0.557627;0.622968;-0.548600;,
  -0.557627;0.622968;-0.548600;,
  0.556652;0.623283;-0.549233;,
  0.556652;0.623283;-0.549233;,
  0.718432;0.158451;-0.677310;,
  0.718432;0.158451;-0.677310;,
  0.718432;0.158451;-0.677310;,
  0.664934;-0.472446;-0.578496;,
  0.664934;-0.472446;-0.578496;,
  -0.666281;-0.471188;-0.577971;,
  -0.666281;-0.471188;-0.577971;,
  -0.719361;0.158918;-0.676214;,
  -0.719361;0.158918;-0.676214;,
  -0.719361;0.158918;-0.676214;,
  0.001027;0.638853;0.769328;,
  0.001027;0.638853;0.769328;,
  -0.719361;0.158918;-0.676214;,
  -0.666281;-0.471188;-0.577971;,
  0.664934;-0.472446;-0.578496;,
  0.718432;0.158451;-0.677310;,
  0.556652;0.623283;-0.549233;,
  -0.557627;0.622968;-0.548600;,
  -0.681299;-0.351264;0.642219;,
  -0.405191;-0.820743;0.402741;,
  0.405798;-0.820655;0.402311;,
  0.682083;-0.351481;0.641268;,
  0.628838;0.470948;0.618685;,
  -0.627706;0.471609;0.619331;;

  10;
  4;13,1,15,27;,
  5;0,28,3,17,14;,
  4;2,6,20,16;,
  4;5,8,22,19;,
  4;7,10,24,21;,
  4;9,12,26,23;,
  4;11,37,38,4;,
  4;18,32,31,25;,
  4;30,35,34,33;,
  5;39,40,29,41,36;;
 }
 MeshTextureCoords { 
 42;
 0.105527;0.996094;,
 0.105527;0.996094;,
 0.005924;0.995591;,
 0.005924;0.995591;,
 0.008834;0.823992;,
 0.008834;0.823992;,
 0.008834;0.823992;,
 0.028774;0.668004;,
 0.028774;0.668004;,
 0.082635;0.668053;,
 0.082635;0.668053;,
 0.102639;0.824489;,
 0.102639;0.824489;,
 0.102639;0.824489;,
 0.105528;0.992152;,
 0.105528;0.992152;,
 0.005925;0.991650;,
 0.005925;0.991650;,
 0.008835;0.820051;,
 0.008835;0.820051;,
 0.008835;0.820051;,
 0.028775;0.664062;,
 0.028775;0.664062;,
 0.082636;0.664112;,
 0.082636;0.664112;,
 0.102639;0.820547;,
 0.102639;0.820547;,
 0.102639;0.820547;,
 0.055664;0.996059;,
 0.055664;0.996059;,
 0.102639;0.820547;,
 0.082636;0.664112;,
 0.028775;0.664062;,
 0.008835;0.820051;,
 0.005925;0.991650;,
 0.105528;0.992152;,
 0.102639;0.824489;,
 0.082635;0.668053;,
 0.028774;0.668004;,
 0.008834;0.823992;,
 0.005924;0.995591;,
 0.105527;0.996094;;
 }
}
Frame frm-engine3 {
  FrameTransformMatrix {
-1.000000,-0.000100,-0.000800,0.000000,
0.000377,0.819135,-0.573600,0.000000,
0.000713,-0.573600,-0.819135,0.000000,
-0.000610,-0.040838,-0.699963,1.000000;;
 }
Mesh engine3 {
 66;
 -0.000074;-0.940311;0.000058;,
 -0.000074;-0.940311;0.000058;,
 -0.000074;-0.940311;0.000058;,
 -0.000074;-0.940311;0.000058;,
 -0.000074;-0.940311;0.000058;,
 0.179078;0.107736;-0.001257;,
 0.358649;-0.940238;-0.000656;,
 0.358649;-0.940238;-0.000656;,
 0.358649;-0.940238;-0.000656;,
 0.089707;0.107718;0.154251;,
 0.179906;-0.940274;0.310364;,
 0.179906;-0.940274;0.310364;,
 0.179906;-0.940274;0.310364;,
 -0.089655;0.107682;0.154608;,
 -0.178817;-0.940347;0.311076;,
 -0.178817;-0.940347;0.311076;,
 -0.178817;-0.940347;0.311076;,
 -0.179644;0.107664;-0.000544;,
 -0.358795;-0.940383;0.000771;,
 -0.358795;-0.940383;0.000771;,
 -0.358795;-0.940383;0.000771;,
 -0.090273;0.107682;-0.156053;,
 -0.180053;-0.940347;-0.310249;,
 -0.180053;-0.940347;-0.310249;,
 -0.180053;-0.940347;-0.310249;,
 0.089089;0.107718;-0.156410;,
 0.178670;-0.940274;-0.310963;,
 0.178670;-0.940274;-0.310963;,
 0.178670;-0.940274;-0.310963;,
 0.179831;-0.568661;0.310364;,
 0.179831;-0.568661;0.310364;,
 0.179831;-0.568661;0.310364;,
 0.358574;-0.568625;-0.000656;,
 0.358574;-0.568625;-0.000656;,
 0.358574;-0.568625;-0.000656;,
 -0.178892;-0.568733;0.311076;,
 -0.178892;-0.568733;0.311076;,
 -0.178892;-0.568733;0.311076;,
 0.178595;-0.568661;-0.310963;,
 0.178595;-0.568661;-0.310963;,
 0.178595;-0.568661;-0.310963;,
 -0.358870;-0.568769;0.000771;,
 -0.358870;-0.568769;0.000771;,
 -0.358870;-0.568769;0.000771;,
 -0.180128;-0.568733;-0.310249;,
 -0.180128;-0.568733;-0.310249;,
 -0.180128;-0.568733;-0.310249;,
 -0.180128;-0.568733;-0.310249;,
 -0.358870;-0.568769;0.000771;,
 0.178595;-0.568661;-0.310963;,
 -0.178892;-0.568733;0.311076;,
 0.358574;-0.568625;-0.000656;,
 0.179831;-0.568661;0.310364;,
 0.178670;-0.940274;-0.310963;,
 0.089089;0.107718;-0.156410;,
 -0.180053;-0.940347;-0.310249;,
 -0.090273;0.107682;-0.156053;,
 -0.358795;-0.940383;0.000771;,
 -0.179644;0.107664;-0.000544;,
 -0.178817;-0.940347;0.311076;,
 -0.089655;0.107682;0.154608;,
 0.179906;-0.940274;0.310364;,
 0.089707;0.107718;0.154251;,
 0.358649;-0.940238;-0.000656;,
 0.179078;0.107736;-0.001257;,
 -0.000074;-0.940311;0.000058;;

 18;
 4;31,9,13,37;,
 4;30,12,8,34;,
 3;7,11,4;,
 4;36,60,17,43;,
 4;35,16,10,29;,
 3;61,15,3;,
 4;42,58,21,46;,
 4;41,20,14,50;,
 3;59,19,2;,
 4;45,56,25,40;,
 4;44,24,18,48;,
 3;57,23,1;,
 4;39,54,5,33;,
 4;38,28,22,47;,
 3;55,27,0;,
 4;32,64,62,52;,
 4;51,6,26,49;,
 3;53,63,65;;

 MeshMaterialList {
  2;
  18;
  0,
  0,
  1,
  0,
  0,
  1,
  0,
  0,
  1,
  0,
  0,
  1,
  0,
  0,
  1,
  0,
  0,
  1;
Material {
 1.000000;1.000000;1.000000;1.000000;;
 0.000000;
 1.000000;1.000000;1.000000;;
 0.0; 0.0; 0.0;;
 TextureFilename {
  "acs01.ppm";
 }
 }
Material {
 1.000000;1.000000;1.000000;1.000000;;
 0.000000;
 1.000000;1.000000;1.000000;;
 0.0; 0.0; 0.0;;
 TextureFilename {
  "acs01.ppm";
 }
 }
}
 MeshNormals {
  66;
  0.000201;-1.000000;-0.000000;,
  0.000201;-1.000000;-0.000000;,
  0.000201;-1.000000;-0.000000;,
  0.000201;-1.000000;-0.000000;,
  0.000201;-1.000000;-0.000000;,
  0.966541;0.256503;-0.002010;,
  0.707248;-0.706964;-0.001408;,
  0.707248;-0.706964;-0.001408;,
  0.707248;-0.706964;-0.001408;,
  0.484800;0.257516;0.835855;,
  0.328605;-0.755863;0.566295;,
  0.328605;-0.755863;0.566295;,
  0.328605;-0.755863;0.566295;,
  -0.481572;0.257326;0.837778;,
  -0.326047;-0.755994;0.567596;,
  -0.326047;-0.755994;0.567596;,
  -0.326047;-0.755994;0.567596;,
  -0.966642;0.256124;0.001839;,
  -0.654500;-0.756061;0.001302;,
  -0.654500;-0.756061;0.001302;,
  -0.654500;-0.756061;0.001302;,
  -0.485123;0.255110;-0.836406;,
  -0.328301;-0.755995;-0.566295;,
  -0.328301;-0.755995;-0.566295;,
  -0.328301;-0.755995;-0.566295;,
  0.481689;0.255300;-0.838330;,
  0.326352;-0.755863;-0.567597;,
  0.326352;-0.755863;-0.567597;,
  0.326352;-0.755863;-0.567597;,
  0.497434;0.130450;0.857637;,
  0.497434;0.130450;0.857637;,
  0.497434;0.130450;0.857637;,
  0.991516;0.129973;-0.002018;,
  0.991516;0.129973;-0.002018;,
  0.991516;0.129973;-0.002018;,
  -0.494070;0.130253;0.859610;,
  -0.494070;0.130253;0.859610;,
  -0.494070;0.130253;0.859610;,
  0.494055;0.129299;-0.859762;,
  0.494055;0.129299;-0.859762;,
  0.494055;0.129299;-0.859762;,
  -0.991567;0.129578;0.001931;,
  -0.991567;0.129578;0.001931;,
  -0.991567;0.129578;0.001931;,
  -0.497524;0.129102;-0.857790;,
  -0.497524;0.129102;-0.857790;,
  -0.497524;0.129102;-0.857790;,
  -0.497524;0.129102;-0.857790;,
  -0.991567;0.129578;0.001931;,
  0.494055;0.129299;-0.859762;,
  -0.494070;0.130253;0.859610;,
  0.991516;0.129973;-0.002018;,
  0.497434;0.130450;0.857637;,
  0.326352;-0.755863;-0.567597;,
  0.481689;0.255300;-0.838330;,
  -0.328301;-0.755995;-0.566295;,
  -0.485123;0.255110;-0.836406;,
  -0.654500;-0.756061;0.001302;,
  -0.966642;0.256124;0.001839;,
  -0.326047;-0.755994;0.567596;,
  -0.481572;0.257326;0.837778;,
  0.328605;-0.755863;0.566295;,
  0.484800;0.257516;0.835855;,
  0.707248;-0.706964;-0.001408;,
  0.966541;0.256503;-0.002010;,
  0.000201;-1.000000;-0.000000;;

  18;
  4;31,9,13,37;,
  4;30,12,8,34;,
  3;7,11,4;,
  4;36,60,17,43;,
  4;35,16,10,29;,
  3;61,15,3;,
  4;42,58,21,46;,
  4;41,20,14,50;,
  3;59,19,2;,
  4;45,56,25,40;,
  4;44,24,18,48;,
  3;57,23,1;,
  4;39,54,5,33;,
  4;38,28,22,47;,
  3;55,27,0;,
  4;32,64,62,52;,
  4;51,6,26,49;,
  3;53,63,65;;
 }
 MeshTextureCoords { 
 66;
 0.373761;0.850921;,
 0.373761;0.850921;,
 0.373761;0.850921;,
 0.373761;0.850921;,
 0.373761;0.850921;,
 0.125482;0.653401;,
 0.285134;0.652344;,
 0.440250;0.875641;,
 0.285134;0.652344;,
 0.125003;0.765223;,
 0.285140;0.764496;,
 0.393800;0.983518;,
 0.285140;0.764496;,
 0.124682;0.875657;,
 0.285307;0.874922;,
 0.333736;0.962650;,
 0.285307;0.874922;,
 0.124529;0.995202;,
 0.285156;0.996058;,
 0.304060;0.821706;,
 0.285156;0.996058;,
 0.124682;0.875953;,
 0.285307;0.875514;,
 0.355007;0.717681;,
 0.285307;0.875514;,
 0.125003;0.765519;,
 0.285140;0.765088;,
 0.415071;0.741759;,
 0.285140;0.765088;,
 0.228356;0.764532;,
 0.228356;0.764532;,
 0.228356;0.764532;,
 0.228350;0.652380;,
 0.228350;0.652380;,
 0.228350;0.652380;,
 0.228523;0.874957;,
 0.228523;0.874957;,
 0.228523;0.874957;,
 0.228356;0.765124;,
 0.228356;0.765124;,
 0.228356;0.765124;,
 0.228372;0.996094;,
 0.228372;0.996094;,
 0.228372;0.996094;,
 0.228523;0.875550;,
 0.228523;0.875550;,
 0.228523;0.875550;,
 0.228523;0.875550;,
 0.228372;0.996094;,
 0.228356;0.765124;,
 0.228523;0.874957;,
 0.228350;0.652380;,
 0.228356;0.764532;,
 0.415071;0.741759;,
 0.125003;0.765519;,
 0.355007;0.717681;,
 0.124682;0.875953;,
 0.304060;0.821706;,
 0.124529;0.995202;,
 0.333736;0.962650;,
 0.124682;0.875657;,
 0.393800;0.983518;,
 0.125003;0.765223;,
 0.440250;0.875641;,
 0.125482;0.653401;,
 0.373761;0.850921;;
 }
}
Frame frm-SS3 {
  FrameTransformMatrix {
-0.000006,0.000002,-0.000007,0.000000,
0.000000,0.000010,0.000003,0.000000,
0.000008,0.000002,-0.000006,0.000000,
0.036294,-0.367513,-0.932644,1.000000;;
 }
Mesh SS3 {
 6;
 0.000000;0.000000;0.100000;,
 0.000000;0.000000;-0.100000;,
 0.000000;-0.100000;0.000000;,
 0.000000;0.100000;0.000000;,
 -0.100000;0.000000;0.000000;,
 0.100000;0.000000;0.000000;;

 8;
 3;1,3,5;,
 3;0,5,3;,
 3;1,5,2;,
 3;0,2,5;,
 3;1,4,3;,
 3;0,3,4;,
 3;1,2,4;,
 3;0,4,2;;

 MeshMaterialList {
  1;
  8;
  0,
  0,
  0,
  0,
  0,
  0,
  0,
  0;
Material {
 0.333333;0.960452;1.000000;0.500000;;
 0.000000;
 0.333333;0.960452;1.000000;;
 0.0; 0.0; 0.0;;
 }
}
 MeshNormals {
  6;
  0.000000;0.000000;1.000000;,
  0.000000;0.000000;-1.000000;,
  0.000000;-1.000000;0.000000;,
  0.000000;1.000000;0.000000;,
  -1.000000;0.000000;0.000000;,
  1.000000;0.000000;0.000000;;

  8;
  3;1,3,5;,
  3;0,5,3;,
  3;1,5,2;,
  3;0,2,5;,
  3;1,4,3;,
  3;0,3,4;,
  3;1,2,4;,
  3;0,4,2;;
 }
 MeshTextureCoords { 
 6;
 0.000000;0.000000;,
 0.000000;0.000000;,
 0.000000;0.000000;,
 0.000000;0.000000;,
 0.000000;0.000000;,
 0.000000;0.000000;;
 }
}
}
}
}
Frame frm-SSt6 {
  FrameTransformMatrix {
0.000010,0.000000,0.000000,0.000000,
0.000000,0.000010,0.000000,0.000000,
0.000000,0.000000,0.000010,0.000000,
0.641765,2.110679,-0.510136,1.000000;;
 }
Mesh SSt6 {
 6;
 0.000000;0.000000;0.100000;,
 0.000000;0.000000;-0.100000;,
 0.000000;-0.100000;0.000000;,
 0.000000;0.100000;0.000000;,
 -0.100000;0.000000;0.000000;,
 0.100000;0.000000;0.000000;;

 8;
 3;1,3,5;,
 3;0,5,3;,
 3;1,5,2;,
 3;0,2,5;,
 3;1,4,3;,
 3;0,3,4;,
 3;1,2,4;,
 3;0,4,2;;

 MeshMaterialList {
  1;
  8;
  0,
  0,
  0,
  0,
  0,
  0,
  0,
  0;
Material {
 0.333000;0.960000;1.000000;0.500000;;
 0.000000;
 0.333000;0.960000;1.000000;;
 0.0; 0.0; 0.0;;
 }
}
 MeshNormals {
  6;
  0.000000;0.000000;1.000000;,
  0.000000;0.000000;-1.000000;,
  0.000000;-1.000000;0.000000;,
  0.000000;1.000000;0.000000;,
  -1.000000;0.000000;0.000000;,
  1.000000;0.000000;0.000000;;

  8;
  3;1,3,5;,
  3;0,5,3;,
  3;1,5,2;,
  3;0,2,5;,
  3;1,4,3;,
  3;0,3,4;,
  3;1,2,4;,
  3;0,4,2;;
 }
 MeshTextureCoords { 
 6;
 0.000000;0.000000;,
 0.000000;0.000000;,
 0.000000;0.000000;,
 0.000000;0.000000;,
 0.000000;0.000000;,
 0.000000;0.000000;;
 }
}
}
Frame frm-SSt1 {
  FrameTransformMatrix {
0.000010,0.000000,0.000000,0.000000,
0.000000,0.000010,0.000000,0.000000,
0.000000,0.000000,0.000010,0.000000,
0.819686,2.110679,0.003602,1.000000;;
 }
Mesh SSt1 {
 6;
 0.000000;0.000000;0.100000;,
 0.000000;0.000000;-0.100000;,
 0.000000;-0.100000;0.000000;,
 0.000000;0.100000;0.000000;,
 -0.100000;0.000000;0.000000;,
 0.100000;0.000000;0.000000;;

 8;
 3;1,3,5;,
 3;0,5,3;,
 3;1,5,2;,
 3;0,2,5;,
 3;1,4,3;,
 3;0,3,4;,
 3;1,2,4;,
 3;0,4,2;;

 MeshMaterialList {
  1;
  8;
  0,
  0,
  0,
  0,
  0,
  0,
  0,
  0;
Material {
 0.333000;0.960000;1.000000;0.500000;;
 0.000000;
 0.333000;0.960000;1.000000;;
 0.0; 0.0; 0.0;;
 }
}
 MeshNormals {
  6;
  0.000000;0.000000;1.000000;,
  0.000000;0.000000;-1.000000;,
  0.000000;-1.000000;0.000000;,
  0.000000;1.000000;0.000000;,
  -1.000000;0.000000;0.000000;,
  1.000000;0.000000;0.000000;;

  8;
  3;1,3,5;,
  3;0,5,3;,
  3;1,5,2;,
  3;0,2,5;,
  3;1,4,3;,
  3;0,3,4;,
  3;1,2,4;,
  3;0,4,2;;
 }
 MeshTextureCoords { 
 6;
 0.000000;0.000000;,
 0.000000;0.000000;,
 0.000000;0.000000;,
 0.000000;0.000000;,
 0.000000;0.000000;,
 0.000000;0.000000;;
 }
}
}
Frame frm-SSt2 {
  FrameTransformMatrix {
0.000010,0.000000,0.000000,0.000000,
0.000000,0.000010,0.000000,0.000000,
0.000000,0.000000,0.000010,0.000000,
0.631538,2.110679,0.523575,1.000000;;
 }
Mesh SSt2 {
 6;
 0.000000;0.000000;0.100000;,
 0.000000;0.000000;-0.100000;,
 0.000000;-0.100000;0.000000;,
 0.000000;0.100000;0.000000;,
 -0.100000;0.000000;0.000000;,
 0.100000;0.000000;0.000000;;

 8;
 3;1,3,5;,
 3;0,5,3;,
 3;1,5,2;,
 3;0,2,5;,
 3;1,4,3;,
 3;0,3,4;,
 3;1,2,4;,
 3;0,4,2;;

 MeshMaterialList {
  1;
  8;
  0,
  0,
  0,
  0,
  0,
  0,
  0,
  0;
Material {
 0.333000;0.960000;1.000000;0.500000;;
 0.000000;
 0.333000;0.960000;1.000000;;
 0.0; 0.0; 0.0;;
 }
}
 MeshNormals {
  6;
  0.000000;0.000000;1.000000;,
  0.000000;0.000000;-1.000000;,
  0.000000;-1.000000;0.000000;,
  0.000000;1.000000;0.000000;,
  -1.000000;0.000000;0.000000;,
  1.000000;0.000000;0.000000;;

  8;
  3;1,3,5;,
  3;0,5,3;,
  3;1,5,2;,
  3;0,2,5;,
  3;1,4,3;,
  3;0,3,4;,
  3;1,2,4;,
  3;0,4,2;;
 }
 MeshTextureCoords { 
 6;
 0.000000;0.000000;,
 0.000000;0.000000;,
 0.000000;0.000000;,
 0.000000;0.000000;,
 0.000000;0.000000;,
 0.000000;0.000000;;
 }
}
}
Frame frm-SSt3 {
  FrameTransformMatrix {
0.000010,0.000000,0.000000,0.000000,
0.000000,0.000010,0.000000,0.000000,
0.000000,0.000000,0.000010,0.000000,
-0.421716,2.110679,0.719002,1.000000;;
 }
Mesh SSt3 {
 6;
 0.000000;0.000000;0.100000;,
 0.000000;0.000000;-0.100000;,
 0.000000;-0.100000;0.000000;,
 0.000000;0.100000;0.000000;,
 -0.100000;0.000000;0.000000;,
 0.100000;0.000000;0.000000;;

 8;
 3;1,3,5;,
 3;0,5,3;,
 3;1,5,2;,
 3;0,2,5;,
 3;1,4,3;,
 3;0,3,4;,
 3;1,2,4;,
 3;0,4,2;;

 MeshMaterialList {
  1;
  8;
  0,
  0,
  0,
  0,
  0,
  0,
  0,
  0;
Material {
 0.333000;0.960000;1.000000;0.500000;;
 0.000000;
 0.333000;0.960000;1.000000;;
 0.0; 0.0; 0.0;;
 }
}
 MeshNormals {
  6;
  0.000000;0.000000;1.000000;,
  0.000000;0.000000;-1.000000;,
  0.000000;-1.000000;0.000000;,
  0.000000;1.000000;0.000000;,
  -1.000000;0.000000;0.000000;,
  1.000000;0.000000;0.000000;;

  8;
  3;1,3,5;,
  3;0,5,3;,
  3;1,5,2;,
  3;0,2,5;,
  3;1,4,3;,
  3;0,3,4;,
  3;1,2,4;,
  3;0,4,2;;
 }
 MeshTextureCoords { 
 6;
 0.000000;0.000000;,
 0.000000;0.000000;,
 0.000000;0.000000;,
 0.000000;0.000000;,
 0.000000;0.000000;,
 0.000000;0.000000;;
 }
}
}
Frame frm-SSt4 {
  FrameTransformMatrix {
0.000010,0.000000,0.000000,0.000000,
0.000000,0.000010,0.000000,0.000000,
0.000000,0.000000,0.000010,0.000000,
-0.777186,2.110679,0.288181,1.000000;;
 }
Mesh SSt4 {
 6;
 0.000000;0.000000;0.100000;,
 0.000000;0.000000;-0.100000;,
 0.000000;-0.100000;0.000000;,
 0.000000;0.100000;0.000000;,
 -0.100000;0.000000;0.000000;,
 0.100000;0.000000;0.000000;;

 8;
 3;1,3,5;,
 3;0,5,3;,
 3;1,5,2;,
 3;0,2,5;,
 3;1,4,3;,
 3;0,3,4;,
 3;1,2,4;,
 3;0,4,2;;

 MeshMaterialList {
  1;
  8;
  0,
  0,
  0,
  0,
  0,
  0,
  0,
  0;
Material {
 0.333000;0.960000;1.000000;0.500000;;
 0.000000;
 0.333000;0.960000;1.000000;;
 0.0; 0.0; 0.0;;
 }
}
 MeshNormals {
  6;
  0.000000;0.000000;1.000000;,
  0.000000;0.000000;-1.000000;,
  0.000000;-1.000000;0.000000;,
  0.000000;1.000000;0.000000;,
  -1.000000;0.000000;0.000000;,
  1.000000;0.000000;0.000000;;

  8;
  3;1,3,5;,
  3;0,5,3;,
  3;1,5,2;,
  3;0,2,5;,
  3;1,4,3;,
  3;0,3,4;,
  3;1,2,4;,
  3;0,4,2;;
 }
 MeshTextureCoords { 
 6;
 0.000000;0.000000;,
 0.000000;0.000000;,
 0.000000;0.000000;,
 0.000000;0.000000;,
 0.000000;0.000000;,
 0.000000;0.000000;;
 }
}
}
Frame frm-SSt5 {
  FrameTransformMatrix {
0.000010,0.000000,0.000000,0.000000,
0.000000,0.000010,0.000000,0.000000,
0.000000,0.000000,0.000010,0.000000,
-0.773513,2.110679,-0.289931,1.000000;;
 }
Mesh SSt5 {
 6;
 0.000000;0.000000;0.100000;,
 0.000000;0.000000;-0.100000;,
 0.000000;-0.100000;0.000000;,
 0.000000;0.100000;0.000000;,
 -0.100000;0.000000;0.000000;,
 0.100000;0.000000;0.000000;;

 8;
 3;1,3,5;,
 3;0,5,3;,
 3;1,5,2;,
 3;0,2,5;,
 3;1,4,3;,
 3;0,3,4;,
 3;1,2,4;,
 3;0,4,2;;

 MeshMaterialList {
  1;
  8;
  0,
  0,
  0,
  0,
  0,
  0,
  0,
  0;
Material {
 0.333000;0.960000;1.000000;0.500000;;
 0.000000;
 0.333000;0.960000;1.000000;;
 0.0; 0.0; 0.0;;
 }
}
 MeshNormals {
  6;
  0.000000;0.000000;1.000000;,
  0.000000;0.000000;-1.000000;,
  0.000000;-1.000000;0.000000;,
  0.000000;1.000000;0.000000;,
  -1.000000;0.000000;0.000000;,
  1.000000;0.000000;0.000000;;

  8;
  3;1,3,5;,
  3;0,5,3;,
  3;1,5,2;,
  3;0,2,5;,
  3;1,4,3;,
  3;0,3,4;,
  3;1,2,4;,
  3;0,4,2;;
 }
 MeshTextureCoords { 
 6;
 0.000000;0.000000;,
 0.000000;0.000000;,
 0.000000;0.000000;,
 0.000000;0.000000;,
 0.000000;0.000000;,
 0.000000;0.000000;;
 }
}
}
Frame frm-SSb {
  FrameTransformMatrix {
0.000010,0.000000,0.000000,0.000000,
0.000000,0.000010,0.000000,0.000000,
0.000000,0.000000,0.000010,0.000000,
0.067846,-1.625863,0.000000,1.000000;;
 }
Mesh SSb {
 6;
 0.000000;0.000000;0.100000;,
 0.000000;0.000000;-0.100000;,
 0.000000;-0.100000;0.000000;,
 0.000000;0.100000;0.000000;,
 -0.100000;0.000000;0.000000;,
 0.100000;0.000000;0.000000;;

 8;
 3;1,3,5;,
 3;0,5,3;,
 3;1,5,2;,
 3;0,2,5;,
 3;1,4,3;,
 3;0,3,4;,
 3;1,2,4;,
 3;0,4,2;;

 MeshMaterialList {
  1;
  8;
  0,
  0,
  0,
  0,
  0,
  0,
  0,
  0;
Material {
 0.333000;0.960000;1.000000;0.500000;;
 0.000000;
 0.333000;0.960000;1.000000;;
 0.0; 0.0; 0.0;;
 }
}
 MeshNormals {
  6;
  0.000000;0.000000;1.000000;,
  0.000000;0.000000;-1.000000;,
  0.000000;-1.000000;0.000000;,
  0.000000;1.000000;0.000000;,
  -1.000000;0.000000;0.000000;,
  1.000000;0.000000;0.000000;;

  8;
  3;1,3,5;,
  3;0,5,3;,
  3;1,5,2;,
  3;0,2,5;,
  3;1,4,3;,
  3;0,3,4;,
  3;1,2,4;,
  3;0,4,2;;
 }
 MeshTextureCoords { 
 6;
 0.000000;0.000000;,
 0.000000;0.000000;,
 0.000000;0.000000;,
 0.000000;0.000000;,
 0.000000;0.000000;,
 0.000000;0.000000;;
 }
}
}
}
}
AnimationSet {
 Animation anim-portal1 {
  {frm-portal1}
  AnimationKey {
  0;
  2;
  1; 4; 0.902885, -0.421011, -0.078739, 0.036716;;,
  75; 4; 0.902885, -0.421011, -0.078739, 0.036716;;;
  }
  AnimationKey {
  2;
  2;
  1; 3; -0.366880, 0.000000, -2.082521;;,
  75; 3; -0.366880, 0.000000, -2.082521;;;
  }
 }
 Animation anim-engine1 {
  {frm-engine1}
  AnimationKey {
  0;
  2;
  1; 4; 0.975148, 0.221556, 0.000000, 0.000000;;,
  75; 4; 0.975148, 0.221556, 0.000000, 0.000000;;;
  }
  AnimationKey {
  2;
  2;
  1; 3; -0.000830, -0.040929, 0.698926;;,
  75; 3; -0.000830, -0.040929, 0.698926;;;
  }
 }
 Animation anim-SS1 {
  {frm-SS1}
  AnimationKey {
  0;
  2;
  1; 4; 0.973730, 0.210470, 0.084944, -0.018354;;,
  75; 4; 0.973730, 0.210470, 0.084944, -0.018354;;;
  }
  AnimationKey {
  1;
  2;
  1; 3; 0.000010, 0.000010, 0.000010;;,
  75; 3; 0.000010, 0.000010, 0.000010;;;
  }
  AnimationKey {
  2;
  2;
  1; 3; -0.009087, -0.502378, -0.869722;;,
  75; 3; -0.009087, -0.502378, -0.869722;;;
  }
 }
 Animation anim-portal2 {
  {frm-portal2}
  AnimationKey {
  0;
  2;
  1; 4; 0.741297, 0.345750, -0.521351, -0.243165;;,
  75; 4; 0.741297, 0.345750, -0.521351, -0.243165;;;
  }
  AnimationKey {
  2;
  2;
  1; 3; 1.986643, 0.000000, 0.723465;;,
  75; 3; 1.986643, 0.000000, 0.723465;;;
  }
 }
 Animation anim-engine2 {
  {frm-engine2}
  AnimationKey {
  0;
  2;
  1; 4; 0.002349, 0.000531, -0.953709, -0.300722;;,
  75; 4; 0.002349, 0.000531, -0.953709, -0.300722;;;
  }
  AnimationKey {
  2;
  2;
  1; 3; 0.004245, -0.040905, -0.699195;;,
  75; 3; 0.004245, -0.040905, -0.699195;;;
  }
 }
 Animation anim-SS2 {
  {frm-SS2}
  AnimationKey {
  0;
  2;
  1; 4; 0.568884, 0.076293, -0.811993, 0.105910;;,
  75; 4; 0.568884, 0.076293, -0.811993, 0.105910;;;
  }
  AnimationKey {
  1;
  2;
  1; 3; 0.000010, 0.000010, 0.000010;;,
  75; 3; 0.000010, 0.000010, 0.000010;;;
  }
  AnimationKey {
  2;
  2;
  1; 3; 0.019127, -0.347381, -0.938937;;,
  75; 3; 0.019127, -0.347381, -0.938937;;;
  }
 }
 Animation anim-protal3 {
  {frm-protal3}
  AnimationKey {
  0;
  2;
  1; 4; 0.821131, 0.382920, 0.383566, 0.178869;;,
  75; 4; 0.821131, 0.382920, 0.383566, 0.178869;;;
  }
  AnimationKey {
  2;
  2;
  1; 3; -1.620311, 0.000000, 1.359651;;,
  75; 3; -1.620311, 0.000000, 1.359651;;;
  }
 }
 Animation anim-engine3 {
  {frm-engine3}
  AnimationKey {
  0;
  2;
  1; 4; 0.000397, 0.000073, 0.953713, 0.300720;;,
  75; 4; 0.000397, 0.000073, 0.953713, 0.300720;;;
  }
  AnimationKey {
  2;
  2;
  1; 3; -0.000610, -0.040838, -0.699963;;,
  75; 3; -0.000610, -0.040838, -0.699963;;;
  }
 }
 Animation anim-SS3 {
  {frm-SS3}
  AnimationKey {
  0;
  2;
  1; 4; 0.419292, 0.055439, 0.898421, -0.118157;;,
  75; 4; 0.419292, 0.055439, 0.898421, -0.118157;;;
  }
  AnimationKey {
  1;
  2;
  1; 3; 0.000010, 0.000010, 0.000010;;,
  75; 3; 0.000010, 0.000010, 0.000010;;;
  }
  AnimationKey {
  2;
  2;
  1; 3; 0.036294, -0.367513, -0.932644;;,
  75; 3; 0.036294, -0.367513, -0.932644;;;
  }
 }
 Animation anim-SSt6 {
  {frm-SSt6}
  AnimationKey {
  1;
  2;
  1; 3; 0.000010, 0.000010, 0.000010;;,
  75; 3; 0.000010, 0.000010, 0.000010;;;
  }
  AnimationKey {
  2;
  2;
  1; 3; 0.641765, 2.110679, -0.510136;;,
  75; 3; 0.641765, 2.110679, -0.510136;;;
  }
 }
 Animation anim-SSt1 {
  {frm-SSt1}
  AnimationKey {
  1;
  2;
  1; 3; 0.000010, 0.000010, 0.000010;;,
  75; 3; 0.000010, 0.000010, 0.000010;;;
  }
  AnimationKey {
  2;
  2;
  1; 3; 0.819686, 2.110679, 0.003602;;,
  75; 3; 0.819686, 2.110679, 0.003602;;;
  }
 }
 Animation anim-SSt2 {
  {frm-SSt2}
  AnimationKey {
  1;
  2;
  1; 3; 0.000010, 0.000010, 0.000010;;,
  75; 3; 0.000010, 0.000010, 0.000010;;;
  }
  AnimationKey {
  2;
  2;
  1; 3; 0.631538, 2.110679, 0.523575;;,
  75; 3; 0.631538, 2.110679, 0.523575;;;
  }
 }
 Animation anim-SSt3 {
  {frm-SSt3}
  AnimationKey {
  1;
  2;
  1; 3; 0.000010, 0.000010, 0.000010;;,
  75; 3; 0.000010, 0.000010, 0.000010;;;
  }
  AnimationKey {
  2;
  2;
  1; 3; -0.421716, 2.110679, 0.719002;;,
  75; 3; -0.421716, 2.110679, 0.719002;;;
  }
 }
 Animation anim-SSt4 {
  {frm-SSt4}
  AnimationKey {
  1;
  2;
  1; 3; 0.000010, 0.000010, 0.000010;;,
  75; 3; 0.000010, 0.000010, 0.000010;;;
  }
  AnimationKey {
  2;
  2;
  1; 3; -0.777186, 2.110679, 0.288181;;,
  75; 3; -0.777186, 2.110679, 0.288181;;;
  }
 }
 Animation anim-SSt5 {
  {frm-SSt5}
  AnimationKey {
  1;
  2;
  1; 3; 0.000010, 0.000010, 0.000010;;,
  75; 3; 0.000010, 0.000010, 0.000010;;;
  }
  AnimationKey {
  2;
  2;
  1; 3; -0.773513, 2.110679, -0.289931;;,
  75; 3; -0.773513, 2.110679, -0.289931;;;
  }
 }
 Animation anim-SSb {
  {frm-SSb}
  AnimationKey {
  1;
  2;
  1; 3; 0.000010, 0.000010, 0.000010;;,
  75; 3; 0.000010, 0.000010, 0.000010;;;
  }
  AnimationKey {
  2;
  2;
  1; 3; 0.067846, -1.625863, 0.000000;;,
  75; 3; 0.067846, -1.625863, 0.000000;;;
  }
 }
}
