xof 0302txt 0032
template Header {
 <3D82AB43-62DA-11cf-AB39-0020AF71E433>
 WORD major;
 WORD minor;
 DWORD flags;
}

template Vector {
 <3D82AB5E-62DA-11cf-AB39-0020AF71E433>
 FLOAT x;
 FLOAT y;
 FLOAT z;
}

template Coords2d {
 <F6F23F44-7686-11cf-8F52-0040333594A3>
 FLOAT u;
 FLOAT v;
}

template Matrix4x4 {
 <F6F23F45-7686-11cf-8F52-0040333594A3>
 array FLOAT matrix[16];
}

template ColorRGBA {
 <35FF44E0-6C7C-11cf-8F52-0040333594A3>
 FLOAT red;
 FLOAT green;
 FLOAT blue;
 FLOAT alpha;
}

template ColorRGB {
 <D3E16E81-7835-11cf-8F52-0040333594A3>
 FLOAT red;
 FLOAT green;
 FLOAT blue;
}

template TextureFilename {
 <A42790E1-7810-11cf-8F52-0040333594A3>
 STRING filename;
}

template Material {
 <3D82AB4D-62DA-11cf-AB39-0020AF71E433>
 ColorRGBA faceColor;
 FLOAT power;
 ColorRGB specularColor;
 ColorRGB emissiveColor;
 [...]
}

template MeshFace {
 <3D82AB5F-62DA-11cf-AB39-0020AF71E433>
 DWORD nFaceVertexIndices;
 array DWORD faceVertexIndices[nFaceVertexIndices];
}

template MeshTextureCoords {
 <F6F23F40-7686-11cf-8F52-0040333594A3>
 DWORD nTextureCoords;
 array Coords2d textureCoords[nTextureCoords];
}

template MeshMaterialList {
 <F6F23F42-7686-11cf-8F52-0040333594A3>
 DWORD nMaterials;
 DWORD nFaceIndexes;
 array DWORD faceIndexes[nFaceIndexes];
 [Material]
}

template MeshNormals {
 <F6F23F43-7686-11cf-8F52-0040333594A3>
 DWORD nNormals;
 array Vector normals[nNormals];
 DWORD nFaceNormals;
 array MeshFace faceNormals[nFaceNormals];
}

template Mesh {
 <3D82AB44-62DA-11cf-AB39-0020AF71E433>
 DWORD nVertices;
 array Vector vertices[nVertices];
 DWORD nFaces;
 array MeshFace faces[nFaces];
 [...]
}

template FrameTransformMatrix {
 <F6F23F41-7686-11cf-8F52-0040333594A3>
 Matrix4x4 frameMatrix;
}

template Frame {
 <3D82AB46-62DA-11cf-AB39-0020AF71E433>
 [...]
}
template FloatKeys {
 <10DD46A9-775B-11cf-8F52-0040333594A3>
 DWORD nValues;
 array FLOAT values[nValues];
}

template TimedFloatKeys {
 <F406B180-7B3B-11cf-8F52-0040333594A3>
 DWORD time;
 FloatKeys tfkeys;
}

template AnimationKey {
 <10DD46A8-775B-11cf-8F52-0040333594A3>
 DWORD keyType;
 DWORD nKeys;
 array TimedFloatKeys keys[nKeys];
}

template AnimationOptions {
 <E2BF56C0-840F-11cf-8F52-0040333594A3>
 DWORD openclosed;
 DWORD positionquality;
}

template Animation {
 <3D82AB4F-62DA-11cf-AB39-0020AF71E433>
 [...]
}

template AnimationSet {
 <3D82AB50-62DA-11cf-AB39-0020AF71E433>
 [Animation]
}

Header {
 1;
 0;
 1;
}

Frame frm-root {
  FrameTransformMatrix {
1.000000,0.000000,0.000000,0.000000,
0.000000,1.000000,0.000000,0.000000,
0.000000,0.000000,1.000000,0.000000,
0.000000,0.000000,0.000000,1.000000;;
 }
Frame frm-canopy_1 {
  FrameTransformMatrix {
1.000000,0.000000,0.000000,0.000000,
0.000000,1.000000,0.000000,0.000000,
0.000000,0.000000,1.000000,0.000000,
0.000000,0.310433,-0.882877,1.000000;;
 }
Mesh canopy_1 {
 118;
 -0.087995;-0.369811;-0.763771;,
 -0.087995;-0.369811;-0.763771;,
 0.087995;-0.369811;-0.763771;,
 0.087995;-0.369811;-0.763771;,
 0.721897;-0.307492;0.541632;,
 0.721897;-0.307492;0.541632;,
 0.721897;-0.307492;0.541632;,
 0.721897;-0.307492;0.541632;,
 -0.721897;-0.307492;0.541632;,
 -0.721897;-0.307492;0.541632;,
 -0.721897;-0.307492;0.541632;,
 -0.721897;-0.307492;0.541632;,
 0.529291;-0.301922;-0.130015;,
 0.529291;-0.301922;-0.130015;,
 -0.529291;-0.301922;-0.130015;,
 -0.529291;-0.301922;-0.130015;,
 -0.827044;0.742894;1.304947;,
 -0.827044;0.742894;1.304947;,
 -0.827044;0.742894;1.304947;,
 -0.827044;0.742894;1.304947;,
 0.827007;0.742894;1.304947;,
 0.827007;0.742894;1.304947;,
 0.827007;0.742894;1.304947;,
 0.827007;0.742894;1.304947;,
 -0.520893;0.855930;0.853490;,
 -0.520893;0.855930;0.853490;,
 -0.520893;0.855930;0.853490;,
 0.520864;0.855930;0.853490;,
 0.520864;0.855930;0.853490;,
 0.520864;0.855930;0.853490;,
 0.235994;-0.423275;0.863908;,
 0.235994;-0.423275;0.863908;,
 0.235994;-0.423275;0.863908;,
 -0.235999;-0.423275;0.863908;,
 -0.235999;-0.423275;0.863908;,
 -0.235999;-0.423275;0.863908;,
 -0.480447;-0.031700;0.208692;,
 -0.480447;-0.031700;0.208692;,
 -0.480447;-0.031700;0.208692;,
 -0.480447;-0.031700;0.208692;,
 0.480447;-0.031700;0.208692;,
 0.480447;-0.031700;0.208692;,
 0.480447;-0.031700;0.208692;,
 0.480447;-0.031700;0.208692;,
 0.647370;-0.375831;0.537321;,
 0.647370;-0.375831;0.537321;,
 0.647370;-0.375831;0.537321;,
 0.647370;-0.375831;0.537321;,
 -0.647370;-0.375831;0.537321;,
 -0.647370;-0.375831;0.537321;,
 -0.647370;-0.375831;0.537321;,
 -0.647370;-0.375831;0.537321;,
 -0.157612;-0.174519;-0.847519;,
 -0.157612;-0.174519;-0.847519;,
 -0.157612;-0.174519;-0.847519;,
 -0.157612;-0.174519;-0.847519;,
 -0.157612;-0.174519;-0.847519;,
 0.157612;-0.174519;-0.847519;,
 0.157612;-0.174519;-0.847519;,
 0.157612;-0.174519;-0.847519;,
 0.157612;-0.174519;-0.847519;,
 0.157612;-0.174519;-0.847519;,
 -0.153939;0.034344;-0.803051;,
 -0.153939;0.034344;-0.803051;,
 -0.153939;0.034344;-0.803051;,
 0.153939;0.034344;-0.803051;,
 0.153939;0.034344;-0.803051;,
 0.153939;0.034344;-0.803051;,
 -0.533045;0.778509;0.642778;,
 -0.533045;0.778509;0.642778;,
 -0.533045;0.778509;0.642778;,
 -0.533045;0.778509;0.642778;,
 -0.533045;0.778509;0.642778;,
 0.533045;0.778509;0.642778;,
 0.533045;0.778509;0.642778;,
 0.533045;0.778509;0.642778;,
 0.533045;0.778509;0.642778;,
 0.533045;0.778509;0.642778;,
 -0.243269;0.719152;0.223991;,
 -0.243269;0.719152;0.223991;,
 -0.243269;0.719152;0.223991;,
 0.243269;0.719152;0.223991;,
 0.243269;0.719152;0.223991;,
 0.243269;0.719152;0.223991;,
 -0.358798;0.194007;1.356958;,
 -0.358798;0.194007;1.356958;,
 -0.358798;0.194007;1.356958;,
 0.358789;0.194007;1.356958;,
 0.358789;0.194007;1.356958;,
 0.358789;0.194007;1.356958;,
 0.358789;0.194007;1.356958;,
 -0.358798;0.194007;1.356958;,
 0.243269;0.719152;0.223991;,
 -0.243269;0.719152;0.223991;,
 0.533045;0.778509;0.642778;,
 -0.533045;0.778509;0.642778;,
 0.153939;0.034344;-0.803051;,
 -0.153939;0.034344;-0.803051;,
 0.157612;-0.174519;-0.847519;,
 -0.157612;-0.174519;-0.847519;,
 -0.647370;-0.375831;0.537321;,
 0.647370;-0.375831;0.537321;,
 0.480447;-0.031700;0.208692;,
 -0.480447;-0.031700;0.208692;,
 -0.235999;-0.423275;0.863908;,
 0.235994;-0.423275;0.863908;,
 0.520864;0.855930;0.853490;,
 -0.520893;0.855930;0.853490;,
 0.827007;0.742894;1.304947;,
 -0.827044;0.742894;1.304947;,
 -0.529291;-0.301922;-0.130015;,
 0.529291;-0.301922;-0.130015;,
 -0.721897;-0.307492;0.541632;,
 0.721897;-0.307492;0.541632;,
 0.305579;0.631798;0.199963;,
 -0.305579;0.631798;0.199963;,
 0.087995;-0.369811;-0.763771;,
 -0.087995;-0.369811;-0.763771;;

 35;
 4;89,29,26,86;,
 4;77,83,80,72;,
 4;64,79,82,67;,
 4;3,47,51,1;,
 5;71,115,63,56,39;,
 5;43,61,66,114,76;,
 3;28,88,23;,
 3;7,42,22;,
 3;85,25,19;,
 3;18,38,11;,
 3;81,75,114;,
 3;70,78,115;,
 3;41,6,13;,
 4;32,35,50,46;,
 3;65,92,114;,
 3;27,21,74;,
 4;45,60,12,5;,
 4;55,49,10,15;,
 3;40,73,20;,
 4;96,59,54,62;,
 3;17,24,69;,
 4;106,94,68,107;,
 3;16,95,37;,
 3;97,115,93;,
 3;34,9,48;,
 4;108,87,31,4;,
 3;14,36,53;,
 4;84,33,30,90;,
 3;105,44,113;,
 3;110,8,103;,
 3;100,52,0;,
 4;112,104,91,109;,
 3;58,101,2;,
 4;99,57,116,117;,
 3;98,102,111;;

 MeshMaterialList {
  4;
  35;
  0,
  1,
  1,
  0,
  2,
  2,
  0,
  3,
  0,
  3,
  2,
  2,
  2,
  0,
  2,
  3,
  2,
  2,
  3,
  1,
  3,
  3,
  3,
  2,
  0,
  2,
  2,
  0,
  0,
  2,
  2,
  2,
  2,
  2,
  2;
Material {
 1.000000;1.000000;1.000000;1.000000;;
 50.000000;
 1.000000;1.000000;1.000000;;
 0.0; 0.0; 0.0;;
 TextureFilename {
  "utl100.ppm";
 }
 }
Material {
 1.000000;1.000000;1.000000;1.000000;;
 50.000000;
 1.000000;1.000000;1.000000;;
 0.0; 0.0; 0.0;;
 TextureFilename {
  "utl100.ppm";
 }
 }
Material {
 1.000000;1.000000;1.000000;1.000000;;
 50.000000;
 1.000000;1.000000;1.000000;;
 0.0; 0.0; 0.0;;
 TextureFilename {
  "utl100.ppm";
 }
 }
Material {
 1.000000;1.000000;1.000000;1.000000;;
 50.000000;
 1.000000;1.000000;1.000000;;
 0.0; 0.0; 0.0;;
 TextureFilename {
  "utl100.ppm";
 }
 }
}
 MeshNormals {
  118;
  -0.359675;-0.746700;-0.559529;,
  -0.359675;-0.746700;-0.559529;,
  0.359675;-0.746700;-0.559529;,
  0.359675;-0.746700;-0.559529;,
  0.867032;-0.478324;0.139506;,
  0.867032;-0.478324;0.139506;,
  0.867032;-0.478324;0.139506;,
  0.867032;-0.478324;0.139506;,
  -0.867029;-0.478332;0.139498;,
  -0.867029;-0.478332;0.139498;,
  -0.867029;-0.478332;0.139498;,
  -0.867029;-0.478332;0.139498;,
  0.929908;0.001398;-0.367789;,
  0.929908;0.001398;-0.367789;,
  -0.929908;0.001398;-0.367789;,
  -0.929908;0.001398;-0.367789;,
  -0.899290;0.437248;0.009607;,
  -0.899290;0.437248;0.009607;,
  -0.899290;0.437248;0.009607;,
  -0.899290;0.437248;0.009607;,
  0.899279;0.437270;0.009645;,
  0.899279;0.437270;0.009645;,
  0.899279;0.437270;0.009645;,
  0.899279;0.437270;0.009645;,
  -0.006431;0.965881;0.258908;,
  -0.006431;0.965881;0.258908;,
  -0.006431;0.965881;0.258908;,
  0.006404;0.965876;0.258927;,
  0.006404;0.965876;0.258927;,
  0.006404;0.965876;0.258927;,
  0.324992;-0.790517;0.519098;,
  0.324992;-0.790517;0.519098;,
  0.324992;-0.790517;0.519098;,
  -0.324990;-0.790520;0.519095;,
  -0.324990;-0.790520;0.519095;,
  -0.324990;-0.790520;0.519095;,
  -0.879108;0.321213;-0.352124;,
  -0.879108;0.321213;-0.352124;,
  -0.879108;0.321213;-0.352124;,
  -0.879108;0.321213;-0.352124;,
  0.879113;0.321212;-0.352112;,
  0.879113;0.321212;-0.352112;,
  0.879113;0.321212;-0.352112;,
  0.879113;0.321212;-0.352112;,
  0.331140;-0.943524;-0.010404;,
  0.331140;-0.943524;-0.010404;,
  0.331140;-0.943524;-0.010404;,
  0.331140;-0.943524;-0.010404;,
  -0.331140;-0.943524;-0.010406;,
  -0.331140;-0.943524;-0.010406;,
  -0.331140;-0.943524;-0.010406;,
  -0.331140;-0.943524;-0.010406;,
  -0.580491;-0.280337;-0.764488;,
  -0.580491;-0.280337;-0.764488;,
  -0.580491;-0.280337;-0.764488;,
  -0.580491;-0.280337;-0.764488;,
  -0.580491;-0.280337;-0.764488;,
  0.580491;-0.280337;-0.764488;,
  0.580491;-0.280337;-0.764488;,
  0.580491;-0.280337;-0.764488;,
  0.580491;-0.280337;-0.764488;,
  0.580491;-0.280337;-0.764488;,
  -0.467689;0.547650;-0.693791;,
  -0.467689;0.547650;-0.693791;,
  -0.467689;0.547650;-0.693791;,
  0.467689;0.547650;-0.693791;,
  0.467689;0.547650;-0.693791;,
  0.467689;0.547650;-0.693791;,
  -0.596892;0.703866;-0.385088;,
  -0.596892;0.703866;-0.385088;,
  -0.596892;0.703866;-0.385088;,
  -0.596892;0.703866;-0.385088;,
  -0.596892;0.703866;-0.385088;,
  0.596890;0.703878;-0.385070;,
  0.596890;0.703878;-0.385070;,
  0.596890;0.703878;-0.385070;,
  0.596890;0.703878;-0.385070;,
  0.596890;0.703878;-0.385070;,
  -0.350304;0.819260;-0.453982;,
  -0.350304;0.819260;-0.453982;,
  -0.350304;0.819260;-0.453982;,
  0.350304;0.819260;-0.453982;,
  0.350304;0.819260;-0.453982;,
  0.350304;0.819260;-0.453982;,
  0.136291;0.139796;0.980756;,
  0.136291;0.139796;0.980756;,
  0.136291;0.139796;0.980756;,
  -0.136299;0.139790;0.980755;,
  -0.136299;0.139790;0.980755;,
  -0.136299;0.139790;0.980755;,
  -0.136299;0.139790;0.980755;,
  0.136291;0.139796;0.980756;,
  0.350304;0.819260;-0.453982;,
  -0.350304;0.819260;-0.453982;,
  0.596890;0.703878;-0.385070;,
  -0.596892;0.703866;-0.385088;,
  0.467689;0.547650;-0.693791;,
  -0.467689;0.547650;-0.693791;,
  0.580491;-0.280337;-0.764488;,
  -0.580491;-0.280337;-0.764488;,
  -0.331140;-0.943524;-0.010406;,
  0.331140;-0.943524;-0.010404;,
  0.879113;0.321212;-0.352112;,
  -0.879108;0.321213;-0.352124;,
  -0.324990;-0.790520;0.519095;,
  0.324992;-0.790517;0.519098;,
  0.006404;0.965876;0.258927;,
  -0.006431;0.965881;0.258908;,
  0.899279;0.437270;0.009645;,
  -0.899290;0.437248;0.009607;,
  -0.929908;0.001398;-0.367789;,
  0.929908;0.001398;-0.367789;,
  -0.867029;-0.478332;0.139498;,
  0.867032;-0.478324;0.139506;,
  0.753857;0.476820;-0.452043;,
  -0.753857;0.476820;-0.452043;,
  0.359675;-0.746700;-0.559529;,
  -0.359675;-0.746700;-0.559529;;

  35;
  4;89,29,26,86;,
  4;77,83,80,72;,
  4;64,79,82,67;,
  4;3,47,51,1;,
  5;71,115,63,56,39;,
  5;43,61,66,114,76;,
  3;28,88,23;,
  3;7,42,22;,
  3;85,25,19;,
  3;18,38,11;,
  3;81,75,114;,
  3;70,78,115;,
  3;41,6,13;,
  4;32,35,50,46;,
  3;65,92,114;,
  3;27,21,74;,
  4;45,60,12,5;,
  4;55,49,10,15;,
  3;40,73,20;,
  4;96,59,54,62;,
  3;17,24,69;,
  4;106,94,68,107;,
  3;16,95,37;,
  3;97,115,93;,
  3;34,9,48;,
  4;108,87,31,4;,
  3;14,36,53;,
  4;84,33,30,90;,
  3;105,44,113;,
  3;110,8,103;,
  3;100,52,0;,
  4;112,104,91,109;,
  3;58,101,2;,
  4;99,57,116,117;,
  3;98,102,111;;
 }
 MeshTextureCoords { 
 118;
 0.401954;0.284381;,
 0.501391;0.776866;,
 0.401954;0.284381;,
 0.502533;0.823741;,
 0.756339;0.259545;,
 0.438956;0.216576;,
 0.226066;0.268334;,
 0.654019;0.785626;,
 0.226066;0.268334;,
 0.800878;0.282598;,
 0.226631;0.267613;,
 0.655717;0.786885;,
 0.226631;0.267613;,
 0.330146;0.183629;,
 0.440252;0.214762;,
 0.438956;0.216576;,
 0.697980;0.470938;,
 0.391348;0.680365;,
 0.697980;0.470938;,
 0.254337;0.744054;,
 0.699552;0.470243;,
 0.391348;0.680365;,
 0.699552;0.470243;,
 0.540595;0.738195;,
 0.351848;0.541911;,
 0.235007;0.515781;,
 0.235007;0.513828;,
 0.430402;0.541250;,
 0.546253;0.513828;,
 0.546880;0.513828;,
 0.509193;0.928287;,
 0.867682;0.255787;,
 0.876282;0.230319;,
 0.297464;0.932193;,
 0.814903;0.263527;,
 0.837603;0.230319;,
 0.330146;0.181676;,
 0.803567;0.808279;,
 0.803567;0.808279;,
 0.688438;0.236386;,
 0.804051;0.807585;,
 0.438438;0.214902;,
 0.804051;0.807585;,
 0.687322;0.237223;,
 0.785839;0.263666;,
 0.428198;0.261674;,
 0.900794;0.179263;,
 0.261768;0.825367;,
 0.785846;0.263941;,
 0.224641;0.312878;,
 0.812112;0.179263;,
 0.255828;0.776539;,
 0.181673;0.293346;,
 0.563124;0.032004;,
 0.895508;0.858398;,
 0.428198;0.261674;,
 0.504531;0.264426;,
 0.437532;0.314831;,
 0.181673;0.293346;,
 0.969727;0.858398;,
 0.224641;0.312878;,
 0.504531;0.264426;,
 0.895508;0.827148;,
 0.515782;0.216295;,
 0.895508;0.827148;,
 0.504883;0.219727;,
 0.515782;0.216295;,
 0.969727;0.827148;,
 0.707755;0.483099;,
 0.430402;0.541250;,
 0.788426;0.035519;,
 0.785577;0.048007;,
 0.895508;0.467773;,
 0.854067;0.489177;,
 0.351848;0.541911;,
 0.785577;0.048007;,
 0.785577;0.048007;,
 0.969727;0.467773;,
 0.691962;0.062784;,
 0.895508;0.583008;,
 0.895508;0.569336;,
 0.691962;0.062784;,
 0.969727;0.583008;,
 0.969727;0.569336;,
 0.261111;0.799753;,
 0.313845;0.741159;,
 0.313845;0.743112;,
 0.930471;0.128693;,
 0.475560;0.739377;,
 0.475941;0.742344;,
 0.533826;0.797800;,
 0.930471;0.128693;,
 0.672462;0.072896;,
 0.672462;0.072896;,
 0.663340;0.783671;,
 0.853801;0.489177;,
 0.969727;0.827148;,
 0.515782;0.216295;,
 0.563124;0.032004;,
 0.437532;0.314831;,
 0.277807;0.205033;,
 0.278545;0.207951;,
 0.440252;0.214762;,
 0.438438;0.214902;,
 0.867682;0.255787;,
 0.800981;0.282877;,
 0.731193;0.793437;,
 0.770246;0.488959;,
 0.852416;0.004333;,
 0.852416;0.004333;,
 0.330146;0.183629;,
 0.330146;0.181676;,
 0.756339;0.259545;,
 0.814898;0.263662;,
 0.686428;0.076031;,
 0.686428;0.076031;,
 0.579688;0.346881;,
 0.579688;0.346881;;
 }
}
}
}
AnimationSet {
 Animation anim-canopy_1 {
  {frm-canopy_1}
  AnimationKey {
  2;
  2;
  1; 3; 0.000000, 0.310433, -0.882877;;,
  100; 3; 0.000000, 0.310433, -0.882877;;;
  }
 }
}
