xof 0302txt 0032
template Header {
 <3D82AB43-62DA-11cf-AB39-0020AF71E433>
 WORD major;
 WORD minor;
 DWORD flags;
}

template Vector {
 <3D82AB5E-62DA-11cf-AB39-0020AF71E433>
 FLOAT x;
 FLOAT y;
 FLOAT z;
}

template Coords2d {
 <F6F23F44-7686-11cf-8F52-0040333594A3>
 FLOAT u;
 FLOAT v;
}

template Matrix4x4 {
 <F6F23F45-7686-11cf-8F52-0040333594A3>
 array FLOAT matrix[16];
}

template ColorRGBA {
 <35FF44E0-6C7C-11cf-8F52-0040333594A3>
 FLOAT red;
 FLOAT green;
 FLOAT blue;
 FLOAT alpha;
}

template ColorRGB {
 <D3E16E81-7835-11cf-8F52-0040333594A3>
 FLOAT red;
 FLOAT green;
 FLOAT blue;
}

template TextureFilename {
 <A42790E1-7810-11cf-8F52-0040333594A3>
 STRING filename;
}

template Material {
 <3D82AB4D-62DA-11cf-AB39-0020AF71E433>
 ColorRGBA faceColor;
 FLOAT power;
 ColorRGB specularColor;
 ColorRGB emissiveColor;
 [...]
}

template MeshFace {
 <3D82AB5F-62DA-11cf-AB39-0020AF71E433>
 DWORD nFaceVertexIndices;
 array DWORD faceVertexIndices[nFaceVertexIndices];
}

template MeshTextureCoords {
 <F6F23F40-7686-11cf-8F52-0040333594A3>
 DWORD nTextureCoords;
 array Coords2d textureCoords[nTextureCoords];
}

template MeshMaterialList {
 <F6F23F42-7686-11cf-8F52-0040333594A3>
 DWORD nMaterials;
 DWORD nFaceIndexes;
 array DWORD faceIndexes[nFaceIndexes];
 [Material]
}

template MeshNormals {
 <F6F23F43-7686-11cf-8F52-0040333594A3>
 DWORD nNormals;
 array Vector normals[nNormals];
 DWORD nFaceNormals;
 array MeshFace faceNormals[nFaceNormals];
}

template Mesh {
 <3D82AB44-62DA-11cf-AB39-0020AF71E433>
 DWORD nVertices;
 array Vector vertices[nVertices];
 DWORD nFaces;
 array MeshFace faces[nFaces];
 [...]
}

template FrameTransformMatrix {
 <F6F23F41-7686-11cf-8F52-0040333594A3>
 Matrix4x4 frameMatrix;
}

template Frame {
 <3D82AB46-62DA-11cf-AB39-0020AF71E433>
 [...]
}
template FloatKeys {
 <10DD46A9-775B-11cf-8F52-0040333594A3>
 DWORD nValues;
 array FLOAT values[nValues];
}

template TimedFloatKeys {
 <F406B180-7B3B-11cf-8F52-0040333594A3>
 DWORD time;
 FloatKeys tfkeys;
}

template AnimationKey {
 <10DD46A8-775B-11cf-8F52-0040333594A3>
 DWORD keyType;
 DWORD nKeys;
 array TimedFloatKeys keys[nKeys];
}

template AnimationOptions {
 <E2BF56C0-840F-11cf-8F52-0040333594A3>
 DWORD openclosed;
 DWORD positionquality;
}

template Animation {
 <3D82AB4F-62DA-11cf-AB39-0020AF71E433>
 [...]
}

template AnimationSet {
 <3D82AB50-62DA-11cf-AB39-0020AF71E433>
 [Animation]
}

Header {
 1;
 0;
 1;
}

Frame frm-extru4_1 {
  FrameTransformMatrix {
1.000000,0.000000,0.000000,0.000000,
0.000000,1.000000,0.000000,0.000000,
0.000000,0.000000,1.000000,0.000000,
0.000000,0.097834,0.000000,1.000000;;
 }
Mesh extru4_1 {
 200;
 -0.274244;0.734016;-0.015688;,
 -0.274244;0.734016;-0.015688;,
 -0.274244;0.734016;-0.015688;,
 -0.294924;-0.193764;-1.960952;,
 -0.294924;-0.193764;-1.960952;,
 -0.294924;-0.382292;-1.960952;,
 -0.294924;-0.382292;-1.960952;,
 -0.294924;-0.392766;-1.835451;,
 -0.294924;-0.392766;-1.835451;,
 -0.294924;-0.487030;-1.469407;,
 -0.294924;-0.487030;-1.469407;,
 -0.294924;-0.487030;-1.469407;,
 -0.294924;-0.162343;-0.988320;,
 -0.294924;-0.162343;-0.988320;,
 -0.294924;-0.162343;-0.988320;,
 -0.294924;-0.151869;-0.841902;,
 -0.294924;-0.151869;-0.841902;,
 -0.294924;-0.151869;-0.841902;,
 0.274244;0.734016;-0.015688;,
 0.274244;0.734016;-0.015688;,
 0.274244;0.734016;-0.015688;,
 0.294924;-0.193764;-1.960952;,
 0.294924;-0.193764;-1.960952;,
 0.294924;-0.193764;-1.960952;,
 0.294924;-0.193764;-1.960952;,
 0.294924;-0.382292;-1.960952;,
 0.294924;-0.382292;-1.960952;,
 0.294924;-0.392766;-1.835451;,
 0.294924;-0.392766;-1.835451;,
 0.294924;-0.487030;-1.469407;,
 0.294924;-0.487030;-1.469407;,
 0.294924;-0.487030;-1.469407;,
 0.294924;-0.162343;-0.988320;,
 0.294924;-0.162343;-0.988320;,
 0.294924;-0.151869;-0.841902;,
 0.294924;-0.151869;-0.841902;,
 0.147462;-0.149912;-1.960952;,
 0.147462;-0.149912;-1.960952;,
 0.147462;-0.149912;-1.960952;,
 -0.147462;-0.149912;-1.960952;,
 -0.147462;-0.149912;-1.960952;,
 -0.147462;-0.149912;-1.960952;,
 -0.120690;-0.305211;-2.041025;,
 -0.120690;-0.305211;-2.041025;,
 0.120690;-0.305211;-2.041025;,
 0.120690;-0.305211;-2.041025;,
 -0.288721;-0.081481;-1.739840;,
 -0.288721;-0.081481;-1.739840;,
 -0.288721;-0.081481;-1.739840;,
 0.301127;-0.081481;-1.739840;,
 0.301127;-0.081481;-1.739840;,
 0.301127;-0.081481;-1.739840;,
 -0.294924;-0.691971;-0.236982;,
 -0.294924;-0.691971;-0.236982;,
 -0.294924;-0.691971;-0.236982;,
 0.294924;-0.691971;-0.236982;,
 0.294924;-0.691971;-0.236982;,
 0.294924;-0.691971;-0.236982;,
 0.302937;0.603269;-0.854875;,
 0.302937;0.603269;-0.854875;,
 0.302937;0.603269;-0.854875;,
 -0.317618;0.603269;-0.854875;,
 -0.317618;0.603269;-0.854875;,
 -0.317618;0.603269;-0.854875;,
 -0.317618;0.603269;-0.854875;,
 0.295635;1.125432;0.499211;,
 0.295635;1.125432;0.499211;,
 -0.295635;1.125432;0.499211;,
 -0.295635;1.125432;0.499211;,
 -0.295635;1.125432;0.499211;,
 -0.295635;1.125432;0.499211;,
 0.137122;1.161844;2.337112;,
 0.295635;1.117991;2.337112;,
 0.295635;1.117991;2.337112;,
 -0.137122;1.161844;2.337112;,
 -0.295635;1.117991;2.337112;,
 -0.295635;1.117991;2.337112;,
 -0.295635;1.117991;2.337112;,
 0.374816;1.071555;2.159483;,
 0.374816;1.071555;2.159483;,
 -0.294924;-0.689090;-0.069241;,
 -0.294924;-0.689090;-0.069241;,
 -0.294924;-0.689090;-0.069241;,
 0.294924;-0.689090;-0.069241;,
 0.294924;-0.689090;-0.069241;,
 0.294924;-0.689090;-0.069241;,
 -0.294924;0.460594;1.745591;,
 -0.294924;0.460594;1.745591;,
 -0.294924;0.460594;1.745591;,
 0.294924;0.460594;1.745591;,
 0.294924;0.460594;1.745591;,
 0.294924;0.460594;1.745591;,
 0.294924;0.460594;1.745591;,
 0.492801;0.228307;1.783833;,
 0.492801;0.228307;1.783833;,
 -0.492801;0.228307;1.783833;,
 -0.492801;0.228307;1.783833;,
 0.492801;-0.433259;1.783833;,
 0.492801;-0.433259;1.783833;,
 0.492801;-0.433259;0.503585;,
 0.492801;-0.433259;0.503585;,
 -0.492801;-0.433259;1.783833;,
 -0.492801;-0.433259;1.783833;,
 0.300438;-0.692554;0.122367;,
 0.300438;-0.692554;0.122367;,
 0.300438;-0.692554;0.122367;,
 -0.300438;-0.692554;0.122367;,
 -0.300438;-0.692554;0.122367;,
 -0.300438;-0.692554;0.122367;,
 -0.492801;-0.433259;0.503585;,
 -0.492801;-0.433259;0.503585;,
 -0.492801;-0.433259;0.503585;,
 -0.374816;1.071555;2.159483;,
 -0.374816;1.071555;2.159483;,
 -0.374816;1.077746;0.630347;,
 -0.374816;1.077746;0.630347;,
 0.374816;1.077746;0.630347;,
 0.374816;1.077746;0.630347;,
 0.000000;1.161844;2.337112;,
 0.000000;-0.149912;-1.960952;,
 0.000000;-0.149912;-1.960952;,
 0.000000;-0.149912;-1.960952;,
 0.000000;-0.149912;-1.960952;,
 0.006203;-0.037629;-1.739840;,
 -0.006462;0.643175;-0.854875;,
 0.000000;0.777869;-0.015688;,
 0.000000;1.169285;0.499211;,
 0.000000;1.161844;2.337112;,
 0.374816;1.077746;0.630347;,
 0.375894;0.514190;1.667336;,
 0.375894;0.514190;0.634577;,
 -0.374816;1.077746;0.630347;,
 -0.374816;1.071555;2.159483;,
 -0.375894;0.514190;0.634577;,
 -0.375894;0.514190;1.667336;,
 -0.294924;0.248025;0.019671;,
 0.294924;0.248025;0.019671;,
 -0.492801;-0.433259;0.503585;,
 -0.300438;-0.692554;0.122367;,
 0.000000;-0.205155;-0.992633;,
 0.300438;-0.692554;0.122367;,
 -0.492801;-0.433259;1.783833;,
 0.492801;-0.433259;0.503585;,
 0.492801;-0.433259;1.783833;,
 0.394758;0.170390;0.010882;,
 -0.394758;0.170390;0.010882;,
 -0.492801;0.228307;0.503585;,
 -0.492801;0.228307;1.783833;,
 0.492801;0.228307;0.503585;,
 0.492801;0.228307;1.783833;,
 0.294924;0.460594;1.745591;,
 -0.294924;0.460594;1.745591;,
 -0.294924;0.460594;0.504294;,
 0.294924;0.460594;0.504294;,
 0.294924;0.189569;-0.472236;,
 -0.294924;0.189569;-0.472236;,
 0.294924;-0.689090;-0.069241;,
 -0.294924;-0.689090;-0.069241;,
 0.374816;1.071555;2.159483;,
 -0.295635;1.117991;2.337112;,
 -0.137122;1.161844;2.337112;,
 0.295635;1.117991;2.337112;,
 0.137122;1.161844;2.337112;,
 -0.295635;1.125432;0.499211;,
 -0.137122;1.169285;0.499211;,
 0.137122;1.169285;0.499211;,
 0.295635;1.125432;0.499211;,
 -0.317618;0.603269;-0.854875;,
 -0.143027;0.643175;-0.854875;,
 0.130104;0.643175;-0.854875;,
 0.302937;0.603269;-0.854875;,
 0.000000;-0.177763;-2.011407;,
 0.000000;-0.503361;-1.432108;,
 0.000000;-0.194682;-0.846216;,
 0.294924;-0.691971;-0.236982;,
 -0.294924;-0.691971;-0.236982;,
 -0.141259;-0.037629;-1.739840;,
 0.153665;-0.037629;-1.739840;,
 0.301127;-0.081481;-1.739840;,
 -0.288721;-0.081481;-1.739840;,
 0.120690;-0.305211;-2.041025;,
 -0.120690;-0.305211;-2.041025;,
 0.137122;0.777869;-0.015688;,
 -0.147462;-0.149912;-1.960952;,
 0.147462;-0.149912;-1.960952;,
 -0.137122;0.777869;-0.015688;,
 0.294924;-0.151869;-0.841902;,
 0.294924;-0.162343;-0.988320;,
 0.294924;-0.487030;-1.469407;,
 0.294924;-0.392766;-1.835451;,
 0.294924;-0.382292;-1.960952;,
 0.294924;-0.193764;-1.960952;,
 0.274244;0.734016;-0.015688;,
 -0.294924;-0.151869;-0.841902;,
 -0.294924;-0.162343;-0.988320;,
 -0.294924;-0.487030;-1.469407;,
 -0.294924;-0.392766;-1.835451;,
 -0.294924;-0.382292;-1.960952;,
 -0.294924;-0.193764;-1.960952;,
 -0.274244;0.734016;-0.015688;;

 87;
 7;92,73,71,118,74,77,88;,
 4;169,182,20,60;,
 3;171,45,43;,
 4;44,26,6,42;,
 4;25,28,8,5;,
 3;31,172,11;,
 4;172,30,33,139;,
 4;139,32,35,173;,
 3;173,34,57;,
 4;56,85,82,54;,
 3;4,181,197;,
 3;190,180,24;,
 4;176,41,3,48;,
 4;124,168,185,125;,
 3;171,38,23;,
 3;171,40,121;,
 3;171,198,39;,
 3;171,181,198;,
 3;180,171,22;,
 4;14,17,64,47;,
 3;155,2,63;,
 3;53,16,173;,
 3;173,55,52;,
 4;173,15,13,139;,
 4;129,79,72,91;,
 4;139,12,10,172;,
 4;117,130,153,66;,
 4;9,7,27,29;,
 4;51,59,186,187;,
 4;50,21,37,177;,
 4;123,177,36,120;,
 4;62,1,185,168;,
 4;58,49,177,169;,
 4;124,169,177,123;,
 4;168,176,46,61;,
 3;167,193,175;,
 4;175,81,155,167;,
 3;174,186,170;,
 3;196,195,194;,
 4;170,154,84,174;,
 3;187,188,189;,
 3;170,19,154;,
 4;111,108,105,100;,
 5;65,153,136,154,18;,
 3;110,146,145;,
 4;165,166,192,182;,
 4;126,165,182,125;,
 4;70,164,185,0;,
 5;135,152,69,199,155;,
 4;162,161,166,165;,
 4;127,162,165,126;,
 4;76,160,164,68;,
 4;134,113,115,133;,
 4;102,109,99,98;,
 4;78,129,130,116;,
 4;97,142,148,94;,
 3;142,104,144;,
 3;142,144,148;,
 3;107,137,145;,
 4;93,148,153,90;,
 4;137,101,96,146;,
 4;146,95,87,152;,
 3;146,152,135;,
 3;144,154,136;,
 4;83,103,106,80;,
 4;145,155,157,138;,
 4;140,156,154,144;,
 4;86,147,149,89;,
 4;147,141,143,149;,
 3;136,153,148;,
 3;135,155,145;,
 3;136,148,144;,
 3;145,146,135;,
 4;134,133,152,151;,
 4;114,112,75,67;,
 4;133,131,163,152;,
 4;132,134,151,159;,
 4;130,129,150,153;,
 4;158,128,166,161;,
 5;189,190,191,178,187;,
 5;194,179,198,197,196;,
 3;119,184,171;,
 4;122,183,176,123;,
 4;123,176,168,124;,
 4;125,182,169,124;,
 4;125,185,164,126;,
 4;126,164,160,127;;

 MeshMaterialList {
  4;
  87;
  0,
  1,
  2,
  3,
  3,
  3,
  3,
  3,
  3,
  3,
  2,
  2,
  1,
  1,
  2,
  2,
  2,
  2,
  2,
  2,
  2,
  3,
  3,
  3,
  2,
  3,
  2,
  3,
  2,
  1,
  1,
  1,
  1,
  1,
  1,
  2,
  2,
  2,
  2,
  2,
  2,
  2,
  3,
  2,
  2,
  1,
  1,
  1,
  2,
  1,
  1,
  1,
  2,
  3,
  2,
  2,
  2,
  2,
  2,
  2,
  2,
  2,
  2,
  2,
  3,
  2,
  2,
  0,
  0,
  2,
  2,
  2,
  2,
  2,
  1,
  2,
  2,
  2,
  1,
  2,
  2,
  2,
  1,
  1,
  1,
  1,
  1;
Material {
 1.000000;1.000000;1.000000;1.000000;;
 50.000000;
 1.000000;1.000000;1.000000;;
 0.0; 0.0; 0.0;;
 TextureFilename {
  "utl102.ppm";
 }
 }
Material {
 1.000000;1.000000;1.000000;1.000000;;
 50.000000;
 1.000000;1.000000;1.000000;;
 0.0; 0.0; 0.0;;
 TextureFilename {
  "utl102.ppm";
 }
 }
Material {
 1.000000;1.000000;1.000000;1.000000;;
 50.000000;
 1.000000;1.000000;1.000000;;
 0.0; 0.0; 0.0;;
 TextureFilename {
  "utl102.ppm";
 }
 }
Material {
 1.000000;1.000000;1.000000;1.000000;;
 50.000000;
 1.000000;1.000000;1.000000;;
 0.0; 0.0; 0.0;;
 TextureFilename {
  "utl102.ppm";
 }
 }
}
 MeshNormals {
  200;
  -0.789888;0.568089;-0.230979;,
  -0.789888;0.568089;-0.230979;,
  -0.789888;0.568089;-0.230979;,
  -0.428375;0.468617;-0.772589;,
  -0.428375;0.468617;-0.772589;,
  -0.404193;-0.667728;-0.625114;,
  -0.404193;-0.667728;-0.625114;,
  -0.710332;-0.693777;-0.118751;,
  -0.710332;-0.693777;-0.118751;,
  -0.351390;-0.935608;-0.034097;,
  -0.351390;-0.935608;-0.034097;,
  -0.351390;-0.935608;-0.034097;,
  -0.854094;-0.492371;0.167614;,
  -0.854094;-0.492371;0.167614;,
  -0.854094;-0.492371;0.167614;,
  -0.744066;-0.630343;-0.221435;,
  -0.744066;-0.630343;-0.221435;,
  -0.744066;-0.630343;-0.221435;,
  0.786494;0.570133;-0.237435;,
  0.786494;0.570133;-0.237435;,
  0.786494;0.570133;-0.237435;,
  0.428682;0.461604;-0.776630;,
  0.428682;0.461604;-0.776630;,
  0.428682;0.461604;-0.776630;,
  0.428682;0.461604;-0.776630;,
  0.401691;-0.673115;-0.620936;,
  0.401691;-0.673115;-0.620936;,
  0.703865;-0.700591;-0.117246;,
  0.703865;-0.700591;-0.117246;,
  0.351390;-0.935608;-0.034097;,
  0.351390;-0.935608;-0.034097;,
  0.351390;-0.935608;-0.034097;,
  0.851183;-0.496128;0.171304;,
  0.851183;-0.496128;0.171304;,
  0.751538;-0.624434;-0.212775;,
  0.751538;-0.624434;-0.212775;,
  0.107065;0.820708;-0.561226;,
  0.107065;0.820708;-0.561226;,
  0.107065;0.820708;-0.561226;,
  -0.107500;0.822444;-0.558596;,
  -0.107500;0.822444;-0.558596;,
  -0.107500;0.822444;-0.558596;,
  -0.160297;-0.036131;-0.986407;,
  -0.160297;-0.036131;-0.986407;,
  0.160297;-0.036131;-0.986407;,
  0.160297;-0.036131;-0.986407;,
  -0.784670;0.521959;-0.334444;,
  -0.784670;0.521959;-0.334444;,
  -0.784670;0.521959;-0.334444;,
  0.788695;0.516729;-0.333093;,
  0.788695;0.516729;-0.333093;,
  0.788695;0.516729;-0.333093;,
  -0.577556;-0.731817;-0.361764;,
  -0.577556;-0.731817;-0.361764;,
  -0.577556;-0.731817;-0.361764;,
  0.577941;-0.729284;-0.366236;,
  0.577941;-0.729284;-0.366236;,
  0.577941;-0.729284;-0.366236;,
  0.919093;0.364919;-0.148670;,
  0.919093;0.364919;-0.148670;,
  0.919093;0.364919;-0.148670;,
  -0.922556;0.357480;-0.145254;,
  -0.922556;0.357480;-0.145254;,
  -0.922556;0.357480;-0.145254;,
  -0.922556;0.357480;-0.145254;,
  0.642334;0.713094;-0.280899;,
  0.642334;0.713094;-0.280899;,
  -0.642334;0.713094;-0.280899;,
  -0.642334;0.713094;-0.280899;,
  -0.642334;0.713094;-0.280899;,
  -0.642334;0.713094;-0.280899;,
  0.168712;0.854092;0.491999;,
  0.727121;0.363131;0.582607;,
  0.727121;0.363131;0.582607;,
  -0.168712;0.854092;0.491999;,
  -0.727121;0.363131;0.582607;,
  -0.727121;0.363131;0.582607;,
  -0.727121;0.363131;0.582607;,
  0.949080;0.242003;0.201699;,
  0.949080;0.242003;0.201699;,
  -0.690567;-0.722303;-0.037362;,
  -0.690567;-0.722303;-0.037362;,
  -0.690567;-0.722303;-0.037362;,
  0.688273;-0.723813;-0.048725;,
  0.688273;-0.723813;-0.048725;,
  0.688273;-0.723813;-0.048725;,
  -0.623104;-0.361327;0.693674;,
  -0.623104;-0.361327;0.693674;,
  -0.623104;-0.361327;0.693674;,
  0.623104;-0.361327;0.693674;,
  0.623104;-0.361327;0.693674;,
  0.623104;-0.361327;0.693674;,
  0.623104;-0.361327;0.693674;,
  0.647530;0.313889;0.694390;,
  0.647530;0.313889;0.694390;,
  -0.647530;0.313889;0.694390;,
  -0.647530;0.313889;0.694390;,
  0.577350;-0.577350;0.577350;,
  0.577350;-0.577350;0.577350;,
  0.818313;-0.574762;0.003637;,
  0.818313;-0.574762;0.003637;,
  -0.577350;-0.577350;0.577350;,
  -0.577350;-0.577350;0.577350;,
  0.661872;-0.749465;0.015107;,
  0.661872;-0.749465;0.015107;,
  0.661872;-0.749465;0.015107;,
  -0.661872;-0.749465;0.015107;,
  -0.661872;-0.749465;0.015107;,
  -0.661872;-0.749465;0.015107;,
  -0.818313;-0.574762;0.003637;,
  -0.818313;-0.574762;0.003637;,
  -0.818313;-0.574762;0.003637;,
  -0.949080;0.242003;0.201699;,
  -0.949080;0.242003;0.201699;,
  -0.899910;0.389986;-0.195125;,
  -0.899910;0.389986;-0.195125;,
  0.899910;0.389986;-0.195125;,
  0.899910;0.389986;-0.195125;,
  0.000000;0.869269;0.494339;,
  0.000000;0.883680;-0.468092;,
  0.000000;0.883680;-0.468092;,
  0.000000;0.883680;-0.468092;,
  0.000000;0.883680;-0.468092;,
  0.000000;0.845760;-0.533564;,
  0.000000;0.918137;-0.396263;,
  0.000000;0.919273;-0.393620;,
  0.000000;0.948298;-0.317383;,
  0.000000;0.869269;0.494339;,
  0.899910;0.389986;-0.195125;,
  0.844750;-0.505602;0.175397;,
  0.908133;-0.370163;-0.195638;,
  -0.899910;0.389986;-0.195125;,
  -0.949080;0.242003;0.201699;,
  -0.908133;-0.370163;-0.195638;,
  -0.844750;-0.505602;0.175397;,
  -0.765451;0.621919;-0.165229;,
  0.765451;0.621919;-0.165229;,
  -0.818313;-0.574762;0.003637;,
  -0.661872;-0.749465;0.015107;,
  0.000000;-0.944646;0.328090;,
  0.661872;-0.749465;0.015107;,
  -0.577350;-0.577350;0.577350;,
  0.818313;-0.574762;0.003637;,
  0.577350;-0.577350;0.577350;,
  0.908185;0.350894;-0.228196;,
  -0.908185;0.350894;-0.228196;,
  -0.865811;0.476900;-0.151452;,
  -0.647530;0.313889;0.694390;,
  0.865811;0.476900;-0.151452;,
  0.647530;0.313889;0.694390;,
  0.623104;-0.361327;0.693674;,
  -0.623104;-0.361327;0.693674;,
  -0.974615;0.093369;-0.203490;,
  0.974615;0.093369;-0.203490;,
  0.980197;0.191262;-0.051308;,
  -0.980993;0.189804;-0.040333;,
  0.688273;-0.723813;-0.048725;,
  -0.690567;-0.722303;-0.037362;,
  0.949080;0.242003;0.201699;,
  -0.727121;0.363131;0.582607;,
  -0.168712;0.854092;0.491999;,
  0.727121;0.363131;0.582607;,
  0.168712;0.854092;0.491999;,
  -0.642334;0.713094;-0.280899;,
  -0.129219;0.939498;-0.317248;,
  0.129219;0.939498;-0.317248;,
  0.642334;0.713094;-0.280899;,
  -0.922556;0.357480;-0.145254;,
  -0.116875;0.911669;-0.393954;,
  0.117558;0.911663;-0.393766;,
  0.919093;0.364919;-0.148670;,
  0.000000;0.585527;-0.810653;,
  0.000000;-0.963974;0.265998;,
  0.000000;-0.918548;-0.395309;,
  0.577941;-0.729284;-0.366236;,
  -0.577556;-0.731817;-0.361764;,
  -0.113821;0.840204;-0.530190;,
  0.113830;0.839174;-0.531818;,
  0.788695;0.516729;-0.333093;,
  -0.784670;0.521959;-0.334444;,
  0.160297;-0.036131;-0.986407;,
  -0.160297;-0.036131;-0.986407;,
  0.124110;0.911948;-0.391084;,
  -0.107500;0.822444;-0.558596;,
  0.107065;0.820708;-0.561226;,
  -0.123846;0.912398;-0.390119;,
  0.751538;-0.624434;-0.212775;,
  0.851183;-0.496128;0.171304;,
  0.351390;-0.935608;-0.034097;,
  0.703865;-0.700591;-0.117246;,
  0.401691;-0.673115;-0.620936;,
  0.428682;0.461604;-0.776630;,
  0.786494;0.570133;-0.237435;,
  -0.744066;-0.630343;-0.221435;,
  -0.854094;-0.492371;0.167614;,
  -0.351390;-0.935608;-0.034097;,
  -0.710332;-0.693777;-0.118751;,
  -0.404193;-0.667728;-0.625114;,
  -0.428375;0.468617;-0.772589;,
  -0.789888;0.568089;-0.230979;;

  87;
  7;92,73,71,118,74,77,88;,
  4;169,182,20,60;,
  3;171,45,43;,
  4;44,26,6,42;,
  4;25,28,8,5;,
  3;31,172,11;,
  4;172,30,33,139;,
  4;139,32,35,173;,
  3;173,34,57;,
  4;56,85,82,54;,
  3;4,181,197;,
  3;190,180,24;,
  4;176,41,3,48;,
  4;124,168,185,125;,
  3;171,38,23;,
  3;171,40,121;,
  3;171,198,39;,
  3;171,181,198;,
  3;180,171,22;,
  4;14,17,64,47;,
  3;155,2,63;,
  3;53,16,173;,
  3;173,55,52;,
  4;173,15,13,139;,
  4;129,79,72,91;,
  4;139,12,10,172;,
  4;117,130,153,66;,
  4;9,7,27,29;,
  4;51,59,186,187;,
  4;50,21,37,177;,
  4;123,177,36,120;,
  4;62,1,185,168;,
  4;58,49,177,169;,
  4;124,169,177,123;,
  4;168,176,46,61;,
  3;167,193,175;,
  4;175,81,155,167;,
  3;174,186,170;,
  3;196,195,194;,
  4;170,154,84,174;,
  3;187,188,189;,
  3;170,19,154;,
  4;111,108,105,100;,
  5;65,153,136,154,18;,
  3;110,146,145;,
  4;165,166,192,182;,
  4;126,165,182,125;,
  4;70,164,185,0;,
  5;135,152,69,199,155;,
  4;162,161,166,165;,
  4;127,162,165,126;,
  4;76,160,164,68;,
  4;134,113,115,133;,
  4;102,109,99,98;,
  4;78,129,130,116;,
  4;97,142,148,94;,
  3;142,104,144;,
  3;142,144,148;,
  3;107,137,145;,
  4;93,148,153,90;,
  4;137,101,96,146;,
  4;146,95,87,152;,
  3;146,152,135;,
  3;144,154,136;,
  4;83,103,106,80;,
  4;145,155,157,138;,
  4;140,156,154,144;,
  4;86,147,149,89;,
  4;147,141,143,149;,
  3;136,153,148;,
  3;135,155,145;,
  3;136,148,144;,
  3;145,146,135;,
  4;134,133,152,151;,
  4;114,112,75,67;,
  4;133,131,163,152;,
  4;132,134,151,159;,
  4;130,129,150,153;,
  4;158,128,166,161;,
  5;189,190,191,178,187;,
  5;194,179,198,197,196;,
  3;119,184,171;,
  4;122,183,176,123;,
  4;123,176,168,124;,
  4;125,182,169,124;,
  4;125,185,164,126;,
  4;126,164,160,127;;
 }
 MeshTextureCoords { 
 200;
 0.932617;0.516602;,
 0.932617;0.516602;,
 0.414016;0.136933;,
 0.928711;0.940430;,
 0.018672;0.327072;,
 0.509351;0.531290;,
 0.509351;0.531290;,
 0.529869;0.531286;,
 0.529869;0.531286;,
 0.589713;0.531274;,
 0.589713;0.531274;,
 0.589713;0.531274;,
 0.668365;0.531258;,
 0.668365;0.531258;,
 0.213414;0.319805;,
 0.692303;0.531253;,
 0.692303;0.531253;,
 0.244389;0.317600;,
 0.414016;0.136933;,
 0.414016;0.136933;,
 0.932617;0.516602;,
 0.928711;0.940430;,
 0.018672;0.327072;,
 0.018672;0.327072;,
 0.018672;0.327072;,
 0.509338;0.398544;,
 0.509338;0.398544;,
 0.529856;0.398540;,
 0.529856;0.398540;,
 0.589700;0.398527;,
 0.589700;0.398527;,
 0.589700;0.398527;,
 0.668353;0.398511;,
 0.668353;0.398511;,
 0.692290;0.398506;,
 0.692290;0.398506;,
 0.959961;0.940430;,
 0.959961;0.940430;,
 0.018672;0.316537;,
 0.018672;0.316537;,
 0.018672;0.315235;,
 0.959961;0.940430;,
 0.469727;0.500977;,
 0.002800;0.347934;,
 0.469727;0.430664;,
 0.002800;0.347934;,
 0.928711;0.891602;,
 0.069661;0.300175;,
 0.928711;0.891602;,
 0.928711;0.891602;,
 0.928711;0.891602;,
 0.069661;0.300175;,
 0.791200;0.531233;,
 0.791200;0.531233;,
 0.791200;0.531233;,
 0.791188;0.398486;,
 0.791188;0.398486;,
 0.791188;0.398486;,
 0.924805;0.700195;,
 0.241818;0.164462;,
 0.924805;0.700195;,
 0.924805;0.700195;,
 0.924805;0.700195;,
 0.241818;0.164462;,
 0.241818;0.164462;,
 0.520508;0.055664;,
 0.520508;0.055664;,
 0.928711;0.401367;,
 0.928711;0.401367;,
 0.520508;0.055664;,
 0.928711;0.401367;,
 0.211914;0.389648;,
 0.885742;0.061523;,
 0.176758;0.399414;,
 0.274414;0.389648;,
 0.926270;0.002930;,
 0.926270;0.002930;,
 0.313477;0.401367;,
 0.854492;0.067383;,
 0.854492;0.067383;,
 0.818624;0.531227;,
 0.398193;0.426808;,
 0.818624;0.531227;,
 0.818612;0.398480;,
 0.398193;0.426808;,
 0.818612;0.398480;,
 0.311523;0.551758;,
 0.770508;0.192383;,
 0.311523;0.551758;,
 0.176758;0.549805;,
 0.770508;0.192383;,
 0.770508;0.192383;,
 0.176758;0.549805;,
 0.778320;0.239258;,
 0.778320;0.239258;,
 0.778320;0.239258;,
 0.778320;0.239258;,
 0.778320;0.374023;,
 0.842773;0.389648;,
 0.520776;0.388244;,
 0.916450;0.401685;,
 0.778320;0.374023;,
 0.842773;0.545898;,
 0.849937;0.397233;,
 0.442682;0.426886;,
 0.928479;0.484549;,
 0.849950;0.532462;,
 0.442682;0.426886;,
 0.966052;0.484549;,
 0.520508;0.545898;,
 0.519547;0.372291;,
 0.978081;0.401685;,
 0.911133;0.038086;,
 0.854492;0.067383;,
 0.911133;0.370605;,
 0.545898;0.069336;,
 0.545898;0.069336;,
 0.545898;0.069336;,
 0.245117;0.389648;,
 0.018672;0.316537;,
 0.995117;0.940430;,
 0.018672;0.316537;,
 0.995117;0.940430;,
 0.995117;0.891602;,
 0.997573;0.698600;,
 0.997070;0.516602;,
 0.995117;0.401367;,
 0.995605;0.002930;,
 0.911133;0.370605;,
 0.754883;0.180664;,
 0.547852;0.180664;,
 0.545898;0.069336;,
 0.854492;0.067383;,
 0.547852;0.180664;,
 0.754883;0.180664;,
 0.420373;0.235354;,
 0.420373;0.235354;,
 0.519547;0.372291;,
 0.442682;0.426886;,
 0.667654;0.464885;,
 0.442682;0.426886;,
 0.350586;0.760742;,
 0.519547;0.372291;,
 0.131836;0.760742;,
 0.417980;0.253002;,
 0.417980;0.253002;,
 0.518245;0.240157;,
 0.350586;0.604492;,
 0.518245;0.240157;,
 0.131836;0.604492;,
 0.770508;0.192383;,
 0.770508;0.192383;,
 0.518555;0.190430;,
 0.518555;0.190430;,
 0.324173;0.248313;,
 0.324173;0.248313;,
 0.398193;0.426808;,
 0.398193;0.426808;,
 0.911133;0.038086;,
 0.885742;0.061523;,
 0.961914;0.002930;,
 0.926270;0.002930;,
 0.961914;0.002930;,
 0.520508;0.055664;,
 0.961914;0.401367;,
 0.961914;0.401367;,
 0.928711;0.401367;,
 0.241818;0.164462;,
 0.961914;0.700195;,
 0.961914;0.700195;,
 0.241818;0.164462;,
 0.008020;0.324354;,
 0.595805;0.464899;,
 0.691591;0.464880;,
 0.366897;0.427414;,
 0.366897;0.427414;,
 0.959961;0.891602;,
 0.959961;0.891602;,
 0.069661;0.300175;,
 0.069661;0.300175;,
 0.002800;0.347934;,
 0.002800;0.347934;,
 0.963867;0.516602;,
 0.959961;0.940430;,
 0.018672;0.316537;,
 0.963867;0.516602;,
 0.244389;0.317600;,
 0.213414;0.319805;,
 0.118056;0.384263;,
 0.044850;0.365067;,
 0.018672;0.362210;,
 0.018672;0.327072;,
 0.932617;0.516602;,
 0.244389;0.317600;,
 0.213414;0.319805;,
 0.118056;0.384263;,
 0.044850;0.365067;,
 0.018672;0.362210;,
 0.018672;0.327072;,
 0.414016;0.136933;;
 }
}
Frame frm-extru1_1 {
  FrameTransformMatrix {
1.000000,0.000000,0.000000,0.000000,
0.000000,1.000000,0.000000,0.000000,
0.000000,0.000000,1.000000,0.000000,
0.741951,-0.199478,1.057952,1.000000;;
 }
Mesh extru1_1 {
 42;
 -0.271479;0.243736;0.969862;,
 -0.271479;0.243736;0.969862;,
 -0.271479;0.243736;0.969862;,
 -0.271479;-0.294597;0.968250;,
 -0.271479;-0.294597;0.968250;,
 -0.271479;-0.294597;0.968250;,
 -0.271169;-0.340509;1.014984;,
 -0.271169;-0.340509;1.014984;,
 -0.271169;-0.342327;-1.060575;,
 0.259623;0.243736;0.969862;,
 0.259623;0.243736;0.969862;,
 0.259327;-0.340509;1.014984;,
 0.259327;-0.342327;-1.060575;,
 0.259623;0.234357;-0.982512;,
 0.259623;0.234357;-0.982512;,
 -0.271479;0.234357;-0.982512;,
 -0.271479;0.234357;-0.982512;,
 -0.271479;0.234357;-0.982512;,
 0.135186;0.180323;-1.108060;,
 0.135186;-0.241355;-1.106395;,
 -0.142988;-0.241355;-1.106395;,
 -0.142988;0.180323;-1.108060;,
 -0.142988;0.188826;1.093820;,
 0.135186;0.188826;1.093820;,
 -0.142988;-0.239687;1.092372;,
 0.135186;-0.239687;1.092372;,
 -0.271479;-0.295389;-0.980658;,
 -0.271479;0.234357;-0.982512;,
 0.259623;-0.295389;-0.980658;,
 0.259623;0.234357;-0.982512;,
 0.259327;-0.342327;-1.060575;,
 0.259327;-0.340509;1.014984;,
 0.259623;-0.294597;0.968250;,
 0.259623;0.243736;0.969862;,
 0.208127;0.359046;0.792520;,
 0.208127;0.354675;-0.876971;,
 -0.271169;-0.342327;-1.060575;,
 -0.271169;-0.340509;1.014984;,
 -0.271479;-0.294597;0.968250;,
 -0.271479;0.243736;0.969862;,
 -0.217632;0.359046;0.792520;,
 -0.217632;0.354675;-0.876971;;

 20;
 4;17,41,35,14;,
 4;41,40,34,35;,
 4;40,2,10,34;,
 4;22,24,25,23;,
 4;5,7,11,32;,
 4;6,8,12,31;,
 4;26,36,37,4;,
 4;13,35,34,9;,
 4;28,30,36,26;,
 4;18,19,20,21;,
 4;18,21,16,29;,
 4;1,40,41,15;,
 4;20,19,28,26;,
 4;3,0,27,26;,
 4;25,24,38,32;,
 4;23,25,32,33;,
 4;24,22,39,38;,
 4;22,23,33,39;,
 4;21,20,26,27;,
 4;19,18,29,28;;

 MeshMaterialList {
  3;
  20;
  0,
  0,
  0,
  1,
  1,
  0,
  2,
  0,
  2,
  2,
  2,
  0,
  2,
  2,
  1,
  1,
  1,
  1,
  2,
  2;
Material {
 1.000000;1.000000;1.000000;1.000000;;
 50.000000;
 1.000000;1.000000;1.000000;;
 0.0; 0.0; 0.0;;
 TextureFilename {
  "utl102.ppm";
 }
 }
Material {
 1.000000;1.000000;1.000000;1.000000;;
 50.000000;
 1.000000;1.000000;1.000000;;
 0.0; 0.0; 0.0;;
 TextureFilename {
  "utl102.ppm";
 }
 }
Material {
 1.000000;1.000000;1.000000;1.000000;;
 50.000000;
 1.000000;1.000000;1.000000;;
 0.0; 0.0; 0.0;;
 TextureFilename {
  "utl102.ppm";
 }
 }
}
 MeshNormals {
  42;
  -0.716257;0.552983;0.425659;,
  -0.716257;0.552983;0.425659;,
  -0.716257;0.552983;0.425659;,
  -0.844161;-0.061164;0.532589;,
  -0.844161;-0.061164;0.532589;,
  -0.844161;-0.061164;0.532589;,
  -0.795956;-0.233475;0.558519;,
  -0.795956;-0.233475;0.558519;,
  -0.885108;-0.127817;-0.447488;,
  0.607188;0.649507;0.457672;,
  0.607188;0.649507;0.457672;,
  -0.000000;-0.378172;0.925735;,
  0.000000;-0.262841;-0.964839;,
  0.728483;0.499437;-0.468908;,
  0.728483;0.499437;-0.468908;,
  -0.712019;0.514422;-0.477911;,
  -0.712019;0.514422;-0.477911;,
  -0.712019;0.514422;-0.477911;,
  0.310094;0.371242;-0.875226;,
  0.313324;-0.364207;-0.877030;,
  -0.306814;-0.364061;-0.879389;,
  -0.307388;0.359085;-0.881232;,
  -0.303893;0.356717;0.883404;,
  0.310395;0.356878;0.881075;,
  -0.303414;-0.360984;0.881834;,
  0.309907;-0.361132;0.879512;,
  -0.872760;-0.019943;-0.487742;,
  -0.712019;0.514422;-0.477911;,
  0.648358;-0.039848;-0.760292;,
  0.728483;0.499437;-0.468908;,
  0.000000;-0.262841;-0.964839;,
  -0.000000;-0.378172;0.925735;,
  0.580986;-0.122218;0.804685;,
  0.607188;0.649507;0.457672;,
  0.358548;0.907007;0.220866;,
  0.360591;0.873801;-0.326262;,
  -0.885108;-0.127817;-0.447488;,
  -0.795956;-0.233475;0.558519;,
  -0.844161;-0.061164;0.532589;,
  -0.716257;0.552983;0.425659;,
  -0.354324;0.908908;0.219867;,
  -0.356401;0.876026;-0.324895;;

  20;
  4;17,41,35,14;,
  4;41,40,34,35;,
  4;40,2,10,34;,
  4;22,24,25,23;,
  4;5,7,11,32;,
  4;6,8,12,31;,
  4;26,36,37,4;,
  4;13,35,34,9;,
  4;28,30,36,26;,
  4;18,19,20,21;,
  4;18,21,16,29;,
  4;1,40,41,15;,
  4;20,19,28,26;,
  4;3,0,27,26;,
  4;25,24,38,32;,
  4;23,25,32,33;,
  4;24,22,39,38;,
  4;22,23,33,39;,
  4;21,20,26,27;,
  4;19,18,29,28;;
 }
 MeshTextureCoords { 
 42;
 0.471639;0.644378;,
 0.875977;0.969727;,
 0.875977;0.969727;,
 0.471639;0.771386;,
 0.471639;0.771386;,
 0.129360;0.770577;,
 0.848633;0.958008;,
 0.129291;0.780879;,
 0.450195;0.958008;,
 0.875977;0.854492;,
 0.875977;0.854492;,
 0.011867;0.780879;,
 0.450195;0.866211;,
 0.424805;0.854492;,
 0.424805;0.854492;,
 0.424805;0.969727;,
 0.471639;0.646591;,
 0.424805;0.969727;,
 0.383326;0.659339;,
 0.383326;0.758825;,
 0.443736;0.758825;,
 0.443736;0.659339;,
 0.100919;0.662113;,
 0.039345;0.662113;,
 0.100919;0.758258;,
 0.039345;0.758258;,
 0.471639;0.771573;,
 0.471639;0.646591;,
 0.356303;0.771573;,
 0.356303;0.646591;,
 0.356367;0.782647;,
 0.848633;0.866211;,
 0.011802;0.770577;,
 0.011802;0.649793;,
 0.848633;0.866211;,
 0.450195;0.866211;,
 0.471572;0.782647;,
 0.471572;0.782218;,
 0.129360;0.770577;,
 0.129360;0.649793;,
 0.848633;0.958008;,
 0.450195;0.958008;;
 }
}
Frame frm-extru26 {
  FrameTransformMatrix {
1.000000,0.000000,0.000000,0.000000,
0.000000,1.000000,0.000000,0.000000,
0.000000,0.000000,1.000000,0.000000,
0.274595,0.003138,0.133371,1.000000;;
 }
Mesh extru26 {
 12;
 0.019631;0.396800;0.907846;,
 0.019631;-0.473452;-0.951106;,
 0.019631;-0.212769;-1.377360;,
 0.019631;0.141758;-1.376057;,
 -0.019632;0.397843;-0.952738;,
 0.019631;0.397843;-0.952738;,
 -0.019632;0.396800;0.907846;,
 -0.019632;-0.475400;0.907637;,
 0.019631;-0.475400;0.907637;,
 -0.019632;-0.473452;-0.951106;,
 -0.019632;-0.212769;-1.377360;,
 -0.019632;0.141758;-1.376057;;

 8;
 4;5,3,11,4;,
 4;3,2,10,11;,
 4;2,1,9,10;,
 4;9,1,8,7;,
 4;8,0,6,7;,
 4;6,0,5,4;,
 6;11,10,9,7,6,4;,
 6;5,0,8,1,2,3;;

 MeshMaterialList {
  1;
  8;
  0,
  0,
  0,
  0,
  0,
  0,
  0,
  0;
Material {
 1.000000;1.000000;1.000000;1.000000;;
 50.000000;
 1.000000;1.000000;1.000000;;
 0.0; 0.0; 0.0;;
 TextureFilename {
  "utl102.ppm";
 }
 }
}
 MeshNormals {
  12;
  0.577289;0.577150;0.577612;,
  0.447214;-0.860828;-0.242849;,
  0.447214;-0.435951;-0.780991;,
  0.447214;0.440702;-0.778320;,
  -0.447214;0.861606;-0.240075;,
  0.447214;0.861606;-0.240075;,
  -0.577289;0.577150;0.577612;,
  -0.577506;-0.577644;0.576901;,
  0.577506;-0.577644;0.576901;,
  -0.447214;-0.860828;-0.242849;,
  -0.447214;-0.435951;-0.780991;,
  -0.447214;0.440702;-0.778320;;

  8;
  4;5,3,11,4;,
  4;3,2,10,11;,
  4;2,1,9,10;,
  4;9,1,8,7;,
  4;8,0,6,7;,
  4;6,0,5,4;,
  6;11,10,9,7,6,4;,
  6;5,0,8,1,2,3;;
 }
 MeshTextureCoords { 
 12;
 0.852539;0.387695;,
 0.522461;0.540039;,
 0.446289;0.493164;,
 0.448242;0.432617;,
 0.520017;0.387854;,
 0.520017;0.387854;,
 0.852539;0.387695;,
 0.852539;0.540039;,
 0.852539;0.540039;,
 0.522461;0.540039;,
 0.446289;0.493164;,
 0.448242;0.432617;;
 }
}
Frame frm-extru27 {
  FrameTransformMatrix {
-1.000000,0.000000,0.000000,0.000000,
-0.000000,-1.000000,0.000000,0.000000,
0.000000,0.000000,1.000000,0.000000,
0.000000,-0.081640,2.126514,1.000000;;
 }
Mesh extru27 {
 10;
 0.019632;0.324021;-1.027043;,
 0.019632;0.393077;-1.024588;,
 0.019632;0.238286;-1.131782;,
 0.019631;0.392695;-1.218940;,
 -0.019631;0.392695;-1.218940;,
 -0.019631;0.238292;-1.218731;,
 0.019631;0.238292;-1.218731;,
 -0.019631;0.238286;-1.131782;,
 -0.019631;0.324021;-1.027043;,
 -0.019631;0.393077;-1.024588;;

 7;
 4;9,1,3,4;,
 4;9,8,0,1;,
 4;8,7,2,0;,
 4;5,6,2,7;,
 4;5,4,3,6;,
 5;4,5,7,8,9;,
 5;1,0,2,6,3;;

 MeshMaterialList {
  1;
  7;
  0,
  0,
  0,
  0,
  0,
  0,
  0;
Material {
 1.000000;1.000000;1.000000;1.000000;;
 50.000000;
 1.000000;1.000000;1.000000;;
 0.0; 0.0; 0.0;;
 TextureFilename {
  "utl102.ppm";
 }
 }
}
 MeshNormals {
  10;
  0.447214;-0.397232;0.801378;,
  0.584704;0.563930;0.583184;,
  0.447214;-0.842345;0.300758;,
  0.577232;0.576450;-0.578368;,
  -0.577233;0.576450;-0.578366;,
  -0.577077;-0.577858;-0.577115;,
  0.577076;-0.577857;-0.577117;,
  -0.447213;-0.842344;0.300760;,
  -0.447213;-0.397231;0.801379;,
  -0.584704;0.563929;0.583186;;

  7;
  4;9,1,3,4;,
  4;9,8,0,1;,
  4;8,7,2,0;,
  4;5,6,2,7;,
  4;5,4,3,6;,
  5;4,5,7,8,9;,
  5;1,0,2,6,3;;
 }
 MeshTextureCoords { 
 10;
 0.887695;0.401367;,
 0.887695;0.389648;,
 0.870117;0.415039;,
 0.850586;0.389648;,
 0.850586;0.389648;,
 0.850586;0.415039;,
 0.850586;0.415039;,
 0.870117;0.415039;,
 0.887695;0.401367;,
 0.887695;0.389648;;
 }
}
}
Frame frm-extru29 {
  FrameTransformMatrix {
-1.000000,0.000000,-0.000000,0.000000,
0.000000,1.000000,0.000000,0.000000,
0.000000,0.000000,-1.000000,0.000000,
0.000000,0.004287,2.126514,1.000000;;
 }
Mesh extru29 {
 10;
 0.019632;0.324021;1.027042;,
 0.019632;0.393078;1.024587;,
 0.019632;0.238286;1.131782;,
 0.019631;0.392695;1.218940;,
 -0.019631;0.392695;1.218940;,
 -0.019631;0.238292;1.218730;,
 0.019631;0.238292;1.218730;,
 -0.019631;0.238286;1.131782;,
 -0.019631;0.324021;1.027042;,
 -0.019631;0.393078;1.024587;;

 7;
 4;4,3,1,9;,
 4;1,0,8,9;,
 4;0,2,7,8;,
 4;7,2,6,5;,
 4;6,3,4,5;,
 5;9,8,7,5,4;,
 5;3,6,2,0,1;;

 MeshMaterialList {
  1;
  7;
  0,
  0,
  0,
  0,
  0,
  0,
  0;
Material {
 1.000000;1.000000;1.000000;1.000000;;
 50.000000;
 1.000000;1.000000;1.000000;;
 0.0; 0.0; 0.0;;
 TextureFilename {
  "utl102.ppm";
 }
 }
}
 MeshNormals {
  10;
  0.447214;-0.397232;-0.801378;,
  0.584704;0.563930;-0.583184;,
  0.447214;-0.842345;-0.300758;,
  0.577232;0.576450;0.578368;,
  -0.577233;0.576450;0.578366;,
  -0.577077;-0.577858;0.577115;,
  0.577076;-0.577857;0.577117;,
  -0.447213;-0.842344;-0.300760;,
  -0.447213;-0.397231;-0.801379;,
  -0.584704;0.563929;-0.583186;;

  7;
  4;4,3,1,9;,
  4;1,0,8,9;,
  4;0,2,7,8;,
  4;7,2,6,5;,
  4;6,3,4,5;,
  5;9,8,7,5,4;,
  5;3,6,2,0,1;;
 }
 MeshTextureCoords { 
 10;
 0.887695;0.401367;,
 0.887695;0.389648;,
 0.870117;0.415039;,
 0.850586;0.389648;,
 0.850586;0.389648;,
 0.850586;0.415039;,
 0.850586;0.415039;,
 0.870117;0.415039;,
 0.887695;0.401367;,
 0.887695;0.389648;;
 }
}
}
}
}
Frame frm-cyl13 {
  FrameTransformMatrix {
-1.000000,0.000000,-0.000000,0.000000,
-0.000000,0.000000,1.000000,0.000000,
0.000000,1.000000,-0.000000,0.000000,
-0.146859,0.614048,1.963307,1.000000;;
 }
Mesh cyl13 {
 29;
 0.069158;-0.078368;-0.119784;,
 0.069158;-0.078368;-0.119784;,
 0.069158;-0.006412;-0.119784;,
 -0.069158;-0.078368;-0.119784;,
 -0.069158;-0.006412;-0.119784;,
 0.050762;-0.245807;0.087922;,
 -0.050762;-0.245807;0.087922;,
 0.101523;-0.245807;0.000000;,
 0.050762;-0.245807;-0.087922;,
 -0.050762;-0.245807;-0.087922;,
 -0.101523;-0.245807;0.000000;,
 -0.101523;-0.245807;0.000000;,
 -0.050762;-0.245807;-0.087922;,
 0.050762;-0.245807;-0.087922;,
 0.101523;-0.245807;0.000000;,
 -0.050762;-0.245807;0.087922;,
 0.050762;-0.245807;0.087922;,
 0.069158;0.198701;0.119784;,
 0.069158;-0.078368;0.119784;,
 -0.069158;0.198701;0.119784;,
 -0.069158;-0.078368;0.119784;,
 -0.138315;0.094777;0.000000;,
 -0.138315;-0.078368;0.000000;,
 -0.069158;-0.006412;-0.119784;,
 -0.069158;-0.078368;-0.119784;,
 0.069158;-0.006412;-0.119784;,
 0.069158;-0.078368;-0.119784;,
 0.138315;0.094777;0.000000;,
 0.138315;-0.078368;0.000000;;

 13;
 6;9,8,7,5,6,10;,
 4;28,1,2,27;,
 4;20,22,11,15;,
 4;0,3,4,25;,
 4;24,22,21,23;,
 4;22,20,19,21;,
 4;20,18,17,19;,
 4;18,28,27,17;,
 4;18,20,15,16;,
 4;28,18,16,14;,
 4;26,28,14,13;,
 4;24,26,13,12;,
 4;22,24,12,11;;

 MeshMaterialList {
  1;
  13;
  0,
  0,
  0,
  0,
  0,
  0,
  0,
  0,
  0,
  0,
  0,
  0,
  0;
Material {
 1.000000;1.000000;1.000000;1.000000;;
 50.000000;
 1.000000;1.000000;1.000000;;
 0.0; 0.0; 0.0;;
 TextureFilename {
  "utl102.ppm";
 }
 }
}
 MeshNormals {
  29;
  0.497010;-0.109198;-0.860847;,
  0.497010;-0.109198;-0.860847;,
  0.511698;0.297089;-0.806166;,
  -0.497010;-0.109198;-0.860847;,
  -0.511698;0.297089;-0.806166;,
  0.403524;-0.590485;0.698924;,
  -0.403524;-0.590485;0.698924;,
  0.807048;-0.590485;-0.000000;,
  0.403524;-0.590485;-0.698924;,
  -0.403524;-0.590485;-0.698924;,
  -0.807048;-0.590485;0.000000;,
  -0.807048;-0.590485;0.000000;,
  -0.403524;-0.590485;-0.698924;,
  0.403524;-0.590485;-0.698924;,
  0.807048;-0.590485;-0.000000;,
  -0.403524;-0.590485;0.698924;,
  0.403524;-0.590485;0.698924;,
  0.500000;0.000000;0.866025;,
  0.497010;-0.109198;0.860847;,
  -0.500000;0.000000;0.866025;,
  -0.497010;-0.109198;0.860847;,
  -1.000000;-0.000000;0.000000;,
  -0.994020;-0.109198;0.000000;,
  -0.511698;0.297089;-0.806166;,
  -0.497010;-0.109198;-0.860847;,
  0.511698;0.297089;-0.806166;,
  0.497010;-0.109198;-0.860847;,
  1.000000;-0.000000;-0.000000;,
  0.994020;-0.109198;-0.000000;;

  13;
  6;9,8,7,5,6,10;,
  4;28,1,2,27;,
  4;20,22,11,15;,
  4;0,3,4,25;,
  4;24,22,21,23;,
  4;22,20,19,21;,
  4;20,18,17,19;,
  4;18,28,27,17;,
  4;18,20,15,16;,
  4;28,18,16,14;,
  4;26,28,14,13;,
  4;24,26,13,12;,
  4;22,24,12,11;;
 }
 MeshTextureCoords { 
 29;
 0.166992;0.022461;,
 0.172852;0.004883;,
 0.125977;0.004883;,
 0.172852;0.004883;,
 0.125977;0.004883;,
 0.391602;0.116211;,
 0.333008;0.116211;,
 0.422852;0.063477;,
 0.389648;0.008789;,
 0.331055;0.008789;,
 0.299805;0.061523;,
 0.276235;0.077731;,
 0.276367;0.038086;,
 0.274414;0.024414;,
 0.276235;0.077731;,
 0.276284;0.132602;,
 0.276284;0.132602;,
 0.002930;0.153320;,
 0.170924;0.152651;,
 0.002930;0.153320;,
 0.170924;0.152651;,
 0.061889;0.078062;,
 0.170857;0.077894;,
 0.118164;0.018555;,
 0.166992;0.022461;,
 0.118164;0.018555;,
 0.172852;0.004883;,
 0.061889;0.078062;,
 0.170857;0.077894;;
 }
}
}
Frame frm-cyl2 {
  FrameTransformMatrix {
1.000000,0.000000,0.000000,0.000000,
0.000000,1.000000,0.000000,0.000000,
0.000000,0.000000,1.000000,0.000000,
-0.000000,-0.517035,-1.884266,1.000000;;
 }
Mesh cyl2 {
 20;
 0.088767;-0.006187;-0.220549;,
 0.088767;-0.006187;-0.220549;,
 0.066104;-0.059000;-0.220549;,
 0.066104;-0.059000;-0.220549;,
 -0.071997;-0.058940;-0.220549;,
 -0.071997;-0.058940;-0.220549;,
 -0.087901;-0.006221;-0.220549;,
 -0.087901;-0.006221;-0.220549;,
 -0.000476;0.043966;-0.220549;,
 -0.000476;0.043966;-0.220549;,
 -0.000476;0.043966;0.220549;,
 -0.000476;0.043966;-0.220549;,
 -0.087901;-0.006221;0.220549;,
 -0.087901;-0.006221;-0.220549;,
 -0.071997;-0.058940;0.220549;,
 -0.071997;-0.058940;-0.220549;,
 0.066104;-0.059000;0.220549;,
 0.066104;-0.059000;-0.220549;,
 0.088767;-0.006187;0.220549;,
 0.088767;-0.006187;-0.220549;;

 6;
 4;18,16,3,1;,
 4;10,18,0,9;,
 4;16,14,5,2;,
 4;14,12,7,4;,
 5;17,15,6,8,19;,
 4;12,10,11,13;;

 MeshMaterialList {
  1;
  6;
  0,
  0,
  0,
  0,
  0,
  0;
Material {
 1.000000;1.000000;1.000000;1.000000;;
 50.000000;
 1.000000;1.000000;1.000000;;
 0.0; 0.0; 0.0;;
 TextureFilename {
  "utl102.ppm";
 }
 }
}
 MeshNormals {
  20;
  0.857755;0.253489;-0.447214;,
  0.857755;0.253489;-0.447214;,
  0.471946;-0.716427;-0.513809;,
  0.471946;-0.716427;-0.513809;,
  -0.384694;-0.807471;-0.447214;,
  -0.384694;-0.807471;-0.447214;,
  -0.783212;0.311317;-0.538202;,
  -0.783212;0.311317;-0.538202;,
  -0.003955;0.866887;-0.498490;,
  -0.003955;0.866887;-0.498490;,
  -0.004562;0.999990;-0.000000;,
  -0.003955;0.866887;-0.498490;,
  -0.929280;0.369377;-0.000000;,
  -0.783212;0.311317;-0.538202;,
  -0.430101;-0.902781;0.000000;,
  -0.384694;-0.807471;-0.447214;,
  0.550115;-0.835089;0.000000;,
  0.471946;-0.716427;-0.513809;,
  0.958999;0.283409;-0.000000;,
  0.857755;0.253489;-0.447214;;

  6;
  4;18,16,3,1;,
  4;10,18,0,9;,
  4;16,14,5,2;,
  4;14,12,7,4;,
  5;17,15,6,8,19;,
  4;12,10,11,13;;
 }
 MeshTextureCoords { 
 20;
 0.865838;0.191953;,
 0.865838;0.191953;,
 0.858342;0.192020;,
 0.858342;0.192020;,
 0.858350;0.192020;,
 0.858350;0.192020;,
 0.868164;0.233398;,
 0.865833;0.191953;,
 0.874023;0.206055;,
 0.874023;0.192383;,
 0.874023;0.291992;,
 0.874023;0.192383;,
 0.866211;0.293945;,
 0.865833;0.191953;,
 0.858398;0.291992;,
 0.860352;0.211914;,
 0.858398;0.291992;,
 0.858398;0.202148;,
 0.866211;0.293945;,
 0.866211;0.190430;;
 }
}
Frame frm-cyl6 {
  FrameTransformMatrix {
1.000000,0.000000,0.000000,0.000000,
0.000000,1.000000,0.000000,0.000000,
0.000000,0.000000,1.000000,0.000000,
-0.000000,-0.052813,0.253278,1.000000;;
 }
Mesh cyl6 {
 15;
 0.011063;0.160149;0.327326;,
 -0.011063;0.160149;0.327326;,
 -0.017900;0.135743;0.291265;,
 0.017901;0.135743;0.291265;,
 0.000000;0.113830;0.260927;,
 -0.018762;0.049123;0.241193;,
 0.000000;0.031451;0.115331;,
 -0.037551;0.032592;0.254064;,
 -0.017900;0.018446;0.094854;,
 -0.032194;0.013599;0.275900;,
 -0.011063;-0.002597;0.090411;,
 -0.010133;0.013802;0.277591;,
 0.011063;-0.002597;0.090411;,
 -0.001856;0.032919;0.256801;,
 0.017900;0.018446;0.094854;;

 10;
 4;13,11,12,14;,
 4;3,0,11,13;,
 4;11,9,10,12;,
 4;9,7,8,10;,
 4;0,1,9,11;,
 4;7,5,6,8;,
 4;5,13,14,6;,
 4;4,3,13,5;,
 4;2,4,5,7;,
 4;1,2,7,9;;

 MeshMaterialList {
  1;
  10;
  0,
  0,
  0,
  0,
  0,
  0,
  0,
  0,
  0,
  0;
Material {
 1.000000;1.000000;1.000000;1.000000;;
 50.000000;
 1.000000;1.000000;1.000000;;
 0.0; 0.0; 0.0;;
 TextureFilename {
  "utl102.ppm";
 }
 }
}
 MeshNormals {
  15;
  0.555542;-0.350846;0.753843;,
  -0.654847;-0.150491;0.740627;,
  -0.935148;0.258431;-0.242303;,
  0.973357;-0.130622;-0.188452;,
  0.085889;0.295128;-0.951589;,
  0.114630;0.803842;-0.583693;,
  0.029527;0.993782;-0.107356;,
  -0.941538;0.270769;-0.200475;,
  -0.946427;0.283642;-0.154348;,
  -0.720737;-0.557671;0.411754;,
  -0.580835;-0.814017;0.002589;,
  0.616909;-0.622400;0.481708;,
  0.583747;-0.800014;0.138624;,
  0.995759;0.070498;-0.059105;,
  0.956104;0.281035;0.082970;;

  10;
  4;13,11,12,14;,
  4;3,0,11,13;,
  4;11,9,10,12;,
  4;9,7,8,10;,
  4;0,1,9,11;,
  4;7,5,6,8;,
  4;5,13,14,6;,
  4;4,3,13,5;,
  4;2,4,5,7;,
  4;1,2,7,9;;
 }
 MeshTextureCoords { 
 15;
 0.220937;0.443555;,
 0.209461;0.443555;,
 0.201802;0.458545;,
 0.220371;0.458545;,
 0.207393;0.471155;,
 0.186757;0.479358;,
 0.193510;0.531674;,
 0.174226;0.474008;,
 0.182034;0.540186;,
 0.173804;0.464931;,
 0.182034;0.542032;,
 0.185280;0.464228;,
 0.193510;0.542032;,
 0.192795;0.472870;,
 0.200603;0.540186;;
 }
}
Frame frm-sphere1 {
  FrameTransformMatrix {
1.000000,0.000000,0.000000,0.000000,
0.000000,1.000000,0.000000,0.000000,
0.000000,0.000000,1.000000,0.000000,
0.000000,0.048006,-0.105524,1.000000;;
 }
Mesh sphere1 {
 21;
 0.000000;0.111676;0.000000;,
 0.000000;-0.111676;0.000000;,
 -0.066686;0.055838;-0.759459;,
 0.066686;0.055838;-0.759459;,
 -0.066686;-0.055838;-0.759459;,
 0.066686;-0.055838;-0.759459;,
 -0.133371;0.055838;0.077002;,
 -0.133371;-0.055838;0.077002;,
 -0.154004;-0.000000;0.088914;,
 0.133371;0.055838;0.077002;,
 0.154004;0.000000;0.088914;,
 0.133371;-0.055838;0.077002;,
 -0.000000;0.055838;0.213150;,
 -0.000000;-0.055838;0.213150;,
 -0.000000;0.055838;-0.768278;,
 0.000000;-0.055838;-0.768278;,
 -0.077002;0.096714;-0.044457;,
 -0.077002;-0.096715;-0.044457;,
 -0.000000;-0.000000;0.236974;,
 0.077002;0.096715;-0.044457;,
 0.077002;-0.096715;-0.044457;;

 23;
 3;1,20,11;,
 3;17,7,4;,
 4;20,1,15,5;,
 4;16,0,14,2;,
 3;19,9,3;,
 3;0,9,19;,
 3;1,11,13;,
 6;9,10,11,7,8,6;,
 4;10,18,13,11;,
 4;9,12,18,10;,
 5;11,5,15,4,7;,
 3;0,12,9;,
 3;1,13,7;,
 5;3,9,6,2,14;,
 4;18,8,7,13;,
 4;12,6,8,18;,
 3;5,11,20;,
 3;0,6,12;,
 3;1,7,17;,
 3;2,6,16;,
 4;4,15,1,17;,
 4;3,14,0,19;,
 3;0,16,6;;

 MeshMaterialList {
  1;
  23;
  0,
  0,
  0,
  0,
  0,
  0,
  0,
  0,
  0,
  0,
  0,
  0,
  0,
  0,
  0,
  0,
  0,
  0,
  0,
  0,
  0,
  0,
  0;
Material {
 1.000000;1.000000;1.000000;1.000000;;
 50.000000;
 1.000000;1.000000;1.000000;;
 0.0; 0.0; 0.0;;
 TextureFilename {
  "utl102.ppm";
 }
 }
}
 MeshNormals {
  21;
  -0.009104;0.999899;-0.010915;,
  -0.015243;-0.998035;0.060771;,
  -0.629884;0.768648;-0.111474;,
  0.629885;0.768647;-0.111474;,
  -0.629885;-0.768647;-0.111474;,
  0.629885;-0.768647;-0.111474;,
  -0.629095;0.777169;0.015726;,
  -0.629096;-0.777169;0.015726;,
  -0.957803;-0.000000;0.287426;,
  0.629096;0.777169;0.015726;,
  0.957803;0.000000;0.287426;,
  0.629096;-0.777169;0.015726;,
  -0.000000;0.852603;0.522558;,
  -0.000000;-0.852603;0.522559;,
  0.000000;0.991411;-0.130780;,
  0.000000;-0.991411;-0.130780;,
  -0.276979;0.960740;-0.016163;,
  -0.307379;-0.950758;0.039722;,
  -0.000000;0.000000;1.000000;,
  0.267258;0.962990;-0.034981;,
  0.286890;-0.957960;0.002502;;

  23;
  3;1,20,11;,
  3;17,7,4;,
  4;20,1,15,5;,
  4;16,0,14,2;,
  3;19,9,3;,
  3;0,9,19;,
  3;1,11,13;,
  6;9,10,11,7,8,6;,
  4;10,18,13,11;,
  4;9,12,18,10;,
  5;11,5,15,4,7;,
  3;0,12,9;,
  3;1,13,7;,
  5;3,9,6,2,14;,
  4;18,8,7,13;,
  4;12,6,8,18;,
  3;5,11,20;,
  3;0,6,12;,
  3;1,7,17;,
  3;2,6,16;,
  4;4,15,1,17;,
  4;3,14,0,19;,
  3;0,16,6;;
 }
 MeshTextureCoords { 
 21;
 0.312125;0.743234;,
 0.312125;0.743234;,
 0.292766;0.592597;,
 0.331215;0.592590;,
 0.292766;0.592597;,
 0.331215;0.592590;,
 0.273689;0.758515;,
 0.273689;0.758515;,
 0.267743;0.760879;,
 0.350587;0.758501;,
 0.356537;0.760863;,
 0.350587;0.758501;,
 0.312162;0.785513;,
 0.312162;0.785513;,
 0.311989;0.590844;,
 0.311989;0.590844;,
 0.289918;0.734420;,
 0.289918;0.734420;,
 0.312166;0.790239;,
 0.334315;0.734412;,
 0.334315;0.734412;;
 }
}
}
Frame frm-cube7 {
  FrameTransformMatrix {
1.000000,0.000000,0.000000,0.000000,
0.000000,1.000000,0.000000,0.000000,
0.000000,0.000000,1.000000,0.000000,
0.000000,-0.082279,0.089428,1.000000;;
 }
Mesh cube7 {
 8;
 0.006920;0.051784;-0.088881;,
 0.006920;0.078592;0.013097;,
 0.002477;-0.071351;0.047004;,
 0.002477;-0.071351;0.082022;,
 -0.006920;0.051784;-0.088881;,
 -0.006920;0.078592;0.013097;,
 -0.002477;-0.071351;0.047004;,
 -0.002477;-0.071351;0.082022;;

 5;
 4;5,4,6,7;,
 4;4,0,2,6;,
 4;0,1,3,2;,
 4;1,5,7,3;,
 4;7,6,2,3;;

 MeshMaterialList {
  1;
  5;
  0,
  0,
  0,
  0,
  0;
Material {
 1.000000;1.000000;1.000000;1.000000;;
 50.000000;
 1.000000;1.000000;1.000000;;
 0.0; 0.0; 0.0;;
 TextureFilename {
  "utl102.ppm";
 }
 }
}
 MeshNormals {
  8;
  0.700780;-0.539390;-0.466869;,
  0.709228;0.276219;0.648613;,
  0.442716;-0.839023;-0.316296;,
  0.672728;-0.411006;0.615233;,
  -0.700779;-0.539390;-0.466869;,
  -0.709228;0.276219;0.648613;,
  -0.442716;-0.839023;-0.316296;,
  -0.672728;-0.411006;0.615233;;

  5;
  4;5,4,6,7;,
  4;4,0,2,6;,
  4;0,1,3,2;,
  4;1,5,7,3;,
  4;7,6,2,3;;
 }
 MeshTextureCoords { 
 8;
 0.838867;0.303711;,
 0.848633;0.329102;,
 0.813477;0.331055;,
 0.813477;0.342773;,
 0.838867;0.303711;,
 0.848633;0.329102;,
 0.813477;0.331055;,
 0.813477;0.342773;;
 }
}
}
}
}
Frame frm-extru1_2 {
  FrameTransformMatrix {
-1.000000,0.000000,-0.000000,0.000000,
0.000000,1.000000,0.000000,0.000000,
0.000000,0.000000,-1.000000,0.000000,
-0.741951,-0.199478,1.057952,1.000000;;
 }
Mesh extru1_2 {
 42;
 -0.271479;0.243736;-0.969862;,
 -0.271479;0.243736;-0.969862;,
 -0.271479;0.243736;-0.969862;,
 -0.271479;-0.294597;-0.968250;,
 -0.271479;-0.294597;-0.968250;,
 -0.271479;-0.294597;-0.968250;,
 -0.271169;-0.340509;-1.014984;,
 -0.271169;-0.340509;-1.014984;,
 -0.271169;-0.342327;1.060575;,
 0.259623;0.243736;-0.969862;,
 0.259623;0.243736;-0.969862;,
 0.259327;-0.340509;-1.014984;,
 0.259327;-0.342327;1.060575;,
 0.259623;0.234357;0.982512;,
 0.259623;0.234357;0.982512;,
 -0.271479;0.234357;0.982512;,
 -0.271479;0.234357;0.982512;,
 -0.271479;0.234357;0.982512;,
 0.135187;0.180323;1.108060;,
 0.135187;-0.241355;1.106395;,
 -0.142988;-0.241355;1.106395;,
 -0.142988;0.180323;1.108060;,
 -0.142988;0.188826;-1.093820;,
 0.135187;0.188826;-1.093820;,
 -0.142988;-0.239687;-1.092372;,
 0.135187;-0.239687;-1.092372;,
 -0.271479;-0.295389;0.980658;,
 -0.271479;0.234357;0.982512;,
 0.259623;-0.295389;0.980658;,
 0.259623;0.234357;0.982512;,
 0.259327;-0.342327;1.060575;,
 0.259327;-0.340509;-1.014984;,
 0.259623;-0.294597;-0.968250;,
 0.259623;0.243736;-0.969862;,
 0.208128;0.359046;-0.792520;,
 0.208128;0.354675;0.876972;,
 -0.271169;-0.342327;1.060575;,
 -0.271169;-0.340509;-1.014984;,
 -0.271479;-0.294597;-0.968250;,
 -0.271479;0.243736;-0.969862;,
 -0.217631;0.359046;-0.792520;,
 -0.217631;0.354675;0.876972;;

 20;
 4;14,35,41,17;,
 4;35,34,40,41;,
 4;34,10,2,40;,
 4;23,25,24,22;,
 4;32,11,7,5;,
 4;31,12,8,6;,
 4;4,37,36,26;,
 4;9,34,35,13;,
 4;26,36,30,28;,
 4;21,20,19,18;,
 4;29,16,21,18;,
 4;15,41,40,1;,
 4;26,28,19,20;,
 4;26,27,0,3;,
 4;32,38,24,25;,
 4;33,32,25,23;,
 4;38,39,22,24;,
 4;39,33,23,22;,
 4;27,26,20,21;,
 4;28,29,18,19;;

 MeshMaterialList {
  3;
  20;
  0,
  0,
  0,
  1,
  1,
  0,
  2,
  0,
  2,
  2,
  2,
  0,
  2,
  2,
  1,
  1,
  1,
  1,
  2,
  2;
Material {
 1.000000;1.000000;1.000000;1.000000;;
 50.000000;
 1.000000;1.000000;1.000000;;
 0.0; 0.0; 0.0;;
 TextureFilename {
  "utl102.ppm";
 }
 }
Material {
 1.000000;1.000000;1.000000;1.000000;;
 50.000000;
 1.000000;1.000000;1.000000;;
 0.0; 0.0; 0.0;;
 TextureFilename {
  "utl102.ppm";
 }
 }
Material {
 1.000000;1.000000;1.000000;1.000000;;
 50.000000;
 1.000000;1.000000;1.000000;;
 0.0; 0.0; 0.0;;
 TextureFilename {
  "utl102.ppm";
 }
 }
}
 MeshNormals {
  42;
  -0.716257;0.552983;-0.425659;,
  -0.716257;0.552983;-0.425659;,
  -0.716257;0.552983;-0.425659;,
  -0.844161;-0.061164;-0.532589;,
  -0.844161;-0.061164;-0.532589;,
  -0.844161;-0.061164;-0.532589;,
  -0.795956;-0.233475;-0.558519;,
  -0.795956;-0.233475;-0.558519;,
  -0.885108;-0.127817;0.447488;,
  0.607188;0.649507;-0.457672;,
  0.607188;0.649507;-0.457672;,
  -0.000000;-0.378172;-0.925735;,
  0.000000;-0.262841;0.964839;,
  0.728483;0.499437;0.468908;,
  0.728483;0.499437;0.468908;,
  -0.712019;0.514422;0.477911;,
  -0.712019;0.514422;0.477911;,
  -0.712019;0.514422;0.477911;,
  0.310094;0.371242;0.875226;,
  0.313324;-0.364207;0.877030;,
  -0.306814;-0.364061;0.879389;,
  -0.307388;0.359085;0.881232;,
  -0.303893;0.356717;-0.883404;,
  0.310395;0.356878;-0.881075;,
  -0.303414;-0.360984;-0.881834;,
  0.309907;-0.361132;-0.879512;,
  -0.872760;-0.019943;0.487742;,
  -0.712019;0.514422;0.477911;,
  0.648358;-0.039848;0.760292;,
  0.728483;0.499437;0.468908;,
  0.000000;-0.262841;0.964839;,
  -0.000000;-0.378172;-0.925735;,
  0.580986;-0.122218;-0.804685;,
  0.607188;0.649507;-0.457672;,
  0.358548;0.907007;-0.220866;,
  0.360591;0.873801;0.326262;,
  -0.885108;-0.127817;0.447488;,
  -0.795956;-0.233475;-0.558519;,
  -0.844161;-0.061164;-0.532589;,
  -0.716257;0.552983;-0.425659;,
  -0.354324;0.908908;-0.219867;,
  -0.356401;0.876026;0.324895;;

  20;
  4;14,35,41,17;,
  4;35,34,40,41;,
  4;34,10,2,40;,
  4;23,25,24,22;,
  4;32,11,7,5;,
  4;31,12,8,6;,
  4;4,37,36,26;,
  4;9,34,35,13;,
  4;26,36,30,28;,
  4;21,20,19,18;,
  4;29,16,21,18;,
  4;15,41,40,1;,
  4;26,28,19,20;,
  4;26,27,0,3;,
  4;32,38,24,25;,
  4;33,32,25,23;,
  4;38,39,22,24;,
  4;39,33,23,22;,
  4;27,26,20,21;,
  4;28,29,18,19;;
 }
 MeshTextureCoords { 
 42;
 0.471639;0.644378;,
 0.875977;0.969727;,
 0.875977;0.969727;,
 0.471639;0.771386;,
 0.471639;0.771386;,
 0.129360;0.770577;,
 0.848633;0.958008;,
 0.129291;0.780879;,
 0.450195;0.958008;,
 0.875977;0.854492;,
 0.875977;0.854492;,
 0.011867;0.780879;,
 0.450195;0.866211;,
 0.424805;0.854492;,
 0.424805;0.854492;,
 0.424805;0.969727;,
 0.471639;0.646591;,
 0.424805;0.969727;,
 0.383326;0.659339;,
 0.383326;0.758825;,
 0.443736;0.758825;,
 0.443736;0.659339;,
 0.100919;0.662113;,
 0.039345;0.662113;,
 0.100919;0.758258;,
 0.039345;0.758258;,
 0.471639;0.771573;,
 0.471639;0.646591;,
 0.356303;0.771573;,
 0.356303;0.646591;,
 0.356367;0.782647;,
 0.848633;0.866211;,
 0.011802;0.770577;,
 0.011802;0.649793;,
 0.848633;0.866211;,
 0.450195;0.866211;,
 0.471572;0.782647;,
 0.471572;0.782218;,
 0.129360;0.770577;,
 0.129360;0.649793;,
 0.848633;0.958008;,
 0.450195;0.958008;;
 }
}
Frame frm-extru30 {
  FrameTransformMatrix {
1.000000,0.000000,0.000000,0.000000,
0.000000,1.000000,0.000000,0.000000,
0.000000,0.000000,1.000000,0.000000,
0.274595,0.003138,-0.133371,1.000000;;
 }
Mesh extru30 {
 12;
 0.019631;0.396800;-0.907846;,
 0.019631;-0.473452;0.951107;,
 0.019631;-0.212769;1.377361;,
 0.019631;0.141758;1.376057;,
 -0.019632;0.397843;0.952739;,
 0.019631;0.397843;0.952739;,
 -0.019632;0.396800;-0.907846;,
 -0.019632;-0.475400;-0.907637;,
 0.019631;-0.475400;-0.907637;,
 -0.019632;-0.473452;0.951107;,
 -0.019632;-0.212769;1.377361;,
 -0.019632;0.141758;1.376057;;

 8;
 4;4,11,3,5;,
 4;11,10,2,3;,
 4;10,9,1,2;,
 4;7,8,1,9;,
 4;7,6,0,8;,
 4;4,5,0,6;,
 6;4,6,7,9,10,11;,
 6;3,2,1,8,0,5;;

 MeshMaterialList {
  1;
  8;
  0,
  0,
  0,
  0,
  0,
  0,
  0,
  0;
Material {
 1.000000;1.000000;1.000000;1.000000;;
 50.000000;
 1.000000;1.000000;1.000000;;
 0.0; 0.0; 0.0;;
 TextureFilename {
  "utl102.ppm";
 }
 }
}
 MeshNormals {
  12;
  0.577289;0.577150;-0.577612;,
  0.447214;-0.860828;0.242849;,
  0.447214;-0.435951;0.780991;,
  0.447214;0.440702;0.778320;,
  -0.447214;0.861606;0.240075;,
  0.447214;0.861606;0.240075;,
  -0.577289;0.577150;-0.577612;,
  -0.577506;-0.577644;-0.576901;,
  0.577506;-0.577644;-0.576901;,
  -0.447214;-0.860828;0.242849;,
  -0.447214;-0.435951;0.780991;,
  -0.447214;0.440702;0.778320;;

  8;
  4;4,11,3,5;,
  4;11,10,2,3;,
  4;10,9,1,2;,
  4;7,8,1,9;,
  4;7,6,0,8;,
  4;4,5,0,6;,
  6;4,6,7,9,10,11;,
  6;3,2,1,8,0,5;;
 }
 MeshTextureCoords { 
 12;
 0.852539;0.387695;,
 0.522461;0.540039;,
 0.446289;0.493164;,
 0.448242;0.432617;,
 0.520017;0.387854;,
 0.520017;0.387854;,
 0.852539;0.387695;,
 0.852539;0.540039;,
 0.852539;0.540039;,
 0.522461;0.540039;,
 0.446289;0.493164;,
 0.448242;0.432617;;
 }
}
Frame frm-extru31 {
  FrameTransformMatrix {
-1.000000,0.000000,0.000000,0.000000,
-0.000000,-1.000000,0.000000,0.000000,
0.000000,0.000000,1.000000,0.000000,
0.000001,-0.081640,-2.126513,1.000000;;
 }
Mesh extru31 {
 10;
 0.019632;0.324021;1.027042;,
 0.019632;0.393078;1.024587;,
 0.019632;0.238286;1.131782;,
 0.019631;0.392695;1.218939;,
 -0.019631;0.392695;1.218939;,
 -0.019631;0.238292;1.218730;,
 0.019631;0.238292;1.218730;,
 -0.019631;0.238286;1.131782;,
 -0.019631;0.324021;1.027042;,
 -0.019631;0.393078;1.024587;;

 7;
 4;4,3,1,9;,
 4;1,0,8,9;,
 4;0,2,7,8;,
 4;7,2,6,5;,
 4;6,3,4,5;,
 5;9,8,7,5,4;,
 5;3,6,2,0,1;;

 MeshMaterialList {
  1;
  7;
  0,
  0,
  0,
  0,
  0,
  0,
  0;
Material {
 1.000000;1.000000;1.000000;1.000000;;
 50.000000;
 1.000000;1.000000;1.000000;;
 0.0; 0.0; 0.0;;
 TextureFilename {
  "utl102.ppm";
 }
 }
}
 MeshNormals {
  10;
  0.447214;-0.397232;-0.801378;,
  0.584704;0.563930;-0.583184;,
  0.447214;-0.842345;-0.300758;,
  0.577232;0.576450;0.578368;,
  -0.577233;0.576450;0.578366;,
  -0.577077;-0.577858;0.577115;,
  0.577076;-0.577857;0.577117;,
  -0.447213;-0.842344;-0.300760;,
  -0.447213;-0.397231;-0.801379;,
  -0.584704;0.563929;-0.583186;;

  7;
  4;4,3,1,9;,
  4;1,0,8,9;,
  4;0,2,7,8;,
  4;7,2,6,5;,
  4;6,3,4,5;,
  5;9,8,7,5,4;,
  5;3,6,2,0,1;;
 }
 MeshTextureCoords { 
 10;
 0.887695;0.401367;,
 0.887695;0.389648;,
 0.870117;0.415039;,
 0.850586;0.389648;,
 0.850586;0.389648;,
 0.850586;0.415039;,
 0.850586;0.415039;,
 0.870117;0.415039;,
 0.887695;0.401367;,
 0.887695;0.389648;;
 }
}
}
Frame frm-extru32 {
  FrameTransformMatrix {
-1.000000,0.000000,-0.000000,0.000000,
0.000000,1.000000,0.000000,0.000000,
0.000000,0.000000,-1.000000,0.000000,
0.000001,0.004287,-2.126513,1.000000;;
 }
Mesh extru32 {
 10;
 0.019632;0.324021;-1.027042;,
 0.019632;0.393078;-1.024587;,
 0.019632;0.238286;-1.131782;,
 0.019631;0.392695;-1.218940;,
 -0.019631;0.392695;-1.218940;,
 -0.019631;0.238292;-1.218730;,
 0.019631;0.238292;-1.218730;,
 -0.019631;0.238286;-1.131782;,
 -0.019631;0.324021;-1.027042;,
 -0.019631;0.393078;-1.024587;;

 7;
 4;9,1,3,4;,
 4;9,8,0,1;,
 4;8,7,2,0;,
 4;5,6,2,7;,
 4;5,4,3,6;,
 5;4,5,7,8,9;,
 5;1,0,2,6,3;;

 MeshMaterialList {
  1;
  7;
  0,
  0,
  0,
  0,
  0,
  0,
  0;
Material {
 1.000000;1.000000;1.000000;1.000000;;
 50.000000;
 1.000000;1.000000;1.000000;;
 0.0; 0.0; 0.0;;
 TextureFilename {
  "utl102.ppm";
 }
 }
}
 MeshNormals {
  10;
  0.447214;-0.397232;0.801378;,
  0.584704;0.563930;0.583184;,
  0.447214;-0.842345;0.300758;,
  0.577232;0.576450;-0.578368;,
  -0.577233;0.576450;-0.578366;,
  -0.577077;-0.577858;-0.577115;,
  0.577076;-0.577857;-0.577117;,
  -0.447213;-0.842344;0.300760;,
  -0.447213;-0.397231;0.801379;,
  -0.584704;0.563929;0.583186;;

  7;
  4;9,1,3,4;,
  4;9,8,0,1;,
  4;8,7,2,0;,
  4;5,6,2,7;,
  4;5,4,3,6;,
  5;4,5,7,8,9;,
  5;1,0,2,6,3;;
 }
 MeshTextureCoords { 
 10;
 0.887695;0.401367;,
 0.887695;0.389648;,
 0.870117;0.415039;,
 0.850586;0.389648;,
 0.850586;0.389648;,
 0.850586;0.415039;,
 0.850586;0.415039;,
 0.870117;0.415039;,
 0.887695;0.401367;,
 0.887695;0.389648;;
 }
}
}
}
}
Frame frm-cyl14 {
  FrameTransformMatrix {
-1.000000,0.000000,-0.000000,0.000000,
-0.000000,0.000000,1.000000,0.000000,
0.000000,1.000000,-0.000000,0.000000,
0.157150,0.614048,1.963307,1.000000;;
 }
Mesh cyl14 {
 29;
 0.069158;-0.078368;-0.119784;,
 0.069158;-0.078368;-0.119784;,
 0.069158;-0.006412;-0.119784;,
 -0.069158;-0.078368;-0.119784;,
 -0.069158;-0.006412;-0.119784;,
 0.050762;-0.245807;0.087922;,
 -0.050762;-0.245807;0.087922;,
 0.101523;-0.245807;0.000000;,
 0.050762;-0.245807;-0.087922;,
 -0.050762;-0.245807;-0.087922;,
 -0.101523;-0.245807;0.000000;,
 -0.101523;-0.245807;0.000000;,
 -0.050762;-0.245807;-0.087922;,
 0.050762;-0.245807;-0.087922;,
 0.101523;-0.245807;0.000000;,
 -0.050762;-0.245807;0.087922;,
 0.050762;-0.245807;0.087922;,
 0.069158;0.198701;0.119784;,
 0.069158;-0.078368;0.119784;,
 -0.069158;0.198701;0.119784;,
 -0.069158;-0.078368;0.119784;,
 -0.138315;0.094777;0.000000;,
 -0.138315;-0.078368;0.000000;,
 -0.069158;-0.006412;-0.119784;,
 -0.069158;-0.078368;-0.119784;,
 0.069158;-0.006412;-0.119784;,
 0.069158;-0.078368;-0.119784;,
 0.138315;0.094777;0.000000;,
 0.138315;-0.078368;0.000000;;

 13;
 6;9,8,7,5,6,10;,
 4;28,1,2,27;,
 4;20,22,11,15;,
 4;0,3,4,25;,
 4;24,22,21,23;,
 4;22,20,19,21;,
 4;20,18,17,19;,
 4;18,28,27,17;,
 4;18,20,15,16;,
 4;28,18,16,14;,
 4;26,28,14,13;,
 4;24,26,13,12;,
 4;22,24,12,11;;

 MeshMaterialList {
  1;
  13;
  0,
  0,
  0,
  0,
  0,
  0,
  0,
  0,
  0,
  0,
  0,
  0,
  0;
Material {
 1.000000;1.000000;1.000000;1.000000;;
 50.000000;
 1.000000;1.000000;1.000000;;
 0.0; 0.0; 0.0;;
 TextureFilename {
  "utl102.ppm";
 }
 }
}
 MeshNormals {
  29;
  0.497010;-0.109198;-0.860847;,
  0.497010;-0.109198;-0.860847;,
  0.511698;0.297089;-0.806166;,
  -0.497010;-0.109198;-0.860847;,
  -0.511698;0.297089;-0.806166;,
  0.403524;-0.590485;0.698924;,
  -0.403524;-0.590485;0.698924;,
  0.807048;-0.590485;-0.000000;,
  0.403524;-0.590485;-0.698924;,
  -0.403524;-0.590485;-0.698924;,
  -0.807048;-0.590485;0.000000;,
  -0.807048;-0.590485;0.000000;,
  -0.403524;-0.590485;-0.698924;,
  0.403524;-0.590485;-0.698924;,
  0.807048;-0.590485;-0.000000;,
  -0.403524;-0.590485;0.698924;,
  0.403524;-0.590485;0.698924;,
  0.500000;0.000000;0.866025;,
  0.497010;-0.109198;0.860847;,
  -0.500000;0.000000;0.866025;,
  -0.497010;-0.109198;0.860847;,
  -1.000000;-0.000000;0.000000;,
  -0.994020;-0.109198;0.000000;,
  -0.511698;0.297089;-0.806166;,
  -0.497010;-0.109198;-0.860847;,
  0.511698;0.297089;-0.806166;,
  0.497010;-0.109198;-0.860847;,
  1.000000;-0.000000;-0.000000;,
  0.994020;-0.109198;-0.000000;;

  13;
  6;9,8,7,5,6,10;,
  4;28,1,2,27;,
  4;20,22,11,15;,
  4;0,3,4,25;,
  4;24,22,21,23;,
  4;22,20,19,21;,
  4;20,18,17,19;,
  4;18,28,27,17;,
  4;18,20,15,16;,
  4;28,18,16,14;,
  4;26,28,14,13;,
  4;24,26,13,12;,
  4;22,24,12,11;;
 }
 MeshTextureCoords { 
 29;
 0.166992;0.022461;,
 0.172852;0.004883;,
 0.125977;0.004883;,
 0.172852;0.004883;,
 0.125977;0.004883;,
 0.391602;0.116211;,
 0.333008;0.116211;,
 0.422852;0.063477;,
 0.389648;0.008789;,
 0.331055;0.008789;,
 0.299805;0.061523;,
 0.276235;0.077731;,
 0.276367;0.038086;,
 0.274414;0.024414;,
 0.276235;0.077731;,
 0.276284;0.132602;,
 0.276284;0.132602;,
 0.002930;0.153320;,
 0.170924;0.152651;,
 0.002930;0.153320;,
 0.170924;0.152651;,
 0.061889;0.078062;,
 0.170857;0.077894;,
 0.118164;0.018555;,
 0.166992;0.022461;,
 0.118164;0.018555;,
 0.172852;0.004883;,
 0.061889;0.078062;,
 0.170857;0.077894;;
 }
}
}
Frame frm-extru18 {
  FrameTransformMatrix {
1.000000,0.000000,0.000000,0.000000,
0.000000,1.000000,0.000000,0.000000,
0.000000,0.000000,1.000000,0.000000,
0.000000,-0.727620,0.132002,1.000000;;
 }
Mesh extru18 {
 62;
 -0.536681;0.190628;2.043190;,
 -0.536681;0.190628;2.043190;,
 -0.479546;-0.704691;2.043754;,
 -0.479546;-0.704691;2.043754;,
 0.274077;0.030918;-0.910183;,
 0.274077;0.030918;-0.910183;,
 0.274077;0.030918;-0.910183;,
 -0.960773;0.031486;2.022619;,
 0.536681;0.190628;2.043190;,
 0.536681;0.190628;2.043190;,
 0.536681;0.190628;2.043190;,
 0.467393;-0.704691;2.043754;,
 0.467393;-0.704691;2.043754;,
 -0.274077;0.030918;-0.910183;,
 -0.274077;0.030918;-0.910183;,
 0.954927;0.031486;2.022619;,
 0.954927;0.031486;2.022619;,
 -0.332192;0.031557;0.590257;,
 -0.332192;0.031557;0.590257;,
 -0.332192;0.031557;0.590257;,
 -0.332192;0.031557;0.590257;,
 0.332192;0.031557;0.590257;,
 0.332192;0.031557;0.590257;,
 0.332192;0.031557;0.590257;,
 0.332192;0.031557;0.590257;,
 -0.274077;0.030970;0.138920;,
 -0.274077;0.030970;0.138920;,
 -0.274077;0.030970;0.138920;,
 -0.274077;-0.214986;-0.781276;,
 -0.274077;-0.214986;-0.781276;,
 -0.274077;-0.214986;-0.781276;,
 0.274077;-0.214986;-0.781276;,
 0.274077;-0.214986;-0.781276;,
 0.274077;-0.214986;-0.781276;,
 -0.274077;-0.738631;0.452677;,
 -0.274077;-0.738631;0.452677;,
 -0.274077;-0.738631;0.452677;,
 0.274077;0.030970;0.138920;,
 0.274077;0.030970;0.138920;,
 0.274077;0.030970;0.138920;,
 0.274077;-0.738631;0.452677;,
 0.274077;-0.738631;0.452677;,
 0.274077;-0.738631;0.452677;,
 0.274077;0.030970;0.138920;,
 -0.274077;-0.738631;0.452677;,
 0.274077;-0.214986;-0.781276;,
 -0.274077;-0.214986;-0.781276;,
 -0.274077;0.030970;0.138920;,
 0.332192;0.031557;0.590257;,
 -0.332192;0.031557;0.590257;,
 -0.960773;-0.159303;2.025443;,
 0.954927;0.031486;2.022619;,
 0.954927;-0.159303;2.025443;,
 -0.332192;-0.005089;-0.850392;,
 0.332192;-0.005089;-0.850392;,
 -0.274077;0.030918;-0.910183;,
 0.467393;-0.704691;2.043754;,
 0.536681;0.190628;2.043190;,
 -0.960773;0.031486;2.022619;,
 0.274077;0.030918;-0.910183;,
 -0.479546;-0.704691;2.043754;,
 -0.536681;0.190628;2.043190;;

 21;
 5;53,30,36,20,27;,
 4;26,19,24,39;,
 3;18,7,1;,
 4;23,17,0,10;,
 4;61,3,12,9;,
 4;11,2,35,41;,
 4;29,33,40,34;,
 4;44,50,58,49;,
 4;22,16,52,42;,
 3;54,32,6;,
 5;31,54,38,21,42;,
 4;5,45,28,14;,
 3;42,52,56;,
 4;52,15,8,56;,
 3;57,51,48;,
 3;50,44,60;,
 4;58,50,60,61;,
 4;4,13,25,37;,
 3;53,55,46;,
 3;43,54,59;,
 3;55,53,47;;

 MeshMaterialList {
  2;
  21;
  0,
  1,
  1,
  1,
  0,
  1,
  1,
  0,
  0,
  0,
  0,
  1,
  0,
  0,
  1,
  0,
  0,
  1,
  0,
  0,
  0;
Material {
 1.000000;1.000000;1.000000;1.000000;;
 50.000000;
 1.000000;1.000000;1.000000;;
 0.0; 0.0; 0.0;;
 TextureFilename {
  "utl102.ppm";
 }
 }
Material {
 1.000000;1.000000;1.000000;1.000000;;
 50.000000;
 1.000000;1.000000;1.000000;;
 0.0; 0.0; 0.0;;
 TextureFilename {
  "utl102.ppm";
 }
 }
}
 MeshNormals {
  62;
  -0.143946;0.739624;0.657446;,
  -0.143946;0.739624;0.657446;,
  -0.278804;-0.663291;0.694488;,
  -0.278804;-0.663291;0.694488;,
  0.460953;0.459469;-0.759217;,
  0.460953;0.459469;-0.759217;,
  0.460953;0.459469;-0.759217;,
  -0.783035;0.560235;0.270173;,
  0.145581;0.739328;0.657420;,
  0.145581;0.739328;0.657420;,
  0.145581;0.739328;0.657420;,
  0.276900;-0.663003;0.695523;,
  0.276900;-0.663003;0.695523;,
  -0.460953;0.459469;-0.759217;,
  -0.460953;0.459469;-0.759217;,
  0.784695;0.557422;0.271172;,
  0.784695;0.557422;0.271172;,
  -0.606024;0.773485;-0.185624;,
  -0.606024;0.773485;-0.185624;,
  -0.606024;0.773485;-0.185624;,
  -0.606024;0.773485;-0.185624;,
  0.607027;0.772909;-0.184744;,
  0.607027;0.772909;-0.184744;,
  0.607027;0.772909;-0.184744;,
  0.607027;0.772909;-0.184744;,
  -0.404216;0.914644;-0.006028;,
  -0.404216;0.914644;-0.006028;,
  -0.404216;0.914644;-0.006028;,
  -0.413982;-0.610266;-0.675422;,
  -0.413982;-0.610266;-0.675422;,
  -0.413982;-0.610266;-0.675422;,
  0.413982;-0.610266;-0.675422;,
  0.413982;-0.610266;-0.675422;,
  0.413982;-0.610266;-0.675422;,
  -0.615312;-0.754366;-0.228742;,
  -0.615312;-0.754366;-0.228742;,
  -0.615312;-0.754366;-0.228742;,
  0.404216;0.914644;-0.006028;,
  0.404216;0.914644;-0.006028;,
  0.404216;0.914644;-0.006028;,
  0.614588;-0.755673;-0.226361;,
  0.614588;-0.755673;-0.226361;,
  0.614588;-0.755673;-0.226361;,
  0.404216;0.914644;-0.006028;,
  -0.615312;-0.754366;-0.228742;,
  0.413982;-0.610266;-0.675422;,
  -0.413982;-0.610266;-0.675422;,
  -0.404216;0.914644;-0.006028;,
  0.607027;0.772909;-0.184744;,
  -0.606024;0.773485;-0.185624;,
  -0.899834;-0.363465;0.241229;,
  0.784695;0.557422;0.271172;,
  0.897364;-0.366718;0.245472;,
  -0.906058;0.200115;-0.372846;,
  0.906058;0.200115;-0.372846;,
  -0.460953;0.459469;-0.759217;,
  0.276900;-0.663003;0.695523;,
  0.145581;0.739328;0.657420;,
  -0.783035;0.560235;0.270173;,
  0.460953;0.459469;-0.759217;,
  -0.278804;-0.663291;0.694488;,
  -0.143946;0.739624;0.657446;;

  21;
  5;53,30,36,20,27;,
  4;26,19,24,39;,
  3;18,7,1;,
  4;23,17,0,10;,
  4;61,3,12,9;,
  4;11,2,35,41;,
  4;29,33,40,34;,
  4;44,50,58,49;,
  4;22,16,52,42;,
  3;54,32,6;,
  5;31,54,38,21,42;,
  4;5,45,28,14;,
  3;42,52,56;,
  4;52,15,8,56;,
  3;57,51,48;,
  3;50,44,60;,
  4;58,50,60,61;,
  4;4,13,25,37;,
  3;53,55,46;,
  3;43,54,59;,
  3;55,53,47;;
 }
 MeshTextureCoords { 
 62;
 0.893555;0.711914;,
 0.893555;0.829102;,
 0.893555;0.829102;,
 0.901367;0.676758;,
 0.524414;0.829102;,
 0.514648;0.711914;,
 0.416992;0.555664;,
 0.893555;0.711914;,
 0.899414;0.553711;,
 0.899414;0.553711;,
 0.893555;0.829102;,
 0.893555;0.713867;,
 0.901367;0.676758;,
 0.524414;0.711914;,
 0.514648;0.829102;,
 0.899414;0.557617;,
 0.899414;0.557617;,
 0.760742;0.711914;,
 0.760742;0.711914;,
 0.760742;0.711914;,
 0.661133;0.555664;,
 0.661133;0.555664;,
 0.661133;0.555664;,
 0.762695;0.829102;,
 0.762695;0.829102;,
 0.674805;0.711914;,
 0.674805;0.711914;,
 0.586914;0.555664;,
 0.524414;0.829102;,
 0.524414;0.829102;,
 0.435223;0.597653;,
 0.435223;0.597653;,
 0.435223;0.597653;,
 0.524414;0.711914;,
 0.674805;0.829102;,
 0.674805;0.829102;,
 0.638406;0.680167;,
 0.674805;0.829102;,
 0.586914;0.555664;,
 0.674805;0.829102;,
 0.674805;0.711914;,
 0.674805;0.711914;,
 0.638406;0.680167;,
 0.586914;0.555664;,
 0.638406;0.680167;,
 0.524414;0.711914;,
 0.435223;0.597653;,
 0.586914;0.555664;,
 0.760742;0.711914;,
 0.661133;0.555664;,
 0.899414;0.588867;,
 0.893555;0.829102;,
 0.899414;0.588867;,
 0.428711;0.563477;,
 0.428711;0.563477;,
 0.416992;0.555664;,
 0.901367;0.676758;,
 0.893555;0.711914;,
 0.899414;0.557617;,
 0.416992;0.555664;,
 0.901367;0.676758;,
 0.899414;0.553711;;
 }
}
Frame frm-extru29_2 {
  FrameTransformMatrix {
1.000000,0.000000,0.000000,0.000000,
0.000000,1.000000,0.000000,0.000000,
0.000000,0.000000,0.560000,0.000000,
0.000000,0.283371,3.443471,1.000000;;
 }
Mesh extru29_2 {
 16;
 0.952730;0.507124;-2.426628;,
 0.952730;-0.255711;-2.426628;,
 0.464378;-0.801312;-2.426628;,
 -0.480303;-0.801312;-2.426628;,
 -0.960650;-0.255711;-2.426628;,
 -0.960650;0.507124;-2.426628;,
 -0.464292;0.835493;-2.426628;,
 0.480390;0.835493;-2.426628;,
 0.952730;0.507124;2.733050;,
 0.952730;-0.255711;2.733050;,
 0.464378;-0.801312;2.733050;,
 -0.480303;-0.801312;2.733050;,
 -0.960650;-0.255711;2.733050;,
 -0.960650;0.507124;2.733050;,
 -0.464292;0.835493;2.733050;,
 0.480390;0.835493;2.733050;;

 10;
 4;0,7,15,8;,
 4;7,6,14,15;,
 4;6,5,13,14;,
 4;5,4,12,13;,
 4;4,3,11,12;,
 4;3,2,10,11;,
 4;2,1,9,10;,
 4;1,0,8,9;,
 8;15,14,13,12,11,10,9,8;,
 8;0,1,2,3,4,5,6,7;;

 MeshMaterialList {
  1;
  10;
  0,
  0,
  0,
  0,
  0,
  0,
  0,
  0,
  0,
  0;
Material {
 1.000000;1.000000;1.000000;1.000000;;
 50.000000;
 1.000000;1.000000;1.000000;;
 0.0; 0.0; 0.0;;
 TextureFilename {
  "utl102.ppm";
 }
 }
}
 MeshNormals {
  16;
  0.803357;0.393215;-0.447214;,
  0.839636;-0.308240;-0.447214;,
  0.378581;-0.810356;-0.447214;,
  -0.382268;-0.808623;-0.447214;,
  -0.840776;-0.305116;-0.447214;,
  -0.766027;0.411714;-0.493655;,
  -0.262767;0.854958;-0.447214;,
  0.273198;0.851683;-0.447214;,
  0.803357;0.393215;0.447214;,
  0.839636;-0.308240;0.447214;,
  0.378581;-0.810356;0.447214;,
  -0.382268;-0.808623;0.447214;,
  -0.840776;-0.305116;0.447214;,
  -0.766027;0.411714;0.493655;,
  -0.262767;0.854958;0.447214;,
  0.273198;0.851683;0.447214;;

  10;
  4;0,7,15,8;,
  4;7,6,14,15;,
  4;6,5,13,14;,
  4;5,4,12,13;,
  4;4,3,11,12;,
  4;3,2,10,11;,
  4;2,1,9,10;,
  4;1,0,8,9;,
  8;15,14,13,12,11,10,9,8;,
  8;0,1,2,3,4,5,6,7;;
 }
 MeshTextureCoords { 
 16;
 0.004915;0.834020;,
 0.004915;0.922903;,
 0.004915;0.986474;,
 0.004915;0.986474;,
 0.004915;0.922903;,
 0.004915;0.834020;,
 0.004915;0.795760;,
 0.004915;0.795760;,
 0.151335;0.834020;,
 0.151335;0.922903;,
 0.151335;0.986474;,
 0.151335;0.986474;,
 0.151335;0.922903;,
 0.151335;0.834020;,
 0.151335;0.795760;,
 0.151335;0.795760;;
 }
}
Frame frm-extru34 {
  FrameTransformMatrix {
1.000000,0.000000,0.000000,0.000000,
0.000000,1.000000,0.000000,0.000000,
0.000000,0.000000,1.785714,0.000000,
0.000000,0.000000,2.743396,1.000000;;
 }
Mesh extru34 {
 32;
 -0.960650;0.507124;0.090256;,
 -0.960650;-0.255711;0.090256;,
 0.952731;-0.255711;0.090256;,
 0.952731;0.507124;0.090256;,
 -0.960650;0.507124;-0.080137;,
 -0.960650;-0.255711;-0.080137;,
 0.952731;-0.255711;-0.080137;,
 0.952731;0.507124;-0.080137;,
 -0.960650;-0.114558;-0.475251;,
 -0.960650;0.227192;-0.475251;,
 -0.960650;-0.114558;0.535263;,
 -0.960650;0.227192;0.535263;,
 0.952731;0.227192;-0.475251;,
 0.952731;-0.114558;-0.475251;,
 0.952731;-0.114558;0.535263;,
 0.952731;0.227192;0.535263;,
 0.952731;0.507124;-0.080137;,
 0.952731;-0.255711;-0.080137;,
 1.168047;-0.160011;-0.102799;,
 1.168047;0.272644;0.112918;,
 -0.960650;-0.255711;-0.080137;,
 -0.960650;0.507124;-0.080137;,
 -1.177757;-0.160011;-0.102799;,
 -1.177757;0.272644;-0.102799;,
 0.952731;0.507124;0.090256;,
 0.952731;-0.255711;0.090256;,
 1.168047;0.272644;-0.102799;,
 1.168047;-0.160011;0.112918;,
 -0.960650;-0.255711;0.090256;,
 -0.960650;0.507124;0.090256;,
 -1.177757;-0.160011;0.112918;,
 -1.177757;0.272644;0.112918;;

 20;
 4;3,7,4,0;,
 4;23,22,30,31;,
 4;1,5,6,2;,
 4;18,26,19,27;,
 3;10,30,28;,
 3;22,8,20;,
 4;30,22,20,28;,
 4;31,30,10,11;,
 4;22,23,9,8;,
 4;23,31,29,21;,
 4;27,19,15,14;,
 4;26,18,13,12;,
 4;18,27,25,17;,
 4;19,26,16,24;,
 3;15,19,24;,
 3;27,14,25;,
 3;9,23,21;,
 3;31,11,29;,
 3;13,18,17;,
 3;26,12,16;;

 MeshMaterialList {
  1;
  20;
  0,
  0,
  0,
  0,
  0,
  0,
  0,
  0,
  0,
  0,
  0,
  0,
  0,
  0,
  0,
  0,
  0,
  0,
  0,
  0;
Material {
 1.000000;1.000000;1.000000;1.000000;;
 50.000000;
 1.000000;1.000000;1.000000;;
 0.0; 0.0; 0.0;;
 TextureFilename {
  "utl102.ppm";
 }
 }
}
 MeshNormals {
  32;
  -0.615619;0.773505;0.150675;,
  -0.485995;-0.868541;0.097186;,
  0.485225;-0.868988;0.097040;,
  0.622057;0.768503;0.149829;,
  -0.612585;0.771956;-0.169774;,
  -0.124207;-0.984458;-0.124157;,
  0.483582;-0.868447;-0.109306;,
  0.619032;0.767004;-0.168833;,
  -0.229646;-0.677006;-0.699232;,
  -0.802319;0.316190;-0.506269;,
  -0.734708;-0.521550;0.433807;,
  -0.826747;0.324057;0.459866;,
  0.804407;0.315289;-0.503510;,
  0.714308;-0.513390;-0.475599;,
  0.736658;-0.520639;0.431589;,
  0.828626;0.323019;0.457207;,
  0.619032;0.767004;-0.168833;,
  0.483582;-0.868447;-0.109306;,
  0.748907;-0.576482;-0.326814;,
  0.860005;0.399154;0.317911;,
  -0.124207;-0.984458;-0.124157;,
  -0.612585;0.771956;-0.169774;,
  -0.747500;-0.577293;-0.328598;,
  -0.845690;0.396462;-0.357248;,
  0.622057;0.768503;0.149829;,
  0.485225;-0.868988;0.097040;,
  0.847314;0.394894;-0.355129;,
  0.758671;-0.582339;0.292061;,
  -0.485995;-0.868541;0.097186;,
  -0.615619;0.773505;0.150675;,
  -0.757344;-0.583244;0.293695;,
  -0.858506;0.400815;0.319865;;

  20;
  4;3,7,4,0;,
  4;23,22,30,31;,
  4;1,5,6,2;,
  4;18,26,19,27;,
  3;10,30,28;,
  3;22,8,20;,
  4;30,22,20,28;,
  4;31,30,10,11;,
  4;22,23,9,8;,
  4;23,31,29,21;,
  4;27,19,15,14;,
  4;26,18,13,12;,
  4;18,27,25,17;,
  4;19,26,16,24;,
  3;15,19,24;,
  3;27,14,25;,
  3;9,23,21;,
  3;31,11,29;,
  3;13,18,17;,
  3;26,12,16;;
 }
 MeshTextureCoords { 
 32;
 0.348633;0.614258;,
 0.348633;0.760742;,
 0.348633;0.614258;,
 0.348633;0.760742;,
 0.311523;0.614258;,
 0.311523;0.760742;,
 0.311523;0.614258;,
 0.311523;0.760742;,
 0.011206;0.519205;,
 0.011206;0.471780;,
 0.147014;0.519205;,
 0.147014;0.471780;,
 0.011206;0.471780;,
 0.011206;0.519205;,
 0.147014;0.519205;,
 0.147014;0.471780;,
 0.064307;0.432934;,
 0.064307;0.538793;,
 0.061261;0.525512;,
 0.090253;0.465473;,
 0.064307;0.538793;,
 0.064307;0.432934;,
 0.061261;0.525512;,
 0.061261;0.465473;,
 0.087207;0.432934;,
 0.087207;0.538793;,
 0.061261;0.465473;,
 0.090253;0.525512;,
 0.087207;0.538793;,
 0.087207;0.432934;,
 0.090253;0.525512;,
 0.090253;0.465473;;
 }
}
Frame frm-extru29_3 {
  FrameTransformMatrix {
1.000000,0.000000,0.000000,0.000000,
0.000000,1.000000,0.000000,0.000000,
0.000000,0.000000,0.560000,0.000000,
0.000000,-0.000000,1.424433,1.000000;;
 }
Mesh extru29_3 {
 32;
 0.480390;0.835493;2.733050;,
 0.480390;0.835493;2.733050;,
 -0.464292;0.835493;2.733050;,
 -0.464292;0.835493;2.733050;,
 -0.960650;0.507124;2.733050;,
 -0.960650;0.507124;2.733050;,
 -0.960650;-0.255711;2.733050;,
 -0.960650;-0.255711;2.733050;,
 -0.480303;-0.801312;2.733050;,
 -0.480303;-0.801312;2.733050;,
 0.464378;-0.801312;2.733050;,
 0.464378;-0.801312;2.733050;,
 0.952730;-0.255711;2.733050;,
 0.952730;-0.255711;2.733050;,
 0.952730;0.507124;2.733050;,
 0.952730;0.507124;2.733050;,
 0.952730;0.507124;-2.426628;,
 0.952730;-0.255711;-2.426628;,
 0.464378;-0.801312;-2.426628;,
 -0.480303;-0.801312;-2.426628;,
 -0.960650;-0.255711;-2.426628;,
 -0.960650;0.507124;-2.426628;,
 -0.464292;0.835493;-2.426628;,
 0.480390;0.835493;-2.426628;,
 0.952730;0.507124;2.733050;,
 0.952730;-0.255711;2.733050;,
 0.464378;-0.801312;2.733050;,
 -0.480303;-0.801312;2.733050;,
 -0.960650;-0.255711;2.733050;,
 -0.960650;0.507124;2.733050;,
 -0.464292;0.835493;2.733050;,
 0.480390;0.835493;2.733050;;

 10;
 4;16,23,1,15;,
 4;23,22,3,0;,
 4;22,21,5,2;,
 4;21,20,7,4;,
 4;20,19,9,6;,
 4;19,18,11,8;,
 4;18,17,13,10;,
 4;17,16,14,12;,
 8;31,30,29,28,27,26,25,24;,
 8;16,17,18,19,20,21,22,23;;

 MeshMaterialList {
  2;
  10;
  0,
  0,
  0,
  0,
  0,
  0,
  0,
  0,
  1,
  0;
Material {
 1.000000;1.000000;1.000000;1.000000;;
 50.000000;
 1.000000;1.000000;1.000000;;
 0.0; 0.0; 0.0;;
 TextureFilename {
  "utl102.ppm";
 }
 }
Material {
 1.000000;1.000000;1.000000;1.000000;;
 50.000000;
 1.000000;1.000000;1.000000;;
 0.0; 0.0; 0.0;;
 TextureFilename {
  "utl102.ppm";
 }
 }
}
 MeshNormals {
  32;
  0.273198;0.851683;0.447214;,
  0.273198;0.851683;0.447214;,
  -0.262767;0.854958;0.447214;,
  -0.262767;0.854958;0.447214;,
  -0.766027;0.411714;0.493655;,
  -0.766027;0.411714;0.493655;,
  -0.840776;-0.305116;0.447214;,
  -0.840776;-0.305116;0.447214;,
  -0.382268;-0.808623;0.447214;,
  -0.382268;-0.808623;0.447214;,
  0.378581;-0.810356;0.447214;,
  0.378581;-0.810356;0.447214;,
  0.839636;-0.308240;0.447214;,
  0.839636;-0.308240;0.447214;,
  0.803357;0.393215;0.447214;,
  0.803357;0.393215;0.447214;,
  0.803357;0.393215;-0.447214;,
  0.839636;-0.308240;-0.447214;,
  0.378581;-0.810356;-0.447214;,
  -0.382268;-0.808623;-0.447214;,
  -0.840776;-0.305116;-0.447214;,
  -0.766027;0.411714;-0.493655;,
  -0.262767;0.854958;-0.447214;,
  0.273198;0.851683;-0.447214;,
  0.803357;0.393215;0.447214;,
  0.839636;-0.308240;0.447214;,
  0.378581;-0.810356;0.447214;,
  -0.382268;-0.808623;0.447214;,
  -0.840776;-0.305116;0.447214;,
  -0.766027;0.411714;0.493655;,
  -0.262767;0.854958;0.447214;,
  0.273198;0.851683;0.447214;;

  10;
  4;16,23,1,15;,
  4;23,22,3,0;,
  4;22,21,5,2;,
  4;21,20,7,4;,
  4;20,19,9,6;,
  4;19,18,11,8;,
  4;18,17,13,10;,
  4;17,16,14,12;,
  8;31,30,29,28,27,26,25,24;,
  8;16,17,18,19,20,21,22,23;;
 }
 MeshTextureCoords { 
 32;
 0.151335;0.795760;,
 0.151335;0.795760;,
 0.151335;0.795760;,
 0.151335;0.795760;,
 0.151335;0.834020;,
 0.151335;0.834020;,
 0.151335;0.922903;,
 0.151335;0.922903;,
 0.151335;0.986474;,
 0.151335;0.986474;,
 0.151335;0.986474;,
 0.151335;0.986474;,
 0.151335;0.922903;,
 0.151335;0.922903;,
 0.151335;0.834020;,
 0.151335;0.834020;,
 0.004915;0.834020;,
 0.004915;0.922903;,
 0.004915;0.986474;,
 0.004915;0.986474;,
 0.004915;0.922903;,
 0.004915;0.834020;,
 0.004915;0.795760;,
 0.004915;0.795760;,
 0.337738;0.451946;,
 0.337738;0.491665;,
 0.363257;0.520072;,
 0.412622;0.520072;,
 0.437723;0.491665;,
 0.437723;0.451946;,
 0.411786;0.434850;,
 0.362420;0.434850;;
 }
}
}
}
}
}
Frame frm-SS02 {
  FrameTransformMatrix {
-1.000000,0.000000,-0.000000,0.000000,
0.000000,1.000000,0.000000,0.000000,
0.000000,0.000000,-1.000000,0.000000,
-1.046528,0.110345,2.064745,1.000000;;
 }
Mesh SS02 {
 4;
 0.019858;-0.023227;-0.000000;,
 0.015279;0.026465;-0.000000;,
 -0.017569;-0.001619;0.024951;,
 -0.017569;-0.001619;-0.024951;;

 4;
 3;0,1,2;,
 3;1,0,3;,
 3;2,3,0;,
 3;3,2,1;;

 MeshMaterialList {
  1;
  4;
  0,
  0,
  0,
  0;
Material {
 0.000000;1.000000;0.000000;1.000000;;
 0.000000;
 0.000000;1.000000;0.000000;;
 0.0; 0.0; 0.0;;
 }
}
 MeshNormals {
  4;
  0.649830;-0.760080;0.000000;,
  0.500000;0.866026;-0.000000;,
  -0.574915;-0.052973;0.816497;,
  -0.574915;-0.052973;-0.816497;;

  4;
  3;0,1,2;,
  3;1,0,3;,
  3;2,3,0;,
  3;3,2,1;;
 }
 MeshTextureCoords { 
 4;
 0.000000;0.000000;,
 0.000000;0.000000;,
 0.000000;0.000000;,
 0.000000;0.000000;;
 }
}
}
Frame frm-SS01 {
  FrameTransformMatrix {
1.000000,0.000000,0.000000,0.000000,
0.000000,1.000000,0.000000,0.000000,
0.000000,0.000000,1.000000,0.000000,
1.046528,0.110345,2.064745,1.000000;;
 }
Mesh SS01 {
 4;
 0.019858;-0.023227;0.000000;,
 0.015279;0.026465;0.000000;,
 -0.017569;-0.001619;-0.024951;,
 -0.017569;-0.001619;0.024951;;

 4;
 3;2,1,0;,
 3;3,0,1;,
 3;0,3,2;,
 3;1,2,3;;

 MeshMaterialList {
  1;
  4;
  0,
  0,
  0,
  0;
Material {
 0.988701;0.005650;0.000000;1.000000;;
 0.000000;
 1.000000;0.000000;0.000000;;
 0.0; 0.0; 0.0;;
 }
}
 MeshNormals {
  4;
  0.649830;-0.760080;-0.000000;,
  0.500000;0.866026;0.000000;,
  -0.574915;-0.052973;-0.816497;,
  -0.574915;-0.052973;0.816497;;

  4;
  3;2,1,0;,
  3;3,0,1;,
  3;0,3,2;,
  3;1,2,3;;
 }
 MeshTextureCoords { 
 4;
 0.000000;0.000000;,
 0.000000;0.000000;,
 0.000000;0.000000;,
 0.000000;0.000000;;
 }
}
}
Frame frm-SS03 {
  FrameTransformMatrix {
-1.000000,0.000000,-0.000000,0.000000,
0.000000,1.000000,0.000000,0.000000,
0.000000,0.000000,-1.000000,0.000000,
0.407820,1.071230,2.139611,1.000000;;
 }
Mesh SS03 {
 4;
 0.010186;0.028811;-0.000001;,
 -0.030559;-0.000000;-0.000001;,
 0.010186;-0.014405;0.024950;,
 0.010186;-0.014405;-0.024952;;

 4;
 3;0,1,2;,
 3;1,0,3;,
 3;2,3,0;,
 3;3,2,1;;

 MeshMaterialList {
  1;
  4;
  0,
  0,
  0,
  0;
Material {
 0.988701;0.005650;0.000000;1.000000;;
 0.000000;
 1.000000;0.000000;0.000000;;
 0.0; 0.0; 0.0;;
 }
}
 MeshNormals {
  4;
  0.333333;0.942809;0.000000;,
  -1.000000;-0.000000;-0.000000;,
  0.333333;-0.471404;0.816497;,
  0.333334;-0.471404;-0.816496;;

  4;
  3;0,1,2;,
  3;1,0,3;,
  3;2,3,0;,
  3;3,2,1;;
 }
 MeshTextureCoords { 
 4;
 0.000000;0.000000;,
 0.000000;0.000000;,
 0.000000;0.000000;,
 0.000000;0.000000;;
 }
}
}
Frame frm-SS04 {
  FrameTransformMatrix {
1.000000,0.000000,0.000000,0.000000,
0.000000,1.000000,0.000000,0.000000,
0.000000,0.000000,1.000000,0.000000,
-0.407820,1.071230,2.139611,1.000000;;
 }
Mesh SS04 {
 4;
 0.010186;0.028811;0.000001;,
 -0.030559;-0.000000;0.000001;,
 0.010186;-0.014405;-0.024950;,
 0.010186;-0.014405;0.024952;;

 4;
 3;2,1,0;,
 3;3,0,1;,
 3;0,3,2;,
 3;1,2,3;;

 MeshMaterialList {
  1;
  4;
  0,
  0,
  0,
  0;
Material {
 0.000000;1.000000;0.000000;1.000000;;
 0.000000;
 0.000000;1.000000;0.000000;;
 0.0; 0.0; 0.0;;
 }
}
 MeshNormals {
  4;
  0.333333;0.942809;-0.000000;,
  -1.000000;-0.000000;0.000000;,
  0.333333;-0.471404;-0.816497;,
  0.333334;-0.471404;0.816497;;

  4;
  3;2,1,0;,
  3;3,0,1;,
  3;0,3,2;,
  3;1,2,3;;
 }
 MeshTextureCoords { 
 4;
 0.000000;0.000000;,
 0.000000;0.000000;,
 0.000000;0.000000;,
 0.000000;0.000000;;
 }
}
}
Frame frm-SS05 {
  FrameTransformMatrix {
-1.000000,0.000000,-0.000000,0.000000,
0.000000,1.000000,0.000000,0.000000,
0.000000,0.000000,-1.000000,0.000000,
0.315322,-0.457048,-1.474817,1.000000;;
 }
Mesh SS05 {
 4;
 0.010186;0.028811;-0.000000;,
 -0.030559;-0.000000;-0.000000;,
 0.010186;-0.014405;0.024951;,
 0.010186;-0.014405;-0.024951;;

 4;
 3;0,1,2;,
 3;1,0,3;,
 3;2,3,0;,
 3;3,2,1;;

 MeshMaterialList {
  1;
  4;
  0,
  0,
  0,
  0;
Material {
 0.988701;0.005650;0.000000;1.000000;;
 0.000000;
 1.000000;0.000000;0.000000;;
 0.0; 0.0; 0.0;;
 }
}
 MeshNormals {
  4;
  0.333333;0.942809;0.000000;,
  -1.000000;-0.000000;-0.000000;,
  0.333333;-0.471404;0.816497;,
  0.333334;-0.471404;-0.816496;;

  4;
  3;0,1,2;,
  3;1,0,3;,
  3;2,3,0;,
  3;3,2,1;;
 }
 MeshTextureCoords { 
 4;
 0.000000;0.000000;,
 0.000000;0.000000;,
 0.000000;0.000000;,
 0.000000;0.000000;;
 }
}
}
Frame frm-SS06 {
  FrameTransformMatrix {
1.000000,0.000000,0.000000,0.000000,
0.000000,1.000000,0.000000,0.000000,
0.000000,0.000000,1.000000,0.000000,
-0.315322,-0.457048,-1.474817,1.000000;;
 }
Mesh SS06 {
 4;
 0.010186;0.028811;0.000000;,
 -0.030559;-0.000000;0.000000;,
 0.010186;-0.014405;-0.024951;,
 0.010186;-0.014405;0.024951;;

 4;
 3;2,1,0;,
 3;3,0,1;,
 3;0,3,2;,
 3;1,2,3;;

 MeshMaterialList {
  1;
  4;
  0,
  0,
  0,
  0;
Material {
 0.000000;1.000000;0.000000;1.000000;;
 0.000000;
 0.000000;1.000000;0.000000;;
 0.0; 0.0; 0.0;;
 }
}
 MeshNormals {
  4;
  0.333333;0.942809;-0.000000;,
  -1.000000;-0.000000;0.000000;,
  0.333333;-0.471404;-0.816497;,
  0.333334;-0.471404;0.816497;;

  4;
  3;2,1,0;,
  3;3,0,1;,
  3;0,3,2;,
  3;1,2,3;;
 }
 MeshTextureCoords { 
 4;
 0.000000;0.000000;,
 0.000000;0.000000;,
 0.000000;0.000000;,
 0.000000;0.000000;;
 }
}
}
Frame frm-rsmoke {
  FrameTransformMatrix {
1.000000,0.000000,0.000000,0.000000,
0.000000,1.000000,0.000000,0.000000,
0.000000,0.000000,1.000000,0.000000,
-0.141419,0.605379,2.259294,1.000000;;
 }
Mesh rsmoke {
 4;
 -0.028811;-0.010186;-0.000000;,
 0.000000;0.030559;0.000000;,
 0.014405;-0.010186;0.024951;,
 0.014405;-0.010186;-0.024951;;

 4;
 3;2,1,0;,
 3;3,0,1;,
 3;0,3,2;,
 3;1,2,3;;

 MeshMaterialList {
  1;
  4;
  0,
  0,
  0,
  0;
Material {
 1.000000;1.000000;1.000000;1.000000;;
 50.000000;
 1.000000;1.000000;1.000000;;
 0.000000;0.000000;0.000000;;
 TextureFilename {
  "utl102.ppm";
 }
 }
}
 MeshNormals {
  4;
  -0.942809;-0.333333;0.000000;,
  0.000000;1.000000;-0.000000;,
  0.471404;-0.333333;0.816497;,
  0.471405;-0.333333;-0.816497;;

  4;
  3;2,1,0;,
  3;3,0,1;,
  3;0,3,2;,
  3;1,2,3;;
 }
 MeshTextureCoords { 
 4;
 0.000000;1.000000;,
 0.000000;1.000000;,
 0.000000;1.000000;,
 0.000000;1.000000;;
 }
}
}
Frame frm-lsmoke {
  FrameTransformMatrix {
-1.000000,0.000000,-0.000000,0.000000,
0.000000,1.000000,0.000000,0.000000,
0.000000,0.000000,-1.000000,0.000000,
0.149578,0.605499,2.259277,1.000000;;
 }
Mesh lsmoke {
 4;
 -0.028811;-0.010186;0.000000;,
 0.000000;0.030559;0.000000;,
 0.014405;-0.010186;-0.024951;,
 0.014405;-0.010186;0.024951;;

 4;
 3;0,1,2;,
 3;1,0,3;,
 3;2,3,0;,
 3;3,2,1;;

 MeshMaterialList {
  1;
  4;
  0,
  0,
  0,
  0;
Material {
 1.000000;1.000000;1.000000;1.000000;;
 50.000000;
 1.000000;1.000000;1.000000;;
 0.000000;0.000000;0.000000;;
 TextureFilename {
  "utl102.ppm";
 }
 }
}
 MeshNormals {
  4;
  -0.942809;-0.333333;-0.000000;,
  0.000000;1.000000;0.000000;,
  0.471404;-0.333333;-0.816497;,
  0.471404;-0.333333;0.816497;;

  4;
  3;0,1,2;,
  3;1,0,3;,
  3;2,3,0;,
  3;3,2,1;;
 }
 MeshTextureCoords { 
 4;
 0.000000;1.000000;,
 0.000000;1.000000;,
 0.000000;1.000000;,
 0.000000;1.000000;;
 }
}
}
Frame frm-rthrust {
  FrameTransformMatrix {
-1.000000,0.000000,-0.000000,0.000000,
0.000000,1.000000,0.000000,0.000000,
0.000000,0.000000,-1.000000,0.000000,
-0.149253,0.605516,2.259040,1.000000;;
 }
Mesh rthrust {
 4;
 -0.028811;-0.010186;-0.000000;,
 0.000000;0.030559;-0.000000;,
 0.014405;-0.010186;-0.024951;,
 0.014405;-0.010186;0.024951;;

 4;
 3;0,1,2;,
 3;1,0,3;,
 3;2,3,0;,
 3;3,2,1;;

 MeshMaterialList {
  1;
  4;
  0,
  0,
  0,
  0;
Material {
 1.000000;1.000000;1.000000;1.000000;;
 50.000000;
 1.000000;1.000000;1.000000;;
 0.000000;0.000000;0.000000;;
 TextureFilename {
  "utl102.ppm";
 }
 }
}
 MeshNormals {
  4;
  -0.942809;-0.333333;-0.000000;,
  0.000000;1.000000;0.000000;,
  0.471405;-0.333333;-0.816497;,
  0.471405;-0.333333;0.816497;;

  4;
  3;0,1,2;,
  3;1,0,3;,
  3;2,3,0;,
  3;3,2,1;;
 }
 MeshTextureCoords { 
 4;
 0.000000;1.000000;,
 0.000000;1.000000;,
 0.000000;1.000000;,
 0.000000;1.000000;;
 }
}
}
Frame frm-lthrust {
  FrameTransformMatrix {
1.000000,0.000000,0.000000,0.000000,
0.000000,1.000000,0.000000,0.000000,
0.000000,0.000000,1.000000,0.000000,
0.155906,0.605170,2.259135,1.000000;;
 }
Mesh lthrust {
 4;
 -0.028811;-0.010186;-0.000000;,
 0.000000;0.030559;0.000000;,
 0.014405;-0.010186;0.024951;,
 0.014405;-0.010186;-0.024951;;

 4;
 3;2,1,0;,
 3;3,0,1;,
 3;0,3,2;,
 3;1,2,3;;

 MeshMaterialList {
  1;
  4;
  0,
  0,
  0,
  0;
Material {
 1.000000;1.000000;1.000000;1.000000;;
 50.000000;
 1.000000;1.000000;1.000000;;
 0.000000;0.000000;0.000000;;
 TextureFilename {
  "utl102.ppm";
 }
 }
}
 MeshNormals {
  4;
  -0.942809;-0.333333;0.000000;,
  0.000000;1.000000;-0.000000;,
  0.471404;-0.333333;0.816497;,
  0.471405;-0.333333;-0.816497;;

  4;
  3;2,1,0;,
  3;3,0,1;,
  3;0,3,2;,
  3;1,2,3;;
 }
 MeshTextureCoords { 
 4;
 0.000000;1.000000;,
 0.000000;1.000000;,
 0.000000;1.000000;,
 0.000000;1.000000;;
 }
}
}
Frame frm-trail {
  FrameTransformMatrix {
1.000000,0.000000,0.000000,0.000000,
0.000000,1.000000,0.000000,0.000000,
0.000000,0.000000,1.000000,0.000000,
-0.000000,-0.427624,8.177728,1.000000;;
 }
Mesh trail {
 4;
 -0.028811;-0.010186;-0.000000;,
 0.000000;0.030559;0.000000;,
 0.014405;-0.010186;0.024951;,
 0.014405;-0.010186;-0.024951;;

 4;
 3;2,1,0;,
 3;3,0,1;,
 3;0,3,2;,
 3;1,2,3;;

 MeshMaterialList {
  1;
  4;
  0,
  0,
  0,
  0;
Material {
 1.000000;1.000000;1.000000;1.000000;;
 50.000000;
 1.000000;1.000000;1.000000;;
 0.000000;0.000000;0.000000;;
 TextureFilename {
  "utl102.ppm";
 }
 }
}
 MeshNormals {
  4;
  -0.942809;-0.333333;0.000000;,
  0.000000;1.000000;-0.000000;,
  0.471405;-0.333333;0.816497;,
  0.471405;-0.333333;-0.816497;;

  4;
  3;2,1,0;,
  3;3,0,1;,
  3;0,3,2;,
  3;1,2,3;;
 }
 MeshTextureCoords { 
 4;
 0.000000;1.000000;,
 0.000000;1.000000;,
 0.000000;1.000000;,
 0.000000;1.000000;;
 }
}
}
Frame frm-cockpt {
  FrameTransformMatrix {
1.000000,0.000000,0.000000,0.000000,
0.000000,1.000000,0.000000,0.000000,
0.000000,0.000000,1.000000,0.000000,
-0.000000,0.263074,-1.065480,1.000000;;
 }
Mesh cockpt {
 4;
 -0.028811;-0.010186;-0.000000;,
 0.000000;0.030559;0.000000;,
 0.014405;-0.010186;0.024951;,
 0.014405;-0.010186;-0.024951;;

 4;
 3;2,1,0;,
 3;3,0,1;,
 3;0,3,2;,
 3;1,2,3;;

 MeshMaterialList {
  1;
  4;
  0,
  0,
  0,
  0;
Material {
 1.000000;1.000000;1.000000;1.000000;;
 50.000000;
 1.000000;1.000000;1.000000;;
 0.000000;0.000000;0.000000;;
 TextureFilename {
  "utl102.ppm";
 }
 }
}
 MeshNormals {
  4;
  -0.942809;-0.333333;0.000000;,
  0.000000;1.000000;-0.000000;,
  0.471405;-0.333333;0.816497;,
  0.471405;-0.333333;-0.816497;;

  4;
  3;2,1,0;,
  3;3,0,1;,
  3;0,3,2;,
  3;1,2,3;;
 }
 MeshTextureCoords { 
 4;
 0.000000;1.000000;,
 0.000000;1.000000;,
 0.000000;1.000000;,
 0.000000;1.000000;;
 }
}
}
}
AnimationSet {
 Animation anim-extru4_1 {
  {frm-extru4_1}
  AnimationKey {
  2;
  2;
  1; 3; 0.000000, 0.097834, 0.000000;;,
  100; 3; 0.000000, 0.097834, 0.000000;;;
  }
 }
 Animation anim-extru1_1 {
  {frm-extru1_1}
  AnimationKey {
  2;
  2;
  1; 3; 0.741951, -0.199478, 1.057952;;,
  100; 3; 0.741951, -0.199478, 1.057952;;;
  }
 }
 Animation anim-extru26 {
  {frm-extru26}
  AnimationKey {
  2;
  2;
  1; 3; 0.274595, 0.003138, 0.133371;;,
  100; 3; 0.274595, 0.003138, 0.133371;;;
  }
 }
 Animation anim-extru27 {
  {frm-extru27}
  AnimationKey {
  0;
  2;
  1; 4; 0.000000, 0.000000, 0.000000, -1.000000;;,
  100; 4; 0.000000, 0.000000, 0.000000, -1.000000;;;
  }
  AnimationKey {
  2;
  2;
  1; 3; 0.000000, -0.081640, 2.126514;;,
  100; 3; 0.000000, -0.081640, 2.126514;;;
  }
 }
 Animation anim-extru29 {
  {frm-extru29}
  AnimationKey {
  0;
  2;
  1; 4; 0.000000, 0.000000, 1.000000, -0.000000;;,
  100; 4; 0.000000, 0.000000, 1.000000, -0.000000;;;
  }
  AnimationKey {
  2;
  2;
  1; 3; 0.000000, 0.004287, 2.126514;;,
  100; 3; 0.000000, 0.004287, 2.126514;;;
  }
 }
 Animation anim-cyl13 {
  {frm-cyl13}
  AnimationKey {
  0;
  2;
  1; 4; -0.000000, 0.000000, -0.707107, 0.707107;;,
  100; 4; -0.000000, 0.000000, -0.707107, 0.707107;;;
  }
  AnimationKey {
  2;
  2;
  1; 3; -0.146859, 0.614048, 1.963307;;,
  100; 3; -0.146859, 0.614048, 1.963307;;;
  }
 }
 Animation anim-cyl2 {
  {frm-cyl2}
  AnimationKey {
  2;
  2;
  1; 3; -0.000000, -0.517035, -1.884266;;,
  100; 3; -0.000000, -0.517035, -1.884266;;;
  }
 }
 Animation anim-cyl6 {
  {frm-cyl6}
  AnimationKey {
  2;
  2;
  1; 3; -0.000000, -0.052813, 0.253278;;,
  100; 3; -0.000000, -0.052813, 0.253278;;;
  }
 }
 Animation anim-sphere1 {
  {frm-sphere1}
  AnimationKey {
  2;
  2;
  1; 3; 0.000000, 0.048006, -0.105524;;,
  100; 3; 0.000000, 0.048006, -0.105524;;;
  }
 }
 Animation anim-cube7 {
  {frm-cube7}
  AnimationKey {
  2;
  2;
  1; 3; 0.000000, -0.082279, 0.089428;;,
  100; 3; 0.000000, -0.082279, 0.089428;;;
  }
 }
 Animation anim-extru1_2 {
  {frm-extru1_2}
  AnimationKey {
  0;
  2;
  1; 4; 0.000000, 0.000000, 1.000000, -0.000000;;,
  100; 4; 0.000000, 0.000000, 1.000000, -0.000000;;;
  }
  AnimationKey {
  2;
  2;
  1; 3; -0.741951, -0.199478, 1.057952;;,
  100; 3; -0.741951, -0.199478, 1.057952;;;
  }
 }
 Animation anim-extru30 {
  {frm-extru30}
  AnimationKey {
  2;
  2;
  1; 3; 0.274595, 0.003138, -0.133371;;,
  100; 3; 0.274595, 0.003138, -0.133371;;;
  }
 }
 Animation anim-extru31 {
  {frm-extru31}
  AnimationKey {
  0;
  2;
  1; 4; 0.000000, 0.000000, 0.000000, -1.000000;;,
  100; 4; 0.000000, 0.000000, 0.000000, -1.000000;;;
  }
  AnimationKey {
  2;
  2;
  1; 3; 0.000001, -0.081640, -2.126514;;,
  100; 3; 0.000001, -0.081640, -2.126514;;;
  }
 }
 Animation anim-extru32 {
  {frm-extru32}
  AnimationKey {
  0;
  2;
  1; 4; 0.000000, 0.000000, 1.000000, -0.000000;;,
  100; 4; 0.000000, 0.000000, 1.000000, -0.000000;;;
  }
  AnimationKey {
  2;
  2;
  1; 3; 0.000001, 0.004287, -2.126514;;,
  100; 3; 0.000001, 0.004287, -2.126514;;;
  }
 }
 Animation anim-cyl14 {
  {frm-cyl14}
  AnimationKey {
  0;
  2;
  1; 4; -0.000000, 0.000000, -0.707107, 0.707107;;,
  100; 4; -0.000000, 0.000000, -0.707107, 0.707107;;;
  }
  AnimationKey {
  2;
  2;
  1; 3; 0.157150, 0.614048, 1.963307;;,
  100; 3; 0.157150, 0.614048, 1.963307;;;
  }
 }
 Animation anim-extru18 {
  {frm-extru18}
  AnimationKey {
  2;
  2;
  1; 3; 0.000000, -0.727620, 0.132002;;,
  100; 3; 0.000000, -0.727620, 0.132002;;;
  }
 }
 Animation anim-extru29_2 {
  {frm-extru29_2}
  AnimationKey {
  1;
  2;
  1; 3; 1.000000, 1.000000, 0.560000;;,
  100; 3; 1.000000, 1.000000, 0.560000;;;
  }
  AnimationKey {
  2;
  2;
  1; 3; 0.000000, 0.283371, 3.443471;;,
  100; 3; 0.000000, 0.283371, 3.443471;;;
  }
 }
 Animation anim-extru34 {
  {frm-extru34}
  AnimationKey {
  1;
  2;
  1; 3; 1.000000, 1.000000, 1.785714;;,
  100; 3; 1.000000, 1.000000, 1.785714;;;
  }
  AnimationKey {
  2;
  2;
  1; 3; 0.000000, 0.000000, 2.743396;;,
  100; 3; 0.000000, 0.000000, 2.743396;;;
  }
 }
 Animation anim-extru29_3 {
  {frm-extru29_3}
  AnimationKey {
  1;
  2;
  1; 3; 1.000000, 1.000000, 0.560000;;,
  100; 3; 1.000000, 1.000000, 0.560000;;;
  }
  AnimationKey {
  2;
  2;
  1; 3; 0.000000, -0.000000, 1.424433;;,
  100; 3; 0.000000, -0.000000, 1.424433;;;
  }
 }
 Animation anim-SS02 {
  {frm-SS02}
  AnimationKey {
  0;
  2;
  1; 4; 0.000000, 0.000000, 1.000000, -0.000000;;,
  100; 4; 0.000000, 0.000000, 1.000000, -0.000000;;;
  }
  AnimationKey {
  2;
  2;
  1; 3; -1.046528, 0.110345, 2.064745;;,
  100; 3; -1.046528, 0.110345, 2.064745;;;
  }
 }
 Animation anim-SS01 {
  {frm-SS01}
  AnimationKey {
  2;
  2;
  1; 3; 1.046528, 0.110345, 2.064745;;,
  100; 3; 1.046528, 0.110345, 2.064745;;;
  }
 }
 Animation anim-SS03 {
  {frm-SS03}
  AnimationKey {
  0;
  2;
  1; 4; 0.000000, 0.000000, 1.000000, -0.000000;;,
  100; 4; 0.000000, 0.000000, 1.000000, -0.000000;;;
  }
  AnimationKey {
  2;
  2;
  1; 3; 0.407820, 1.071230, 2.139611;;,
  100; 3; 0.407820, 1.071230, 2.139611;;;
  }
 }
 Animation anim-SS04 {
  {frm-SS04}
  AnimationKey {
  2;
  2;
  1; 3; -0.407820, 1.071230, 2.139611;;,
  100; 3; -0.407820, 1.071230, 2.139611;;;
  }
 }
 Animation anim-SS05 {
  {frm-SS05}
  AnimationKey {
  0;
  2;
  1; 4; 0.000000, 0.000000, 1.000000, -0.000000;;,
  100; 4; 0.000000, 0.000000, 1.000000, -0.000000;;;
  }
  AnimationKey {
  2;
  2;
  1; 3; 0.315322, -0.457048, -1.474817;;,
  100; 3; 0.315322, -0.457048, -1.474817;;;
  }
 }
 Animation anim-SS06 {
  {frm-SS06}
  AnimationKey {
  2;
  2;
  1; 3; -0.315322, -0.457048, -1.474817;;,
  100; 3; -0.315322, -0.457048, -1.474817;;;
  }
 }
 Animation anim-rsmoke {
  {frm-rsmoke}
  AnimationKey {
  2;
  2;
  1; 3; -0.141419, 0.605379, 2.259294;;,
  100; 3; -0.141419, 0.605379, 2.259294;;;
  }
 }
 Animation anim-lsmoke {
  {frm-lsmoke}
  AnimationKey {
  0;
  2;
  1; 4; 0.000000, 0.000000, 1.000000, -0.000000;;,
  100; 4; 0.000000, 0.000000, 1.000000, -0.000000;;;
  }
  AnimationKey {
  2;
  2;
  1; 3; 0.149578, 0.605499, 2.259277;;,
  100; 3; 0.149578, 0.605499, 2.259277;;;
  }
 }
 Animation anim-rthrust {
  {frm-rthrust}
  AnimationKey {
  0;
  2;
  1; 4; 0.000000, 0.000000, 1.000000, -0.000000;;,
  100; 4; 0.000000, 0.000000, 1.000000, -0.000000;;;
  }
  AnimationKey {
  2;
  2;
  1; 3; -0.149253, 0.605516, 2.259040;;,
  100; 3; -0.149253, 0.605516, 2.259040;;;
  }
 }
 Animation anim-lthrust {
  {frm-lthrust}
  AnimationKey {
  2;
  2;
  1; 3; 0.155906, 0.605170, 2.259135;;,
  100; 3; 0.155906, 0.605170, 2.259135;;;
  }
 }
 Animation anim-trail {
  {frm-trail}
  AnimationKey {
  2;
  2;
  1; 3; -0.000000, -0.427624, 8.177728;;,
  100; 3; -0.000000, -0.427624, 8.177728;;;
  }
 }
 Animation anim-cockpt {
  {frm-cockpt}
  AnimationKey {
  2;
  2;
  1; 3; -0.000000, 0.263074, -1.065480;;,
  100; 3; -0.000000, 0.263074, -1.065480;;;
  }
 }
}
