xof 0302txt 0032
template Header {
 <3D82AB43-62DA-11cf-AB39-0020AF71E433>
 WORD major;
 WORD minor;
 DWORD flags;
}

template Vector {
 <3D82AB5E-62DA-11cf-AB39-0020AF71E433>
 FLOAT x;
 FLOAT y;
 FLOAT z;
}

template Coords2d {
 <F6F23F44-7686-11cf-8F52-0040333594A3>
 FLOAT u;
 FLOAT v;
}

template Matrix4x4 {
 <F6F23F45-7686-11cf-8F52-0040333594A3>
 array FLOAT matrix[16];
}

template ColorRGBA {
 <35FF44E0-6C7C-11cf-8F52-0040333594A3>
 FLOAT red;
 FLOAT green;
 FLOAT blue;
 FLOAT alpha;
}

template ColorRGB {
 <D3E16E81-7835-11cf-8F52-0040333594A3>
 FLOAT red;
 FLOAT green;
 FLOAT blue;
}

template TextureFilename {
 <A42790E1-7810-11cf-8F52-0040333594A3>
 STRING filename;
}

template Material {
 <3D82AB4D-62DA-11cf-AB39-0020AF71E433>
 ColorRGBA faceColor;
 FLOAT power;
 ColorRGB specularColor;
 ColorRGB emissiveColor;
 [...]
}

template MeshFace {
 <3D82AB5F-62DA-11cf-AB39-0020AF71E433>
 DWORD nFaceVertexIndices;
 array DWORD faceVertexIndices[nFaceVertexIndices];
}

template MeshTextureCoords {
 <F6F23F40-7686-11cf-8F52-0040333594A3>
 DWORD nTextureCoords;
 array Coords2d textureCoords[nTextureCoords];
}

template MeshMaterialList {
 <F6F23F42-7686-11cf-8F52-0040333594A3>
 DWORD nMaterials;
 DWORD nFaceIndexes;
 array DWORD faceIndexes[nFaceIndexes];
 [Material]
}

template MeshNormals {
 <F6F23F43-7686-11cf-8F52-0040333594A3>
 DWORD nNormals;
 array Vector normals[nNormals];
 DWORD nFaceNormals;
 array MeshFace faceNormals[nFaceNormals];
}

template Mesh {
 <3D82AB44-62DA-11cf-AB39-0020AF71E433>
 DWORD nVertices;
 array Vector vertices[nVertices];
 DWORD nFaces;
 array MeshFace faces[nFaces];
 [...]
}

template FrameTransformMatrix {
 <F6F23F41-7686-11cf-8F52-0040333594A3>
 Matrix4x4 frameMatrix;
}

template Frame {
 <3D82AB46-62DA-11cf-AB39-0020AF71E433>
 [...]
}
template FloatKeys {
 <10DD46A9-775B-11cf-8F52-0040333594A3>
 DWORD nValues;
 array FLOAT values[nValues];
}

template TimedFloatKeys {
 <F406B180-7B3B-11cf-8F52-0040333594A3>
 DWORD time;
 FloatKeys tfkeys;
}

template AnimationKey {
 <10DD46A8-775B-11cf-8F52-0040333594A3>
 DWORD keyType;
 DWORD nKeys;
 array TimedFloatKeys keys[nKeys];
}

template AnimationOptions {
 <E2BF56C0-840F-11cf-8F52-0040333594A3>
 DWORD openclosed;
 DWORD positionquality;
}

template Animation {
 <3D82AB4F-62DA-11cf-AB39-0020AF71E433>
 [...]
}

template AnimationSet {
 <3D82AB50-62DA-11cf-AB39-0020AF71E433>
 [Animation]
}

Header {
 1;
 0;
 1;
}

Frame frm-canopy_1_1 {
  FrameTransformMatrix {
1.000000,0.000000,0.000000,0.000000,
0.000000,1.000000,0.000000,0.000000,
0.000000,0.000000,1.000000,0.000000,
0.000000,0.310433,-0.596694,1.000000;;
 }
Mesh canopy_1_1 {
 96;
 -0.859595;0.315037;2.111950;,
 -0.859595;0.315037;2.111950;,
 0.859574;0.315037;2.111950;,
 0.859574;0.315037;2.111950;,
 -0.840406;0.824138;1.736655;,
 -0.840406;0.824138;1.736655;,
 -0.840406;0.824138;1.736655;,
 -0.840406;0.824138;1.736655;,
 0.840358;0.824138;1.736655;,
 0.840358;0.824138;1.736655;,
 0.840358;0.824138;1.736655;,
 0.840358;0.824138;1.736655;,
 0.541331;-0.313383;1.701293;,
 0.541331;-0.313383;1.701293;,
 -0.541342;-0.313383;1.701293;,
 -0.541342;-0.313383;1.701293;,
 -1.054190;0.758002;1.723778;,
 -1.054190;0.758002;1.723778;,
 -1.054190;0.758002;1.723778;,
 -1.054190;0.758002;1.723778;,
 1.054142;0.758002;1.723778;,
 1.054142;0.758002;1.723778;,
 1.054142;0.758002;1.723778;,
 1.054142;0.758002;1.723778;,
 1.054142;0.758002;1.723778;,
 -0.280894;0.017633;-1.328300;,
 0.280894;0.017633;-1.328300;,
 -0.608620;-0.274158;0.645103;,
 -0.608620;-0.274158;0.645103;,
 -0.608620;-0.274158;0.645103;,
 0.608620;-0.274158;0.645103;,
 0.608620;-0.274158;0.645103;,
 0.608620;-0.274158;0.645103;,
 0.475214;0.322616;0.736020;,
 0.475214;0.322616;0.736020;,
 0.475214;0.322616;0.736020;,
 0.475214;0.322616;0.736020;,
 0.475214;0.322616;0.736020;,
 0.475214;0.322616;0.736020;,
 -0.475214;0.322616;0.736020;,
 -0.475214;0.322616;0.736020;,
 -0.475214;0.322616;0.736020;,
 -0.475214;0.322616;0.736020;,
 -0.475214;0.322616;0.736020;,
 -0.475214;0.322616;0.736020;,
 0.476893;-0.159183;0.737106;,
 0.476893;-0.159183;0.737106;,
 0.476893;-0.159183;0.737106;,
 -0.476893;-0.159183;0.737106;,
 -0.476893;-0.159183;0.737106;,
 -0.476893;-0.159183;0.737106;,
 0.477003;-0.518340;0.739010;,
 0.477003;-0.518340;0.739010;,
 0.477003;-0.518340;0.739010;,
 0.477003;-0.518340;0.739010;,
 -0.477003;-0.518340;0.739010;,
 -0.477003;-0.518340;0.739010;,
 -0.477003;-0.518340;0.739010;,
 -0.477003;-0.518340;0.739010;,
 -0.594308;0.960153;1.995081;,
 0.594275;0.960153;1.995081;,
 -0.178526;0.141486;-1.354962;,
 -0.178526;0.141486;-1.354962;,
 -0.178526;0.141486;-1.354962;,
 -0.178526;0.141486;-1.354962;,
 0.178526;0.141486;-1.354962;,
 0.178526;0.141486;-1.354962;,
 0.178526;0.141486;-1.354962;,
 0.178526;0.141486;-1.354962;,
 -0.178526;0.141486;-1.354962;,
 0.594275;0.960153;1.995081;,
 -0.594308;0.960153;1.995081;,
 -0.477003;-0.518340;0.739010;,
 0.477003;-0.518340;0.739010;,
 -0.476893;-0.159183;0.737106;,
 0.476893;-0.159183;0.737106;,
 -0.475214;0.322616;0.736020;,
 0.475214;0.322616;0.736020;,
 0.608620;-0.274158;0.645103;,
 -0.608620;-0.274158;0.645103;,
 0.280894;0.017633;-1.328300;,
 -0.280894;0.017633;-1.328300;,
 1.054142;0.758002;1.723778;,
 -1.054190;0.758002;1.723778;,
 -0.593795;-0.454010;1.429281;,
 0.593795;-0.454010;1.429281;,
 0.688038;0.333225;2.164696;,
 -0.688060;0.333225;2.164696;,
 -0.541342;-0.313383;1.701293;,
 0.541331;-0.313383;1.701293;,
 0.840358;0.824138;1.736655;,
 -0.840406;0.824138;1.736655;,
 0.859574;0.315037;2.111950;,
 -0.859595;0.315037;2.111950;,
 -0.482182;-0.255634;0.967913;,
 0.482182;-0.255634;0.967913;;

 37;
 4;86,11,7,87;,
 4;60,59,6,10;,
 3;67,70,9;,
 4;54,85,84,58;,
 3;71,64,5;,
 3;29,57,94;,
 4;8,86,3,24;,
 3;28,50,56;,
 4;87,4,19,1;,
 3;95,85,53;,
 3;52,47,32;,
 3;44,27,94;,
 3;18,63,43;,
 4;46,51,55,49;,
 4;38,45,48,42;,
 3;90,23,66;,
 4;84,15,0,17;,
 3;95,22,85;,
 3;21,95,37;,
 3;16,91,62;,
 4;70,65,61,71;,
 4;13,14,84,85;,
 4;36,41,25,26;,
 3;81,40,69;,
 4;20,2,12,85;,
 3;35,68,82;,
 3;39,94,83;,
 3;88,87,93;,
 3;89,92,86;,
 3;84,83,94;,
 3;73,31,95;,
 3;30,34,95;,
 3;72,84,94;,
 3;33,78,75;,
 4;87,88,89,86;,
 3;74,79,76;,
 3;68,77,80;;

 MeshMaterialList {
  5;
  37;
  0,
  1,
  2,
  3,
  2,
  3,
  0,
  3,
  0,
  3,
  3,
  3,
  4,
  3,
  3,
  2,
  3,
  3,
  3,
  2,
  2,
  3,
  3,
  4,
  3,
  4,
  3,
  0,
  0,
  3,
  3,
  3,
  3,
  3,
  0,
  3,
  4;
Material {
 1.000000;1.000000;1.000000;1.000000;;
 50.000000;
 1.000000;1.000000;1.000000;;
 0.0; 0.0; 0.0;;
 TextureFilename {
  "utl103.ppm";
 }
 }
Material {
 0.700000;0.700000;0.700000;1.000000;;
 50.000000;
 1.000000;1.000000;1.000000;;
 0.0; 0.0; 0.0;;
 }
Material {
 1.000000;1.000000;1.000000;1.000000;;
 50.000000;
 1.000000;1.000000;1.000000;;
 0.0; 0.0; 0.0;;
 TextureFilename {
  "utl103.ppm";
 }
 }
Material {
 1.000000;1.000000;1.000000;1.000000;;
 50.000000;
 1.000000;1.000000;1.000000;;
 0.0; 0.0; 0.0;;
 TextureFilename {
  "utl103.ppm";
 }
 }
Material {
 1.000000;1.000000;1.000000;1.000000;;
 50.000000;
 1.000000;1.000000;1.000000;;
 0.0; 0.0; 0.0;;
 TextureFilename {
  "utl103.ppm";
 }
 }
}
 MeshNormals {
  96;
  -0.611227;-0.247441;0.751781;,
  -0.611227;-0.247441;0.751781;,
  0.611236;-0.247427;0.751778;,
  0.611236;-0.247427;0.751778;,
  -0.278787;0.798631;0.533354;,
  -0.278787;0.798631;0.533354;,
  -0.278787;0.798631;0.533354;,
  -0.278787;0.798631;0.533354;,
  0.278792;0.798630;0.533352;,
  0.278792;0.798630;0.533352;,
  0.278792;0.798630;0.533352;,
  0.278792;0.798630;0.533352;,
  0.306150;-0.716170;0.627195;,
  0.306150;-0.716170;0.627195;,
  -0.306144;-0.716174;0.627193;,
  -0.306144;-0.716174;0.627193;,
  -0.997018;-0.060864;-0.047447;,
  -0.997018;-0.060864;-0.047447;,
  -0.997018;-0.060864;-0.047447;,
  -0.997018;-0.060864;-0.047447;,
  0.997020;-0.060832;-0.047440;,
  0.997020;-0.060832;-0.047440;,
  0.997020;-0.060832;-0.047440;,
  0.997020;-0.060832;-0.047440;,
  0.997020;-0.060832;-0.047440;,
  -0.850654;-0.427438;0.306079;,
  0.850654;-0.427438;0.306079;,
  -0.605395;-0.166428;-0.778330;,
  -0.605395;-0.166428;-0.778330;,
  -0.605395;-0.166428;-0.778330;,
  0.605395;-0.166428;-0.778330;,
  0.605395;-0.166428;-0.778330;,
  0.605395;-0.166428;-0.778330;,
  0.777799;-0.340240;-0.528456;,
  0.777799;-0.340240;-0.528456;,
  0.777799;-0.340240;-0.528456;,
  0.777799;-0.340240;-0.528456;,
  0.777799;-0.340240;-0.528456;,
  0.777799;-0.340240;-0.528456;,
  -0.777789;-0.340256;-0.528460;,
  -0.777789;-0.340256;-0.528460;,
  -0.777789;-0.340256;-0.528460;,
  -0.777789;-0.340256;-0.528460;,
  -0.777789;-0.340256;-0.528460;,
  -0.777789;-0.340256;-0.528460;,
  -0.301562;-0.004173;-0.953437;,
  -0.301562;-0.004173;-0.953437;,
  -0.301562;-0.004173;-0.953437;,
  0.301562;-0.004173;-0.953437;,
  0.301562;-0.004173;-0.953437;,
  0.301562;-0.004173;-0.953437;,
  0.562227;-0.496834;-0.661103;,
  0.562227;-0.496834;-0.661103;,
  0.562227;-0.496834;-0.661103;,
  0.562227;-0.496834;-0.661103;,
  -0.562227;-0.496834;-0.661103;,
  -0.562227;-0.496834;-0.661103;,
  -0.562227;-0.496834;-0.661103;,
  -0.562227;-0.496834;-0.661103;,
  -0.231545;0.972293;-0.032140;,
  0.231558;0.972290;-0.032139;,
  -0.554345;0.764507;-0.328984;,
  -0.554345;0.764507;-0.328984;,
  -0.554345;0.764507;-0.328984;,
  -0.554345;0.764507;-0.328984;,
  0.554351;0.764504;-0.328980;,
  0.554351;0.764504;-0.328980;,
  0.554351;0.764504;-0.328980;,
  0.554351;0.764504;-0.328980;,
  -0.554345;0.764507;-0.328984;,
  0.231558;0.972290;-0.032139;,
  -0.231545;0.972293;-0.032140;,
  -0.562227;-0.496834;-0.661103;,
  0.562227;-0.496834;-0.661103;,
  0.301562;-0.004173;-0.953437;,
  -0.301562;-0.004173;-0.953437;,
  -0.777789;-0.340256;-0.528460;,
  0.777799;-0.340240;-0.528456;,
  0.605395;-0.166428;-0.778330;,
  -0.605395;-0.166428;-0.778330;,
  0.850654;-0.427438;0.306079;,
  -0.850654;-0.427438;0.306079;,
  0.997020;-0.060832;-0.047440;,
  -0.997018;-0.060864;-0.047447;,
  -0.757663;-0.651145;0.044248;,
  0.757672;-0.651134;0.044250;,
  0.138110;0.019331;0.990228;,
  -0.138109;0.019328;0.990228;,
  -0.306144;-0.716174;0.627193;,
  0.306150;-0.716170;0.627195;,
  0.278792;0.798630;0.533352;,
  -0.278787;0.798631;0.533354;,
  0.611236;-0.247427;0.751778;,
  -0.611227;-0.247441;0.751781;,
  -0.993290;-0.103213;-0.052164;,
  0.993292;-0.103203;-0.052156;;

  37;
  4;86,11,7,87;,
  4;60,59,6,10;,
  3;67,70,9;,
  4;54,85,84,58;,
  3;71,64,5;,
  3;29,57,94;,
  4;8,86,3,24;,
  3;28,50,56;,
  4;87,4,19,1;,
  3;95,85,53;,
  3;52,47,32;,
  3;44,27,94;,
  3;18,63,43;,
  4;46,51,55,49;,
  4;38,45,48,42;,
  3;90,23,66;,
  4;84,15,0,17;,
  3;95,22,85;,
  3;21,95,37;,
  3;16,91,62;,
  4;70,65,61,71;,
  4;13,14,84,85;,
  4;36,41,25,26;,
  3;81,40,69;,
  4;20,2,12,85;,
  3;35,68,82;,
  3;39,94,83;,
  3;88,87,93;,
  3;89,92,86;,
  3;84,83,94;,
  3;73,31,95;,
  3;30,34,95;,
  3;72,84,94;,
  3;33,78,75;,
  4;87,88,89,86;,
  3;74,79,76;,
  3;68,77,80;;
 }
 MeshTextureCoords { 
 96;
 0.967773;0.493164;,
 0.032298;0.343159;,
 0.967773;0.493164;,
 0.291932;0.343159;,
 0.035196;0.262332;,
 0.940430;0.348633;,
 0.000000;0.000000;,
 0.035196;0.262332;,
 0.289030;0.262332;,
 0.938477;0.038086;,
 0.000000;0.000000;,
 0.289030;0.262332;,
 0.874023;0.633789;,
 0.874023;0.633789;,
 0.874023;0.633789;,
 0.874023;0.633789;,
 0.938477;0.385742;,
 0.879883;0.397461;,
 0.702148;0.012695;,
 0.002910;0.272832;,
 0.879883;0.397461;,
 0.879883;0.397461;,
 0.879883;0.397461;,
 0.938477;0.004883;,
 0.321316;0.272832;,
 0.220140;0.422027;,
 0.220650;0.402521;,
 0.639648;0.627930;,
 0.176758;0.458008;,
 0.639648;0.627930;,
 0.639648;0.627930;,
 0.639648;0.627930;,
 0.170898;0.408529;,
 0.165690;0.293945;,
 0.657227;0.495117;,
 0.466081;0.109971;,
 0.093527;0.401860;,
 0.657227;0.495117;,
 0.096590;0.343343;,
 0.657227;0.495117;,
 0.466081;0.109971;,
 0.091485;0.421697;,
 0.224224;0.343343;,
 0.466081;0.109971;,
 0.657227;0.495117;,
 0.095569;0.401364;,
 0.093527;0.401860;,
 0.155273;0.405273;,
 0.221161;0.402191;,
 0.220650;0.402521;,
 0.155273;0.405273;,
 0.091485;0.421697;,
 0.176758;0.458008;,
 0.661133;0.680664;,
 0.661133;0.680664;,
 0.220140;0.422027;,
 0.170898;0.408529;,
 0.661133;0.680664;,
 0.661133;0.680664;,
 0.000000;0.000000;,
 0.000000;0.000000;,
 0.374674;0.221029;,
 0.374674;0.221029;,
 0.008789;0.149414;,
 0.374674;0.221029;,
 0.374674;0.163737;,
 0.374674;0.163737;,
 0.374674;0.163737;,
 0.008789;0.149414;,
 0.008789;0.149414;,
 0.987305;0.084961;,
 0.989258;0.301758;,
 0.661133;0.680664;,
 0.661133;0.680664;,
 0.155924;0.405924;,
 0.155924;0.405924;,
 0.165690;0.293945;,
 0.466081;0.109971;,
 0.170898;0.407878;,
 0.170898;0.407878;,
 0.012695;0.176758;,
 0.012695;0.176758;,
 0.702148;0.012695;,
 0.879883;0.397461;,
 0.815430;0.666992;,
 0.815430;0.666992;,
 0.266026;0.340272;,
 0.058204;0.340272;,
 0.080361;0.442931;,
 0.243870;0.442931;,
 0.938477;0.038086;,
 0.940430;0.348633;,
 0.291932;0.343159;,
 0.032298;0.343159;,
 0.708008;0.624023;,
 0.708008;0.624023;;
 }
}
Frame frm-rt-wing1 {
  FrameTransformMatrix {
0.879662,-0.475600,0.000000,0.000000,
0.475600,0.879662,0.000000,0.000000,
0.000000,0.000000,1.000000,0.000000,
1.061732,-0.103314,-0.160095,1.000000;;
 }
Mesh rt-wing1 {
 20;
 -0.214397;-0.633005;1.046910;,
 0.109876;1.663551;3.787178;,
 -0.214989;-0.238946;1.034888;,
 -0.091186;-0.301330;1.098284;,
 -0.031915;0.395723;1.634553;,
 -0.126228;0.396530;1.504237;,
 -0.204291;-0.703386;1.252166;,
 -0.080939;-0.646974;1.259720;,
 -0.178548;-0.437491;1.775014;,
 -0.052549;-0.366324;1.707029;,
 -0.198387;-0.767964;1.372074;,
 -0.074288;-0.703341;1.364520;,
 -0.371595;-0.587434;1.033556;,
 -0.299005;-0.552136;1.334335;,
 -0.515514;-0.380639;1.315663;,
 -0.437353;-0.409637;1.128008;,
 0.121477;1.214475;3.623638;,
 0.059165;-0.066520;2.452191;,
 0.085012;1.235915;3.718530;,
 -0.030320;-0.084780;2.555710;;

 24;
 3;10,8,6;,
 3;4,5,1;,
 4;8,10,11,9;,
 4;4,3,2,5;,
 4;12,15,2,0;,
 4;9,17,19,8;,
 4;17,16,18,19;,
 3;16,1,18;,
 4;15,12,13,14;,
 3;7,0,3;,
 3;6,0,7;,
 3;2,15,14;,
 3;11,7,9;,
 4;4,1,16,17;,
 4;5,2,8,19;,
 4;19,18,1,5;,
 3;14,8,2;,
 4;14,13,6,8;,
 4;13,12,0,6;,
 3;3,0,2;,
 4;11,10,6,7;,
 3;4,17,9;,
 3;9,7,3;,
 3;3,4,9;;

 MeshMaterialList {
  1;
  24;
  0,
  0,
  0,
  0,
  0,
  0,
  0,
  0,
  0,
  0,
  0,
  0,
  0,
  0,
  0,
  0,
  0,
  0,
  0,
  0,
  0,
  0,
  0,
  0;
Material {
 1.000000;1.000000;1.000000;1.000000;;
 50.000000;
 1.000000;1.000000;1.000000;;
 0.0; 0.0; 0.0;;
 TextureFilename {
  "utl103.ppm";
 }
 }
}
 MeshNormals {
  20;
  0.293553;-0.495753;-0.817346;,
  0.937017;0.346823;-0.041385;,
  -0.189466;0.635699;-0.748325;,
  0.872142;0.029335;-0.488373;,
  0.928317;0.226148;-0.295103;,
  -0.422985;0.731266;-0.535101;,
  -0.449247;-0.889700;-0.081315;,
  0.836705;-0.433999;-0.334019;,
  -0.688336;-0.426725;0.586600;,
  0.952986;-0.289076;0.090846;,
  0.039862;-0.995512;0.085831;,
  0.794511;-0.607203;0.007598;,
  -0.717308;-0.586540;-0.376085;,
  -0.681184;-0.714751;0.158491;,
  -0.979584;0.168285;0.109976;,
  -0.774270;0.096813;-0.625407;,
  0.942837;-0.194855;0.270351;,
  0.921484;-0.361546;0.141954;,
  0.526280;-0.443038;0.725773;,
  -0.406316;-0.717460;0.565825;;

  24;
  3;10,8,6;,
  3;4,5,1;,
  4;8,10,11,9;,
  4;4,3,2,5;,
  4;12,15,2,0;,
  4;9,17,19,8;,
  4;17,16,18,19;,
  3;16,1,18;,
  4;15,12,13,14;,
  3;7,0,3;,
  3;6,0,7;,
  3;2,15,14;,
  3;11,7,9;,
  4;4,1,16,17;,
  4;5,2,8,19;,
  4;19,18,1,5;,
  3;14,8,2;,
  4;14,13,6,8;,
  4;13,12,0,6;,
  3;3,0,2;,
  4;11,10,6,7;,
  3;4,17,9;,
  3;9,7,3;,
  3;3,4,9;;
 }
 MeshTextureCoords { 
 20;
 0.053970;0.726715;,
 0.703722;0.341622;,
 0.063793;0.634431;,
 0.079983;0.652953;,
 0.236383;0.513662;,
 0.204027;0.503986;,
 0.088132;0.732905;,
 0.098029;0.722501;,
 0.226017;0.692654;,
 0.219935;0.685083;,
 0.125075;0.756970;,
 0.126529;0.756083;,
 0.050562;0.704339;,
 0.100629;0.701795;,
 0.105664;0.658870;,
 0.056700;0.696077;,
 0.667229;0.418384;,
 0.400526;0.643311;,
 0.676414;0.416671;,
 0.409589;0.646491;;
 }
}
}
Frame frm-engine-nib_1 {
  FrameTransformMatrix {
1.000000,0.000000,0.000000,0.000000,
0.000000,1.000000,0.000000,0.000000,
0.000000,0.000000,1.000000,0.000000,
0.000000,-2.788176,-1.856979,1.000000;;
 }
Mesh engine-nib_1 {
 16;
 -0.155973;3.611958;3.594686;,
 -0.155411;2.478156;3.561258;,
 -0.166359;3.131770;4.212455;,
 -0.166359;3.131770;4.212455;,
 0.155973;3.611958;3.594686;,
 0.155411;2.478156;3.561258;,
 0.166359;3.131770;4.212455;,
 0.166359;3.131770;4.212455;,
 0.166359;3.131770;4.212455;,
 0.155411;2.478156;3.561258;,
 0.163036;3.129964;4.014781;,
 0.155973;3.611958;3.594686;,
 -0.166359;3.131770;4.212455;,
 -0.155411;2.478156;3.561258;,
 -0.163036;3.129964;4.014781;,
 -0.155973;3.611958;3.594686;;

 4;
 4;7,4,0,3;,
 4;6,5,10,11;,
 4;15,14,1,2;,
 4;9,8,12,13;;

 MeshMaterialList {
  1;
  4;
  0,
  0,
  0,
  0;
Material {
 1.000000;1.000000;1.000000;1.000000;;
 50.000000;
 1.000000;1.000000;1.000000;;
 0.0; 0.0; 0.0;;
 TextureFilename {
  "utl103.ppm";
 }
 }
}
 MeshNormals {
  16;
  -0.710499;0.577163;0.402585;,
  -0.711114;-0.518017;0.475369;,
  -0.593231;0.049327;0.803520;,
  -0.593231;0.049327;0.803520;,
  0.710499;0.577163;0.402585;,
  0.711114;-0.518017;0.475369;,
  0.593231;0.049327;0.803520;,
  0.593231;0.049327;0.803520;,
  0.593231;0.049327;0.803520;,
  0.711114;-0.518017;0.475369;,
  0.999859;0.000000;-0.016809;,
  0.710499;0.577163;0.402585;,
  -0.593231;0.049327;0.803520;,
  -0.711114;-0.518017;0.475369;,
  -0.999859;0.000000;-0.016809;,
  -0.710499;0.577163;0.402585;;

  4;
  4;7,4,0,3;,
  4;6,5,10,11;,
  4;15,14,1,2;,
  4;9,8,12,13;;
 }
 MeshTextureCoords { 
 16;
 0.144750;0.280248;,
 0.172317;0.337040;,
 0.128345;0.383659;,
 0.143594;0.344775;,
 0.179469;0.280248;,
 0.172259;0.439558;,
 0.128345;0.383659;,
 0.180625;0.344775;,
 0.180625;0.344775;,
 0.179406;0.432605;,
 0.149829;0.383013;,
 0.172317;0.337040;,
 0.143594;0.344775;,
 0.144812;0.432605;,
 0.149829;0.383013;,
 0.172259;0.439558;;
 }
}
}
Frame frm-cube1 {
  FrameTransformMatrix {
1.000000,0.000000,0.000000,0.000000,
0.000000,1.000000,0.000000,0.000000,
0.000000,0.000000,1.000000,0.000000,
0.000000,-0.087314,-2.848197,1.000000;;
 }
Mesh cube1 {
 34;
 0.325273;-0.244317;1.322379;,
 0.325273;-0.244317;1.322379;,
 -0.325273;-0.244317;1.322379;,
 -0.278920;0.100613;1.523473;,
 -0.278920;0.100613;1.523473;,
 0.278920;0.100613;1.523473;,
 0.429153;-0.673056;3.375576;,
 0.429153;-0.673056;3.375576;,
 0.429153;-0.673056;3.375576;,
 0.207035;-0.403646;3.833955;,
 -0.207035;-0.403646;3.833955;,
 -0.429152;-0.673056;3.375576;,
 0.476747;0.406750;3.582763;,
 -0.476747;0.406750;3.582763;,
 0.278920;0.100613;1.523473;,
 -0.278920;0.100613;1.523473;,
 -0.429152;-0.673056;3.375576;,
 -0.306542;-0.667595;1.582971;,
 0.306542;-0.667595;1.582971;,
 0.429153;-0.673056;3.375576;,
 -0.477039;-0.435866;3.587840;,
 0.477039;-0.435866;3.587840;,
 0.419358;-0.069513;1.523473;,
 0.617444;-0.184693;3.493371;,
 0.594840;-0.499554;3.348824;,
 0.424008;-0.497828;1.526134;,
 -0.325273;-0.244317;1.322379;,
 0.325273;-0.244317;1.322379;,
 0.325566;-0.584364;1.327456;,
 -0.325566;-0.584364;1.327456;,
 -0.617444;-0.184693;3.493371;,
 -0.419358;-0.069513;1.523473;,
 -0.424009;-0.497828;1.526134;,
 -0.594840;-0.499554;3.348824;;

 29;
 4;30,31,32,33;,
 4;2,1,28,29;,
 4;22,23,24,25;,
 4;12,13,20,21;,
 4;16,17,18,19;,
 4;12,5,4,13;,
 3;31,30,13;,
 4;30,33,20,13;,
 4;33,32,17,16;,
 4;32,31,26,29;,
 4;0,26,3,14;,
 4;29,28,18,17;,
 4;28,27,22,25;,
 3;22,14,12;,
 4;25,24,19,18;,
 4;24,23,12,21;,
 3;13,15,31;,
 4;9,10,11,7;,
 3;16,20,33;,
 3;17,32,29;,
 3;12,23,22;,
 3;15,26,31;,
 3;19,24,21;,
 3;18,28,25;,
 3;14,22,27;,
 4;11,10,20,16;,
 4;9,6,19,21;,
 4;8,11,16,19;,
 4;10,9,21,20;;

 MeshMaterialList {
  1;
  29;
  0,
  0,
  0,
  0,
  0,
  0,
  0,
  0,
  0,
  0,
  0,
  0,
  0,
  0,
  0,
  0,
  0,
  0,
  0,
  0,
  0,
  0,
  0,
  0,
  0,
  0,
  0,
  0,
  0;
Material {
 1.000000;1.000000;1.000000;1.000000;;
 50.000000;
 1.000000;1.000000;1.000000;;
 0.0; 0.0; 0.0;;
 TextureFilename {
  "utl103.ppm";
 }
 }
}
 MeshNormals {
  34;
  0.390606;0.283853;-0.875702;,
  0.390606;0.283853;-0.875702;,
  -0.390606;0.283853;-0.875702;,
  -0.362504;0.756694;-0.544064;,
  -0.362504;0.756694;-0.544064;,
  0.362504;0.756694;-0.544064;,
  0.239441;-0.781901;0.575586;,
  0.239441;-0.781901;0.575586;,
  0.239441;-0.781901;0.575586;,
  0.378590;-0.452414;0.807460;,
  -0.378590;-0.452414;0.807460;,
  -0.239441;-0.781901;0.575586;,
  0.698210;0.562700;0.442574;,
  -0.698210;0.562700;0.442574;,
  0.362504;0.756694;-0.544064;,
  -0.362504;0.756694;-0.544064;,
  -0.517098;-0.807012;0.285204;,
  -0.401894;-0.904194;-0.144615;,
  0.401895;-0.904194;-0.144615;,
  0.517098;-0.807012;0.285204;,
  -0.539597;-0.118479;0.833545;,
  0.539597;-0.118479;0.833545;,
  0.897221;0.299244;-0.324728;,
  0.972857;0.045266;0.226936;,
  0.871042;-0.379825;0.311479;,
  0.919606;-0.341763;-0.193709;,
  -0.390606;0.283853;-0.875702;,
  0.390606;0.283853;-0.875702;,
  0.559990;-0.577310;-0.594243;,
  -0.559989;-0.577310;-0.594243;,
  -0.972857;0.045266;0.226936;,
  -0.897221;0.299244;-0.324728;,
  -0.919606;-0.341764;-0.193709;,
  -0.871042;-0.379825;0.311479;;

  29;
  4;30,31,32,33;,
  4;2,1,28,29;,
  4;22,23,24,25;,
  4;12,13,20,21;,
  4;16,17,18,19;,
  4;12,5,4,13;,
  3;31,30,13;,
  4;30,33,20,13;,
  4;33,32,17,16;,
  4;32,31,26,29;,
  4;0,26,3,14;,
  4;29,28,18,17;,
  4;28,27,22,25;,
  3;22,14,12;,
  4;25,24,19,18;,
  4;24,23,12,21;,
  3;13,15,31;,
  4;9,10,11,7;,
  3;16,20,33;,
  3;17,32,29;,
  3;12,23,22;,
  3;15,26,31;,
  3;19,24,21;,
  3;18,28,25;,
  3;14,22,27;,
  4;11,10,20,16;,
  4;9,6,19,21;,
  4;8,11,16,19;,
  4;10,9,21,20;;
 }
 MeshTextureCoords { 
 34;
 0.003397;0.876426;,
 0.004883;0.875977;,
 0.003397;0.876426;,
 0.060701;0.783150;,
 0.061523;0.782227;,
 0.060701;0.783150;,
 0.592773;0.997070;,
 0.592773;0.997070;,
 0.594727;0.997070;,
 0.708008;0.930664;,
 0.708008;0.930664;,
 0.592773;0.997070;,
 0.649414;0.696289;,
 0.649414;0.696289;,
 0.061523;0.782227;,
 0.061523;0.782227;,
 0.592773;0.997070;,
 0.077148;0.995117;,
 0.077148;0.995117;,
 0.592773;0.997070;,
 0.653320;0.936523;,
 0.653320;0.936523;,
 0.060701;0.829155;,
 0.629883;0.864258;,
 0.588867;0.944336;,
 0.065430;0.946289;,
 0.004883;0.875977;,
 0.004883;0.875977;,
 0.004883;0.973633;,
 0.004883;0.973633;,
 0.629883;0.864258;,
 0.060701;0.829155;,
 0.065430;0.946289;,
 0.588867;0.944336;;
 }
}
}
Frame frm-cube3_1 {
  FrameTransformMatrix {
1.000000,0.000000,0.000000,0.000000,
0.000000,0.971802,0.235800,0.000000,
0.000000,-0.235800,0.971802,0.000000,
0.000000,0.938756,1.531854,1.000000;;
 }
Mesh cube3_1 {
 8;
 0.091236;-0.025946;-1.136160;,
 0.250200;0.087817;0.581040;,
 0.183206;-0.102358;-1.260000;,
 0.450000;-0.090383;0.452160;,
 -0.091236;-0.025946;-1.136160;,
 -0.250200;0.087817;0.581040;,
 -0.183206;-0.102358;-1.260000;,
 -0.450000;-0.090383;0.452160;;

 5;
 4;5,4,6,7;,
 4;4,0,2,6;,
 4;0,1,3,2;,
 4;1,5,7,3;,
 4;1,0,4,5;;

 MeshMaterialList {
  1;
  5;
  0,
  0,
  0,
  0,
  0;
Material {
 1.000000;1.000000;1.000000;1.000000;;
 50.000000;
 1.000000;1.000000;1.000000;;
 0.0; 0.0; 0.0;;
 TextureFilename {
  "utl103.ppm";
 }
 }
}
 MeshNormals {
  8;
  0.210182;0.962122;-0.173621;,
  0.403533;0.807776;0.429721;,
  0.323466;0.883739;-0.338193;,
  0.632756;0.216860;0.743365;,
  -0.210182;0.962122;-0.173621;,
  -0.403533;0.807776;0.429721;,
  -0.323466;0.883739;-0.338193;,
  -0.632756;0.216860;0.743365;;

  5;
  4;5,4,6,7;,
  4;4,0,2,6;,
  4;0,1,3,2;,
  4;1,5,7,3;,
  4;1,0,4,5;;
 }
 MeshTextureCoords { 
 8;
 0.744288;0.873114;,
 0.993164;0.848633;,
 0.727539;0.860352;,
 0.981445;0.819336;,
 0.745117;0.899414;,
 0.993164;0.924805;,
 0.727539;0.913086;,
 0.979492;0.954102;;
 }
}
}
Frame frm-null1_1 {
  FrameTransformMatrix {
1.000000,0.000000,0.000000,0.000000,
0.000000,1.000000,0.000000,0.000000,
0.000000,0.000000,1.000000,0.000000,
0.000000,-0.310433,0.596694,1.000000;;
 }
Frame frm-cyl2 {
  FrameTransformMatrix {
-0.847060,-0.341700,0.407100,0.000000,
-0.200819,-0.503412,-0.840386,0.000000,
0.492099,-0.793611,0.357800,0.000000,
-0.365424,0.235466,1.308744,1.000000;;
 }
Mesh cyl2 {
 32;
 -0.053137;0.473281;-0.092037;,
 -0.106275;0.473281;-0.000000;,
 -0.106275;0.473281;-0.000000;,
 0.053138;0.473281;-0.092037;,
 0.106275;0.473281;-0.000000;,
 0.053138;0.473281;0.092037;,
 -0.053137;0.473281;0.092037;,
 -0.053137;0.473281;0.092037;,
 -0.053137;0.473281;0.092037;,
 0.053138;0.473281;0.092037;,
 0.106275;0.473281;-0.000000;,
 0.053138;0.473281;-0.092037;,
 -0.106275;0.473281;-0.000000;,
 -0.053137;0.473281;-0.092037;,
 -0.075434;0.213541;0.130655;,
 0.150868;0.213541;0.000000;,
 0.075434;0.213541;0.130655;,
 0.075434;0.213541;-0.130655;,
 -0.150868;0.213541;0.000000;,
 -0.075434;0.213541;-0.130655;,
 0.115696;0.161975;0.200392;,
 0.115696;0.011921;0.200392;,
 -0.115696;0.161975;0.200392;,
 -0.115696;-0.010107;0.200392;,
 -0.231393;0.161975;0.000000;,
 -0.231393;-0.065567;0.000000;,
 -0.115696;0.161975;-0.200392;,
 -0.115696;-0.088373;-0.200392;,
 0.115696;0.161975;-0.200392;,
 0.115696;-0.057015;-0.200392;,
 0.231393;0.161975;-0.000000;,
 0.231393;-0.002073;0.000000;;

 19;
 4;18,14,7,2;,
 4;31,29,28,30;,
 6;5,4,3,0,1,6;,
 4;29,27,26,28;,
 4;27,25,24,26;,
 4;25,23,22,24;,
 4;23,21,20,22;,
 4;21,31,30,20;,
 4;26,24,18,19;,
 4;28,26,19,17;,
 4;20,30,15,16;,
 4;22,20,16,14;,
 4;24,22,14,18;,
 4;30,28,17,15;,
 4;19,18,12,13;,
 4;17,19,13,11;,
 4;15,17,11,10;,
 4;16,15,10,9;,
 4;14,16,9,8;;

 MeshMaterialList {
  1;
  19;
  0,
  0,
  0,
  0,
  0,
  0,
  0,
  0,
  0,
  0,
  0,
  0,
  0,
  0,
  0,
  0,
  0,
  0,
  0;
Material {
 1.000000;1.000000;1.000000;1.000000;;
 50.000000;
 1.000000;1.000000;1.000000;;
 0.0; 0.0; 0.0;;
 TextureFilename {
  "utl103.ppm";
 }
 }
}
 MeshNormals {
  32;
  -0.413656;0.561743;-0.716473;,
  -0.827312;0.561743;0.000000;,
  -0.827312;0.561743;0.000000;,
  0.413656;0.561743;-0.716473;,
  0.827312;0.561743;-0.000000;,
  0.413656;0.561743;0.716473;,
  -0.413656;0.561743;0.716473;,
  -0.413656;0.561743;0.716473;,
  -0.413656;0.561743;0.716473;,
  0.413656;0.561743;0.716473;,
  0.827312;0.561743;-0.000000;,
  0.413656;0.561743;-0.716473;,
  -0.827312;0.561743;0.000000;,
  -0.413656;0.561743;-0.716473;,
  -0.382162;0.644832;0.661925;,
  0.764325;0.644832;-0.000000;,
  0.382162;0.644832;0.661924;,
  0.382162;0.644832;-0.661924;,
  -0.764325;0.644832;0.000000;,
  -0.382162;0.644832;-0.661925;,
  0.399108;0.602371;0.691276;,
  0.336598;-0.763310;0.551415;,
  -0.399108;0.602371;0.691276;,
  -0.498683;-0.578606;0.645392;,
  -0.798216;0.602371;0.000000;,
  -1.000000;0.000000;0.000000;,
  -0.399108;0.602371;-0.691276;,
  -0.500000;-0.000000;-0.866025;,
  0.399108;0.602371;-0.691276;,
  0.500000;-0.000000;-0.866025;,
  0.798216;0.602371;-0.000000;,
  0.594663;-0.790752;0.145216;;

  19;
  4;18,14,7,2;,
  4;31,29,28,30;,
  6;5,4,3,0,1,6;,
  4;29,27,26,28;,
  4;27,25,24,26;,
  4;25,23,22,24;,
  4;23,21,20,22;,
  4;21,31,30,20;,
  4;26,24,18,19;,
  4;28,26,19,17;,
  4;20,30,15,16;,
  4;22,20,16,14;,
  4;24,22,14,18;,
  4;30,28,17,15;,
  4;19,18,12,13;,
  4;17,19,13,11;,
  4;15,17,11,10;,
  4;16,15,10,9;,
  4;14,16,9,8;;
 }
 MeshTextureCoords { 
 32;
 0.527338;0.668993;,
 0.516103;0.631112;,
 0.210764;0.075122;,
 0.577300;0.679289;,
 0.604309;0.645194;,
 0.591121;0.603407;,
 0.552877;0.591809;,
 0.211731;0.050142;,
 0.211731;0.050142;,
 0.212215;0.037652;,
 0.211731;0.050142;,
 0.210764;0.075122;,
 0.210764;0.075122;,
 0.210280;0.087612;,
 0.127710;0.043738;,
 0.127710;0.043738;,
 0.128397;0.026007;,
 0.126337;0.079200;,
 0.126337;0.079200;,
 0.125651;0.096931;,
 0.112409;0.006848;,
 0.063752;0.006176;,
 0.111356;0.034043;,
 0.055556;0.033272;,
 0.109250;0.088433;,
 0.035467;0.087414;,
 0.108197;0.115628;,
 0.027019;0.114506;,
 0.109250;0.088433;,
 0.038240;0.087452;,
 0.111356;0.034043;,
 0.058162;0.033308;;
 }
}
}
Frame frm-cyl3_1 {
  FrameTransformMatrix {
0.847060,-0.341700,0.407100,0.000000,
0.200819,-0.503411,-0.840386,0.000000,
0.492099,0.793611,-0.357800,0.000000,
0.365424,0.235466,1.308744,1.000000;;
 }
Mesh cyl3_1 {
 32;
 -0.053137;0.473281;0.092037;,
 -0.106275;0.473281;0.000000;,
 -0.106275;0.473281;0.000000;,
 0.053138;0.473281;0.092037;,
 0.106275;0.473281;0.000000;,
 0.053138;0.473281;-0.092037;,
 -0.053137;0.473281;-0.092037;,
 -0.053137;0.473281;-0.092037;,
 -0.053137;0.473281;-0.092037;,
 0.053138;0.473281;-0.092037;,
 0.106275;0.473281;0.000000;,
 0.053138;0.473281;0.092037;,
 -0.106275;0.473281;0.000000;,
 -0.053137;0.473281;0.092037;,
 -0.075434;0.213541;-0.130655;,
 0.150868;0.213541;-0.000000;,
 0.075434;0.213541;-0.130655;,
 0.075434;0.213541;0.130655;,
 -0.150868;0.213541;-0.000000;,
 -0.075434;0.213541;0.130655;,
 0.115696;0.161975;-0.200392;,
 0.115696;0.011921;-0.200392;,
 -0.115696;0.161975;-0.200392;,
 -0.115696;-0.010107;-0.200392;,
 -0.231393;0.161975;-0.000000;,
 -0.231393;-0.065567;-0.000000;,
 -0.115696;0.161975;0.200392;,
 -0.115696;-0.088373;0.200392;,
 0.115696;0.161975;0.200392;,
 0.115696;-0.057015;0.200392;,
 0.231393;0.161975;0.000000;,
 0.231393;-0.002073;-0.000000;;

 19;
 4;2,7,14,18;,
 4;30,28,29,31;,
 6;6,1,0,3,4,5;,
 4;28,26,27,29;,
 4;26,24,25,27;,
 4;24,22,23,25;,
 4;22,20,21,23;,
 4;20,30,31,21;,
 4;19,18,24,26;,
 4;17,19,26,28;,
 4;16,15,30,20;,
 4;14,16,20,22;,
 4;18,14,22,24;,
 4;15,17,28,30;,
 4;13,12,18,19;,
 4;11,13,19,17;,
 4;10,11,17,15;,
 4;9,10,15,16;,
 4;8,9,16,14;;

 MeshMaterialList {
  1;
  19;
  0,
  0,
  0,
  0,
  0,
  0,
  0,
  0,
  0,
  0,
  0,
  0,
  0,
  0,
  0,
  0,
  0,
  0,
  0;
Material {
 1.000000;1.000000;1.000000;1.000000;;
 50.000000;
 1.000000;1.000000;1.000000;;
 0.0; 0.0; 0.0;;
 TextureFilename {
  "utl103.ppm";
 }
 }
}
 MeshNormals {
  32;
  -0.413656;0.561743;0.716473;,
  -0.827312;0.561743;-0.000000;,
  -0.827312;0.561743;-0.000000;,
  0.413656;0.561743;0.716473;,
  0.827312;0.561743;0.000000;,
  0.413656;0.561743;-0.716473;,
  -0.413656;0.561743;-0.716473;,
  -0.413656;0.561743;-0.716473;,
  -0.413656;0.561743;-0.716473;,
  0.413656;0.561743;-0.716473;,
  0.827312;0.561743;0.000000;,
  0.413656;0.561743;0.716473;,
  -0.827312;0.561743;-0.000000;,
  -0.413656;0.561743;0.716473;,
  -0.382162;0.644832;-0.661925;,
  0.764325;0.644832;0.000000;,
  0.382162;0.644832;-0.661924;,
  0.382162;0.644832;0.661924;,
  -0.764325;0.644832;-0.000000;,
  -0.382162;0.644832;0.661925;,
  0.399108;0.602371;-0.691276;,
  0.336598;-0.763310;-0.551415;,
  -0.399108;0.602371;-0.691276;,
  -0.498683;-0.578606;-0.645392;,
  -0.798216;0.602371;-0.000000;,
  -1.000000;0.000000;-0.000000;,
  -0.399108;0.602371;0.691276;,
  -0.500000;-0.000000;0.866025;,
  0.399108;0.602371;0.691276;,
  0.500000;-0.000000;0.866025;,
  0.798216;0.602371;0.000000;,
  0.594663;-0.790752;-0.145216;;

  19;
  4;2,7,14,18;,
  4;30,28,29,31;,
  6;6,1,0,3,4,5;,
  4;28,26,27,29;,
  4;26,24,25,27;,
  4;24,22,23,25;,
  4;22,20,21,23;,
  4;20,30,31,21;,
  4;19,18,24,26;,
  4;17,19,26,28;,
  4;16,15,30,20;,
  4;14,16,20,22;,
  4;18,14,22,24;,
  4;15,17,28,30;,
  4;13,12,18,19;,
  4;11,13,19,17;,
  4;10,11,17,15;,
  4;9,10,15,16;,
  4;8,9,16,14;;
 }
 MeshTextureCoords { 
 32;
 0.527338;0.668993;,
 0.516103;0.631112;,
 0.210764;0.075122;,
 0.577300;0.679289;,
 0.604309;0.645194;,
 0.591121;0.603407;,
 0.552877;0.591809;,
 0.211731;0.050142;,
 0.211731;0.050142;,
 0.212215;0.037652;,
 0.211731;0.050142;,
 0.210764;0.075122;,
 0.210764;0.075122;,
 0.210280;0.087612;,
 0.127710;0.043738;,
 0.127710;0.043738;,
 0.128397;0.026007;,
 0.126337;0.079200;,
 0.126337;0.079200;,
 0.125651;0.096931;,
 0.112409;0.006848;,
 0.063752;0.006176;,
 0.111356;0.034043;,
 0.055556;0.033272;,
 0.109250;0.088433;,
 0.035467;0.087414;,
 0.108197;0.115628;,
 0.027019;0.114506;,
 0.109250;0.088433;,
 0.038240;0.087452;,
 0.111356;0.034043;,
 0.058162;0.033308;;
 }
}
}
Frame frm-cyl5 {
  FrameTransformMatrix {
-0.847080,0.449600,0.283400,0.000000,
-0.200745,0.223066,-0.953909,0.000000,
-0.492095,-0.864928,-0.098700,0.000000,
-0.365424,0.788329,1.255422,1.000000;;
 }
Mesh cyl5 {
 32;
 -0.053137;0.473281;0.092037;,
 -0.106275;0.473281;0.000000;,
 -0.106275;0.473281;0.000000;,
 0.053138;0.473281;0.092037;,
 0.106275;0.473281;0.000000;,
 0.053138;0.473281;-0.092037;,
 -0.053137;0.473281;-0.092037;,
 -0.053137;0.473281;-0.092037;,
 -0.053137;0.473281;-0.092037;,
 0.053138;0.473281;-0.092037;,
 0.106275;0.473281;0.000000;,
 0.053138;0.473281;0.092037;,
 -0.106275;0.473281;0.000000;,
 -0.053137;0.473281;0.092037;,
 -0.075434;0.213541;-0.130655;,
 0.150868;0.213541;-0.000000;,
 0.075434;0.213541;-0.130655;,
 0.075434;0.213541;0.130655;,
 -0.150868;0.213541;-0.000000;,
 -0.075434;0.213541;0.130655;,
 0.115696;0.161975;-0.200392;,
 0.115696;0.011921;-0.200392;,
 -0.115696;0.161975;-0.200392;,
 -0.115696;-0.010107;-0.200392;,
 -0.231393;0.161975;-0.000000;,
 -0.231393;-0.065567;-0.000000;,
 -0.115696;0.161975;0.200392;,
 -0.115696;-0.088373;0.200392;,
 0.115696;0.161975;0.200392;,
 0.115696;-0.057015;0.200392;,
 0.231393;0.161975;0.000000;,
 0.231393;-0.002073;-0.000000;;

 19;
 4;2,7,14,18;,
 4;30,28,29,31;,
 6;6,1,0,3,4,5;,
 4;28,26,27,29;,
 4;26,24,25,27;,
 4;24,22,23,25;,
 4;22,20,21,23;,
 4;20,30,31,21;,
 4;19,18,24,26;,
 4;17,19,26,28;,
 4;16,15,30,20;,
 4;14,16,20,22;,
 4;18,14,22,24;,
 4;15,17,28,30;,
 4;13,12,18,19;,
 4;11,13,19,17;,
 4;10,11,17,15;,
 4;9,10,15,16;,
 4;8,9,16,14;;

 MeshMaterialList {
  1;
  19;
  0,
  0,
  0,
  0,
  0,
  0,
  0,
  0,
  0,
  0,
  0,
  0,
  0,
  0,
  0,
  0,
  0,
  0,
  0;
Material {
 1.000000;1.000000;1.000000;1.000000;;
 50.000000;
 1.000000;1.000000;1.000000;;
 0.0; 0.0; 0.0;;
 TextureFilename {
  "utl103.ppm";
 }
 }
}
 MeshNormals {
  32;
  -0.413656;0.561743;0.716473;,
  -0.827312;0.561743;-0.000000;,
  -0.827312;0.561743;-0.000000;,
  0.413656;0.561743;0.716473;,
  0.827312;0.561743;0.000000;,
  0.413656;0.561743;-0.716473;,
  -0.413656;0.561743;-0.716473;,
  -0.413656;0.561743;-0.716473;,
  -0.413656;0.561743;-0.716473;,
  0.413656;0.561743;-0.716473;,
  0.827312;0.561743;0.000000;,
  0.413656;0.561743;0.716473;,
  -0.827312;0.561743;-0.000000;,
  -0.413656;0.561743;0.716473;,
  -0.382162;0.644832;-0.661925;,
  0.764325;0.644832;0.000000;,
  0.382162;0.644832;-0.661924;,
  0.382162;0.644832;0.661924;,
  -0.764325;0.644832;-0.000000;,
  -0.382162;0.644832;0.661925;,
  0.399108;0.602371;-0.691276;,
  0.336598;-0.763310;-0.551415;,
  -0.399108;0.602371;-0.691276;,
  -0.498683;-0.578606;-0.645392;,
  -0.798216;0.602371;-0.000000;,
  -1.000000;0.000000;-0.000000;,
  -0.399108;0.602371;0.691276;,
  -0.500000;-0.000000;0.866025;,
  0.399108;0.602371;0.691276;,
  0.500000;-0.000000;0.866025;,
  0.798216;0.602371;0.000000;,
  0.594663;-0.790752;-0.145216;;

  19;
  4;2,7,14,18;,
  4;30,28,29,31;,
  6;6,1,0,3,4,5;,
  4;28,26,27,29;,
  4;26,24,25,27;,
  4;24,22,23,25;,
  4;22,20,21,23;,
  4;20,30,31,21;,
  4;19,18,24,26;,
  4;17,19,26,28;,
  4;16,15,30,20;,
  4;14,16,20,22;,
  4;18,14,22,24;,
  4;15,17,28,30;,
  4;13,12,18,19;,
  4;11,13,19,17;,
  4;10,11,17,15;,
  4;9,10,15,16;,
  4;8,9,16,14;;
 }
 MeshTextureCoords { 
 32;
 0.527338;0.668993;,
 0.516103;0.631112;,
 0.210764;0.075122;,
 0.577300;0.679289;,
 0.604309;0.645194;,
 0.591121;0.603407;,
 0.552877;0.591809;,
 0.211731;0.050142;,
 0.211731;0.050142;,
 0.212215;0.037652;,
 0.211731;0.050142;,
 0.210764;0.075122;,
 0.210764;0.075122;,
 0.210280;0.087612;,
 0.127710;0.043738;,
 0.127710;0.043738;,
 0.128397;0.026007;,
 0.126337;0.079200;,
 0.126337;0.079200;,
 0.125651;0.096931;,
 0.112409;0.006848;,
 0.063752;0.006176;,
 0.111356;0.034043;,
 0.055556;0.033272;,
 0.109250;0.088433;,
 0.035467;0.087414;,
 0.108197;0.115628;,
 0.027019;0.114506;,
 0.109250;0.088433;,
 0.038240;0.087452;,
 0.111356;0.034043;,
 0.058162;0.033308;;
 }
}
}
Frame frm-cyl4 {
  FrameTransformMatrix {
0.847080,0.449600,0.283400,0.000000,
0.200745,0.223066,-0.953909,0.000000,
-0.492095,0.864928,0.098700,0.000000,
0.365424,0.788329,1.255422,1.000000;;
 }
Mesh cyl4 {
 32;
 -0.053137;0.473281;-0.092037;,
 -0.106275;0.473281;-0.000000;,
 -0.106275;0.473281;-0.000000;,
 0.053138;0.473281;-0.092037;,
 0.106275;0.473281;-0.000000;,
 0.053138;0.473281;0.092037;,
 -0.053137;0.473281;0.092037;,
 -0.053137;0.473281;0.092037;,
 -0.053137;0.473281;0.092037;,
 0.053138;0.473281;0.092037;,
 0.106275;0.473281;-0.000000;,
 0.053138;0.473281;-0.092037;,
 -0.106275;0.473281;-0.000000;,
 -0.053137;0.473281;-0.092037;,
 -0.075434;0.213541;0.130655;,
 0.150868;0.213541;0.000000;,
 0.075434;0.213541;0.130655;,
 0.075434;0.213541;-0.130655;,
 -0.150868;0.213541;0.000000;,
 -0.075434;0.213541;-0.130655;,
 0.115696;0.161975;0.200392;,
 0.115696;0.011921;0.200392;,
 -0.115696;0.161975;0.200392;,
 -0.115696;-0.010107;0.200392;,
 -0.231393;0.161975;0.000000;,
 -0.231393;-0.065567;0.000000;,
 -0.115696;0.161975;-0.200392;,
 -0.115696;-0.088373;-0.200392;,
 0.115696;0.161975;-0.200392;,
 0.115696;-0.057015;-0.200392;,
 0.231393;0.161975;-0.000000;,
 0.231393;-0.002073;0.000000;;

 19;
 4;18,14,7,2;,
 4;31,29,28,30;,
 6;5,4,3,0,1,6;,
 4;29,27,26,28;,
 4;27,25,24,26;,
 4;25,23,22,24;,
 4;23,21,20,22;,
 4;21,31,30,20;,
 4;26,24,18,19;,
 4;28,26,19,17;,
 4;20,30,15,16;,
 4;22,20,16,14;,
 4;24,22,14,18;,
 4;30,28,17,15;,
 4;19,18,12,13;,
 4;17,19,13,11;,
 4;15,17,11,10;,
 4;16,15,10,9;,
 4;14,16,9,8;;

 MeshMaterialList {
  1;
  19;
  0,
  0,
  0,
  0,
  0,
  0,
  0,
  0,
  0,
  0,
  0,
  0,
  0,
  0,
  0,
  0,
  0,
  0,
  0;
Material {
 1.000000;1.000000;1.000000;1.000000;;
 50.000000;
 1.000000;1.000000;1.000000;;
 0.0; 0.0; 0.0;;
 TextureFilename {
  "utl103.ppm";
 }
 }
}
 MeshNormals {
  32;
  -0.413656;0.561743;-0.716473;,
  -0.827312;0.561743;0.000000;,
  -0.827312;0.561743;0.000000;,
  0.413656;0.561743;-0.716473;,
  0.827312;0.561743;-0.000000;,
  0.413656;0.561743;0.716473;,
  -0.413656;0.561743;0.716473;,
  -0.413656;0.561743;0.716473;,
  -0.413656;0.561743;0.716473;,
  0.413656;0.561743;0.716473;,
  0.827312;0.561743;-0.000000;,
  0.413656;0.561743;-0.716473;,
  -0.827312;0.561743;0.000000;,
  -0.413656;0.561743;-0.716473;,
  -0.382162;0.644832;0.661925;,
  0.764325;0.644832;-0.000000;,
  0.382162;0.644832;0.661924;,
  0.382162;0.644832;-0.661924;,
  -0.764325;0.644832;0.000000;,
  -0.382162;0.644832;-0.661925;,
  0.399108;0.602371;0.691276;,
  0.336598;-0.763310;0.551415;,
  -0.399108;0.602371;0.691276;,
  -0.498683;-0.578606;0.645392;,
  -0.798216;0.602371;0.000000;,
  -1.000000;0.000000;0.000000;,
  -0.399108;0.602371;-0.691276;,
  -0.500000;-0.000000;-0.866025;,
  0.399108;0.602371;-0.691276;,
  0.500000;-0.000000;-0.866025;,
  0.798216;0.602371;-0.000000;,
  0.594663;-0.790752;0.145216;;

  19;
  4;18,14,7,2;,
  4;31,29,28,30;,
  6;5,4,3,0,1,6;,
  4;29,27,26,28;,
  4;27,25,24,26;,
  4;25,23,22,24;,
  4;23,21,20,22;,
  4;21,31,30,20;,
  4;26,24,18,19;,
  4;28,26,19,17;,
  4;20,30,15,16;,
  4;22,20,16,14;,
  4;24,22,14,18;,
  4;30,28,17,15;,
  4;19,18,12,13;,
  4;17,19,13,11;,
  4;15,17,11,10;,
  4;16,15,10,9;,
  4;14,16,9,8;;
 }
 MeshTextureCoords { 
 32;
 0.527338;0.668993;,
 0.516103;0.631112;,
 0.210764;0.075122;,
 0.577300;0.679289;,
 0.604309;0.645194;,
 0.591121;0.603407;,
 0.552877;0.591809;,
 0.211731;0.050142;,
 0.211731;0.050142;,
 0.212215;0.037652;,
 0.211731;0.050142;,
 0.210764;0.075122;,
 0.210764;0.075122;,
 0.210280;0.087612;,
 0.127710;0.043738;,
 0.127710;0.043738;,
 0.128397;0.026007;,
 0.126337;0.079200;,
 0.126337;0.079200;,
 0.125651;0.096931;,
 0.112409;0.006848;,
 0.063752;0.006176;,
 0.111356;0.034043;,
 0.055556;0.033272;,
 0.109250;0.088433;,
 0.035467;0.087414;,
 0.108197;0.115628;,
 0.027019;0.114506;,
 0.109250;0.088433;,
 0.038240;0.087452;,
 0.111356;0.034043;,
 0.058162;0.033308;;
 }
}
}
}
Frame frm-trthrust {
  FrameTransformMatrix {
-1.000000,0.000000,-0.000000,0.000000,
0.000000,1.000000,0.000000,0.000000,
0.000000,0.000000,-1.000000,0.000000,
-0.450178,0.612451,2.701031,1.000000;;
 }
Mesh trthrust {
 4;
 -0.010228;-0.003616;0.000000;,
 0.000000;0.010849;0.000000;,
 0.005114;-0.003616;-0.008858;,
 0.005114;-0.003616;0.008858;;

 4;
 3;0,1,2;,
 3;1,0,3;,
 3;2,3,0;,
 3;3,2,1;;

 MeshMaterialList {
  1;
  4;
  0,
  0,
  0,
  0;
Material {
 1.000000;1.000000;1.000000;1.000000;;
 50.000000;
 1.000000;1.000000;1.000000;;
 0.000000;0.000000;0.000000;;
 TextureFilename {
  "utl103.ppm";
 }
 }
}
 MeshNormals {
  4;
  -0.942809;-0.333333;-0.000000;,
  0.000000;1.000000;0.000000;,
  0.471404;-0.333333;-0.816497;,
  0.471404;-0.333333;0.816497;;

  4;
  3;0,1,2;,
  3;1,0,3;,
  3;2,3,0;,
  3;3,2,1;;
 }
 MeshTextureCoords { 
 4;
 0.000000;1.000000;,
 0.000000;1.000000;,
 0.000000;1.000000;,
 0.000000;1.000000;;
 }
}
}
Frame frm-trail {
  FrameTransformMatrix {
1.000000,0.000000,0.000000,0.000000,
0.000000,1.000000,0.000000,0.000000,
0.000000,0.000000,1.000000,0.000000,
-0.000000,0.326374,2.422260,1.000000;;
 }
Mesh trail {
 4;
 -0.010228;-0.003616;-0.000000;,
 0.000000;0.010849;0.000000;,
 0.005114;-0.003616;0.008858;,
 0.005114;-0.003616;-0.008858;;

 4;
 3;2,1,0;,
 3;3,0,1;,
 3;0,3,2;,
 3;1,2,3;;

 MeshMaterialList {
  1;
  4;
  0,
  0,
  0,
  0;
Material {
 1.000000;1.000000;1.000000;1.000000;;
 50.000000;
 1.000000;1.000000;1.000000;;
 0.000000;0.000000;0.000000;;
 TextureFilename {
  "utl103.ppm";
 }
 }
}
 MeshNormals {
  4;
  -0.942809;-0.333333;0.000000;,
  0.000000;1.000000;-0.000000;,
  0.471404;-0.333333;0.816497;,
  0.471404;-0.333333;-0.816497;;

  4;
  3;2,1,0;,
  3;3,0,1;,
  3;0,3,2;,
  3;1,2,3;;
 }
 MeshTextureCoords { 
 4;
 0.000000;1.000000;,
 0.000000;1.000000;,
 0.000000;1.000000;,
 0.000000;1.000000;;
 }
}
}
Frame frm-tlthrust {
  FrameTransformMatrix {
1.000000,0.000000,0.000000,0.000000,
0.000000,1.000000,0.000000,0.000000,
0.000000,0.000000,1.000000,0.000000,
0.450599,0.612258,2.701064,1.000000;;
 }
Mesh tlthrust {
 4;
 -0.010228;-0.003616;-0.000000;,
 0.000000;0.010849;0.000000;,
 0.005114;-0.003616;0.008858;,
 0.005114;-0.003616;-0.008858;;

 4;
 3;2,1,0;,
 3;3,0,1;,
 3;0,3,2;,
 3;1,2,3;;

 MeshMaterialList {
  1;
  4;
  0,
  0,
  0,
  0;
Material {
 1.000000;1.000000;1.000000;1.000000;;
 50.000000;
 1.000000;1.000000;1.000000;;
 0.000000;0.000000;0.000000;;
 TextureFilename {
  "utl103.ppm";
 }
 }
}
 MeshNormals {
  4;
  -0.942809;-0.333333;0.000000;,
  0.000000;1.000000;-0.000000;,
  0.471404;-0.333333;0.816497;,
  0.471404;-0.333333;-0.816497;;

  4;
  3;2,1,0;,
  3;3,0,1;,
  3;0,3,2;,
  3;1,2,3;;
 }
 MeshTextureCoords { 
 4;
 0.000000;1.000000;,
 0.000000;1.000000;,
 0.000000;1.000000;,
 0.000000;1.000000;;
 }
}
}
Frame frm-SS06 {
  FrameTransformMatrix {
1.000000,0.000000,0.000000,0.000000,
0.000000,1.000000,0.000000,0.000000,
0.000000,0.000000,1.000000,0.000000,
-1.056012,0.762874,1.719286,1.000000;;
 }
Mesh SS06 {
 4;
 0.003616;0.010228;-0.000000;,
 -0.010849;-0.000000;-0.000000;,
 0.003616;-0.005114;-0.008858;,
 0.003616;-0.005114;0.008858;;

 4;
 3;2,1,0;,
 3;3,0,1;,
 3;0,3,2;,
 3;1,2,3;;

 MeshMaterialList {
  1;
  4;
  0,
  0,
  0,
  0;
Material {
 0.000000;1.000000;0.000000;1.000000;;
 0.000000;
 0.000000;1.000000;0.000000;;
 0.0; 0.0; 0.0;;
 }
}
 MeshNormals {
  4;
  0.333333;0.942809;-0.000000;,
  -1.000000;-0.000000;0.000000;,
  0.333333;-0.471404;-0.816497;,
  0.333334;-0.471404;0.816497;;

  4;
  3;2,1,0;,
  3;3,0,1;,
  3;0,3,2;,
  3;1,2,3;;
 }
 MeshTextureCoords { 
 4;
 0.000000;0.000000;,
 0.000000;0.000000;,
 0.000000;0.000000;,
 0.000000;0.000000;;
 }
}
}
Frame frm-SS05 {
  FrameTransformMatrix {
-1.000000,0.000000,-0.000000,0.000000,
0.000000,1.000000,0.000000,0.000000,
0.000000,0.000000,-1.000000,0.000000,
1.056012,0.762874,1.719286,1.000000;;
 }
Mesh SS05 {
 4;
 0.003616;0.010228;-0.000000;,
 -0.010849;-0.000000;-0.000000;,
 0.003616;-0.005114;0.008858;,
 0.003616;-0.005114;-0.008858;;

 4;
 3;0,1,2;,
 3;1,0,3;,
 3;2,3,0;,
 3;3,2,1;;

 MeshMaterialList {
  1;
  4;
  0,
  0,
  0,
  0;
Material {
 0.988701;0.005650;0.000000;1.000000;;
 0.000000;
 1.000000;0.000000;0.000000;;
 0.0; 0.0; 0.0;;
 }
}
 MeshNormals {
  4;
  0.333333;0.942809;0.000000;,
  -1.000000;-0.000000;-0.000000;,
  0.333333;-0.471404;0.816497;,
  0.333334;-0.471404;-0.816497;;

  4;
  3;0,1,2;,
  3;1,0,3;,
  3;2,3,0;,
  3;3,2,1;;
 }
 MeshTextureCoords { 
 4;
 0.000000;0.000000;,
 0.000000;0.000000;,
 0.000000;0.000000;,
 0.000000;0.000000;;
 }
}
}
Frame frm-SS04 {
  FrameTransformMatrix {
1.000000,0.000000,0.000000,0.000000,
0.000000,1.000000,0.000000,0.000000,
0.000000,0.000000,1.000000,0.000000,
-0.428176,-0.547960,-1.330184,1.000000;;
 }
Mesh SS04 {
 4;
 0.003616;0.010228;-0.000000;,
 -0.010849;-0.000000;-0.000000;,
 0.003616;-0.005114;-0.008858;,
 0.003616;-0.005114;0.008858;;

 4;
 3;2,1,0;,
 3;3,0,1;,
 3;0,3,2;,
 3;1,2,3;;

 MeshMaterialList {
  1;
  4;
  0,
  0,
  0,
  0;
Material {
 0.000000;1.000000;0.000000;1.000000;;
 0.000000;
 0.000000;1.000000;0.000000;;
 0.0; 0.0; 0.0;;
 }
}
 MeshNormals {
  4;
  0.333333;0.942809;-0.000000;,
  -1.000000;-0.000000;0.000000;,
  0.333333;-0.471404;-0.816497;,
  0.333334;-0.471404;0.816497;;

  4;
  3;2,1,0;,
  3;3,0,1;,
  3;0,3,2;,
  3;1,2,3;;
 }
 MeshTextureCoords { 
 4;
 0.000000;0.000000;,
 0.000000;0.000000;,
 0.000000;0.000000;,
 0.000000;0.000000;;
 }
}
}
Frame frm-SS03 {
  FrameTransformMatrix {
-1.000000,0.000000,-0.000000,0.000000,
0.000000,1.000000,0.000000,0.000000,
0.000000,0.000000,-1.000000,0.000000,
0.428176,-0.547960,-1.330184,1.000000;;
 }
Mesh SS03 {
 4;
 0.003616;0.010228;-0.000000;,
 -0.010849;-0.000000;-0.000000;,
 0.003616;-0.005114;0.008858;,
 0.003616;-0.005114;-0.008858;;

 4;
 3;0,1,2;,
 3;1,0,3;,
 3;2,3,0;,
 3;3,2,1;;

 MeshMaterialList {
  1;
  4;
  0,
  0,
  0,
  0;
Material {
 0.988701;0.005650;0.000000;1.000000;;
 0.000000;
 1.000000;0.000000;0.000000;;
 0.0; 0.0; 0.0;;
 }
}
 MeshNormals {
  4;
  0.333333;0.942809;0.000000;,
  -1.000000;-0.000000;-0.000000;,
  0.333333;-0.471404;0.816497;,
  0.333334;-0.471404;-0.816497;;

  4;
  3;0,1,2;,
  3;1,0,3;,
  3;2,3,0;,
  3;3,2,1;;
 }
 MeshTextureCoords { 
 4;
 0.000000;0.000000;,
 0.000000;0.000000;,
 0.000000;0.000000;,
 0.000000;0.000000;;
 }
}
}
Frame frm-SS02 {
  FrameTransformMatrix {
1.000000,0.000000,0.000000,0.000000,
0.000000,1.000000,0.000000,0.000000,
0.000000,0.000000,1.000000,0.000000,
-1.954200,1.307942,3.625125,1.000000;;
 }
Mesh SS02 {
 4;
 0.003616;0.010228;-0.000000;,
 -0.010849;-0.000000;-0.000000;,
 0.003616;-0.005114;-0.008858;,
 0.003616;-0.005114;0.008858;;

 4;
 3;2,1,0;,
 3;3,0,1;,
 3;0,3,2;,
 3;1,2,3;;

 MeshMaterialList {
  1;
  4;
  0,
  0,
  0,
  0;
Material {
 0.000000;1.000000;0.000000;1.000000;;
 0.000000;
 0.000000;1.000000;0.000000;;
 0.0; 0.0; 0.0;;
 }
}
 MeshNormals {
  4;
  0.333333;0.942809;-0.000000;,
  -1.000000;-0.000000;0.000000;,
  0.333333;-0.471404;-0.816497;,
  0.333334;-0.471404;0.816497;;

  4;
  3;2,1,0;,
  3;3,0,1;,
  3;0,3,2;,
  3;1,2,3;;
 }
 MeshTextureCoords { 
 4;
 0.000000;0.000000;,
 0.000000;0.000000;,
 0.000000;0.000000;,
 0.000000;0.000000;;
 }
}
}
Frame frm-SS01 {
  FrameTransformMatrix {
1.000000,0.000000,0.000000,0.000000,
0.000000,1.000000,0.000000,0.000000,
0.000000,0.000000,1.000000,0.000000,
1.954200,1.307942,3.625125,1.000000;;
 }
Mesh SS01 {
 4;
 0.007050;-0.008246;0.000000;,
 0.005424;0.009395;0.000000;,
 -0.006237;-0.000575;-0.008858;,
 -0.006237;-0.000575;0.008858;;

 4;
 3;2,1,0;,
 3;3,0,1;,
 3;0,3,2;,
 3;1,2,3;;

 MeshMaterialList {
  1;
  4;
  0,
  0,
  0,
  0;
Material {
 0.988701;0.005650;0.000000;1.000000;;
 0.000000;
 1.000000;0.000000;0.000000;;
 0.0; 0.0; 0.0;;
 }
}
 MeshNormals {
  4;
  0.649830;-0.760080;-0.000000;,
  0.500000;0.866026;0.000000;,
  -0.574915;-0.052973;-0.816497;,
  -0.574915;-0.052973;0.816497;;

  4;
  3;2,1,0;,
  3;3,0,1;,
  3;0,3,2;,
  3;1,2,3;;
 }
 MeshTextureCoords { 
 4;
 0.000000;0.000000;,
 0.000000;0.000000;,
 0.000000;0.000000;,
 0.000000;0.000000;;
 }
}
}
Frame frm-rwepemt {
  FrameTransformMatrix {
1.000000,0.000000,0.000000,0.000000,
0.000000,1.000000,0.000000,0.000000,
0.000000,0.000000,1.000000,0.000000,
-0.036600,-0.605045,-2.543755,1.000000;;
 }
Mesh rwepemt {
 4;
 -0.010228;-0.003616;-0.000000;,
 0.000000;0.010849;0.000000;,
 0.005114;-0.003616;0.008858;,
 0.005114;-0.003616;-0.008858;;

 4;
 3;2,1,0;,
 3;3,0,1;,
 3;0,3,2;,
 3;1,2,3;;

 MeshMaterialList {
  1;
  4;
  0,
  0,
  0,
  0;
Material {
 1.000000;1.000000;1.000000;1.000000;;
 50.000000;
 1.000000;1.000000;1.000000;;
 0.000000;0.000000;0.000000;;
 TextureFilename {
  "utl103.ppm";
 }
 }
}
 MeshNormals {
  4;
  -0.942809;-0.333333;0.000000;,
  0.000000;1.000000;-0.000000;,
  0.471404;-0.333333;0.816497;,
  0.471404;-0.333333;-0.816497;;

  4;
  3;2,1,0;,
  3;3,0,1;,
  3;0,3,2;,
  3;1,2,3;;
 }
 MeshTextureCoords { 
 4;
 0.000000;1.000000;,
 0.000000;1.000000;,
 0.000000;1.000000;,
 0.000000;1.000000;;
 }
}
}
Frame frm-rsmoke {
  FrameTransformMatrix {
-1.000000,0.000000,-0.000000,0.000000,
0.000000,1.000000,0.000000,0.000000,
0.000000,0.000000,-1.000000,0.000000,
-0.450178,0.612451,2.701031,1.000000;;
 }
Mesh rsmoke {
 4;
 -0.010228;-0.003616;0.000000;,
 0.000000;0.010849;0.000000;,
 0.005114;-0.003616;-0.008858;,
 0.005114;-0.003616;0.008858;;

 4;
 3;0,1,2;,
 3;1,0,3;,
 3;2,3,0;,
 3;3,2,1;;

 MeshMaterialList {
  1;
  4;
  0,
  0,
  0,
  0;
Material {
 1.000000;1.000000;1.000000;1.000000;;
 50.000000;
 1.000000;1.000000;1.000000;;
 0.000000;0.000000;0.000000;;
 TextureFilename {
  "utl103.ppm";
 }
 }
}
 MeshNormals {
  4;
  -0.942809;-0.333333;-0.000000;,
  0.000000;1.000000;0.000000;,
  0.471404;-0.333333;-0.816497;,
  0.471404;-0.333333;0.816497;;

  4;
  3;0,1,2;,
  3;1,0,3;,
  3;2,3,0;,
  3;3,2,1;;
 }
 MeshTextureCoords { 
 4;
 0.000000;1.000000;,
 0.000000;1.000000;,
 0.000000;1.000000;,
 0.000000;1.000000;;
 }
}
}
Frame frm-missemt {
  FrameTransformMatrix {
1.000000,0.000000,0.000000,0.000000,
0.000000,1.000000,0.000000,0.000000,
0.000000,0.000000,1.000000,0.000000,
0.000000,-0.660617,-2.357243,1.000000;;
 }
Mesh missemt {
 4;
 -0.010228;-0.003616;-0.000000;,
 0.000000;0.010849;0.000000;,
 0.005114;-0.003616;0.008858;,
 0.005114;-0.003616;-0.008858;;

 4;
 3;2,1,0;,
 3;3,0,1;,
 3;0,3,2;,
 3;1,2,3;;

 MeshMaterialList {
  1;
  4;
  0,
  0,
  0,
  0;
Material {
 1.000000;1.000000;1.000000;1.000000;;
 50.000000;
 1.000000;1.000000;1.000000;;
 0.000000;0.000000;0.000000;;
 TextureFilename {
  "utl103.ppm";
 }
 }
}
 MeshNormals {
  4;
  -0.942809;-0.333333;0.000000;,
  0.000000;1.000000;-0.000000;,
  0.471404;-0.333333;0.816497;,
  0.471404;-0.333333;-0.816497;;

  4;
  3;2,1,0;,
  3;3,0,1;,
  3;0,3,2;,
  3;1,2,3;;
 }
 MeshTextureCoords { 
 4;
 0.000000;1.000000;,
 0.000000;1.000000;,
 0.000000;1.000000;,
 0.000000;1.000000;;
 }
}
}
Frame frm-lwepemt {
  FrameTransformMatrix {
1.000000,0.000000,0.000000,0.000000,
0.000000,1.000000,0.000000,0.000000,
0.000000,0.000000,1.000000,0.000000,
0.036623,-0.605045,-2.543755,1.000000;;
 }
Mesh lwepemt {
 4;
 -0.010228;-0.003616;-0.000000;,
 0.000000;0.010849;0.000000;,
 0.005114;-0.003616;0.008858;,
 0.005114;-0.003616;-0.008858;;

 4;
 3;2,1,0;,
 3;3,0,1;,
 3;0,3,2;,
 3;1,2,3;;

 MeshMaterialList {
  1;
  4;
  0,
  0,
  0,
  0;
Material {
 1.000000;1.000000;1.000000;1.000000;;
 50.000000;
 1.000000;1.000000;1.000000;;
 0.000000;0.000000;0.000000;;
 TextureFilename {
  "utl103.ppm";
 }
 }
}
 MeshNormals {
  4;
  -0.942809;-0.333333;0.000000;,
  0.000000;1.000000;-0.000000;,
  0.471404;-0.333333;0.816497;,
  0.471404;-0.333333;-0.816497;;

  4;
  3;2,1,0;,
  3;3,0,1;,
  3;0,3,2;,
  3;1,2,3;;
 }
 MeshTextureCoords { 
 4;
 0.000000;1.000000;,
 0.000000;1.000000;,
 0.000000;1.000000;,
 0.000000;1.000000;;
 }
}
}
Frame frm-lsmoke {
  FrameTransformMatrix {
1.000000,0.000000,0.000000,0.000000,
0.000000,1.000000,0.000000,0.000000,
0.000000,0.000000,1.000000,0.000000,
0.450599,0.612258,2.701064,1.000000;;
 }
Mesh lsmoke {
 4;
 -0.010228;-0.003616;-0.000000;,
 0.000000;0.010849;0.000000;,
 0.005114;-0.003616;0.008858;,
 0.005114;-0.003616;-0.008858;;

 4;
 3;2,1,0;,
 3;3,0,1;,
 3;0,3,2;,
 3;1,2,3;;

 MeshMaterialList {
  1;
  4;
  0,
  0,
  0,
  0;
Material {
 1.000000;1.000000;1.000000;1.000000;;
 50.000000;
 1.000000;1.000000;1.000000;;
 0.000000;0.000000;0.000000;;
 TextureFilename {
  "utl103.ppm";
 }
 }
}
 MeshNormals {
  4;
  -0.942809;-0.333333;0.000000;,
  0.000000;1.000000;-0.000000;,
  0.471404;-0.333333;0.816497;,
  0.471404;-0.333333;-0.816497;;

  4;
  3;2,1,0;,
  3;3,0,1;,
  3;0,3,2;,
  3;1,2,3;;
 }
 MeshTextureCoords { 
 4;
 0.000000;1.000000;,
 0.000000;1.000000;,
 0.000000;1.000000;,
 0.000000;1.000000;;
 }
}
}
Frame frm-cockpt {
  FrameTransformMatrix {
1.000000,0.000000,0.000000,0.000000,
0.000000,1.000000,0.000000,0.000000,
0.000000,0.000000,1.000000,0.000000,
-0.000000,-0.180044,-1.885573,1.000000;;
 }
Mesh cockpt {
 4;
 -0.010228;-0.003616;-0.000000;,
 0.000000;0.010849;0.000000;,
 0.005114;-0.003616;0.008858;,
 0.005114;-0.003616;-0.008858;;

 4;
 3;2,1,0;,
 3;3,0,1;,
 3;0,3,2;,
 3;1,2,3;;

 MeshMaterialList {
  1;
  4;
  0,
  0,
  0,
  0;
Material {
 1.000000;1.000000;1.000000;1.000000;;
 50.000000;
 1.000000;1.000000;1.000000;;
 0.000000;0.000000;0.000000;;
 TextureFilename {
  "utl103.ppm";
 }
 }
}
 MeshNormals {
  4;
  -0.942809;-0.333333;0.000000;,
  0.000000;1.000000;-0.000000;,
  0.471404;-0.333333;0.816497;,
  0.471404;-0.333333;-0.816497;;

  4;
  3;2,1,0;,
  3;3,0,1;,
  3;0,3,2;,
  3;1,2,3;;
 }
 MeshTextureCoords { 
 4;
 0.000000;1.000000;,
 0.000000;1.000000;,
 0.000000;1.000000;,
 0.000000;1.000000;;
 }
}
}
Frame frm-brthrust {
  FrameTransformMatrix {
-1.000000,0.000000,-0.000000,0.000000,
0.000000,1.000000,0.000000,0.000000,
0.000000,0.000000,-1.000000,0.000000,
-0.462200,-0.317524,2.331656,1.000000;;
 }
Mesh brthrust {
 4;
 -0.010228;-0.003616;-0.000000;,
 0.000000;0.010849;-0.000000;,
 0.005114;-0.003616;-0.008858;,
 0.005114;-0.003616;0.008858;;

 4;
 3;0,1,2;,
 3;1,0,3;,
 3;2,3,0;,
 3;3,2,1;;

 MeshMaterialList {
  1;
  4;
  0,
  0,
  0,
  0;
Material {
 1.000000;1.000000;1.000000;1.000000;;
 50.000000;
 1.000000;1.000000;1.000000;;
 0.000000;0.000000;0.000000;;
 TextureFilename {
  "utl103.ppm";
 }
 }
}
 MeshNormals {
  4;
  -0.942809;-0.333333;-0.000000;,
  0.000000;1.000000;0.000000;,
  0.471404;-0.333333;-0.816497;,
  0.471404;-0.333333;0.816497;;

  4;
  3;0,1,2;,
  3;1,0,3;,
  3;2,3,0;,
  3;3,2,1;;
 }
 MeshTextureCoords { 
 4;
 0.000000;1.000000;,
 0.000000;1.000000;,
 0.000000;1.000000;,
 0.000000;1.000000;;
 }
}
}
Frame frm-blthrust {
  FrameTransformMatrix {
1.000000,0.000000,0.000000,0.000000,
0.000000,1.000000,0.000000,0.000000,
0.000000,0.000000,1.000000,0.000000,
0.462192,-0.317524,2.331656,1.000000;;
 }
Mesh blthrust {
 4;
 -0.010228;-0.003616;-0.000000;,
 0.000000;0.010849;0.000000;,
 0.005114;-0.003616;0.008858;,
 0.005114;-0.003616;-0.008858;;

 4;
 3;2,1,0;,
 3;3,0,1;,
 3;0,3,2;,
 3;1,2,3;;

 MeshMaterialList {
  1;
  4;
  0,
  0,
  0,
  0;
Material {
 1.000000;1.000000;1.000000;1.000000;;
 50.000000;
 1.000000;1.000000;1.000000;;
 0.000000;0.000000;0.000000;;
 TextureFilename {
  "utl103.ppm";
 }
 }
}
 MeshNormals {
  4;
  -0.942809;-0.333333;0.000000;,
  0.000000;1.000000;-0.000000;,
  0.471404;-0.333333;0.816497;,
  0.471404;-0.333333;-0.816497;;

  4;
  3;2,1,0;,
  3;3,0,1;,
  3;0,3,2;,
  3;1,2,3;;
 }
 MeshTextureCoords { 
 4;
 0.000000;1.000000;,
 0.000000;1.000000;,
 0.000000;1.000000;,
 0.000000;1.000000;;
 }
}
}
Frame frm-rt-wing3 {
  FrameTransformMatrix {
-0.879662,-0.475600,-0.000000,0.000000,
-0.475600,0.879662,0.000000,0.000000,
0.000000,0.000000,-1.000000,0.000000,
-1.061732,-0.103314,-0.160095,1.000000;;
 }
Mesh rt-wing3 {
 20;
 -0.214397;-0.633005;-1.046910;,
 0.109876;1.663551;-3.787178;,
 -0.214989;-0.238946;-1.034888;,
 -0.091186;-0.301330;-1.098284;,
 -0.031915;0.395723;-1.634553;,
 -0.126228;0.396530;-1.504237;,
 -0.204291;-0.703386;-1.252166;,
 -0.080939;-0.646974;-1.259720;,
 -0.178548;-0.437491;-1.775014;,
 -0.052549;-0.366324;-1.707029;,
 -0.198387;-0.767964;-1.372074;,
 -0.074288;-0.703341;-1.364520;,
 -0.371595;-0.587434;-1.033556;,
 -0.299005;-0.552136;-1.334335;,
 -0.515514;-0.380639;-1.315663;,
 -0.437353;-0.409637;-1.128008;,
 0.121477;1.214475;-3.623638;,
 0.059165;-0.066520;-2.452191;,
 0.085012;1.235915;-3.718530;,
 -0.030320;-0.084780;-2.555710;;

 24;
 3;6,8,10;,
 3;1,5,4;,
 4;9,11,10,8;,
 4;5,2,3,4;,
 4;0,2,15,12;,
 4;8,19,17,9;,
 4;19,18,16,17;,
 3;18,1,16;,
 4;14,13,12,15;,
 3;3,0,7;,
 3;7,0,6;,
 3;14,15,2;,
 3;9,7,11;,
 4;17,16,1,4;,
 4;19,8,2,5;,
 4;5,1,18,19;,
 3;2,8,14;,
 4;8,6,13,14;,
 4;6,0,12,13;,
 3;2,0,3;,
 4;7,6,10,11;,
 3;9,17,4;,
 3;3,7,9;,
 3;9,4,3;;

 MeshMaterialList {
  1;
  24;
  0,
  0,
  0,
  0,
  0,
  0,
  0,
  0,
  0,
  0,
  0,
  0,
  0,
  0,
  0,
  0,
  0,
  0,
  0,
  0,
  0,
  0,
  0,
  0;
Material {
 1.000000;1.000000;1.000000;1.000000;;
 50.000000;
 1.000000;1.000000;1.000000;;
 0.0; 0.0; 0.0;;
 TextureFilename {
  "utl103.ppm";
 }
 }
}
 MeshNormals {
  20;
  0.293553;-0.495753;0.817346;,
  0.937017;0.346823;0.041385;,
  -0.189466;0.635699;0.748325;,
  0.872142;0.029335;0.488373;,
  0.928317;0.226148;0.295103;,
  -0.422985;0.731266;0.535101;,
  -0.449247;-0.889700;0.081315;,
  0.836705;-0.433999;0.334019;,
  -0.688336;-0.426725;-0.586600;,
  0.952986;-0.289076;-0.090846;,
  0.039862;-0.995512;-0.085831;,
  0.794511;-0.607203;-0.007598;,
  -0.717308;-0.586540;0.376085;,
  -0.681184;-0.714751;-0.158491;,
  -0.979584;0.168285;-0.109976;,
  -0.774270;0.096813;0.625407;,
  0.942837;-0.194855;-0.270351;,
  0.921484;-0.361546;-0.141954;,
  0.526280;-0.443038;-0.725773;,
  -0.406316;-0.717460;-0.565825;;

  24;
  3;6,8,10;,
  3;1,5,4;,
  4;9,11,10,8;,
  4;5,2,3,4;,
  4;0,2,15,12;,
  4;8,19,17,9;,
  4;19,18,16,17;,
  3;18,1,16;,
  4;14,13,12,15;,
  3;3,0,7;,
  3;7,0,6;,
  3;14,15,2;,
  3;9,7,11;,
  4;17,16,1,4;,
  4;19,8,2,5;,
  4;5,1,18,19;,
  3;2,8,14;,
  4;8,6,13,14;,
  4;6,0,12,13;,
  3;2,0,3;,
  4;7,6,10,11;,
  3;9,17,4;,
  3;3,7,9;,
  3;9,4,3;;
 }
 MeshTextureCoords { 
 20;
 0.053970;0.726715;,
 0.703722;0.341622;,
 0.063793;0.634431;,
 0.079983;0.652953;,
 0.236383;0.513662;,
 0.204027;0.503986;,
 0.088132;0.732905;,
 0.098029;0.722501;,
 0.226017;0.692654;,
 0.219935;0.685083;,
 0.125075;0.756970;,
 0.126529;0.756083;,
 0.050562;0.704339;,
 0.100629;0.701795;,
 0.105664;0.658870;,
 0.056700;0.696077;,
 0.667229;0.418384;,
 0.400526;0.643311;,
 0.676414;0.416671;,
 0.409589;0.646491;;
 }
}
}
Frame frm-canopy_1_1_1 {
  FrameTransformMatrix {
0.869591,0.000000,0.000000,0.000000,
0.000000,0.869591,0.000000,0.000000,
0.000000,0.000000,0.869591,0.000000,
0.000000,-0.260059,-2.023779,1.000000;;
 }
Mesh canopy_1_1_1 {
 56;
 -0.095534;-0.132275;-1.071978;,
 -0.095534;-0.132275;-1.071978;,
 -0.095534;-0.132275;-1.071978;,
 0.095534;-0.132275;-1.071978;,
 -0.167760;0.207849;-0.431985;,
 -0.167760;0.207849;-0.431985;,
 0.167760;0.207849;-0.431985;,
 -0.094037;0.010187;-0.780074;,
 0.094036;0.010187;-0.780074;,
 0.094036;0.010187;-0.780074;,
 0.094036;0.010187;-0.780074;,
 0.094036;0.010187;-0.780074;,
 0.258277;0.399938;0.370791;,
 0.258277;0.399938;0.370791;,
 0.258277;0.399938;0.370791;,
 0.258277;0.399938;0.370791;,
 -0.000000;-0.260967;0.608947;,
 -0.000000;0.367367;0.819979;,
 0.782745;-0.349598;0.615063;,
 -0.782748;-0.349599;0.615063;,
 -0.705837;-0.436369;0.618696;,
 -0.713923;-0.410066;0.625465;,
 0.705835;-0.436368;0.618697;,
 0.713919;-0.410065;0.625465;,
 0.391730;0.191315;0.732204;,
 -0.438385;-0.075191;0.624968;,
 -0.391731;0.191315;0.732204;,
 0.438385;-0.075191;0.624968;,
 -0.408572;-0.195258;-0.232529;,
 -0.669196;-0.145917;0.511959;,
 0.408569;-0.195258;-0.232529;,
 0.669193;-0.145917;0.511958;,
 0.258277;0.399938;0.370791;,
 -0.258277;0.399938;0.370791;,
 0.198119;-0.395159;0.159704;,
 -0.198119;-0.395159;0.159704;,
 -0.303490;-0.298795;0.053866;,
 0.303489;-0.298795;0.053866;,
 -0.703959;0.010220;0.677844;,
 0.703958;0.010220;0.677844;,
 0.507969;0.222503;0.400013;,
 -0.507969;0.222503;0.400013;,
 0.094036;0.010187;-0.780074;,
 -0.094037;0.010187;-0.780074;,
 0.167760;0.207849;-0.431985;,
 -0.167760;0.207849;-0.431985;,
 0.048394;-0.212219;-1.192842;,
 -0.048394;-0.212219;-1.192842;,
 0.224015;-0.192083;-0.900720;,
 0.233120;0.061897;-0.376637;,
 -0.233120;0.061897;-0.376637;,
 -0.224015;-0.192083;-0.900720;,
 0.056910;-0.320660;-1.002900;,
 -0.056910;-0.320660;-1.002900;,
 0.095534;-0.132275;-1.071978;,
 -0.095534;-0.132275;-1.071978;;

 52;
 3;40,24,27;,
 4;15,6,5,33;,
 4;7,4,44,11;,
 3;41,38,25;,
 3;50,43,51;,
 3;48,10,49;,
 4;17,24,40,14;,
 3;51,47,36;,
 4;26,17,33,41;,
 3;25,38,36;,
 3;44,13,49;,
 3;33,45,50;,
 4;21,19,29,28;,
 3;2,51,43;,
 3;44,49,9;,
 3;27,39,40;,
 3;16,34,37;,
 3;25,26,41;,
 4;18,23,30,31;,
 3;16,35,34;,
 3;17,12,33;,
 3;16,36,35;,
 4;8,3,1,43;,
 3;48,54,42;,
 3;27,16,37;,
 3;47,51,0;,
 3;46,54,48;,
 3;37,39,27;,
 3;36,16,25;,
 4;20,21,28,36;,
 3;36,38,29;,
 4;28,29,38,51;,
 4;47,46,52,53;,
 4;46,47,55,54;,
 4;23,22,37,30;,
 3;50,45,43;,
 3;18,22,23;,
 3;33,50,41;,
 4;39,48,49,40;,
 3;37,48,30;,
 3;20,19,21;,
 4;41,50,51,38;,
 3;37,46,48;,
 4;31,30,48,39;,
 4;34,52,46,37;,
 4;36,47,53,35;,
 4;35,53,52,34;,
 3;31,39,37;,
 3;28,51,36;,
 4;19,20,36,29;,
 3;40,49,32;,
 4;22,18,31,37;;

 MeshMaterialList {
  1;
  52;
  0,
  0,
  0,
  0,
  0,
  0,
  0,
  0,
  0,
  0,
  0,
  0,
  0,
  0,
  0,
  0,
  0,
  0,
  0,
  0,
  0,
  0,
  0,
  0,
  0,
  0,
  0,
  0,
  0,
  0,
  0,
  0,
  0,
  0,
  0,
  0,
  0,
  0,
  0,
  0,
  0,
  0,
  0,
  0,
  0,
  0,
  0,
  0,
  0,
  0,
  0,
  0;
Material {
 1.000000;1.000000;1.000000;1.000000;;
 50.000000;
 1.000000;1.000000;1.000000;;
 0.0; 0.0; 0.0;;
 TextureFilename {
  "utl103.ppm";
 }
 }
}
 MeshNormals {
  56;
  -0.427036;0.748107;-0.507913;,
  -0.427036;0.748107;-0.507913;,
  -0.427036;0.748107;-0.507913;,
  0.427036;0.748107;-0.507913;,
  -0.548935;0.744251;-0.380474;,
  -0.548935;0.744251;-0.380474;,
  0.548935;0.744251;-0.380474;,
  -0.515530;0.742905;-0.426990;,
  0.515530;0.742905;-0.426990;,
  0.515530;0.742905;-0.426990;,
  0.515530;0.742905;-0.426990;,
  0.515530;0.742905;-0.426990;,
  0.451205;0.887645;-0.092199;,
  0.451205;0.887645;-0.092199;,
  0.451205;0.887645;-0.092199;,
  0.451205;0.887645;-0.092199;,
  0.000000;-0.893029;0.450000;,
  0.000000;0.969546;0.244909;,
  -0.329130;0.589404;-0.737751;,
  0.329196;0.589484;-0.737658;,
  0.818885;-0.363054;-0.444544;,
  -0.385285;-0.323056;-0.864402;,
  -0.818830;-0.363111;-0.444599;,
  0.385299;-0.323078;-0.864387;,
  0.801402;0.481400;0.354978;,
  -0.518521;-0.502659;0.691715;,
  -0.801402;0.481400;0.354978;,
  0.518521;-0.502659;0.691715;,
  -0.760438;-0.547535;-0.349199;,
  -0.498378;-0.517725;0.695400;,
  0.760437;-0.547537;-0.349196;,
  0.498368;-0.517744;0.695393;,
  0.451205;0.887645;-0.092199;,
  -0.451205;0.887645;-0.092199;,
  0.468313;-0.870051;0.153928;,
  -0.468312;-0.870052;0.153928;,
  -0.297991;-0.923811;0.240364;,
  0.297993;-0.923810;0.240364;,
  -0.669295;-0.340840;0.660207;,
  0.669292;-0.340850;0.660205;,
  0.680083;0.716926;0.153314;,
  -0.680083;0.716926;0.153314;,
  0.515530;0.742905;-0.426990;,
  -0.515530;0.742905;-0.426990;,
  0.548935;0.744251;-0.380474;,
  -0.548935;0.744251;-0.380474;,
  0.652789;-0.407750;-0.638440;,
  -0.652789;-0.407750;-0.638441;,
  0.918949;0.041511;-0.392185;,
  0.798433;0.512173;-0.316518;,
  -0.798433;0.512173;-0.316518;,
  -0.918949;0.041514;-0.392186;,
  0.287587;-0.918857;-0.270176;,
  -0.287587;-0.918857;-0.270176;,
  0.427036;0.748107;-0.507913;,
  -0.427036;0.748107;-0.507913;;

  52;
  3;40,24,27;,
  4;15,6,5,33;,
  4;7,4,44,11;,
  3;41,38,25;,
  3;50,43,51;,
  3;48,10,49;,
  4;17,24,40,14;,
  3;51,47,36;,
  4;26,17,33,41;,
  3;25,38,36;,
  3;44,13,49;,
  3;33,45,50;,
  4;21,19,29,28;,
  3;2,51,43;,
  3;44,49,9;,
  3;27,39,40;,
  3;16,34,37;,
  3;25,26,41;,
  4;18,23,30,31;,
  3;16,35,34;,
  3;17,12,33;,
  3;16,36,35;,
  4;8,3,1,43;,
  3;48,54,42;,
  3;27,16,37;,
  3;47,51,0;,
  3;46,54,48;,
  3;37,39,27;,
  3;36,16,25;,
  4;20,21,28,36;,
  3;36,38,29;,
  4;28,29,38,51;,
  4;47,46,52,53;,
  4;46,47,55,54;,
  4;23,22,37,30;,
  3;50,45,43;,
  3;18,22,23;,
  3;33,50,41;,
  4;39,48,49,40;,
  3;37,48,30;,
  3;20,19,21;,
  4;41,50,51,38;,
  3;37,46,48;,
  4;31,30,48,39;,
  4;34,52,46,37;,
  4;36,47,53,35;,
  4;35,53,52,34;,
  3;31,39,37;,
  3;28,51,36;,
  4;19,20,36,29;,
  3;40,49,32;,
  4;22,18,31,37;;
 }
 MeshTextureCoords { 
 56;
 0.682329;0.750881;,
 0.682329;0.750881;,
 0.682329;0.750881;,
 0.679887;0.748439;,
 0.786561;0.692750;,
 0.790468;0.694214;,
 0.786561;0.692750;,
 0.728319;0.724704;,
 0.728319;0.724704;,
 0.729296;0.727634;,
 0.729296;0.727634;,
 0.729296;0.727634;,
 0.919267;0.662374;,
 0.919267;0.665629;,
 0.919267;0.665629;,
 0.919267;0.662374;,
 0.989281;0.769880;,
 0.993795;0.668452;,
 0.990296;0.784646;,
 0.990296;0.784647;,
 0.990898;0.799103;,
 0.961522;0.794721;,
 0.990898;0.799103;,
 0.961522;0.794721;,
 0.992904;0.694528;,
 0.991939;0.738929;,
 0.992904;0.694528;,
 0.991939;0.738929;,
 0.819166;0.758933;,
 0.942689;0.750712;,
 0.819166;0.758933;,
 0.942689;0.750712;,
 0.919267;0.665629;,
 0.919267;0.665629;,
 0.884244;0.792237;,
 0.884244;0.792237;,
 0.866684;0.776182;,
 0.866684;0.776182;,
 0.970212;0.724699;,
 0.970212;0.724699;,
 0.924115;0.689332;,
 0.924115;0.689332;,
 0.729296;0.727634;,
 0.729296;0.727634;,
 0.790468;0.694214;,
 0.790468;0.694214;,
 0.659834;0.761758;,
 0.659834;0.761758;,
 0.708302;0.758404;,
 0.795256;0.716089;,
 0.795256;0.716089;,
 0.708302;0.758404;,
 0.691349;0.779825;,
 0.691349;0.779825;,
 0.682329;0.750881;,
 0.679887;0.748439;;
 }
}
Frame frm-extru2_1 {
  FrameTransformMatrix {
0.687758,0.000000,0.000000,0.000000,
0.000000,0.149312,-0.671355,0.000000,
0.000000,0.671355,0.149312,0.000000,
0.000000,0.411337,-0.358827,1.000000;;
 }
Mesh extru2_1 {
 32;
 -0.392253;0.917707;0.181791;,
 -0.392253;0.917707;0.181791;,
 0.392253;0.917707;0.181791;,
 0.392253;0.917707;0.181791;,
 0.392253;0.917707;0.181791;,
 -0.427539;0.959211;0.097636;,
 -0.427539;0.959211;0.097636;,
 0.427539;0.959211;0.097636;,
 0.427539;0.959211;0.097636;,
 0.000000;0.116736;0.152474;,
 0.000000;0.111522;0.201786;,
 0.000000;0.111522;0.201786;,
 0.000000;0.111522;0.201786;,
 -0.107312;1.798409;0.027272;,
 -0.107312;1.798409;0.027272;,
 -0.513107;0.767173;0.362327;,
 0.513106;0.767173;0.362327;,
 0.107312;1.798409;0.027272;,
 0.204740;0.238280;0.184521;,
 -0.204740;0.238280;0.184521;,
 0.107312;1.798409;0.027272;,
 0.513106;0.767173;0.362327;,
 -0.513107;0.767173;0.362327;,
 -0.107312;1.798409;0.027272;,
 0.000000;0.111522;0.201786;,
 0.000000;0.116736;0.152474;,
 0.000000;1.784578;0.002728;,
 0.000000;1.784578;-0.026729;,
 0.427539;0.959211;0.097636;,
 -0.427539;0.959211;0.097636;,
 0.392253;0.917707;0.181791;,
 -0.392253;0.917707;0.181791;;

 20;
 3;27,14,26;,
 3;6,1,13;,
 3;5,15,0;,
 4;31,19,12,26;,
 3;9,18,11;,
 4;26,10,18,4;,
 3;8,3,16;,
 3;7,17,2;,
 3;31,22,19;,
 3;28,21,18;,
 3;24,19,25;,
 3;26,20,27;,
 3;19,22,29;,
 3;18,21,30;,
 3;30,20,26;,
 3;27,20,28;,
 3;29,23,27;,
 3;26,23,31;,
 4;28,18,25,27;,
 4;27,25,19,29;;

 MeshMaterialList {
  1;
  20;
  0,
  0,
  0,
  0,
  0,
  0,
  0,
  0,
  0,
  0,
  0,
  0,
  0,
  0,
  0,
  0,
  0,
  0,
  0,
  0;
Material {
 1.000000;1.000000;1.000000;1.000000;;
 50.000000;
 1.000000;1.000000;1.000000;;
 0.0; 0.0; 0.0;;
 TextureFilename {
  "utl103.ppm";
 }
 }
}
 MeshNormals {
  32;
  0.009038;0.398447;0.917147;,
  0.009038;0.398447;0.917147;,
  -0.009038;0.398447;0.917147;,
  -0.009038;0.398447;0.917147;,
  -0.009038;0.398447;0.917147;,
  -0.832930;0.280469;-0.477037;,
  -0.832930;0.280469;-0.477037;,
  0.832931;0.280469;-0.477036;,
  0.832931;0.280469;-0.477036;,
  0.000000;-0.667748;-0.744387;,
  0.000000;-0.639402;0.768873;,
  0.000000;-0.639402;0.768873;,
  0.000000;-0.639402;0.768873;,
  -0.471131;0.825017;0.312062;,
  -0.471131;0.825017;0.312062;,
  -0.330593;0.683144;0.651171;,
  0.330592;0.683143;0.651172;,
  0.471131;0.825017;0.312063;,
  0.523058;-0.852272;0.006550;,
  -0.523058;-0.852272;0.006549;,
  0.471131;0.825017;0.312063;,
  0.330592;0.683143;0.651172;,
  -0.330593;0.683144;0.651171;,
  -0.471131;0.825017;0.312062;,
  0.000000;-0.639402;0.768873;,
  0.000000;-0.667748;-0.744387;,
  -0.000000;0.514453;0.857519;,
  0.000000;0.436510;-0.899700;,
  0.832931;0.280469;-0.477036;,
  -0.832930;0.280469;-0.477037;,
  -0.009038;0.398447;0.917147;,
  0.009038;0.398447;0.917147;;

  20;
  3;27,14,26;,
  3;6,1,13;,
  3;5,15,0;,
  4;31,19,12,26;,
  3;9,18,11;,
  4;26,10,18,4;,
  3;8,3,16;,
  3;7,17,2;,
  3;31,22,19;,
  3;28,21,18;,
  3;24,19,25;,
  3;26,20,27;,
  3;19,22,29;,
  3;18,21,30;,
  3;30,20,26;,
  3;27,20,28;,
  3;29,23,27;,
  3;26,23,31;,
  4;28,18,25,27;,
  4;27,25,19,29;;
 }
 MeshTextureCoords { 
 32;
 0.761435;0.184670;,
 0.761435;0.184670;,
 0.763338;0.165927;,
 0.761435;0.184670;,
 0.010125;0.541726;,
 0.763338;0.165927;,
 0.763338;0.165927;,
 0.761435;0.184670;,
 0.763338;0.165927;,
 0.053108;0.624718;,
 0.053108;0.623532;,
 0.053108;0.623532;,
 0.053108;0.623532;,
 0.854580;0.111374;,
 0.062780;0.451622;,
 0.679858;0.201105;,
 0.679858;0.201105;,
 0.854580;0.111374;,
 0.037348;0.612466;,
 0.067436;0.612466;,
 0.042363;0.452807;,
 0.002603;0.553582;,
 0.102539;0.553582;,
 0.062780;0.451622;,
 0.053108;0.624718;,
 0.053108;0.623532;,
 0.052034;0.455178;,
 0.052034;0.455178;,
 0.010125;0.541726;,
 0.093942;0.539355;,
 0.010125;0.541726;,
 0.093942;0.539355;;
 }
}
}
}
}
AnimationSet {
 Animation anim-canopy_1_1 {
  {frm-canopy_1_1}
  AnimationKey {
  2;
  2;
  1; 3; 0.000000, 0.310433, -0.596694;;,
  100; 3; 0.000000, 0.310433, -0.596694;;;
  }
 }
 Animation anim-rt-wing1 {
  {frm-rt-wing1}
  AnimationKey {
  0;
  2;
  1; 4; 0.969449, 0.000000, 0.000000, 0.245294;;,
  100; 4; 0.969449, 0.000000, 0.000000, 0.245294;;;
  }
  AnimationKey {
  2;
  2;
  1; 3; 1.061732, -0.103314, -0.160095;;,
  100; 3; 1.061732, -0.103314, -0.160095;;;
  }
 }
 Animation anim-engine-nib_1 {
  {frm-engine-nib_1}
  AnimationKey {
  2;
  2;
  1; 3; 0.000000, -2.788176, -1.856979;;,
  100; 3; 0.000000, -2.788176, -1.856979;;;
  }
 }
 Animation anim-cube1 {
  {frm-cube1}
  AnimationKey {
  2;
  2;
  1; 3; 0.000000, -0.087314, -2.848197;;,
  100; 3; 0.000000, -0.087314, -2.848197;;;
  }
 }
 Animation anim-cube3_1 {
  {frm-cube3_1}
  AnimationKey {
  0;
  2;
  1; 4; 0.992925, 0.118740, 0.000000, 0.000000;;,
  100; 4; 0.992925, 0.118740, 0.000000, 0.000000;;;
  }
  AnimationKey {
  2;
  2;
  1; 3; 0.000000, 0.938756, 1.531854;;,
  100; 3; 0.000000, 0.938756, 1.531854;;;
  }
 }
 Animation anim-null1_1 {
  {frm-null1_1}
  AnimationKey {
  2;
  2;
  1; 3; 0.000000, -0.310433, 0.596694;;,
  100; 3; 0.000000, -0.310433, 0.596694;;;
  }
 }
 Animation anim-cyl2 {
  {frm-cyl2}
  AnimationKey {
  0;
  2;
  1; 4; 0.042803, -0.273199, 0.496449, 0.822841;;,
  100; 4; 0.042803, -0.273199, 0.496449, 0.822841;;;
  }
  AnimationKey {
  2;
  2;
  1; 3; -0.365424, 0.235466, 1.308744;;,
  100; 3; -0.365424, 0.235466, 1.308744;;;
  }
 }
 Animation anim-cyl3_1 {
  {frm-cyl3_1}
  AnimationKey {
  0;
  2;
  1; 4; 0.496450, -0.822841, 0.042803, 0.273199;;,
  100; 4; 0.496450, -0.822841, 0.042803, 0.273199;;;
  }
  AnimationKey {
  2;
  2;
  1; 3; 0.365424, 0.235466, 1.308744;;,
  100; 3; 0.365424, 0.235466, 1.308744;;;
  }
 }
 Animation anim-cyl5 {
  {frm-cyl5}
  AnimationKey {
  0;
  2;
  1; 4; 0.263290, -0.084489, -0.736350, -0.617518;;,
  100; 4; 0.263290, -0.084489, -0.736350, -0.617518;;;
  }
  AnimationKey {
  2;
  2;
  1; 3; -0.365424, 0.788329, 1.255422;;,
  100; 3; -0.365424, 0.788329, 1.255422;;;
  }
 }
 Animation anim-cyl4 {
  {frm-cyl4}
  AnimationKey {
  0;
  2;
  1; 4; 0.736350, -0.617518, -0.263290, -0.084489;;,
  100; 4; 0.736350, -0.617518, -0.263290, -0.084489;;;
  }
  AnimationKey {
  2;
  2;
  1; 3; 0.365424, 0.788329, 1.255422;;,
  100; 3; 0.365424, 0.788329, 1.255422;;;
  }
 }
 Animation anim-trthrust {
  {frm-trthrust}
  AnimationKey {
  0;
  2;
  1; 4; 0.000000, 0.000000, 1.000000, -0.000000;;,
  100; 4; 0.000000, 0.000000, 1.000000, -0.000000;;;
  }
  AnimationKey {
  2;
  2;
  1; 3; -0.450178, 0.612451, 2.701031;;,
  100; 3; -0.450178, 0.612451, 2.701031;;;
  }
 }
 Animation anim-trail {
  {frm-trail}
  AnimationKey {
  2;
  2;
  1; 3; -0.000000, 0.326374, 2.422260;;,
  100; 3; -0.000000, 0.326374, 2.422260;;;
  }
 }
 Animation anim-tlthrust {
  {frm-tlthrust}
  AnimationKey {
  2;
  2;
  1; 3; 0.450599, 0.612258, 2.701064;;,
  100; 3; 0.450599, 0.612258, 2.701064;;;
  }
 }
 Animation anim-SS06 {
  {frm-SS06}
  AnimationKey {
  2;
  2;
  1; 3; -1.056012, 0.762874, 1.719286;;,
  100; 3; -1.056012, 0.762874, 1.719286;;;
  }
 }
 Animation anim-SS05 {
  {frm-SS05}
  AnimationKey {
  0;
  2;
  1; 4; 0.000000, 0.000000, 1.000000, -0.000000;;,
  100; 4; 0.000000, 0.000000, 1.000000, -0.000000;;;
  }
  AnimationKey {
  2;
  2;
  1; 3; 1.056012, 0.762874, 1.719286;;,
  100; 3; 1.056012, 0.762874, 1.719286;;;
  }
 }
 Animation anim-SS04 {
  {frm-SS04}
  AnimationKey {
  2;
  2;
  1; 3; -0.428176, -0.547960, -1.330184;;,
  100; 3; -0.428176, -0.547960, -1.330184;;;
  }
 }
 Animation anim-SS03 {
  {frm-SS03}
  AnimationKey {
  0;
  2;
  1; 4; 0.000000, 0.000000, 1.000000, -0.000000;;,
  100; 4; 0.000000, 0.000000, 1.000000, -0.000000;;;
  }
  AnimationKey {
  2;
  2;
  1; 3; 0.428176, -0.547960, -1.330184;;,
  100; 3; 0.428176, -0.547960, -1.330184;;;
  }
 }
 Animation anim-SS02 {
  {frm-SS02}
  AnimationKey {
  2;
  2;
  1; 3; -1.954200, 1.307942, 3.625125;;,
  100; 3; -1.954200, 1.307942, 3.625125;;;
  }
 }
 Animation anim-SS01 {
  {frm-SS01}
  AnimationKey {
  2;
  2;
  1; 3; 1.954200, 1.307942, 3.625125;;,
  100; 3; 1.954200, 1.307942, 3.625125;;;
  }
 }
 Animation anim-rwepemt {
  {frm-rwepemt}
  AnimationKey {
  2;
  2;
  1; 3; -0.036600, -0.605045, -2.543755;;,
  100; 3; -0.036600, -0.605045, -2.543755;;;
  }
 }
 Animation anim-rsmoke {
  {frm-rsmoke}
  AnimationKey {
  0;
  2;
  1; 4; 0.000000, 0.000000, 1.000000, -0.000000;;,
  100; 4; 0.000000, 0.000000, 1.000000, -0.000000;;;
  }
  AnimationKey {
  2;
  2;
  1; 3; -0.450178, 0.612451, 2.701031;;,
  100; 3; -0.450178, 0.612451, 2.701031;;;
  }
 }
 Animation anim-missemt {
  {frm-missemt}
  AnimationKey {
  2;
  2;
  1; 3; 0.000000, -0.660617, -2.357243;;,
  100; 3; 0.000000, -0.660617, -2.357243;;;
  }
 }
 Animation anim-lwepemt {
  {frm-lwepemt}
  AnimationKey {
  2;
  2;
  1; 3; 0.036623, -0.605045, -2.543755;;,
  100; 3; 0.036623, -0.605045, -2.543755;;;
  }
 }
 Animation anim-lsmoke {
  {frm-lsmoke}
  AnimationKey {
  2;
  2;
  1; 3; 0.450599, 0.612258, 2.701064;;,
  100; 3; 0.450599, 0.612258, 2.701064;;;
  }
 }
 Animation anim-cockpt {
  {frm-cockpt}
  AnimationKey {
  2;
  2;
  1; 3; -0.000000, -0.180044, -1.885573;;,
  100; 3; -0.000000, -0.180044, -1.885573;;;
  }
 }
 Animation anim-brthrust {
  {frm-brthrust}
  AnimationKey {
  0;
  2;
  1; 4; 0.000000, 0.000000, 1.000000, -0.000000;;,
  100; 4; 0.000000, 0.000000, 1.000000, -0.000000;;;
  }
  AnimationKey {
  2;
  2;
  1; 3; -0.462200, -0.317524, 2.331656;;,
  100; 3; -0.462200, -0.317524, 2.331656;;;
  }
 }
 Animation anim-blthrust {
  {frm-blthrust}
  AnimationKey {
  2;
  2;
  1; 3; 0.462192, -0.317524, 2.331656;;,
  100; 3; 0.462192, -0.317524, 2.331656;;;
  }
 }
 Animation anim-rt-wing3 {
  {frm-rt-wing3}
  AnimationKey {
  0;
  2;
  1; 4; 0.000000, -0.245294, 0.969449, -0.000000;;,
  100; 4; 0.000000, -0.245294, 0.969449, -0.000000;;;
  }
  AnimationKey {
  2;
  2;
  1; 3; -1.061732, -0.103314, -0.160095;;,
  100; 3; -1.061732, -0.103314, -0.160095;;;
  }
 }
 Animation anim-canopy_1_1_1 {
  {frm-canopy_1_1_1}
  AnimationKey {
  1;
  2;
  1; 3; 0.869591, 0.869591, 0.869591;;,
  100; 3; 0.869591, 0.869591, 0.869591;;;
  }
  AnimationKey {
  2;
  2;
  1; 3; 0.000000, -0.260059, -2.023779;;,
  100; 3; 0.000000, -0.260059, -2.023779;;;
  }
 }
 Animation anim-extru2_1 {
  {frm-extru2_1}
  AnimationKey {
  0;
  2;
  1; 4; 0.780096, -0.625660, 0.000000, 0.000000;;,
  100; 4; 0.780096, -0.625660, 0.000000, 0.000000;;;
  }
  AnimationKey {
  1;
  2;
  1; 3; 0.687758, 0.687758, 0.687758;;,
  100; 3; 0.687758, 0.687758, 0.687758;;;
  }
  AnimationKey {
  2;
  2;
  1; 3; 0.000000, 0.411337, -0.358827;;,
  100; 3; 0.000000, 0.411337, -0.358827;;;
  }
 }
}
