xof 0302txt 0032
template Header {
 <3D82AB43-62DA-11cf-AB39-0020AF71E433>
 WORD major;
 WORD minor;
 DWORD flags;
}

template Vector {
 <3D82AB5E-62DA-11cf-AB39-0020AF71E433>
 FLOAT x;
 FLOAT y;
 FLOAT z;
}

template Coords2d {
 <F6F23F44-7686-11cf-8F52-0040333594A3>
 FLOAT u;
 FLOAT v;
}

template Matrix4x4 {
 <F6F23F45-7686-11cf-8F52-0040333594A3>
 array FLOAT matrix[16];
}

template ColorRGBA {
 <35FF44E0-6C7C-11cf-8F52-0040333594A3>
 FLOAT red;
 FLOAT green;
 FLOAT blue;
 FLOAT alpha;
}

template ColorRGB {
 <D3E16E81-7835-11cf-8F52-0040333594A3>
 FLOAT red;
 FLOAT green;
 FLOAT blue;
}

template TextureFilename {
 <A42790E1-7810-11cf-8F52-0040333594A3>
 STRING filename;
}

template Material {
 <3D82AB4D-62DA-11cf-AB39-0020AF71E433>
 ColorRGBA faceColor;
 FLOAT power;
 ColorRGB specularColor;
 ColorRGB emissiveColor;
 [...]
}

template MeshFace {
 <3D82AB5F-62DA-11cf-AB39-0020AF71E433>
 DWORD nFaceVertexIndices;
 array DWORD faceVertexIndices[nFaceVertexIndices];
}

template MeshTextureCoords {
 <F6F23F40-7686-11cf-8F52-0040333594A3>
 DWORD nTextureCoords;
 array Coords2d textureCoords[nTextureCoords];
}

template MeshMaterialList {
 <F6F23F42-7686-11cf-8F52-0040333594A3>
 DWORD nMaterials;
 DWORD nFaceIndexes;
 array DWORD faceIndexes[nFaceIndexes];
 [Material]
}

template MeshNormals {
 <F6F23F43-7686-11cf-8F52-0040333594A3>
 DWORD nNormals;
 array Vector normals[nNormals];
 DWORD nFaceNormals;
 array MeshFace faceNormals[nFaceNormals];
}

template Mesh {
 <3D82AB44-62DA-11cf-AB39-0020AF71E433>
 DWORD nVertices;
 array Vector vertices[nVertices];
 DWORD nFaces;
 array MeshFace faces[nFaces];
 [...]
}

template FrameTransformMatrix {
 <F6F23F41-7686-11cf-8F52-0040333594A3>
 Matrix4x4 frameMatrix;
}

template Frame {
 <3D82AB46-62DA-11cf-AB39-0020AF71E433>
 [...]
}
template FloatKeys {
 <10DD46A9-775B-11cf-8F52-0040333594A3>
 DWORD nValues;
 array FLOAT values[nValues];
}

template TimedFloatKeys {
 <F406B180-7B3B-11cf-8F52-0040333594A3>
 DWORD time;
 FloatKeys tfkeys;
}

template AnimationKey {
 <10DD46A8-775B-11cf-8F52-0040333594A3>
 DWORD keyType;
 DWORD nKeys;
 array TimedFloatKeys keys[nKeys];
}

template AnimationOptions {
 <E2BF56C0-840F-11cf-8F52-0040333594A3>
 DWORD openclosed;
 DWORD positionquality;
}

template Animation {
 <3D82AB4F-62DA-11cf-AB39-0020AF71E433>
 [...]
}

template AnimationSet {
 <3D82AB50-62DA-11cf-AB39-0020AF71E433>
 [Animation]
}

Header {
 1;
 0;
 1;
}

Frame frm-null1 {
  FrameTransformMatrix {
1.000000,0.000000,0.000000,0.000000,
0.000000,1.000000,0.000000,0.000000,
0.000000,0.000000,1.000000,0.000000,
0.000000,0.000000,-0.819884,1.000000;;
 }
Frame frm-extru4 {
  FrameTransformMatrix {
1.000000,0.000000,0.000000,0.000000,
0.000000,1.000000,0.000000,0.000000,
0.000000,0.000000,1.000000,0.000000,
0.893666,-0.143250,-0.677501,1.000000;;
 }
Mesh extru4 {
 124;
 0.513773;0.233114;1.738705;,
 0.513773;0.233114;1.738705;,
 0.513773;0.233114;1.738705;,
 -1.548338;-0.120598;1.578245;,
 -1.548338;-0.120598;1.578245;,
 -1.548338;-0.120598;1.578245;,
 -1.548338;-0.120598;-0.714778;,
 -1.548338;-0.120598;-0.714778;,
 -1.548338;-0.120598;-0.714778;,
 -1.548338;0.233114;-0.714778;,
 -1.548338;0.233114;-0.714778;,
 -1.548338;0.233114;-0.714778;,
 -1.446227;-0.120598;-0.875238;,
 -1.446227;-0.120598;-0.875238;,
 0.119916;-0.120598;-0.875238;,
 0.119916;-0.120598;-0.875238;,
 0.119916;-0.120598;-0.875238;,
 0.119916;0.233114;-0.875238;,
 0.119916;0.233114;-0.875238;,
 0.119916;0.233114;-0.875238;,
 -1.446227;0.233114;-0.875238;,
 -1.446227;0.233114;-0.875238;,
 0.265789;-0.120598;-0.831476;,
 0.265789;-0.120598;-0.831476;,
 0.615884;-0.120598;-0.481381;,
 0.615884;-0.120598;-0.481381;,
 0.615884;-0.120598;-0.481381;,
 0.615884;0.233114;-0.481381;,
 0.615884;0.233114;-0.481381;,
 0.615884;0.233114;-0.481381;,
 0.265789;0.233114;-0.831476;,
 0.265789;0.233114;-0.831476;,
 0.659646;-0.120598;-0.320921;,
 0.659646;-0.120598;-0.320921;,
 0.659646;-0.120598;1.622007;,
 0.659646;-0.120598;1.622007;,
 0.659646;0.233114;1.622007;,
 0.659646;0.233114;1.622007;,
 0.659646;0.233114;-0.320921;,
 0.659646;0.233114;-0.320921;,
 -0.298250;0.233114;1.738705;,
 -0.298250;0.233114;1.738705;,
 -0.298250;0.233114;1.738705;,
 -0.298250;-0.120598;2.238670;,
 -0.298250;-0.120598;2.238670;,
 -1.548338;-0.120598;2.147794;,
 -1.548338;-0.120598;2.147794;,
 -0.298250;-0.120598;3.359338;,
 -0.298250;-0.120598;3.359338;,
 -1.402465;-0.120598;3.359338;,
 -1.402465;-0.120598;3.359338;,
 -0.298250;0.700865;3.359338;,
 -0.298250;0.700865;3.359338;,
 -0.298250;0.700865;3.359338;,
 -0.322929;0.823016;3.260436;,
 -0.322929;0.823016;3.260436;,
 -1.548338;-0.120598;3.254836;,
 -1.548338;-0.120598;3.254836;,
 -0.322929;0.823016;2.115102;,
 -0.322929;0.823016;2.115102;,
 -0.322929;0.823016;2.115102;,
 -0.322929;0.823016;2.115102;,
 -0.322929;0.823016;2.115102;,
 -1.548338;0.805628;2.109502;,
 -1.548338;0.805628;2.109502;,
 -1.548338;0.805628;2.109502;,
 -1.548338;0.805628;3.254836;,
 -1.548338;0.805628;3.254836;,
 -1.548338;0.805628;3.254836;,
 -1.548338;0.233114;1.578245;,
 -1.548338;0.233114;1.578245;,
 -1.548338;0.233114;1.578245;,
 -1.548338;0.233114;1.578245;,
 -0.298250;-0.120598;1.738705;,
 -0.298250;-0.120598;1.738705;,
 -0.298250;-0.120598;1.738705;,
 0.513773;-0.120598;1.738705;,
 0.513773;-0.120598;1.738705;,
 0.513773;-0.120598;1.738705;,
 0.158700;0.250502;-0.709178;,
 0.513773;-0.120598;1.738705;,
 -0.298250;-0.120598;1.738705;,
 0.382359;0.163544;1.448459;,
 -0.196392;0.163544;1.448459;,
 0.382359;0.163544;0.037893;,
 -0.195904;0.163544;0.038170;,
 -0.322257;0.250502;-0.358701;,
 -1.548338;0.233114;1.578245;,
 -1.548338;0.805628;3.254836;,
 -1.548338;0.805628;2.109502;,
 -0.322929;0.823016;2.115102;,
 -1.407443;-0.137986;1.583845;,
 -1.548338;-0.120598;3.254836;,
 -0.322929;0.823016;3.260436;,
 -0.298250;0.700865;3.359338;,
 -1.402465;-0.120598;3.359338;,
 -0.298250;-0.120598;3.359338;,
 -1.548338;-0.120598;2.147794;,
 -0.298250;-0.120598;2.238670;,
 -0.322929;0.250502;1.583845;,
 -0.298250;0.233114;1.738705;,
 0.508795;0.250502;1.583845;,
 0.508795;0.250502;-0.359083;,
 -1.407443;0.250502;-0.709178;,
 -1.407443;-0.137986;-0.709178;,
 0.158700;-0.137986;-0.709178;,
 0.508795;-0.137986;-0.359083;,
 0.659646;0.233114;-0.320921;,
 0.659646;0.233114;1.622007;,
 0.659646;-0.120598;1.622007;,
 0.659646;-0.120598;-0.320921;,
 0.265789;0.233114;-0.831476;,
 0.615884;0.233114;-0.481381;,
 0.615884;-0.120598;-0.481381;,
 0.265789;-0.120598;-0.831476;,
 -1.446227;0.233114;-0.875238;,
 0.119916;0.233114;-0.875238;,
 0.119916;-0.120598;-0.875238;,
 -1.446227;-0.120598;-0.875238;,
 -1.548338;0.233114;-0.714778;,
 -1.548338;-0.120598;-0.714778;,
 -1.548338;-0.120598;1.578245;,
 0.513773;0.233114;1.738705;,
 -1.402465;0.700865;3.359338;;

 46;
 4;53,123,50,48;,
 4;72,11,8,5;,
 4;21,19,16,13;,
 4;31,29,26,23;,
 4;39,37,35,33;,
 6;75,91,104,105,106,78;,
 4;85,83,82,84;,
 4;42,2,101,99;,
 4;1,77,34,36;,
 4;82,83,99,101;,
 4;49,123,68,57;,
 3;10,71,103;,
 4;4,7,104,91;,
 4;6,9,20,12;,
 4;18,115,103,79;,
 4;118,15,105,104;,
 4;14,17,30,22;,
 4;28,111,79,102;,
 4;114,25,106,105;,
 4;24,27,38,32;,
 4;108,107,102,101;,
 4;110,109,76,106;,
 4;56,67,65,46;,
 3;104,120,118;,
 3;105,117,114;,
 3;106,113,110;,
 4;84,82,101,102;,
 4;66,55,62,64;,
 3;103,115,119;,
 3;79,111,116;,
 3;102,107,112;,
 3;101,0,108;,
 4;74,80,122,41;,
 4;54,88,123,52;,
 3;61,40,99;,
 4;63,60,99,70;,
 4;59,44,73,100;,
 5;47,95,91,81,43;,
 3;93,51,58;,
 5;95,92,45,3,91;,
 4;97,89,69,121;,
 4;94,96,98,90;,
 5;86,79,103,87,99;,
 3;102,79,86;,
 4;85,84,102,86;,
 4;83,85,86,99;;

 MeshMaterialList {
  3;
  46;
  0,
  1,
  0,
  1,
  1,
  2,
  2,
  2,
  1,
  2,
  0,
  2,
  2,
  1,
  2,
  2,
  1,
  2,
  2,
  1,
  2,
  2,
  1,
  2,
  2,
  2,
  2,
  2,
  2,
  2,
  2,
  2,
  1,
  0,
  2,
  2,
  1,
  2,
  2,
  2,
  1,
  1,
  2,
  2,
  2,
  2;
Material {
 1.000000;1.000000;1.000000;1.000000;;
 50.000000;
 1.000000;1.000000;1.000000;;
 0.0; 0.0; 0.0;;
 TextureFilename {
  "utl201.ppm";
 }
 }
Material {
 1.000000;1.000000;1.000000;1.000000;;
 50.000000;
 1.000000;1.000000;1.000000;;
 0.0; 0.0; 0.0;;
 TextureFilename {
  "utl201.ppm";
 }
 }
Material {
 1.000000;1.000000;1.000000;1.000000;;
 50.000000;
 1.000000;1.000000;1.000000;;
 0.0; 0.0; 0.0;;
 TextureFilename {
  "utl201.ppm";
 }
 }
}
 MeshNormals {
  124;
  0.250372;0.663971;0.704596;,
  0.250372;0.663971;0.704596;,
  0.250372;0.663971;0.704596;,
  -0.739104;-0.673590;0.001730;,
  -0.739104;-0.673590;0.001730;,
  -0.739104;-0.673590;0.001730;,
  -0.720142;-0.660793;-0.211536;,
  -0.720142;-0.660793;-0.211536;,
  -0.720142;-0.660793;-0.211536;,
  -0.720142;0.660793;-0.211536;,
  -0.720142;0.660793;-0.211536;,
  -0.720142;0.660793;-0.211536;,
  -0.363423;-0.667893;-0.649494;,
  -0.363423;-0.667893;-0.649494;,
  0.108758;-0.667348;-0.736762;,
  0.108758;-0.667348;-0.736762;,
  0.108758;-0.667348;-0.736762;,
  0.108758;0.667348;-0.736762;,
  0.108758;0.667348;-0.736762;,
  0.108758;0.667348;-0.736762;,
  -0.363423;0.667893;-0.649494;,
  -0.363423;0.667893;-0.649494;,
  0.381010;-0.667710;-0.639527;,
  0.381010;-0.667710;-0.639527;,
  0.646135;-0.665925;-0.372899;,
  0.646135;-0.665925;-0.372899;,
  0.646135;-0.665925;-0.372899;,
  0.646135;0.665925;-0.372899;,
  0.646135;0.665925;-0.372899;,
  0.646135;0.665925;-0.372899;,
  0.381010;0.667710;-0.639527;,
  0.381010;0.667710;-0.639527;,
  0.732310;-0.673631;-0.099717;,
  0.732310;-0.673631;-0.099717;,
  0.824875;-0.412686;0.386356;,
  0.824875;-0.412686;0.386356;,
  0.671232;0.665441;0.326551;,
  0.671232;0.665441;0.326551;,
  0.741584;0.663382;-0.099886;,
  0.741584;0.663382;-0.099886;,
  0.796528;0.458701;0.393873;,
  0.796528;0.458701;0.393873;,
  0.796528;0.458701;0.393873;,
  0.901022;-0.433751;0.004394;,
  0.901022;-0.433751;0.004394;,
  -0.900147;-0.435581;0.002233;,
  -0.900147;-0.435581;0.002233;,
  0.583645;-0.571651;0.576692;,
  0.583645;-0.571651;0.576692;,
  -0.234169;-0.702180;0.672390;,
  -0.234169;-0.702180;0.672390;,
  0.691102;0.311136;0.652360;,
  0.691102;0.311136;0.652360;,
  0.691102;0.311136;0.652360;,
  0.402100;0.842144;0.359317;,
  0.402100;0.842144;0.359317;,
  -0.805083;-0.436340;0.401806;,
  -0.805083;-0.436340;0.401806;,
  0.856277;0.471827;-0.210167;,
  0.856277;0.471827;-0.210167;,
  0.856277;0.471827;-0.210167;,
  0.856277;0.471827;-0.210167;,
  0.856277;0.471827;-0.210167;,
  -0.710981;0.639111;-0.293330;,
  -0.710981;0.639111;-0.293330;,
  -0.710981;0.639111;-0.293330;,
  -0.608909;0.551352;0.570299;,
  -0.608909;0.551352;0.570299;,
  -0.608909;0.551352;0.570299;,
  -0.581883;0.780910;-0.227138;,
  -0.581883;0.780910;-0.227138;,
  -0.581883;0.780910;-0.227138;,
  -0.581883;0.780910;-0.227138;,
  0.413020;-0.808779;0.418678;,
  0.413020;-0.808779;0.418678;,
  0.413020;-0.808779;0.418678;,
  0.254566;-0.701523;0.665629;,
  0.254566;-0.701523;0.665629;,
  0.254566;-0.701523;0.665629;,
  0.020376;0.998125;-0.057720;,
  0.254566;-0.701523;0.665629;,
  0.413020;-0.808779;0.418678;,
  -0.207806;0.958077;-0.197244;,
  0.207740;0.958106;-0.197171;,
  -0.204031;0.976178;0.073811;,
  0.204027;0.976174;0.073879;,
  0.150829;0.986962;0.056178;,
  -0.581883;0.780910;-0.227138;,
  -0.608909;0.551352;0.570299;,
  -0.710981;0.639111;-0.293330;,
  0.856277;0.471827;-0.210167;,
  -0.043547;-0.999044;0.003864;,
  -0.805083;-0.436340;0.401806;,
  0.402100;0.842144;0.359317;,
  0.691102;0.311136;0.652360;,
  -0.234169;-0.702180;0.672390;,
  0.583645;-0.571651;0.576692;,
  -0.900147;-0.435581;0.002233;,
  0.901022;-0.433751;0.004394;,
  0.298041;0.914293;-0.274299;,
  0.796528;0.458701;0.393873;,
  -0.082783;0.993929;-0.072471;,
  -0.048311;0.998666;0.018210;,
  -0.062463;0.997065;-0.044277;,
  -0.059718;-0.997252;-0.043845;,
  0.028213;-0.997029;-0.071676;,
  0.065508;-0.997541;-0.024915;,
  0.741584;0.663382;-0.099886;,
  0.671232;0.665441;0.326551;,
  0.824875;-0.412686;0.386356;,
  0.732310;-0.673631;-0.099717;,
  0.381010;0.667710;-0.639527;,
  0.646135;0.665925;-0.372899;,
  0.646135;-0.665925;-0.372899;,
  0.381010;-0.667710;-0.639527;,
  -0.363423;0.667893;-0.649494;,
  0.108758;0.667348;-0.736762;,
  0.108758;-0.667348;-0.736762;,
  -0.363423;-0.667893;-0.649494;,
  -0.720142;0.660793;-0.211536;,
  -0.720142;-0.660793;-0.211536;,
  -0.739104;-0.673590;0.001730;,
  0.250372;0.663971;0.704596;,
  -0.223037;0.231279;0.946977;;

  46;
  4;53,123,50,48;,
  4;72,11,8,5;,
  4;21,19,16,13;,
  4;31,29,26,23;,
  4;39,37,35,33;,
  6;75,91,104,105,106,78;,
  4;85,83,82,84;,
  4;42,2,101,99;,
  4;1,77,34,36;,
  4;82,83,99,101;,
  4;49,123,68,57;,
  3;10,71,103;,
  4;4,7,104,91;,
  4;6,9,20,12;,
  4;18,115,103,79;,
  4;118,15,105,104;,
  4;14,17,30,22;,
  4;28,111,79,102;,
  4;114,25,106,105;,
  4;24,27,38,32;,
  4;108,107,102,101;,
  4;110,109,76,106;,
  4;56,67,65,46;,
  3;104,120,118;,
  3;105,117,114;,
  3;106,113,110;,
  4;84,82,101,102;,
  4;66,55,62,64;,
  3;103,115,119;,
  3;79,111,116;,
  3;102,107,112;,
  3;101,0,108;,
  4;74,80,122,41;,
  4;54,88,123,52;,
  3;61,40,99;,
  4;63,60,99,70;,
  4;59,44,73,100;,
  5;47,95,91,81,43;,
  3;93,51,58;,
  5;95,92,45,3,91;,
  4;97,89,69,121;,
  4;94,96,98,90;,
  5;86,79,103,87,99;,
  3;102,79,86;,
  4;85,84,102,86;,
  4;83,85,86,99;;
 }
 MeshTextureCoords { 
 124;
 0.252133;0.682496;,
 0.315479;0.802086;,
 0.252133;0.682496;,
 0.003373;0.702023;,
 0.003373;0.702023;,
 0.279604;0.783358;,
 0.274375;0.509194;,
 0.003373;0.981062;,
 0.274375;0.509194;,
 0.309883;0.508736;,
 0.003373;0.981062;,
 0.309883;0.508736;,
 0.274009;0.490008;,
 0.008762;0.997177;,
 0.274009;0.490008;,
 0.204620;1.000589;,
 0.207102;0.997177;,
 0.309517;0.489551;,
 0.204620;1.000589;,
 0.207102;0.973570;,
 0.309517;0.489551;,
 0.008762;0.973570;,
 0.274109;0.495241;,
 0.274109;0.495241;,
 0.274907;0.537100;,
 0.264450;0.952660;,
 0.274907;0.537100;,
 0.310416;0.536642;,
 0.264450;0.952660;,
 0.310416;0.536642;,
 0.309617;0.494783;,
 0.309617;0.494783;,
 0.275273;0.556285;,
 0.275273;0.556285;,
 0.279704;0.788591;,
 0.279704;0.788591;,
 0.315212;0.788133;,
 0.315212;0.788133;,
 0.310782;0.555827;,
 0.310782;0.555827;,
 0.154176;0.682496;,
 0.315479;0.802086;,
 0.154176;0.682496;,
 0.154176;0.621655;,
 0.281110;0.862322;,
 0.003373;0.632714;,
 0.280903;0.851456;,
 0.154175;0.485281;,
 0.120230;0.281451;,
 0.024698;0.281451;,
 0.024698;0.281451;,
 0.154175;0.485281;,
 0.120230;0.220474;,
 0.120230;0.220474;,
 0.118095;0.211407;,
 0.151198;0.497316;,
 0.283428;0.983820;,
 0.012078;0.281451;,
 0.151198;0.636692;,
 0.375556;0.846327;,
 0.151198;0.636692;,
 0.151198;0.636692;,
 0.151198;0.636692;,
 0.003373;0.637374;,
 0.003373;0.637374;,
 0.373797;0.845680;,
 0.003373;0.497998;,
 0.376409;0.982621;,
 0.012078;0.212698;,
 0.315113;0.782901;,
 0.003373;0.702023;,
 0.003373;0.702023;,
 0.315113;0.782901;,
 0.279970;0.802544;,
 0.279970;0.802544;,
 0.154176;0.682496;,
 0.252133;0.682496;,
 0.279970;0.802544;,
 0.252133;0.682496;,
 0.209299;0.980381;,
 0.279970;0.802544;,
 0.154176;0.682496;,
 0.236280;0.717817;,
 0.166463;0.717817;,
 0.236280;0.889469;,
 0.166522;0.889435;,
 0.151280;0.937731;,
 0.003373;0.702023;,
 0.012078;0.212698;,
 0.373797;0.845680;,
 0.375556;0.846327;,
 0.020370;0.701341;,
 0.003373;0.497998;,
 0.151198;0.497316;,
 0.366131;0.995252;,
 0.020970;0.485281;,
 0.283666;0.996314;,
 0.280903;0.851456;,
 0.281110;0.862322;,
 0.151198;0.701341;,
 0.315479;0.802086;,
 0.251532;0.701341;,
 0.251532;0.937777;,
 0.020370;0.980381;,
 0.020370;0.980381;,
 0.209299;0.980381;,
 0.251532;0.937777;,
 0.269730;0.933133;,
 0.269730;0.696697;,
 0.269730;0.696697;,
 0.269730;0.933133;,
 0.222217;0.995263;,
 0.264450;0.952660;,
 0.264450;0.952660;,
 0.222217;0.995263;,
 0.015691;1.000589;,
 0.204620;1.000589;,
 0.204620;1.000589;,
 0.015691;1.000589;,
 0.003373;0.981062;,
 0.003373;0.981062;,
 0.279604;0.783358;,
 0.315479;0.802086;,
 0.024698;0.220474;;
 }
}
Frame frm-cube17 {
  FrameTransformMatrix {
1.000000,0.000000,0.000000,0.000000,
0.000000,1.000000,0.000000,0.000000,
0.000000,0.000000,1.000000,0.000000,
-1.122862,-0.035676,1.631778,1.000000;;
 }
Mesh cube17 {
 89;
 -1.771362;0.202125;1.979677;,
 -1.771362;0.202125;1.979677;,
 -1.771362;0.202125;1.979677;,
 -1.771362;1.717040;1.979677;,
 -1.771362;1.717040;1.979677;,
 -1.771362;1.717040;1.979677;,
 -1.591183;0.311284;-1.092384;,
 -1.591183;0.311284;-1.092384;,
 -1.591183;0.311284;-1.092384;,
 -0.638521;0.311284;-1.092384;,
 -0.638521;0.311284;-1.092384;,
 -0.638521;1.120324;-1.092384;,
 -0.638521;1.120324;-1.092384;,
 -1.591183;1.120324;-1.092384;,
 -1.591183;1.120324;-1.092384;,
 -1.591183;1.120324;-1.092384;,
 -0.486820;0.202125;1.979677;,
 -0.486820;0.202125;1.979677;,
 -0.486820;1.717040;1.979677;,
 -0.486820;1.717040;1.979677;,
 -0.561320;0.130283;1.977089;,
 -0.561320;0.130283;1.977089;,
 -0.561320;0.130283;-1.017884;,
 -0.561320;0.130283;-1.017884;,
 -1.696862;0.130283;-1.017884;,
 -1.696862;0.130283;-1.017884;,
 -1.696862;0.130283;-1.017884;,
 -1.696862;0.130283;1.977089;,
 -1.696862;0.130283;1.977089;,
 -1.637110;1.760188;-0.734608;,
 -1.637110;1.760188;-0.734608;,
 -1.637110;1.760188;-0.734608;,
 -1.637110;1.384546;-1.045485;,
 -1.637110;1.384546;-1.045485;,
 -0.592595;1.384546;-1.045485;,
 -0.592595;1.384546;-1.045485;,
 -0.592595;1.760188;-0.734608;,
 -0.592595;1.760188;-0.734608;,
 -0.592595;1.760188;-0.734608;,
 -0.561320;1.821539;-0.488352;,
 -0.561320;1.821539;-0.488352;,
 -0.561320;1.821539;-0.488352;,
 -0.561320;1.821539;1.999870;,
 -0.561320;1.821539;1.999870;,
 -1.696862;1.821539;1.999870;,
 -1.696862;1.821539;1.999870;,
 -1.696862;1.821539;1.999870;,
 -1.696862;1.821539;-0.488352;,
 -1.696862;1.821539;-0.488352;,
 -1.696862;1.821539;-0.488352;,
 -0.592595;1.624314;-0.939260;,
 -0.592595;1.624314;-0.939260;,
 -0.592595;1.624314;-0.939260;,
 -0.592595;1.624314;-0.939260;,
 -1.637110;1.624314;-0.939260;,
 -1.637110;1.624314;-0.939260;,
 -1.637110;1.624314;-0.939260;,
 -1.637110;1.624314;-0.939260;,
 -0.592595;1.624314;-0.939260;,
 -1.696862;1.821539;-0.488352;,
 -1.696862;1.821539;1.999870;,
 -0.561320;1.821539;1.999870;,
 -0.561320;1.821539;-0.488352;,
 -0.592595;1.760188;-0.734608;,
 -0.592595;1.384546;-1.045485;,
 -1.637110;1.384546;-1.045485;,
 -1.637110;1.760188;-0.734608;,
 -1.696862;0.130283;1.977089;,
 -1.696862;0.130283;-1.017884;,
 -0.561320;0.130283;-1.017884;,
 -0.561320;0.130283;1.977089;,
 -0.708940;1.546546;2.051589;,
 -1.549241;1.546546;2.051589;,
 -1.549241;0.405276;2.051589;,
 -0.708940;0.405276;2.051589;,
 -0.486820;1.221167;-0.971551;,
 -0.486820;1.717040;-0.508544;,
 -0.486820;1.717040;1.979677;,
 -0.486820;0.202125;1.979677;,
 -0.486820;0.218529;-0.971551;,
 -1.591183;1.120324;-1.092384;,
 -0.638521;1.120324;-1.092384;,
 -0.638521;0.311284;-1.092384;,
 -1.591183;0.311284;-1.092384;,
 -1.771362;1.717040;1.979677;,
 -1.771362;1.717040;-0.508544;,
 -1.771362;1.221167;-0.971551;,
 -1.771362;0.218529;-0.971551;,
 -1.771362;0.202125;1.979677;;

 37;
 5;5,85,86,87,2;,
 4;15,12,10,8;,
 5;75,76,19,17,79;,
 4;71,72,73,74;,
 4;28,26,23,21;,
 4;53,35,33,56;,
 4;49,46,43,41;,
 3;85,31,55;,
 4;4,1,73,72;,
 4;0,87,25,27;,
 4;87,86,14,7;,
 4;11,13,32,34;,
 4;6,9,22,24;,
 4;82,81,75,79;,
 4;18,76,40,42;,
 4;79,16,20,69;,
 4;78,77,71,74;,
 4;72,71,61,45;,
 4;74,73,67,70;,
 3;75,64,52;,
 4;85,3,44,48;,
 4;38,30,47,39;,
 3;67,73,88;,
 3;68,87,83;,
 3;60,84,72;,
 3;65,80,86;,
 3;70,78,74;,
 3;69,82,79;,
 3;61,71,77;,
 3;64,75,81;,
 3;76,37,62;,
 3;85,59,29;,
 3;51,36,76;,
 3;50,76,75;,
 4;54,66,63,58;,
 3;57,65,86;,
 3;86,85,57;;

 MeshMaterialList {
  4;
  37;
  0,
  1,
  0,
  2,
  3,
  1,
  3,
  0,
  2,
  0,
  0,
  1,
  1,
  0,
  0,
  0,
  2,
  2,
  2,
  0,
  0,
  1,
  2,
  0,
  2,
  0,
  2,
  0,
  2,
  0,
  0,
  0,
  0,
  0,
  1,
  0,
  0;
Material {
 1.000000;1.000000;1.000000;1.000000;;
 50.000000;
 1.000000;1.000000;1.000000;;
 0.0; 0.0; 0.0;;
 TextureFilename {
  "utl201.ppm";
 }
 }
Material {
 1.000000;1.000000;1.000000;1.000000;;
 50.000000;
 1.000000;1.000000;1.000000;;
 0.0; 0.0; 0.0;;
 TextureFilename {
  "utl201.ppm";
 }
 }
Material {
 1.000000;1.000000;1.000000;1.000000;;
 50.000000;
 1.000000;1.000000;1.000000;;
 0.0; 0.0; 0.0;;
 TextureFilename {
  "utl201.ppm";
 }
 }
Material {
 1.000000;1.000000;1.000000;1.000000;;
 50.000000;
 1.000000;1.000000;1.000000;;
 0.0; 0.0; 0.0;;
 TextureFilename {
  "utl201.ppm";
 }
 }
}
 MeshNormals {
  89;
  -0.734263;-0.290990;0.613337;,
  -0.734263;-0.290990;0.613337;,
  -0.734263;-0.290990;0.613337;,
  -0.779922;0.197021;0.594058;,
  -0.779922;0.197021;0.594058;,
  -0.779922;0.197021;0.594058;,
  -0.292459;-0.107056;-0.950267;,
  -0.292459;-0.107056;-0.950267;,
  -0.292459;-0.107056;-0.950267;,
  0.324582;-0.122569;-0.937882;,
  0.324582;-0.122569;-0.937882;,
  0.326397;0.055606;-0.943596;,
  0.326397;0.055606;-0.943596;,
  -0.285197;0.060578;-0.956553;,
  -0.285197;0.060578;-0.956553;,
  -0.285197;0.060578;-0.956553;,
  0.734263;-0.290990;0.613337;,
  0.734263;-0.290990;0.613337;,
  0.779922;0.197021;0.594058;,
  0.779922;0.197021;0.594058;,
  0.300589;-0.726406;0.618046;,
  0.300589;-0.726406;0.618046;,
  0.434317;-0.706265;-0.559069;,
  0.434317;-0.706265;-0.559069;,
  -0.425600;-0.697880;-0.576046;,
  -0.425600;-0.697880;-0.576046;,
  -0.425600;-0.697880;-0.576046;,
  -0.300589;-0.726406;0.618046;,
  -0.300589;-0.726406;0.618046;,
  -0.417704;0.811334;-0.408974;,
  -0.417704;0.811334;-0.408974;,
  -0.417704;0.811334;-0.408974;,
  -0.332722;0.247903;-0.909857;,
  -0.332722;0.247903;-0.909857;,
  0.381746;0.237389;-0.893262;,
  0.381746;0.237389;-0.893262;,
  0.452751;0.806718;-0.379767;,
  0.452751;0.806718;-0.379767;,
  0.452751;0.806718;-0.379767;,
  0.444866;0.885047;-0.137066;,
  0.444866;0.885047;-0.137066;,
  0.444866;0.885047;-0.137066;,
  0.397552;0.652468;0.645165;,
  0.397552;0.652468;0.645165;,
  -0.397552;0.652467;0.645165;,
  -0.397552;0.652467;0.645165;,
  -0.397552;0.652467;0.645165;,
  -0.437562;0.884837;-0.160010;,
  -0.437562;0.884837;-0.160010;,
  -0.437562;0.884837;-0.160010;,
  0.595448;0.518016;-0.614086;,
  0.595448;0.518016;-0.614086;,
  0.595448;0.518016;-0.614086;,
  0.595448;0.518016;-0.614086;,
  -0.538661;0.544138;-0.643240;,
  -0.538661;0.544138;-0.643240;,
  -0.538661;0.544138;-0.643240;,
  -0.538661;0.544138;-0.643240;,
  0.595448;0.518016;-0.614086;,
  -0.437562;0.884837;-0.160010;,
  -0.397552;0.652467;0.645165;,
  0.397552;0.652468;0.645165;,
  0.444866;0.885047;-0.137066;,
  0.452751;0.806718;-0.379767;,
  0.381746;0.237389;-0.893262;,
  -0.332722;0.247903;-0.909857;,
  -0.417704;0.811334;-0.408974;,
  -0.300589;-0.726406;0.618046;,
  -0.425600;-0.697880;-0.576046;,
  0.434317;-0.706265;-0.559069;,
  0.300589;-0.726406;0.618046;,
  0.152153;0.052783;0.986946;,
  -0.152153;0.052783;0.986947;,
  -0.114985;-0.113426;0.986870;,
  0.114985;-0.113426;0.986870;,
  0.845451;0.118263;-0.520794;,
  0.902448;0.394473;-0.173142;,
  0.779922;0.197021;0.594058;,
  0.734263;-0.290990;0.613337;,
  0.858687;-0.221171;-0.462321;,
  -0.285197;0.060578;-0.956553;,
  0.326397;0.055606;-0.943596;,
  0.324582;-0.122569;-0.937882;,
  -0.292459;-0.107056;-0.950267;,
  -0.779922;0.197021;0.594058;,
  -0.879920;0.423951;-0.214491;,
  -0.801198;0.144873;-0.580598;,
  -0.842923;-0.209414;-0.495606;,
  -0.734263;-0.290990;0.613337;;

  37;
  5;5,85,86,87,2;,
  4;15,12,10,8;,
  5;75,76,19,17,79;,
  4;71,72,73,74;,
  4;28,26,23,21;,
  4;53,35,33,56;,
  4;49,46,43,41;,
  3;85,31,55;,
  4;4,1,73,72;,
  4;0,87,25,27;,
  4;87,86,14,7;,
  4;11,13,32,34;,
  4;6,9,22,24;,
  4;82,81,75,79;,
  4;18,76,40,42;,
  4;79,16,20,69;,
  4;78,77,71,74;,
  4;72,71,61,45;,
  4;74,73,67,70;,
  3;75,64,52;,
  4;85,3,44,48;,
  4;38,30,47,39;,
  3;67,73,88;,
  3;68,87,83;,
  3;60,84,72;,
  3;65,80,86;,
  3;70,78,74;,
  3;69,82,79;,
  3;61,71,77;,
  3;64,75,81;,
  3;76,37,62;,
  3;85,59,29;,
  3;51,36,76;,
  3;50,76,75;,
  4;54,66,63,58;,
  3;57,65,86;,
  3;86,85,57;;
 }
 MeshTextureCoords { 
 89;
 0.984930;0.779437;,
 0.509302;0.990390;,
 0.984930;0.779437;,
 0.984930;0.550116;,
 0.509302;0.821850;,
 0.984930;0.550116;,
 0.512242;0.456761;,
 0.500157;0.762913;,
 0.512242;0.456761;,
 0.631828;0.456761;,
 0.631828;0.456761;,
 0.631828;0.350469;,
 0.631828;0.350469;,
 0.512242;0.350469;,
 0.500157;0.640444;,
 0.512242;0.350469;,
 0.984930;0.779437;,
 0.984930;0.779437;,
 0.984930;0.550116;,
 0.984930;0.550116;,
 0.984534;0.790312;,
 0.141602;0.764648;,
 0.641519;0.480541;,
 0.143555;0.502930;,
 0.498976;0.480541;,
 0.511581;0.790312;,
 0.010742;0.502930;,
 0.984534;0.790312;,
 0.008789;0.764648;,
 0.555022;0.543585;,
 0.506477;0.266403;,
 0.555022;0.543585;,
 0.506477;0.315755;,
 0.506477;0.315755;,
 0.637593;0.315755;,
 0.637593;0.315755;,
 0.555022;0.543585;,
 0.555022;0.543585;,
 0.637593;0.266403;,
 0.641519;0.258342;,
 0.592785;0.534298;,
 0.594133;0.817462;,
 0.988027;0.534298;,
 0.989942;0.820613;,
 0.988027;0.534298;,
 0.517511;0.810224;,
 0.988859;0.989474;,
 0.498976;0.258342;,
 0.592785;0.534298;,
 0.593049;0.986324;,
 0.523638;0.564153;,
 0.523638;0.564153;,
 0.523638;0.564153;,
 0.637593;0.284254;,
 0.506477;0.284254;,
 0.523638;0.564153;,
 0.506477;0.284254;,
 0.523638;0.564153;,
 0.637593;0.284254;,
 0.592785;0.534298;,
 0.517511;0.810224;,
 0.642645;0.810224;,
 0.592785;0.534298;,
 0.637593;0.266403;,
 0.507349;0.600448;,
 0.507349;0.600448;,
 0.506477;0.266403;,
 0.517511;0.998383;,
 0.511581;0.790312;,
 0.511581;0.790312;,
 0.642645;0.998383;,
 0.626378;0.840818;,
 0.533779;0.840818;,
 0.533779;0.967789;,
 0.626378;0.967789;,
 0.518686;0.625179;,
 0.589689;0.550116;,
 0.650855;0.821850;,
 0.650855;0.990390;,
 0.518686;0.776954;,
 0.500157;0.640444;,
 0.500157;0.640444;,
 0.500157;0.762913;,
 0.500157;0.762913;,
 0.509302;0.821850;,
 0.589689;0.550116;,
 0.518686;0.625179;,
 0.518686;0.776954;,
 0.509302;0.990390;;
 }
}
Frame frm-cube22 {
  FrameTransformMatrix {
1.000000,0.000000,0.000000,0.000000,
0.000000,1.000000,0.000000,0.000000,
0.000000,0.000000,1.000000,0.000000,
-0.123538,0.474400,-3.749892,1.000000;;
 }
Mesh cube22 {
 70;
 -1.490000;-0.072669;0.562703;,
 -1.490000;-0.072669;0.562703;,
 -1.490000;-0.948208;0.575318;,
 -1.490000;-0.948208;0.575318;,
 -1.490000;-0.948208;0.575318;,
 -1.415500;-1.092384;0.184411;,
 -1.415500;-1.092384;0.184411;,
 -0.561320;-1.092384;0.184411;,
 -0.561320;-1.092384;0.184411;,
 -0.561320;-1.092384;0.184411;,
 -0.561320;-1.092384;1.413972;,
 -0.561320;-1.092384;1.413972;,
 -1.415500;-1.092384;1.413972;,
 -1.415500;-1.092384;1.413972;,
 -1.415500;-1.092384;1.413972;,
 -0.486820;-0.948208;0.575318;,
 -0.486820;-0.948208;0.575318;,
 -0.486820;-0.005581;0.562703;,
 -0.486820;-0.005581;0.562703;,
 -0.486820;-0.005581;0.562703;,
 -0.646738;0.083702;0.282445;,
 -0.646738;0.083702;0.282445;,
 -1.330082;0.083702;0.282445;,
 -1.330082;0.083702;0.282445;,
 -1.330082;0.083702;2.181922;,
 -1.330082;0.083702;2.181922;,
 -1.330082;0.083702;2.181922;,
 -0.646738;0.083702;2.181922;,
 -0.646738;0.083702;2.181922;,
 -0.646738;0.083702;2.181922;,
 -1.415500;-1.069603;1.488472;,
 -1.415500;-1.069603;1.488472;,
 -1.415500;-1.069603;1.488472;,
 -0.561320;-1.069603;1.488472;,
 -0.561320;-1.069603;1.488472;,
 -0.561320;0.031983;2.653629;,
 -0.561320;0.031983;2.653629;,
 -0.561320;0.031983;2.653629;,
 -1.415500;0.031983;2.653629;,
 -1.415500;0.031983;2.653629;,
 -1.415500;-0.700967;2.633256;,
 -0.561320;-0.700967;2.633256;,
 -0.561320;-0.700967;2.633256;,
 -1.415500;-0.700967;2.633256;,
 -1.220637;-0.129863;0.026594;,
 -1.220637;-0.785429;0.011362;,
 -0.756182;-0.785429;0.011362;,
 -0.756182;-0.129863;0.026594;,
 -1.415500;0.031983;2.653629;,
 -0.561320;0.031983;2.653629;,
 -0.561320;-1.069603;1.488472;,
 -1.415500;-1.069603;1.488472;,
 -0.646738;0.083702;2.181922;,
 -1.330082;0.083702;2.181922;,
 -1.330082;0.083702;0.282445;,
 -0.646738;0.083702;0.282445;,
 -0.486820;-0.942093;1.431687;,
 -0.486820;-0.589798;2.436506;,
 -0.486820;-0.086742;2.436506;,
 -0.486820;-0.005581;0.562703;,
 -0.486820;-0.948208;0.575318;,
 -1.415500;-1.092384;1.413972;,
 -0.561320;-1.092384;1.413972;,
 -0.561320;-1.092384;0.184411;,
 -1.415500;-1.092384;0.184411;,
 -1.490000;-0.086742;2.436506;,
 -1.490000;-0.589798;2.436506;,
 -1.490000;-0.942093;1.431687;,
 -1.490000;-0.948208;0.575318;,
 -1.490000;-0.072669;0.562703;;

 29;
 5;1,4,67,66,65;,
 4;6,9,11,14;,
 5;16,19,58,57,56;,
 4;21,23,26,29;,
 4;47,46,45,44;,
 4;40,32,34,41;,
 4;42,37,39,43;,
 4;31,43,66,67;,
 4;25,22,0,65;,
 4;44,45,3,69;,
 4;5,13,67,2;,
 4;33,30,12,10;,
 4;45,46,8,64;,
 4;15,56,62,7;,
 4;36,42,57,58;,
 4;46,47,18,60;,
 4;20,28,58,17;,
 4;38,35,27,24;,
 4;47,44,54,55;,
 4;42,50,56,57;,
 4;43,48,65,66;,
 3;62,56,50;,
 3;69,54,44;,
 3;64,68,45;,
 3;53,65,48;,
 3;67,61,51;,
 3;55,59,47;,
 3;60,63,46;,
 3;58,52,49;;

 MeshMaterialList {
  3;
  29;
  0,
  1,
  0,
  1,
  2,
  1,
  0,
  0,
  0,
  2,
  0,
  1,
  2,
  0,
  0,
  2,
  0,
  1,
  2,
  0,
  0,
  0,
  2,
  2,
  0,
  0,
  2,
  2,
  0;
Material {
 1.000000;1.000000;1.000000;1.000000;;
 50.000000;
 1.000000;1.000000;1.000000;;
 0.0; 0.0; 0.0;;
 TextureFilename {
  "utl201.ppm";
 }
 }
Material {
 1.000000;1.000000;1.000000;1.000000;;
 50.000000;
 1.000000;1.000000;1.000000;;
 0.0; 0.0; 0.0;;
 TextureFilename {
  "utl201.ppm";
 }
 }
Material {
 1.000000;1.000000;1.000000;1.000000;;
 50.000000;
 1.000000;1.000000;1.000000;;
 0.0; 0.0; 0.0;;
 TextureFilename {
  "utl201.ppm";
 }
 }
}
 MeshNormals {
  70;
  -0.946375;0.214694;-0.241414;,
  -0.946375;0.214694;-0.241414;,
  -0.979741;-0.019093;-0.199358;,
  -0.979741;-0.019093;-0.199358;,
  -0.979741;-0.019093;-0.199358;,
  -0.704313;-0.562139;-0.433523;,
  -0.704313;-0.562139;-0.433523;,
  0.704313;-0.562139;-0.433523;,
  0.704313;-0.562139;-0.433523;,
  0.704313;-0.562139;-0.433523;,
  0.519912;-0.844644;0.127547;,
  0.519912;-0.844644;0.127547;,
  -0.519912;-0.844644;0.127547;,
  -0.519912;-0.844644;0.127547;,
  -0.519912;-0.844644;0.127547;,
  0.979738;-0.019101;-0.199369;,
  0.979738;-0.019101;-0.199369;,
  0.936895;0.248621;-0.245793;,
  0.936895;0.248621;-0.245793;,
  0.936895;0.248621;-0.245793;,
  0.459664;0.822040;-0.336093;,
  0.459664;0.822040;-0.336093;,
  -0.497964;0.797554;-0.340500;,
  -0.497964;0.797554;-0.340500;,
  -0.410066;0.911994;0.010642;,
  -0.410066;0.911994;0.010642;,
  -0.410066;0.911994;0.010642;,
  0.378336;0.925556;0.014425;,
  0.378336;0.925556;0.014425;,
  0.378336;0.925556;0.014425;,
  -0.521902;-0.813417;0.256847;,
  -0.521902;-0.813417;0.256847;,
  -0.521902;-0.813417;0.256847;,
  0.521902;-0.813417;0.256847;,
  0.521902;-0.813417;0.256847;,
  0.657153;0.606924;0.446982;,
  0.657153;0.606924;0.446982;,
  0.657153;0.606924;0.446982;,
  -0.628036;0.613638;0.478560;,
  -0.628036;0.613638;0.478560;,
  -0.637534;-0.475763;0.605971;,
  0.637534;-0.475763;0.605971;,
  0.637534;-0.475763;0.605971;,
  -0.637534;-0.475763;0.605971;,
  -0.529277;0.284583;-0.799299;,
  -0.555736;-0.029397;-0.830839;,
  0.555727;-0.029406;-0.830844;,
  0.525461;0.288949;-0.800250;,
  -0.628036;0.613638;0.478560;,
  0.657153;0.606924;0.446982;,
  0.521902;-0.813417;0.256847;,
  -0.521902;-0.813417;0.256847;,
  0.378336;0.925556;0.014425;,
  -0.410066;0.911994;0.010642;,
  -0.497964;0.797554;-0.340500;,
  0.459664;0.822040;-0.336093;,
  0.938654;-0.337422;0.071242;,
  0.975849;-0.144175;0.164112;,
  0.918516;0.387621;0.077962;,
  0.936895;0.248621;-0.245793;,
  0.979738;-0.019101;-0.199369;,
  -0.519912;-0.844644;0.127547;,
  0.519912;-0.844644;0.127547;,
  0.704313;-0.562139;-0.433523;,
  -0.704313;-0.562139;-0.433523;,
  -0.931040;0.357575;0.072835;,
  -0.975849;-0.144175;0.164112;,
  -0.938654;-0.337422;0.071242;,
  -0.979741;-0.019093;-0.199358;,
  -0.946375;0.214694;-0.241414;;

  29;
  5;1,4,67,66,65;,
  4;6,9,11,14;,
  5;16,19,58,57,56;,
  4;21,23,26,29;,
  4;47,46,45,44;,
  4;40,32,34,41;,
  4;42,37,39,43;,
  4;31,43,66,67;,
  4;25,22,0,65;,
  4;44,45,3,69;,
  4;5,13,67,2;,
  4;33,30,12,10;,
  4;45,46,8,64;,
  4;15,56,62,7;,
  4;36,42,57,58;,
  4;46,47,18,60;,
  4;20,28,58,17;,
  4;38,35,27,24;,
  4;47,44,54,55;,
  4;42,50,56,57;,
  4;43,48,65,66;,
  3;62,56,50;,
  3;69,54,44;,
  3;64,68,45;,
  3;53,65,48;,
  3;67,61,51;,
  3;55,59,47;,
  3;60,63,46;,
  3;58,52,49;;
 }
 MeshTextureCoords { 
 70;
 0.211209;0.199888;,
 0.211209;0.199888;,
 0.211914;0.315430;,
 0.000588;0.314675;,
 0.211914;0.315430;,
 0.160034;0.333153;,
 0.206965;0.449017;,
 0.160034;0.333153;,
 0.122449;0.334116;,
 0.206336;0.366972;,
 0.349956;0.366016;,
 0.349956;0.366016;,
 0.350585;0.448061;,
 0.326367;0.333153;,
 0.350585;0.448061;,
 0.211914;0.315430;,
 0.211914;0.315430;,
 0.211209;0.191121;,
 0.132225;0.187573;,
 0.211209;0.191121;,
 0.173296;0.179452;,
 0.217850;0.375100;,
 0.173296;0.179452;,
 0.218353;0.440736;,
 0.440223;0.439260;,
 0.430254;0.179452;,
 0.440223;0.439260;,
 0.439719;0.373624;,
 0.430254;0.179452;,
 0.439719;0.373624;,
 0.359287;0.448003;,
 0.336445;0.330176;,
 0.359287;0.448003;,
 0.358658;0.365958;,
 0.358658;0.365958;,
 0.494755;0.365053;,
 0.494066;0.186211;,
 0.494066;0.186211;,
 0.495384;0.447098;,
 0.494066;0.186211;,
 0.493004;0.447114;,
 0.492375;0.365068;,
 0.491310;0.281999;,
 0.491310;0.281999;,
 0.035934;0.204331;,
 0.035934;0.292726;,
 0.096879;0.292726;,
 0.096879;0.204331;,
 0.494066;0.186211;,
 0.494066;0.186211;,
 0.336445;0.330176;,
 0.336445;0.330176;,
 0.430254;0.179452;,
 0.430254;0.179452;,
 0.021572;0.175534;,
 0.111240;0.175534;,
 0.328764;0.313512;,
 0.464694;0.267471;,
 0.464694;0.201727;,
 0.132225;0.187573;,
 0.132225;0.314675;,
 0.326367;0.333153;,
 0.326367;0.333153;,
 0.122449;0.334116;,
 0.010364;0.334116;,
 0.464694;0.201727;,
 0.464694;0.267471;,
 0.328764;0.313512;,
 0.000588;0.314675;,
 0.000588;0.196619;;
 }
}
}
Frame frm-cube24 {
  FrameTransformMatrix {
1.000000,0.000000,0.000000,0.000000,
0.000000,1.000000,0.000000,0.000000,
0.000000,0.000000,1.000000,0.000000,
-0.267385,0.717564,4.697418,1.000000;;
 }
Mesh cube24 {
 45;
 -0.416499;0.009202;-1.648211;,
 -0.416499;0.009202;-1.648211;,
 -0.416499;0.009202;-1.648211;,
 -0.416499;0.009202;-1.648211;,
 -0.416499;-1.017884;-1.648212;,
 -0.416499;-1.017884;-1.648212;,
 -0.416499;-1.017884;-1.648212;,
 -0.416499;-1.017884;-1.648212;,
 -1.050301;-1.017884;-1.648212;,
 -1.050301;-1.017884;-1.648212;,
 -1.050301;-1.017884;-1.648212;,
 -1.050301;-1.017884;-1.648212;,
 -1.050301;0.009202;-1.648211;,
 -1.050301;0.009202;-1.648211;,
 -1.050301;0.009202;-1.648211;,
 -0.416499;0.085916;-2.653629;,
 -1.050301;0.085916;-2.653630;,
 -0.416499;-0.505085;-2.653630;,
 -1.050301;-0.505085;-2.653630;,
 -0.434246;-0.043555;-1.854964;,
 -1.032554;-0.043555;-1.854964;,
 -0.434246;-0.972321;-1.855892;,
 -1.032554;-0.972321;-1.855892;,
 -0.416499;-1.069603;-2.272172;,
 -1.050301;-1.069603;-2.272172;,
 -1.050301;0.009202;-1.648211;,
 -1.050301;-1.017884;-1.648212;,
 -0.416499;-1.017884;-1.648212;,
 -0.416499;0.009202;-1.648211;,
 -1.050301;0.083702;-1.722711;,
 -0.416499;0.083702;-1.722711;,
 -0.361220;-0.845063;-2.184109;,
 -0.361220;-0.505970;-2.433980;,
 -0.361220;-0.134319;-2.433980;,
 -0.361220;-0.134320;-1.841339;,
 -0.361220;-0.845063;-1.841339;,
 -1.050301;-1.092384;-2.197671;,
 -0.416499;-1.092384;-2.197671;,
 -0.416499;-1.092384;-1.702339;,
 -1.050301;-1.092384;-1.702339;,
 -1.105580;-0.134319;-2.433980;,
 -1.105580;-0.505970;-2.433980;,
 -1.105580;-0.845063;-2.184109;,
 -1.105580;-0.845063;-1.841339;,
 -1.105580;-0.134320;-1.841339;;

 30;
 5;40,41,42,43,44;,
 4;36,37,38,39;,
 5;31,32,33,34,35;,
 4;15,16,29,30;,
 4;20,22,21,19;,
 4;17,23,24,18;,
 4;18,16,15,17;,
 4;42,41,18,24;,
 4;40,44,29,16;,
 4;44,43,11,14;,
 4;43,42,36,39;,
 4;37,36,24,23;,
 4;39,38,7,10;,
 4;38,37,31,35;,
 4;33,32,17,15;,
 4;35,34,3,6;,
 4;34,33,15,30;,
 4;9,5,21,22;,
 4;30,29,13,2;,
 4;32,31,23,17;,
 4;41,40,16,18;,
 4;4,1,19,21;,
 3;12,29,44;,
 3;8,43,39;,
 4;25,26,22,20;,
 3;24,36,42;,
 3;0,34,30;,
 3;27,38,35;,
 4;28,25,20,19;,
 3;23,31,37;;

 MeshMaterialList {
  2;
  30;
  0,
  0,
  0,
  0,
  1,
  0,
  0,
  0,
  0,
  0,
  0,
  0,
  0,
  0,
  0,
  0,
  0,
  1,
  0,
  0,
  0,
  1,
  0,
  0,
  1,
  0,
  0,
  0,
  1,
  0;
Material {
 1.000000;1.000000;1.000000;1.000000;;
 50.000000;
 1.000000;1.000000;1.000000;;
 0.0; 0.0; 0.0;;
 TextureFilename {
  "utl201.ppm";
 }
 }
Material {
 1.000000;1.000000;1.000000;1.000000;;
 50.000000;
 1.000000;1.000000;1.000000;;
 0.0; 0.0; 0.0;;
 TextureFilename {
  "utl201.ppm";
 }
 }
}
 MeshNormals {
  45;
  0.539525;-0.057530;0.840002;,
  0.539525;-0.057530;0.840002;,
  0.539525;-0.057530;0.840002;,
  0.539525;-0.057530;0.840002;,
  0.515640;0.144113;0.844599;,
  0.515640;0.144113;0.844599;,
  0.515640;0.144113;0.844599;,
  0.515640;0.144113;0.844599;,
  -0.515640;0.144113;0.844599;,
  -0.515640;0.144113;0.844599;,
  -0.515640;0.144113;0.844599;,
  -0.515640;0.144113;0.844599;,
  -0.539525;-0.057530;0.840002;,
  -0.539525;-0.057530;0.840002;,
  -0.539525;-0.057530;0.840002;,
  0.744979;0.472339;-0.471064;,
  -0.744979;0.472339;-0.471064;,
  0.612237;-0.235855;-0.754677;,
  -0.612237;-0.235855;-0.754677;,
  -0.653907;-0.473695;0.589932;,
  0.517325;-0.503638;0.691899;,
  -0.522677;0.511858;0.681770;,
  0.522677;0.511858;0.681770;,
  0.616916;-0.630131;-0.471539;,
  -0.616916;-0.630131;-0.471539;,
  -0.539525;-0.057530;0.840002;,
  -0.515640;0.144113;0.844599;,
  0.515640;0.144113;0.844599;,
  0.539525;-0.057530;0.840002;,
  -0.625105;0.721663;0.297400;,
  0.625105;0.721663;0.297400;,
  0.986001;-0.149317;-0.074206;,
  0.985797;-0.053787;-0.159097;,
  0.993169;0.082674;-0.082344;,
  0.988611;0.102436;0.110247;,
  0.989901;-0.086308;0.112460;,
  -0.624993;-0.772012;-0.115677;,
  0.624993;-0.772012;-0.115677;,
  0.635814;-0.688284;0.349293;,
  -0.635814;-0.688284;0.349293;,
  -0.993169;0.082675;-0.082344;,
  -0.985797;-0.053787;-0.159097;,
  -0.986001;-0.149317;-0.074206;,
  -0.989901;-0.086308;0.112460;,
  -0.988611;0.102436;0.110247;;

  30;
  5;40,41,42,43,44;,
  4;36,37,38,39;,
  5;31,32,33,34,35;,
  4;15,16,29,30;,
  4;20,22,21,19;,
  4;17,23,24,18;,
  4;18,16,15,17;,
  4;42,41,18,24;,
  4;40,44,29,16;,
  4;44,43,11,14;,
  4;43,42,36,39;,
  4;37,36,24,23;,
  4;39,38,7,10;,
  4;38,37,31,35;,
  4;33,32,17,15;,
  4;35,34,3,6;,
  4;34,33,15,30;,
  4;9,5,21,22;,
  4;30,29,13,2;,
  4;32,31,23,17;,
  4;41,40,16,18;,
  4;4,1,19,21;,
  3;12,29,44;,
  3;8,43,39;,
  4;25,26,22,20;,
  3;24,36,42;,
  3;0,34,30;,
  3;27,38,35;,
  4;28,25,20,19;,
  3;23,31,37;;
 }
 MeshTextureCoords { 
 45;
 0.503668;0.828467;,
 0.451728;0.515346;,
 0.503668;0.828467;,
 0.503668;0.828467;,
 0.451728;0.642007;,
 0.451728;0.642007;,
 0.503668;0.970877;,
 0.503668;0.970877;,
 0.503668;0.970877;,
 0.388116;0.642007;,
 0.503668;0.970877;,
 0.503668;0.970877;,
 0.503668;0.828467;,
 0.503668;0.828467;,
 0.503668;0.828467;,
 0.653720;0.817830;,
 0.653720;0.817830;,
 0.653720;0.899775;,
 0.653720;0.899775;,
 0.449946;0.521852;,
 0.389897;0.521852;,
 0.449946;0.636388;,
 0.389897;0.636388;,
 0.596790;0.978048;,
 0.596790;0.978048;,
 0.388116;0.515346;,
 0.388116;0.642007;,
 0.503668;0.970877;,
 0.451728;0.515346;,
 0.514787;0.818137;,
 0.514787;0.818137;,
 0.583647;0.946914;,
 0.620939;0.899898;,
 0.620939;0.848367;,
 0.532491;0.848367;,
 0.532491;0.946914;,
 0.585671;0.981206;,
 0.585671;0.981206;,
 0.511747;0.981206;,
 0.511747;0.981206;,
 0.620939;0.848367;,
 0.620939;0.899898;,
 0.583647;0.946914;,
 0.532491;0.946914;,
 0.532491;0.848367;;
 }
}
}
}
Frame frm-sphere3 {
  FrameTransformMatrix {
1.000000,0.000000,0.000000,0.000000,
0.000000,1.000000,0.000000,0.000000,
0.000000,0.000000,1.000000,0.000000,
-1.613727,1.248924,3.404016,1.000000;;
 }
Mesh sphere3 {
 15;
 0.644932;-0.000000;0.004812;,
 0.573326;-0.000000;-0.599631;,
 -0.000000;0.206644;-1.038592;,
 -0.000000;0.357919;-0.599631;,
 -0.000000;0.448832;-0.000000;,
 0.313964;0.103322;-1.038592;,
 0.473170;0.178959;-0.599631;,
 0.550880;0.227061;0.004812;,
 0.313964;-0.103322;-1.038592;,
 0.473170;-0.178959;-0.599631;,
 0.550880;-0.227061;0.004812;,
 -0.000000;-0.206645;-1.038592;,
 -0.000000;-0.357919;-0.599631;,
 0.000000;-0.448832;-0.000000;,
 -0.000000;-0.000000;-1.199263;;

 13;
 3;14,2,5;,
 4;5,2,3,6;,
 4;6,3,4,7;,
 4;12,9,10,13;,
 4;11,8,9,12;,
 3;14,8,11;,
 3;14,5,8;,
 3;5,6,1;,
 4;1,6,7,0;,
 4;0,10,9,1;,
 3;1,9,8;,
 3;1,8,5;,
 5;7,4,13,10,0;;

 MeshMaterialList {
  1;
  13;
  0,
  0,
  0,
  0,
  0,
  0,
  0,
  0,
  0,
  0,
  0,
  0,
  0;
Material {
 1.000000;1.000000;1.000000;1.000000;;
 50.000000;
 1.000000;1.000000;1.000000;;
 0.0; 0.0; 0.0;;
 TextureFilename {
  "utl201.ppm";
 }
 }
}
 MeshNormals {
  15;
  0.939681;0.000000;0.342051;,
  0.947343;0.000000;-0.320220;,
  0.288712;0.823970;-0.487563;,
  0.344950;0.915798;-0.205726;,
  0.268506;0.701005;0.660679;,
  0.605790;0.527421;-0.595689;,
  0.597935;0.765671;-0.237109;,
  0.589504;0.730867;0.343975;,
  0.605790;-0.527421;-0.595689;,
  0.597935;-0.765671;-0.237110;,
  0.589503;-0.730867;0.343975;,
  0.288712;-0.823970;-0.487563;,
  0.344950;-0.915798;-0.205726;,
  0.268506;-0.701005;0.660679;,
  0.322892;0.000000;-0.946436;;

  13;
  3;14,2,5;,
  4;5,2,3,6;,
  4;6,3,4,7;,
  4;12,9,10,13;,
  4;11,8,9,12;,
  3;14,8,11;,
  3;14,5,8;,
  3;5,6,1;,
  4;1,6,7,0;,
  4;0,10,9,1;,
  3;1,9,8;,
  3;1,8,5;,
  5;7,4,13,10,0;;
 }
 MeshTextureCoords { 
 15;
 0.211857;0.085938;,
 0.105901;0.085938;,
 0.028954;0.049953;,
 0.105901;0.023611;,
 0.211013;0.007780;,
 0.028954;0.067945;,
 0.105901;0.054774;,
 0.211857;0.046398;,
 0.028954;0.103930;,
 0.105901;0.117101;,
 0.211857;0.125477;,
 0.028954;0.121922;,
 0.105901;0.148264;,
 0.211013;0.164095;,
 0.000790;0.085938;;
 }
}
Frame frm-cyl1_1 {
  FrameTransformMatrix {
1.000000,0.000000,0.000000,0.000000,
0.000000,1.000000,0.000000,0.000000,
0.000000,0.000000,1.000000,0.000000,
0.296299,-0.000002,0.275777,1.000000;;
 }
Mesh cyl1_1 {
 64;
 0.277797;-0.284148;1.315372;,
 0.277797;-0.284148;1.315372;,
 0.395496;0.000001;1.315373;,
 0.395496;0.000001;1.315373;,
 0.277797;0.284150;1.315372;,
 0.277797;0.284150;1.315372;,
 -0.006353;0.401848;1.315373;,
 -0.006353;0.401848;1.315373;,
 -0.290503;0.284150;1.315373;,
 -0.290503;0.284150;1.315373;,
 -0.408201;0.000001;1.315373;,
 -0.408201;0.000001;1.315373;,
 -0.006353;-0.401847;1.315373;,
 -0.006353;-0.401847;1.315373;,
 -0.290503;-0.284148;1.315373;,
 -0.290503;-0.284148;1.315373;,
 0.216303;-0.221610;-0.278399;,
 0.308098;0.000001;-0.278399;,
 0.216303;0.221612;-0.278399;,
 -0.005308;0.313407;-0.278398;,
 -0.226920;0.221612;-0.278399;,
 -0.318715;0.000001;-0.278399;,
 -0.005308;-0.313405;-0.278398;,
 -0.226920;-0.221610;-0.278399;,
 -0.005308;-0.313405;0.114355;,
 -0.226920;-0.221610;0.114355;,
 -0.318715;0.000001;0.114355;,
 -0.226920;0.221612;0.114355;,
 -0.005308;0.313407;0.114355;,
 0.216303;0.221612;0.114355;,
 0.308098;0.000001;0.114355;,
 0.216303;-0.221610;0.114355;,
 -0.006353;0.331115;1.196151;,
 0.227781;0.234134;1.196151;,
 0.324762;0.000001;1.196151;,
 0.227781;-0.234132;1.196151;,
 -0.006353;-0.331113;1.196151;,
 -0.240487;-0.234132;1.196151;,
 -0.240487;0.234134;1.196151;,
 -0.337468;0.000001;1.196151;,
 -0.290503;-0.284148;1.315373;,
 -0.006353;-0.401847;1.315373;,
 -0.408201;0.000001;1.315373;,
 -0.290503;0.284150;1.315373;,
 -0.006353;0.401848;1.315373;,
 0.277797;0.284150;1.315372;,
 0.395496;0.000001;1.315373;,
 0.277797;-0.284148;1.315372;,
 0.474327;0.000001;1.264381;,
 0.474327;0.000001;0.396959;,
 0.333539;0.339892;1.264380;,
 0.333539;0.339892;0.396959;,
 -0.006353;0.480680;1.264380;,
 -0.006353;0.480680;0.396959;,
 -0.346245;0.339892;1.264381;,
 -0.346245;0.339892;0.396959;,
 -0.487033;0.000001;1.264381;,
 -0.487033;0.000001;0.396959;,
 -0.346245;-0.339890;1.264381;,
 -0.346245;-0.339890;0.396959;,
 -0.006353;-0.480678;1.264380;,
 -0.006353;-0.480678;0.396959;,
 0.333539;-0.339890;1.264380;,
 0.333539;-0.339890;0.396959;;

 41;
 4;60,58,59,61;,
 4;58,56,57,59;,
 4;56,54,55,57;,
 4;54,52,53,55;,
 4;52,50,51,53;,
 4;50,48,49,51;,
 4;22,16,31,24;,
 4;48,62,63,49;,
 8;32,38,39,37,36,35,34,33;,
 4;62,60,61,63;,
 4;3,1,62,48;,
 4;5,2,48,50;,
 4;7,4,50,52;,
 4;9,6,52,54;,
 4;11,8,54,56;,
 4;0,13,60,62;,
 4;15,10,56,58;,
 4;12,14,58,60;,
 4;39,38,43,42;,
 4;37,39,42,40;,
 4;36,37,40,41;,
 4;35,36,41,47;,
 4;34,35,47,46;,
 4;33,34,46,45;,
 4;32,33,45,44;,
 4;38,32,44,43;,
 4;31,30,49,63;,
 4;30,29,51,49;,
 4;29,28,53,51;,
 4;28,27,55,53;,
 4;27,26,57,55;,
 4;26,25,59,57;,
 4;24,31,63,61;,
 4;25,24,61,59;,
 4;23,22,24,25;,
 4;21,23,25,26;,
 4;20,21,26,27;,
 4;19,20,27,28;,
 4;18,19,28,29;,
 4;17,18,29,30;,
 4;16,17,30,31;;

 MeshMaterialList {
  2;
  41;
  0,
  0,
  0,
  0,
  0,
  0,
  0,
  0,
  1,
  0,
  0,
  0,
  0,
  0,
  0,
  0,
  0,
  0,
  1,
  1,
  1,
  1,
  1,
  1,
  1,
  1,
  0,
  0,
  0,
  0,
  0,
  0,
  0,
  0,
  0,
  0,
  0,
  0,
  0,
  0,
  0;
Material {
 1.000000;1.000000;1.000000;1.000000;;
 50.000000;
 1.000000;1.000000;1.000000;;
 0.0; 0.0; 0.0;;
 TextureFilename {
  "utl201.ppm";
 }
 }
Material {
 1.000000;1.000000;1.000000;1.000000;;
 50.000000;
 1.000000;1.000000;1.000000;;
 0.0; 0.0; 0.0;;
 TextureFilename {
  "utl201.ppm";
 }
 }
}
 MeshNormals {
  64;
  -0.239794;0.269024;0.932805;,
  -0.239794;0.269024;0.932805;,
  -0.228546;0.000000;0.973533;,
  -0.228546;0.000000;0.973533;,
  -0.239794;-0.269024;0.932805;,
  -0.239794;-0.269024;0.932805;,
  0.000000;-0.386990;0.922084;,
  0.000000;-0.386990;0.922084;,
  0.239795;-0.269024;0.932805;,
  0.239795;-0.269024;0.932805;,
  0.228546;0.000000;0.973533;,
  0.228546;0.000000;0.973533;,
  0.000000;0.386990;0.922084;,
  0.000000;0.386990;0.922084;,
  0.239795;0.269024;0.932805;,
  0.239795;0.269024;0.932805;,
  0.675671;-0.737203;0.000000;,
  1.000000;-0.000000;0.000000;,
  0.675671;0.737203;0.000000;,
  0.000000;1.000000;-0.000000;,
  -0.675671;0.737203;0.000000;,
  -1.000000;0.000000;0.000000;,
  0.000000;-1.000000;-0.000000;,
  -0.675671;-0.737203;0.000000;,
  0.000254;-0.976999;-0.213242;,
  -0.646175;-0.729116;-0.225495;,
  -0.970213;0.000000;-0.242252;,
  -0.646175;0.729116;-0.225495;,
  0.000254;0.976999;-0.213242;,
  0.646545;0.729165;-0.224271;,
  0.970724;-0.000000;-0.240198;,
  0.646545;-0.729165;-0.224271;,
  0.000000;-0.721932;0.691964;,
  -0.485998;-0.519711;0.702642;,
  -0.699091;0.000000;0.715033;,
  -0.485999;0.519711;0.702642;,
  -0.000000;0.721932;0.691964;,
  0.485999;0.519712;0.702641;,
  0.485999;-0.519712;0.702641;,
  0.699092;0.000000;0.715032;,
  0.239795;0.269024;0.932805;,
  0.000000;0.386990;0.922084;,
  0.228546;0.000000;0.973533;,
  0.239795;-0.269024;0.932805;,
  0.000000;-0.386990;0.922084;,
  -0.239794;-0.269024;0.932805;,
  -0.228546;0.000000;0.973533;,
  -0.239794;0.269024;0.932805;,
  0.878386;-0.000000;0.477952;,
  0.970724;-0.000000;-0.240198;,
  0.587442;0.652907;0.478146;,
  0.646546;0.729165;-0.224271;,
  0.000000;0.867896;0.496746;,
  0.000254;0.976999;-0.213242;,
  -0.587442;0.652907;0.478146;,
  -0.646176;0.729115;-0.225495;,
  -0.878386;0.000000;0.477951;,
  -0.970213;0.000000;-0.242252;,
  -0.587442;-0.652908;0.478146;,
  -0.646176;-0.729115;-0.225495;,
  0.000000;-0.867896;0.496746;,
  0.000254;-0.976999;-0.213242;,
  0.587442;-0.652908;0.478146;,
  0.646546;-0.729165;-0.224271;;

  41;
  4;60,58,59,61;,
  4;58,56,57,59;,
  4;56,54,55,57;,
  4;54,52,53,55;,
  4;52,50,51,53;,
  4;50,48,49,51;,
  4;22,16,31,24;,
  4;48,62,63,49;,
  8;32,38,39,37,36,35,34,33;,
  4;62,60,61,63;,
  4;3,1,62,48;,
  4;5,2,48,50;,
  4;7,4,50,52;,
  4;9,6,52,54;,
  4;11,8,54,56;,
  4;0,13,60,62;,
  4;15,10,56,58;,
  4;12,14,58,60;,
  4;39,38,43,42;,
  4;37,39,42,40;,
  4;36,37,40,41;,
  4;35,36,41,47;,
  4;34,35,47,46;,
  4;33,34,46,45;,
  4;32,33,45,44;,
  4;38,32,44,43;,
  4;31,30,49,63;,
  4;30,29,51,49;,
  4;29,28,53,51;,
  4;28,27,55,53;,
  4;27,26,57,55;,
  4;26,25,59,57;,
  4;24,31,63,61;,
  4;25,24,61,59;,
  4;23,22,24,25;,
  4;21,23,25,26;,
  4;20,21,26,27;,
  4;19,20,27,28;,
  4;18,19,28,29;,
  4;17,18,29,30;,
  4;16,17,30,31;;
 }
 MeshTextureCoords { 
 64;
 0.491793;0.133016;,
 0.491793;0.133016;,
 0.491793;0.085801;,
 0.491793;0.085801;,
 0.491793;0.036698;,
 0.491793;0.036698;,
 0.491793;0.015923;,
 0.491793;0.015923;,
 0.491793;0.036698;,
 0.491793;0.036698;,
 0.491793;0.085801;,
 0.491793;0.085801;,
 0.491793;0.153791;,
 0.491793;0.153791;,
 0.491793;0.133016;,
 0.491793;0.133016;,
 0.219787;0.123573;,
 0.219787;0.085801;,
 0.219787;0.046140;,
 0.219787;0.034809;,
 0.219787;0.046140;,
 0.219787;0.085801;,
 0.219787;0.138682;,
 0.219787;0.123573;,
 0.283567;0.138682;,
 0.283567;0.123573;,
 0.283567;0.085801;,
 0.283567;0.046140;,
 0.283567;0.034809;,
 0.283567;0.046140;,
 0.283567;0.085801;,
 0.283567;0.123573;,
 0.417969;0.500834;,
 0.469341;0.522328;,
 0.490620;0.574219;,
 0.469341;0.626110;,
 0.417969;0.647603;,
 0.366596;0.626110;,
 0.366596;0.522328;,
 0.345317;0.574219;,
 0.355622;0.637195;,
 0.417969;0.663280;,
 0.329797;0.574219;,
 0.355622;0.511243;,
 0.417969;0.485158;,
 0.480315;0.511243;,
 0.506140;0.574219;,
 0.480315;0.637195;,
 0.482413;0.085801;,
 0.332341;0.085801;,
 0.482413;0.027254;,
 0.332341;0.027254;,
 0.482413;0.004591;,
 0.332341;0.004591;,
 0.482413;0.027254;,
 0.332341;0.027254;,
 0.482413;0.085801;,
 0.332341;0.085801;,
 0.482413;0.142460;,
 0.332341;0.142460;,
 0.484289;0.167011;,
 0.332341;0.167011;,
 0.482413;0.142460;,
 0.332341;0.142460;;
 }
}
}
}
Frame frm-cube26 {
  FrameTransformMatrix {
1.000000,0.000000,0.000000,0.000000,
0.000000,1.000000,0.000000,0.000000,
0.000000,0.000000,1.000000,0.000000,
1.119784,0.565925,1.642301,1.000000;;
 }
Mesh cube26 {
 42;
 -1.415500;-1.092384;0.184410;,
 -0.257329;-1.092384;0.184410;,
 -0.257329;-1.092384;0.184410;,
 -0.257329;0.083701;0.204783;,
 -0.257329;0.083701;0.204783;,
 -1.415500;0.083701;0.204783;,
 -1.415500;0.083701;1.333275;,
 -0.257329;0.083701;1.333275;,
 -0.257329;0.083701;1.333275;,
 -0.257329;-0.180809;0.034897;,
 -0.257329;-0.827873;0.034897;,
 -0.257329;-0.827873;0.034897;,
 -1.415500;-0.827873;0.034897;,
 -1.415500;-0.827873;0.034897;,
 -1.415500;-0.180809;0.034897;,
 -1.415500;-0.180809;0.034897;,
 -0.257329;-0.069188;1.489999;,
 -0.257329;-0.069188;1.489999;,
 -1.415500;-0.069188;1.489999;,
 -1.415500;-0.069188;1.489999;,
 -1.415500;-0.700968;1.469626;,
 -1.415500;-0.700968;1.469626;,
 -0.257329;-0.700968;1.469626;,
 -0.257329;-1.092384;0.988735;,
 -0.257329;-1.092384;0.988735;,
 -1.415500;-1.092384;0.988735;,
 -1.415500;-1.092384;0.988735;,
 -0.257329;-1.092384;0.988735;,
 -0.257329;-0.700968;1.469626;,
 -1.415500;-0.700968;1.469626;,
 -1.415500;-0.069188;1.489999;,
 -0.257329;-0.069188;1.489999;,
 -1.415500;-0.180809;0.034897;,
 -1.415500;-0.827873;0.034897;,
 -0.257329;-0.827873;0.034897;,
 -0.257329;-0.180809;0.034897;,
 -0.257329;0.083701;1.333275;,
 -1.415500;0.083701;1.333275;,
 -1.415500;0.083701;0.204783;,
 -0.257329;0.083701;0.204783;,
 -0.257329;-1.092384;0.184410;,
 -1.415500;-1.092384;0.184410;;

 10;
 8;5,15,13,0,25,21,19,6;,
 4;41,2,24,26;,
 4;9,14,38,4;,
 4;3,38,37,8;,
 4;35,11,12,32;,
 4;20,26,23,22;,
 4;28,17,18,29;,
 4;30,16,7,37;,
 4;33,10,1,41;,
 8;36,31,28,27,40,34,35,39;;

 MeshMaterialList {
  3;
  10;
  0,
  1,
  2,
  2,
  0,
  1,
  0,
  2,
  1,
  0;
Material {
 1.000000;1.000000;1.000000;1.000000;;
 50.000000;
 1.000000;1.000000;1.000000;;
 0.0; 0.0; 0.0;;
 TextureFilename {
  "utl201.ppm";
 }
 }
Material {
 1.000000;1.000000;1.000000;1.000000;;
 50.000000;
 1.000000;1.000000;1.000000;;
 0.0; 0.0; 0.0;;
 TextureFilename {
  "utl201.ppm";
 }
 }
Material {
 1.000000;1.000000;1.000000;1.000000;;
 50.000000;
 1.000000;1.000000;1.000000;;
 0.0; 0.0; 0.0;;
 TextureFilename {
  "utl201.ppm";
 }
 }
}
 MeshNormals {
  42;
  -0.500994;-0.747520;-0.436142;,
  0.500994;-0.747520;-0.436142;,
  0.500994;-0.747520;-0.436142;,
  0.447214;0.784960;-0.428763;,
  0.447214;0.784960;-0.428763;,
  -0.447214;0.784960;-0.428763;,
  -0.447214;0.828447;0.337158;,
  0.447214;0.828447;0.337158;,
  0.447214;0.828447;0.337158;,
  0.447214;0.251869;-0.858232;,
  0.447214;-0.227549;-0.864998;,
  0.447214;-0.227549;-0.864998;,
  -0.447214;-0.227549;-0.864998;,
  -0.447214;-0.227549;-0.864998;,
  -0.447214;0.251869;-0.858232;,
  -0.447214;0.251869;-0.858232;,
  0.447214;0.334065;0.829699;,
  0.447214;0.334065;0.829699;,
  -0.447214;0.334065;0.829699;,
  -0.447214;0.334065;0.829699;,
  -0.447214;-0.397019;0.801483;,
  -0.447214;-0.397019;0.801483;,
  0.447214;-0.397019;0.801483;,
  0.727820;-0.646147;0.229723;,
  0.727820;-0.646147;0.229723;,
  -0.727820;-0.646147;0.229723;,
  -0.727820;-0.646147;0.229723;,
  0.727820;-0.646147;0.229723;,
  0.447214;-0.397019;0.801483;,
  -0.447214;-0.397019;0.801483;,
  -0.447214;0.334065;0.829699;,
  0.447214;0.334065;0.829699;,
  -0.447214;0.251869;-0.858232;,
  -0.447214;-0.227549;-0.864998;,
  0.447214;-0.227549;-0.864998;,
  0.447214;0.251869;-0.858232;,
  0.447214;0.828447;0.337158;,
  -0.447214;0.828447;0.337158;,
  -0.447214;0.784960;-0.428763;,
  0.447214;0.784960;-0.428763;,
  0.500994;-0.747520;-0.436142;,
  -0.500994;-0.747520;-0.436142;;

  10;
  8;5,15,13,0,25,21,19,6;,
  4;41,2,24,26;,
  4;9,14,38,4;,
  4;3,38,37,8;,
  4;35,11,12,32;,
  4;20,26,23,22;,
  4;28,17,18,29;,
  4;30,16,7,37;,
  4;33,10,1,41;,
  8;36,31,28,27,40,34,35,39;;
 }
 MeshTextureCoords { 
 42;
 0.655920;0.023621;,
 0.671375;0.382052;,
 0.671375;0.382052;,
 0.673284;0.231676;,
 0.673284;0.231676;,
 0.831834;0.029043;,
 0.831200;0.202438;,
 0.811423;0.231559;,
 0.811423;0.231559;,
 0.652488;0.231693;,
 0.652727;0.382075;,
 0.696248;0.002326;,
 0.696248;0.002326;,
 0.696248;0.002326;,
 0.652694;0.372145;,
 0.792559;0.002761;,
 0.830607;0.231543;,
 0.808355;0.226416;,
 0.808355;0.226416;,
 0.808355;0.226416;,
 0.831858;0.522379;,
 0.714330;0.222860;,
 0.831671;0.381856;,
 0.771693;0.381929;,
 0.771693;0.381929;,
 0.656341;0.148707;,
 0.771879;0.522453;,
 0.656341;0.148707;,
 0.714330;0.222860;,
 0.714330;0.222860;,
 0.830813;0.371994;,
 0.808355;0.226416;,
 0.792559;0.002761;,
 0.652913;0.522598;,
 0.696248;0.002326;,
 0.792559;0.002761;,
 0.831200;0.202438;,
 0.811628;0.372011;,
 0.673490;0.372128;,
 0.831834;0.029043;,
 0.655920;0.023621;,
 0.671561;0.522576;;
 }
}
Frame frm-cube23 {
  FrameTransformMatrix {
1.000000,0.000000,0.000000,0.000000,
0.000000,1.000000,0.000000,0.000000,
0.000000,0.000000,1.000000,0.000000,
-0.989690,-0.341625,1.531356,1.000000;;
 }
Mesh cube23 {
 8;
 0.570590;0.266600;-0.061322;,
 0.570590;0.157633;0.112471;,
 0.570590;-0.355625;-0.066497;,
 0.570590;-0.465421;0.112471;,
 -0.266600;0.266600;-0.061322;,
 -0.266600;0.157633;0.112471;,
 -0.266600;-0.355625;-0.066497;,
 -0.266600;-0.465421;0.112471;;

 4;
 4;5,4,6,7;,
 4;7,6,2,3;,
 4;0,1,3,2;,
 4;1,0,4,5;;

 MeshMaterialList {
  1;
  4;
  0,
  0,
  0,
  0;
Material {
 1.000000;1.000000;1.000000;1.000000;;
 50.000000;
 1.000000;1.000000;1.000000;;
 0.000000;0.000000;0.000000;;
 TextureFilename {
  "utl201.ppm";
 }
 }
}
 MeshNormals {
  8;
  0.707107;0.599088;0.375624;,
  0.707107;0.599088;0.375624;,
  0.707107;-0.602721;-0.369767;,
  0.707107;-0.602721;-0.369767;,
  -0.707107;0.599088;0.375624;,
  -0.707107;0.599088;0.375624;,
  -0.707107;-0.602721;-0.369767;,
  -0.707107;-0.602721;-0.369767;;

  4;
  4;5,4,6,7;,
  4;7,6,2,3;,
  4;0,1,3,2;,
  4;1,0,4,5;;
 }
 MeshTextureCoords { 
 8;
 0.000000;1.000000;,
 0.000000;1.000000;,
 0.000000;1.000000;,
 0.000000;1.000000;,
 0.000000;1.000000;,
 0.000000;1.000000;,
 0.000000;1.000000;,
 0.000000;1.000000;;
 }
}
Frame frm-cube32 {
  FrameTransformMatrix {
1.000000,0.000000,0.000000,0.000000,
0.000000,1.000000,0.000000,0.000000,
0.000000,0.000000,1.000000,0.000000,
0.989690,0.341625,0.073437,1.000000;;
 }
Mesh cube32 {
 42;
 -1.415500;-1.092384;0.184410;,
 -0.257329;-1.092384;0.184410;,
 -0.257329;-1.092384;0.184410;,
 -0.257329;0.083701;0.204783;,
 -0.257329;0.083701;0.204783;,
 -1.415500;0.083701;0.204783;,
 -1.415500;0.083701;1.333275;,
 -0.257329;0.083701;1.333275;,
 -0.257329;0.083701;1.333275;,
 -0.257329;-0.180809;0.034897;,
 -0.257329;-0.827873;0.034897;,
 -0.257329;-0.827873;0.034897;,
 -1.415500;-0.827873;0.034897;,
 -1.415500;-0.827873;0.034897;,
 -1.415500;-0.180809;0.034897;,
 -1.415500;-0.180809;0.034897;,
 -0.257329;-0.069188;1.489999;,
 -0.257329;-0.069188;1.489999;,
 -1.415500;-0.069188;1.489999;,
 -1.415500;-0.069188;1.489999;,
 -1.415500;-0.700968;1.469626;,
 -1.415500;-0.700968;1.469626;,
 -0.257329;-0.700968;1.469626;,
 -0.257329;-1.092384;0.988735;,
 -0.257329;-1.092384;0.988735;,
 -1.415500;-1.092384;0.988735;,
 -1.415500;-1.092384;0.988735;,
 -0.257329;-1.092384;0.988735;,
 -0.257329;-0.700968;1.469626;,
 -1.415500;-0.700968;1.469626;,
 -1.415500;-0.069188;1.489999;,
 -0.257329;-0.069188;1.489999;,
 -1.415500;-0.180809;0.034897;,
 -1.415500;-0.827873;0.034897;,
 -0.257329;-0.827873;0.034897;,
 -0.257329;-0.180809;0.034897;,
 -0.257329;0.083701;1.333275;,
 -1.415500;0.083701;1.333275;,
 -1.415500;0.083701;0.204783;,
 -0.257329;0.083701;0.204783;,
 -0.257329;-1.092384;0.184410;,
 -1.415500;-1.092384;0.184410;;

 10;
 8;5,15,13,0,25,21,19,6;,
 4;41,2,24,26;,
 4;9,14,38,4;,
 4;3,38,37,8;,
 4;35,11,12,32;,
 4;20,26,23,22;,
 4;28,17,18,29;,
 4;30,16,7,37;,
 4;33,10,1,41;,
 8;36,31,28,27,40,34,35,39;;

 MeshMaterialList {
  3;
  10;
  0,
  1,
  2,
  2,
  0,
  1,
  0,
  2,
  1,
  0;
Material {
 1.000000;1.000000;1.000000;1.000000;;
 50.000000;
 1.000000;1.000000;1.000000;;
 0.0; 0.0; 0.0;;
 TextureFilename {
  "utl201.ppm";
 }
 }
Material {
 1.000000;1.000000;1.000000;1.000000;;
 50.000000;
 1.000000;1.000000;1.000000;;
 0.0; 0.0; 0.0;;
 TextureFilename {
  "utl201.ppm";
 }
 }
Material {
 1.000000;1.000000;1.000000;1.000000;;
 50.000000;
 1.000000;1.000000;1.000000;;
 0.0; 0.0; 0.0;;
 TextureFilename {
  "utl201.ppm";
 }
 }
}
 MeshNormals {
  42;
  -0.500994;-0.747520;-0.436142;,
  0.500994;-0.747520;-0.436142;,
  0.500994;-0.747520;-0.436142;,
  0.447214;0.784960;-0.428763;,
  0.447214;0.784960;-0.428763;,
  -0.447214;0.784960;-0.428763;,
  -0.447214;0.828447;0.337158;,
  0.447214;0.828447;0.337158;,
  0.447214;0.828447;0.337158;,
  0.447214;0.251869;-0.858232;,
  0.447214;-0.227549;-0.864998;,
  0.447214;-0.227549;-0.864998;,
  -0.447214;-0.227549;-0.864998;,
  -0.447214;-0.227549;-0.864998;,
  -0.447214;0.251869;-0.858232;,
  -0.447214;0.251869;-0.858232;,
  0.447214;0.334065;0.829699;,
  0.447214;0.334065;0.829699;,
  -0.447214;0.334065;0.829699;,
  -0.447214;0.334065;0.829699;,
  -0.447214;-0.397019;0.801483;,
  -0.447214;-0.397019;0.801483;,
  0.447214;-0.397019;0.801483;,
  0.727820;-0.646147;0.229723;,
  0.727820;-0.646147;0.229723;,
  -0.727820;-0.646147;0.229723;,
  -0.727820;-0.646147;0.229723;,
  0.727820;-0.646147;0.229723;,
  0.447214;-0.397019;0.801483;,
  -0.447214;-0.397019;0.801483;,
  -0.447214;0.334065;0.829699;,
  0.447214;0.334065;0.829699;,
  -0.447214;0.251869;-0.858232;,
  -0.447214;-0.227549;-0.864998;,
  0.447214;-0.227549;-0.864998;,
  0.447214;0.251869;-0.858232;,
  0.447214;0.828447;0.337158;,
  -0.447214;0.828447;0.337158;,
  -0.447214;0.784960;-0.428763;,
  0.447214;0.784960;-0.428763;,
  0.500994;-0.747520;-0.436142;,
  -0.500994;-0.747520;-0.436142;;

  10;
  8;5,15,13,0,25,21,19,6;,
  4;41,2,24,26;,
  4;9,14,38,4;,
  4;3,38,37,8;,
  4;35,11,12,32;,
  4;20,26,23,22;,
  4;28,17,18,29;,
  4;30,16,7,37;,
  4;33,10,1,41;,
  8;36,31,28,27,40,34,35,39;;
 }
 MeshTextureCoords { 
 42;
 0.655920;0.023621;,
 0.671375;0.382052;,
 0.671375;0.382052;,
 0.673284;0.231676;,
 0.673284;0.231676;,
 0.831834;0.029043;,
 0.831200;0.202438;,
 0.811423;0.231559;,
 0.811423;0.231559;,
 0.652488;0.231693;,
 0.652727;0.382075;,
 0.696248;0.002326;,
 0.696248;0.002326;,
 0.696248;0.002326;,
 0.652694;0.372145;,
 0.792559;0.002761;,
 0.830607;0.231543;,
 0.808355;0.226416;,
 0.808355;0.226416;,
 0.808355;0.226416;,
 0.831858;0.522379;,
 0.714330;0.222860;,
 0.831671;0.381856;,
 0.771693;0.381929;,
 0.771693;0.381929;,
 0.656341;0.148707;,
 0.771879;0.522453;,
 0.656341;0.148707;,
 0.714330;0.222860;,
 0.714330;0.222860;,
 0.830813;0.371994;,
 0.808355;0.226416;,
 0.792559;0.002761;,
 0.652913;0.522598;,
 0.696248;0.002326;,
 0.792559;0.002761;,
 0.831200;0.202438;,
 0.811628;0.372011;,
 0.673490;0.372128;,
 0.831834;0.029043;,
 0.655920;0.023621;,
 0.671561;0.522576;;
 }
}
Frame frm-cube30 {
  FrameTransformMatrix {
1.000000,0.000000,0.000000,0.000000,
0.000000,1.000000,0.000000,0.000000,
0.000000,0.000000,1.000000,0.000000,
-0.989690,-0.341625,1.533072,1.000000;;
 }
Mesh cube30 {
 8;
 0.570590;0.266600;-0.061322;,
 0.570590;0.157633;0.112471;,
 0.570590;-0.355625;-0.066497;,
 0.570590;-0.465421;0.112471;,
 -0.266600;0.266600;-0.061322;,
 -0.266600;0.157633;0.112471;,
 -0.266600;-0.355625;-0.066497;,
 -0.266600;-0.465421;0.112471;;

 4;
 4;5,4,6,7;,
 4;7,6,2,3;,
 4;0,1,3,2;,
 4;1,0,4,5;;

 MeshMaterialList {
  1;
  4;
  0,
  0,
  0,
  0;
Material {
 1.000000;1.000000;1.000000;1.000000;;
 50.000000;
 1.000000;1.000000;1.000000;;
 0.000000;0.000000;0.000000;;
 TextureFilename {
  "utl201.ppm";
 }
 }
}
 MeshNormals {
  8;
  0.707107;0.599088;0.375624;,
  0.707107;0.599088;0.375624;,
  0.707107;-0.602721;-0.369767;,
  0.707107;-0.602721;-0.369767;,
  -0.707107;0.599088;0.375624;,
  -0.707107;0.599088;0.375624;,
  -0.707107;-0.602721;-0.369767;,
  -0.707107;-0.602721;-0.369767;;

  4;
  4;5,4,6,7;,
  4;7,6,2,3;,
  4;0,1,3,2;,
  4;1,0,4,5;;
 }
 MeshTextureCoords { 
 8;
 0.000000;1.000000;,
 0.000000;1.000000;,
 0.000000;1.000000;,
 0.000000;1.000000;,
 0.000000;1.000000;,
 0.000000;1.000000;,
 0.000000;1.000000;,
 0.000000;1.000000;;
 }
}
Frame frm-cube33 {
  FrameTransformMatrix {
1.000000,0.000000,0.000000,0.000000,
0.000000,1.000000,0.000000,0.000000,
0.000000,0.000000,1.000000,0.000000,
0.989690,0.341625,0.086355,1.000000;;
 }
Mesh cube33 {
 42;
 -1.415500;-1.092384;0.184410;,
 -0.257329;-1.092384;0.184410;,
 -0.257329;-1.092384;0.184410;,
 -0.257329;0.083701;0.204783;,
 -0.257329;0.083701;0.204783;,
 -1.415500;0.083701;0.204783;,
 -1.415500;0.083701;1.333275;,
 -0.257329;0.083701;1.333275;,
 -0.257329;0.083701;1.333275;,
 -0.257329;-0.180809;0.034897;,
 -0.257329;-0.827873;0.034897;,
 -0.257329;-0.827873;0.034897;,
 -1.415500;-0.827873;0.034897;,
 -1.415500;-0.827873;0.034897;,
 -1.415500;-0.180809;0.034897;,
 -1.415500;-0.180809;0.034897;,
 -0.257329;-0.069188;1.489999;,
 -0.257329;-0.069188;1.489999;,
 -1.415500;-0.069188;1.489999;,
 -1.415500;-0.069188;1.489999;,
 -1.415500;-0.700968;1.469626;,
 -1.415500;-0.700968;1.469626;,
 -0.257329;-0.700968;1.469626;,
 -0.257329;-1.092384;0.988735;,
 -0.257329;-1.092384;0.988735;,
 -1.415500;-1.092384;0.988735;,
 -1.415500;-1.092384;0.988735;,
 -0.257329;-1.092384;0.988735;,
 -0.257329;-0.700968;1.469626;,
 -1.415500;-0.700968;1.469626;,
 -1.415500;-0.069188;1.489999;,
 -0.257329;-0.069188;1.489999;,
 -1.415500;-0.180809;0.034897;,
 -1.415500;-0.827873;0.034897;,
 -0.257329;-0.827873;0.034897;,
 -0.257329;-0.180809;0.034897;,
 -0.257329;0.083701;1.333275;,
 -1.415500;0.083701;1.333275;,
 -1.415500;0.083701;0.204783;,
 -0.257329;0.083701;0.204783;,
 -0.257329;-1.092384;0.184410;,
 -1.415500;-1.092384;0.184410;;

 10;
 8;5,15,13,0,25,21,19,6;,
 4;41,2,24,26;,
 4;9,14,38,4;,
 4;3,38,37,8;,
 4;35,11,12,32;,
 4;20,26,23,22;,
 4;28,17,18,29;,
 4;30,16,7,37;,
 4;33,10,1,41;,
 8;36,31,28,27,40,34,35,39;;

 MeshMaterialList {
  3;
  10;
  0,
  1,
  2,
  2,
  0,
  1,
  0,
  2,
  1,
  0;
Material {
 1.000000;1.000000;1.000000;1.000000;;
 50.000000;
 1.000000;1.000000;1.000000;;
 0.0; 0.0; 0.0;;
 TextureFilename {
  "utl201.ppm";
 }
 }
Material {
 1.000000;1.000000;1.000000;1.000000;;
 50.000000;
 1.000000;1.000000;1.000000;;
 0.0; 0.0; 0.0;;
 TextureFilename {
  "utl201.ppm";
 }
 }
Material {
 1.000000;1.000000;1.000000;1.000000;;
 50.000000;
 1.000000;1.000000;1.000000;;
 0.0; 0.0; 0.0;;
 TextureFilename {
  "utl201.ppm";
 }
 }
}
 MeshNormals {
  42;
  -0.500994;-0.747520;-0.436142;,
  0.500994;-0.747520;-0.436142;,
  0.500994;-0.747520;-0.436142;,
  0.447214;0.784960;-0.428763;,
  0.447214;0.784960;-0.428763;,
  -0.447214;0.784960;-0.428763;,
  -0.447214;0.828447;0.337158;,
  0.447214;0.828447;0.337158;,
  0.447214;0.828447;0.337158;,
  0.447214;0.251869;-0.858232;,
  0.447214;-0.227549;-0.864998;,
  0.447214;-0.227549;-0.864998;,
  -0.447214;-0.227549;-0.864998;,
  -0.447214;-0.227549;-0.864998;,
  -0.447214;0.251869;-0.858232;,
  -0.447214;0.251869;-0.858232;,
  0.447214;0.334065;0.829699;,
  0.447214;0.334065;0.829699;,
  -0.447214;0.334065;0.829699;,
  -0.447214;0.334065;0.829699;,
  -0.447214;-0.397019;0.801483;,
  -0.447214;-0.397019;0.801483;,
  0.447214;-0.397019;0.801483;,
  0.727820;-0.646147;0.229723;,
  0.727820;-0.646147;0.229723;,
  -0.727820;-0.646147;0.229723;,
  -0.727820;-0.646147;0.229723;,
  0.727820;-0.646147;0.229723;,
  0.447214;-0.397019;0.801483;,
  -0.447214;-0.397019;0.801483;,
  -0.447214;0.334065;0.829699;,
  0.447214;0.334065;0.829699;,
  -0.447214;0.251869;-0.858232;,
  -0.447214;-0.227549;-0.864998;,
  0.447214;-0.227549;-0.864998;,
  0.447214;0.251869;-0.858232;,
  0.447214;0.828447;0.337158;,
  -0.447214;0.828447;0.337158;,
  -0.447214;0.784960;-0.428763;,
  0.447214;0.784960;-0.428763;,
  0.500994;-0.747520;-0.436142;,
  -0.500994;-0.747520;-0.436142;;

  10;
  8;5,15,13,0,25,21,19,6;,
  4;41,2,24,26;,
  4;9,14,38,4;,
  4;3,38,37,8;,
  4;35,11,12,32;,
  4;20,26,23,22;,
  4;28,17,18,29;,
  4;30,16,7,37;,
  4;33,10,1,41;,
  8;36,31,28,27,40,34,35,39;;
 }
 MeshTextureCoords { 
 42;
 0.655920;0.023621;,
 0.671375;0.382052;,
 0.671375;0.382052;,
 0.673284;0.231676;,
 0.673284;0.231676;,
 0.831834;0.029043;,
 0.831200;0.202438;,
 0.811423;0.231559;,
 0.811423;0.231559;,
 0.652488;0.231693;,
 0.652727;0.382075;,
 0.696248;0.002326;,
 0.696248;0.002326;,
 0.696248;0.002326;,
 0.652694;0.372145;,
 0.792559;0.002761;,
 0.830607;0.231543;,
 0.808355;0.226416;,
 0.808355;0.226416;,
 0.808355;0.226416;,
 0.831858;0.522379;,
 0.714330;0.222860;,
 0.831671;0.381856;,
 0.771693;0.381929;,
 0.771693;0.381929;,
 0.656341;0.148707;,
 0.771879;0.522453;,
 0.656341;0.148707;,
 0.714330;0.222860;,
 0.714330;0.222860;,
 0.830813;0.371994;,
 0.808355;0.226416;,
 0.792559;0.002761;,
 0.652913;0.522598;,
 0.696248;0.002326;,
 0.792559;0.002761;,
 0.831200;0.202438;,
 0.811628;0.372011;,
 0.673490;0.372128;,
 0.831834;0.029043;,
 0.655920;0.023621;,
 0.671561;0.522576;;
 }
}
Frame frm-cube27 {
  FrameTransformMatrix {
1.000000,0.000000,0.000000,0.000000,
0.000000,1.000000,0.000000,0.000000,
0.000000,0.000000,1.000000,0.000000,
-0.989690,-0.341625,1.541015,1.000000;;
 }
Mesh cube27 {
 8;
 0.570590;0.266600;-0.061322;,
 0.570590;0.157633;0.112471;,
 0.570590;-0.355625;-0.066497;,
 0.570590;-0.465421;0.112471;,
 -0.266600;0.266600;-0.061322;,
 -0.266600;0.157633;0.112471;,
 -0.266600;-0.355625;-0.066497;,
 -0.266600;-0.465421;0.112471;;

 4;
 4;5,4,6,7;,
 4;7,6,2,3;,
 4;0,1,3,2;,
 4;1,0,4,5;;

 MeshMaterialList {
  1;
  4;
  0,
  0,
  0,
  0;
Material {
 1.000000;1.000000;1.000000;1.000000;;
 50.000000;
 1.000000;1.000000;1.000000;;
 0.000000;0.000000;0.000000;;
 TextureFilename {
  "utl201.ppm";
 }
 }
}
 MeshNormals {
  8;
  0.707107;0.599088;0.375624;,
  0.707107;0.599088;0.375624;,
  0.707107;-0.602721;-0.369767;,
  0.707107;-0.602721;-0.369767;,
  -0.707107;0.599088;0.375624;,
  -0.707107;0.599088;0.375624;,
  -0.707107;-0.602721;-0.369767;,
  -0.707107;-0.602721;-0.369767;;

  4;
  4;5,4,6,7;,
  4;7,6,2,3;,
  4;0,1,3,2;,
  4;1,0,4,5;;
 }
 MeshTextureCoords { 
 8;
 0.000000;1.000000;,
 0.000000;1.000000;,
 0.000000;1.000000;,
 0.000000;1.000000;,
 0.000000;1.000000;,
 0.000000;1.000000;,
 0.000000;1.000000;,
 0.000000;1.000000;;
 }
}
}
}
}
}
}
}
}
Frame frm-cube34 {
  FrameTransformMatrix {
1.000000,0.000000,0.000000,0.000000,
0.000000,1.000000,0.000000,0.000000,
0.000000,0.000000,1.000000,0.000000,
2.013450,0.422675,5.818142,1.000000;;
 }
Mesh cube34 {
 43;
 -1.415500;-1.092384;0.184410;,
 -0.257329;-1.092384;0.184410;,
 -0.257329;-1.092384;0.184410;,
 -0.257329;0.083701;0.204783;,
 -0.257329;0.083701;0.204783;,
 -1.415500;0.083701;0.204783;,
 -1.415500;0.083701;1.333275;,
 -1.415500;0.083701;1.333275;,
 -0.257329;0.083701;1.333275;,
 -0.257329;0.083701;1.333275;,
 -0.257329;-0.180809;0.034897;,
 -0.257329;-0.827873;0.034897;,
 -0.257329;-0.827873;0.034897;,
 -1.415500;-0.827873;0.034897;,
 -1.415500;-0.827873;0.034897;,
 -1.415500;-0.180809;0.034897;,
 -1.415500;-0.180809;0.034897;,
 -0.257329;-0.069188;1.489999;,
 -0.257329;-0.069188;1.489999;,
 -1.415500;-0.069188;1.489999;,
 -1.415500;-0.700968;1.469626;,
 -1.415500;-0.700968;1.469626;,
 -0.257329;-0.700968;1.469626;,
 -0.257329;-0.700968;1.469626;,
 -0.257329;-1.092384;0.988735;,
 -0.257329;-1.092384;0.988735;,
 -1.415500;-1.092384;0.988735;,
 -1.415500;-1.092384;0.988735;,
 -0.257329;-1.092384;0.988735;,
 -0.257329;-0.700968;1.469626;,
 -1.415500;-0.700968;1.469626;,
 -1.415500;-0.069188;1.489999;,
 -0.257329;-0.069188;1.489999;,
 -1.415500;-0.180809;0.034897;,
 -1.415500;-0.827873;0.034897;,
 -0.257329;-0.827873;0.034897;,
 -0.257329;-0.180809;0.034897;,
 -0.257329;0.083701;1.333275;,
 -1.415500;0.083701;1.333275;,
 -1.415500;0.083701;0.204783;,
 -0.257329;0.083701;0.204783;,
 -0.257329;-1.092384;0.184410;,
 -1.415500;-1.092384;0.184410;;

 10;
 8;5,16,14,0,26,21,19,7;,
 4;42,2,25,27;,
 4;10,15,39,4;,
 4;3,39,6,9;,
 4;36,12,13,33;,
 4;20,27,24,23;,
 4;22,18,31,30;,
 4;31,17,8,38;,
 4;34,11,1,42;,
 8;37,32,29,28,41,35,36,40;;

 MeshMaterialList {
  4;
  10;
  0,
  1,
  2,
  2,
  0,
  1,
  3,
  3,
  1,
  0;
Material {
 1.000000;1.000000;1.000000;1.000000;;
 50.000000;
 1.000000;1.000000;1.000000;;
 0.0; 0.0; 0.0;;
 TextureFilename {
  "utl201.ppm";
 }
 }
Material {
 1.000000;1.000000;1.000000;1.000000;;
 50.000000;
 1.000000;1.000000;1.000000;;
 0.0; 0.0; 0.0;;
 TextureFilename {
  "utl201.ppm";
 }
 }
Material {
 1.000000;1.000000;1.000000;1.000000;;
 50.000000;
 1.000000;1.000000;1.000000;;
 0.0; 0.0; 0.0;;
 TextureFilename {
  "utl201.ppm";
 }
 }
Material {
 1.000000;1.000000;1.000000;1.000000;;
 50.000000;
 1.000000;1.000000;1.000000;;
 0.0; 0.0; 0.0;;
 TextureFilename {
  "utl201.ppm";
 }
 }
}
 MeshNormals {
  43;
  -0.500994;-0.747520;-0.436142;,
  0.500994;-0.747520;-0.436142;,
  0.500994;-0.747520;-0.436142;,
  0.447214;0.784960;-0.428763;,
  0.447214;0.784960;-0.428763;,
  -0.447214;0.784960;-0.428763;,
  -0.447214;0.828447;0.337158;,
  -0.447214;0.828447;0.337158;,
  0.447214;0.828447;0.337158;,
  0.447214;0.828447;0.337158;,
  0.447214;0.251869;-0.858232;,
  0.447214;-0.227549;-0.864998;,
  0.447214;-0.227549;-0.864998;,
  -0.447214;-0.227549;-0.864998;,
  -0.447214;-0.227549;-0.864998;,
  -0.447214;0.251869;-0.858232;,
  -0.447214;0.251869;-0.858232;,
  0.447214;0.334065;0.829699;,
  0.447214;0.334065;0.829699;,
  -0.447214;0.334065;0.829699;,
  -0.447214;-0.397019;0.801483;,
  -0.447214;-0.397019;0.801483;,
  0.447214;-0.397019;0.801483;,
  0.447214;-0.397019;0.801483;,
  0.727820;-0.646147;0.229723;,
  0.727820;-0.646147;0.229723;,
  -0.727820;-0.646147;0.229723;,
  -0.727820;-0.646147;0.229723;,
  0.727820;-0.646147;0.229723;,
  0.447214;-0.397019;0.801483;,
  -0.447214;-0.397019;0.801483;,
  -0.447214;0.334065;0.829699;,
  0.447214;0.334065;0.829699;,
  -0.447214;0.251869;-0.858232;,
  -0.447214;-0.227549;-0.864998;,
  0.447214;-0.227549;-0.864998;,
  0.447214;0.251869;-0.858232;,
  0.447214;0.828447;0.337158;,
  -0.447214;0.828447;0.337158;,
  -0.447214;0.784960;-0.428763;,
  0.447214;0.784960;-0.428763;,
  0.500994;-0.747520;-0.436142;,
  -0.500994;-0.747520;-0.436142;;

  10;
  8;5,16,14,0,26,21,19,7;,
  4;42,2,25,27;,
  4;10,15,39,4;,
  4;3,39,6,9;,
  4;36,12,13,33;,
  4;20,27,24,23;,
  4;22,18,31,30;,
  4;31,17,8,38;,
  4;34,11,1,42;,
  8;37,32,29,28,41,35,36,40;;
 }
 MeshTextureCoords { 
 43;
 0.655920;0.023621;,
 0.671375;0.382052;,
 0.671375;0.382052;,
 0.673284;0.231676;,
 0.673284;0.231676;,
 0.831834;0.029043;,
 0.811628;0.372011;,
 0.831200;0.202438;,
 0.798331;0.234412;,
 0.811423;0.231559;,
 0.652488;0.231693;,
 0.652727;0.382075;,
 0.696248;0.002326;,
 0.696248;0.002326;,
 0.696248;0.002326;,
 0.652694;0.372145;,
 0.792559;0.002761;,
 0.798331;0.260329;,
 0.798331;0.260329;,
 0.808355;0.226416;,
 0.831858;0.522379;,
 0.714330;0.222860;,
 0.798331;0.367426;,
 0.831671;0.381856;,
 0.771693;0.381929;,
 0.771693;0.381929;,
 0.656341;0.148707;,
 0.771879;0.522453;,
 0.656341;0.148707;,
 0.714330;0.222860;,
 0.666513;0.367426;,
 0.666513;0.260329;,
 0.808355;0.226416;,
 0.792559;0.002761;,
 0.652913;0.522598;,
 0.696248;0.002326;,
 0.792559;0.002761;,
 0.831200;0.202438;,
 0.666513;0.234412;,
 0.673490;0.372128;,
 0.831834;0.029043;,
 0.655920;0.023621;,
 0.671561;0.522576;;
 }
}
}
}
AnimationSet {
 Animation anim-null1 {
  {frm-null1}
  AnimationKey {
  2;
  2;
  1; 3; 0.000000, 0.000000, -0.819884;;,
  100; 3; 0.000000, 0.000000, -0.819884;;;
  }
 }
 Animation anim-extru4 {
  {frm-extru4}
  AnimationKey {
  2;
  2;
  1; 3; 0.893666, -0.143250, -0.677501;;,
  100; 3; 0.893666, -0.143250, -0.677501;;;
  }
 }
 Animation anim-cube17 {
  {frm-cube17}
  AnimationKey {
  2;
  2;
  1; 3; -1.122862, -0.035676, 1.631778;;,
  100; 3; -1.122862, -0.035676, 1.631778;;;
  }
 }
 Animation anim-cube22 {
  {frm-cube22}
  AnimationKey {
  2;
  2;
  1; 3; -0.123538, 0.474400, -3.749892;;,
  100; 3; -0.123538, 0.474400, -3.749892;;;
  }
 }
 Animation anim-cube24 {
  {frm-cube24}
  AnimationKey {
  2;
  2;
  1; 3; -0.267385, 0.717564, 4.697418;;,
  100; 3; -0.267385, 0.717564, 4.697418;;;
  }
 }
 Animation anim-sphere3 {
  {frm-sphere3}
  AnimationKey {
  2;
  2;
  1; 3; -1.613727, 1.248924, 3.404016;;,
  100; 3; -1.613727, 1.248924, 3.404016;;;
  }
 }
 Animation anim-cyl1_1 {
  {frm-cyl1_1}
  AnimationKey {
  2;
  2;
  1; 3; 0.296299, -0.000002, 0.275777;;,
  100; 3; 0.296299, -0.000002, 0.275777;;;
  }
 }
 Animation anim-cube26 {
  {frm-cube26}
  AnimationKey {
  2;
  2;
  1; 3; 1.119784, 0.565925, 1.642301;;,
  100; 3; 1.119784, 0.565925, 1.642301;;;
  }
 }
 Animation anim-cube23 {
  {frm-cube23}
  AnimationKey {
  2;
  2;
  1; 3; -0.989690, -0.341625, 1.531356;;,
  100; 3; -0.989690, -0.341625, 1.531356;;;
  }
 }
 Animation anim-cube32 {
  {frm-cube32}
  AnimationKey {
  2;
  2;
  1; 3; 0.989690, 0.341625, 0.073437;;,
  100; 3; 0.989690, 0.341625, 0.073437;;;
  }
 }
 Animation anim-cube30 {
  {frm-cube30}
  AnimationKey {
  2;
  2;
  1; 3; -0.989690, -0.341625, 1.533072;;,
  100; 3; -0.989690, -0.341625, 1.533072;;;
  }
 }
 Animation anim-cube33 {
  {frm-cube33}
  AnimationKey {
  2;
  2;
  1; 3; 0.989690, 0.341625, 0.086355;;,
  100; 3; 0.989690, 0.341625, 0.086355;;;
  }
 }
 Animation anim-cube27 {
  {frm-cube27}
  AnimationKey {
  2;
  2;
  1; 3; -0.989690, -0.341625, 1.541015;;,
  100; 3; -0.989690, -0.341625, 1.541015;;;
  }
 }
 Animation anim-cube34 {
  {frm-cube34}
  AnimationKey {
  2;
  2;
  1; 3; 2.013450, 0.422675, 5.818142;;,
  100; 3; 2.013450, 0.422675, 5.818142;;;
  }
 }
}
