xof 0302txt 0032
template Header {
 <3D82AB43-62DA-11cf-AB39-0020AF71E433>
 WORD major;
 WORD minor;
 DWORD flags;
}

template Vector {
 <3D82AB5E-62DA-11cf-AB39-0020AF71E433>
 FLOAT x;
 FLOAT y;
 FLOAT z;
}

template Coords2d {
 <F6F23F44-7686-11cf-8F52-0040333594A3>
 FLOAT u;
 FLOAT v;
}

template Matrix4x4 {
 <F6F23F45-7686-11cf-8F52-0040333594A3>
 array FLOAT matrix[16];
}

template ColorRGBA {
 <35FF44E0-6C7C-11cf-8F52-0040333594A3>
 FLOAT red;
 FLOAT green;
 FLOAT blue;
 FLOAT alpha;
}

template ColorRGB {
 <D3E16E81-7835-11cf-8F52-0040333594A3>
 FLOAT red;
 FLOAT green;
 FLOAT blue;
}

template TextureFilename {
 <A42790E1-7810-11cf-8F52-0040333594A3>
 STRING filename;
}

template Material {
 <3D82AB4D-62DA-11cf-AB39-0020AF71E433>
 ColorRGBA faceColor;
 FLOAT power;
 ColorRGB specularColor;
 ColorRGB emissiveColor;
 [...]
}

template MeshFace {
 <3D82AB5F-62DA-11cf-AB39-0020AF71E433>
 DWORD nFaceVertexIndices;
 array DWORD faceVertexIndices[nFaceVertexIndices];
}

template MeshTextureCoords {
 <F6F23F40-7686-11cf-8F52-0040333594A3>
 DWORD nTextureCoords;
 array Coords2d textureCoords[nTextureCoords];
}

template MeshMaterialList {
 <F6F23F42-7686-11cf-8F52-0040333594A3>
 DWORD nMaterials;
 DWORD nFaceIndexes;
 array DWORD faceIndexes[nFaceIndexes];
 [Material]
}

template MeshNormals {
 <F6F23F43-7686-11cf-8F52-0040333594A3>
 DWORD nNormals;
 array Vector normals[nNormals];
 DWORD nFaceNormals;
 array MeshFace faceNormals[nFaceNormals];
}

template Mesh {
 <3D82AB44-62DA-11cf-AB39-0020AF71E433>
 DWORD nVertices;
 array Vector vertices[nVertices];
 DWORD nFaces;
 array MeshFace faces[nFaces];
 [...]
}

template FrameTransformMatrix {
 <F6F23F41-7686-11cf-8F52-0040333594A3>
 Matrix4x4 frameMatrix;
}

template Frame {
 <3D82AB46-62DA-11cf-AB39-0020AF71E433>
 [...]
}
template FloatKeys {
 <10DD46A9-775B-11cf-8F52-0040333594A3>
 DWORD nValues;
 array FLOAT values[nValues];
}

template TimedFloatKeys {
 <F406B180-7B3B-11cf-8F52-0040333594A3>
 DWORD time;
 FloatKeys tfkeys;
}

template AnimationKey {
 <10DD46A8-775B-11cf-8F52-0040333594A3>
 DWORD keyType;
 DWORD nKeys;
 array TimedFloatKeys keys[nKeys];
}

template AnimationOptions {
 <E2BF56C0-840F-11cf-8F52-0040333594A3>
 DWORD openclosed;
 DWORD positionquality;
}

template Animation {
 <3D82AB4F-62DA-11cf-AB39-0020AF71E433>
 [...]
}

template AnimationSet {
 <3D82AB50-62DA-11cf-AB39-0020AF71E433>
 [Animation]
}

Header {
 1;
 0;
 1;
}

Frame frm-root {
  FrameTransformMatrix {
1.000000,0.000000,0.000000,0.000000,
0.000000,1.000000,0.000000,0.000000,
0.000000,0.000000,1.000000,0.000000,
0.000000,0.000000,0.000000,1.000000;;
 }
Frame frm-extru4 {
  FrameTransformMatrix {
1.000000,0.000000,0.000000,0.000000,
0.000000,1.000000,0.000000,0.000000,
0.000000,0.000000,1.000000,0.000000,
0.000000,0.039706,0.946175,1.000000;;
 }
Mesh extru4 {
 99;
 -0.311751;0.525069;-1.140722;,
 -0.311751;0.525069;-1.140722;,
 -0.311751;0.525069;-1.140722;,
 -0.332066;-0.070258;-2.527413;,
 -0.332066;-0.070258;-2.527413;,
 -0.332066;-0.194807;-2.527413;,
 -0.332066;-0.194807;-2.527413;,
 0.311751;0.525069;-1.140722;,
 0.311751;0.525069;-1.140722;,
 0.311751;0.525069;-1.140722;,
 0.332066;-0.070258;-2.527413;,
 0.332066;-0.070258;-2.527413;,
 0.332066;-0.194807;-2.527413;,
 0.332066;-0.194807;-2.527413;,
 -0.661193;0.511226;-0.969311;,
 -0.661193;0.511226;-0.969311;,
 -0.661193;0.511226;-0.969311;,
 0.661193;0.511226;-0.969311;,
 0.661193;0.511226;-0.969311;,
 0.661193;0.511226;-0.969311;,
 0.709292;-0.122423;-1.659755;,
 0.787314;-0.443629;-0.870441;,
 0.709292;0.105077;-1.659755;,
 0.787314;0.443569;-0.870441;,
 0.787314;0.443569;-0.870441;,
 0.809512;0.107753;-0.253370;,
 0.809512;0.107753;-0.253370;,
 0.809512;0.107753;-0.253370;,
 -0.709292;0.105077;-1.659755;,
 -0.787314;0.443569;-0.870441;,
 -0.787314;0.443569;-0.870441;,
 -0.787314;0.443569;-0.870441;,
 -0.709292;-0.122423;-1.659755;,
 -0.787314;-0.443629;-0.870441;,
 -0.807575;0.107753;-0.253370;,
 -0.807575;0.107753;-0.253370;,
 -0.807575;0.107753;-0.253370;,
 -0.546828;0.584421;-0.593881;,
 -0.546828;0.584421;-0.593881;,
 -0.546828;0.584421;-0.593881;,
 -0.546828;0.584421;-0.593881;,
 -0.546828;0.584421;-0.593881;,
 -0.489362;-0.753915;-0.628858;,
 -0.489362;-0.753915;-0.628858;,
 0.546828;0.584421;-0.593881;,
 0.546828;0.584421;-0.593881;,
 0.546828;0.584421;-0.593881;,
 0.546828;0.584421;-0.593881;,
 0.546828;0.584421;-0.593881;,
 0.489362;-0.753915;-0.628858;,
 0.489362;-0.753915;-0.628858;,
 0.489362;-0.753915;-0.628858;,
 -0.807575;-0.174365;-0.253370;,
 -0.807575;-0.174365;-0.253370;,
 -0.807575;-0.174365;-0.253370;,
 -0.807575;-0.174365;-0.253370;,
 0.809512;-0.174365;-0.253370;,
 0.809512;-0.174365;-0.253370;,
 0.809512;-0.174365;-0.253370;,
 -0.546828;-0.584421;-1.517925;,
 -0.546828;-0.584421;-1.517925;,
 0.546828;-0.584421;-1.517925;,
 0.546828;-0.584421;-1.517925;,
 -0.351157;-0.167500;-0.111343;,
 0.351998;-0.167500;-0.111343;,
 0.351998;0.108177;-0.111343;,
 -0.351157;0.108178;-0.111343;,
 0.546828;-0.584421;-1.517925;,
 -0.546828;-0.584421;-1.517925;,
 0.809512;-0.174365;-0.253370;,
 -0.807575;-0.174365;-0.253370;,
 0.489362;-0.753915;-0.628858;,
 0.546828;0.584421;-0.593881;,
 -0.489362;-0.753915;-0.628858;,
 -0.546828;0.584421;-0.593881;,
 -0.807575;0.107753;-0.253370;,
 -0.787314;-0.443629;-0.870441;,
 -0.709292;-0.122423;-1.659755;,
 -0.787314;0.443569;-0.870441;,
 -0.709292;0.105077;-1.659755;,
 0.809512;0.107753;-0.253370;,
 0.787314;0.443569;-0.870441;,
 0.709292;0.105077;-1.659755;,
 0.787314;-0.443629;-0.870441;,
 0.709292;-0.122423;-1.659755;,
 0.661193;0.511226;-0.969311;,
 0.595669;0.121131;-1.848280;,
 0.595669;-0.142251;-1.848280;,
 0.661193;-0.511227;-0.969311;,
 -0.661193;0.511226;-0.969311;,
 -0.595669;0.121131;-1.848280;,
 -0.595669;-0.142251;-1.848280;,
 -0.661193;-0.511227;-0.969311;,
 0.332066;-0.194807;-2.527413;,
 0.332066;-0.070258;-2.527413;,
 0.311751;0.525069;-1.140722;,
 -0.332066;-0.194807;-2.527413;,
 -0.332066;-0.070258;-2.527413;,
 -0.311751;0.525069;-1.140722;;

 38;
 4;66,65,48,41;,
 4;47,9,2,40;,
 4;8,11,4,1;,
 4;10,13,6,3;,
 4;12,62,60,5;,
 4;61,51,43,59;,
 6;36,31,28,32,33,55;,
 6;58,21,20,22,24,27;,
 4;54,92,68,42;,
 4;92,91,96,68;,
 4;91,90,97,96;,
 4;90,16,0,97;,
 3;15,39,98;,
 4;64,63,73,50;,
 4;88,57,49,67;,
 4;87,88,67,93;,
 4;86,87,93,94;,
 4;19,86,94,7;,
 3;46,18,95;,
 4;63,66,35,53;,
 4;84,83,88,87;,
 4;82,84,87,86;,
 4;23,82,86,17;,
 3;81,85,45;,
 3;30,34,38;,
 3;83,56,88;,
 4;79,29,14,90;,
 4;77,79,90,91;,
 4;76,77,91,92;,
 3;52,76,92;,
 4;66,63,64,65;,
 3;66,37,75;,
 3;65,26,44;,
 3;64,71,69;,
 3;63,70,73;,
 4;65,64,69,25;,
 3;72,80,81;,
 3;74,89,78;;

 MeshMaterialList {
  5;
  38;
  0,
  1,
  2,
  3,
  1,
  1,
  4,
  4,
  4,
  4,
  4,
  4,
  4,
  0,
  4,
  4,
  4,
  4,
  4,
  0,
  4,
  4,
  4,
  4,
  4,
  4,
  4,
  4,
  4,
  4,
  0,
  0,
  0,
  0,
  0,
  0,
  4,
  4;
Material {
 1.000000;1.000000;1.000000;1.000000;;
 50.000000;
 1.000000;1.000000;1.000000;;
 0.0; 0.0; 0.0;;
 TextureFilename {
  "utl203.ppm";
 }
 }
Material {
 1.000000;1.000000;1.000000;1.000000;;
 50.000000;
 1.000000;1.000000;1.000000;;
 0.0; 0.0; 0.0;;
 TextureFilename {
  "utl203.ppm";
 }
 }
Material {
 1.000000;0.985816;1.000000;1.000000;;
 50.000000;
 1.000000;1.000000;1.000000;;
 0.0; 0.0; 0.0;;
 TextureFilename {
  "utl203.ppm";
 }
 }
Material {
 1.000000;1.000000;1.000000;1.000000;;
 50.000000;
 1.000000;1.000000;1.000000;;
 0.0; 0.0; 0.0;;
 TextureFilename {
  "utl203.ppm";
 }
 }
Material {
 1.000000;1.000000;1.000000;1.000000;;
 50.000000;
 1.000000;1.000000;1.000000;;
 0.0; 0.0; 0.0;;
 TextureFilename {
  "utl203.ppm";
 }
 }
}
 MeshNormals {
  99;
  -0.101875;0.958533;-0.266152;,
  -0.101875;0.958533;-0.266152;,
  -0.101875;0.958533;-0.266152;,
  -0.397682;0.591541;-0.701375;,
  -0.397682;0.591541;-0.701375;,
  -0.626931;-0.409983;-0.662474;,
  -0.626931;-0.409983;-0.662474;,
  0.101875;0.958533;-0.266152;,
  0.101875;0.958533;-0.266152;,
  0.101875;0.958533;-0.266152;,
  0.397682;0.591541;-0.701375;,
  0.397682;0.591541;-0.701375;,
  0.626931;-0.409983;-0.662474;,
  0.626931;-0.409983;-0.662474;,
  -0.405099;0.882579;-0.238641;,
  -0.405099;0.882579;-0.238641;,
  -0.405099;0.882579;-0.238641;,
  0.405099;0.882579;-0.238641;,
  0.405099;0.882579;-0.238641;,
  0.405099;0.882579;-0.238641;,
  0.914645;-0.233661;-0.329890;,
  0.782733;-0.622032;-0.020144;,
  0.913998;0.230734;-0.333722;,
  0.808876;0.586856;-0.036326;,
  0.808876;0.586856;-0.036326;,
  0.725401;0.385409;0.570309;,
  0.725401;0.385409;0.570309;,
  0.725401;0.385409;0.570309;,
  -0.914169;0.230764;-0.333232;,
  -0.809183;0.586484;-0.035500;,
  -0.809183;0.586484;-0.035500;,
  -0.809183;0.586484;-0.035500;,
  -0.914814;-0.233691;-0.329399;,
  -0.782726;-0.622067;-0.019319;,
  -0.725488;0.384515;0.570802;,
  -0.725488;0.384515;0.570802;,
  -0.725488;0.384515;0.570802;,
  -0.302586;0.912179;0.276355;,
  -0.302586;0.912179;0.276355;,
  -0.302586;0.912179;0.276355;,
  -0.302586;0.912179;0.276355;,
  -0.302586;0.912179;0.276355;,
  -0.338385;-0.853921;0.395367;,
  -0.338385;-0.853921;0.395367;,
  0.302255;0.912403;0.275976;,
  0.302255;0.912403;0.275976;,
  0.302255;0.912403;0.275976;,
  0.302255;0.912403;0.275976;,
  0.302255;0.912403;0.275976;,
  0.337973;-0.854242;0.395025;,
  0.337973;-0.854242;0.395025;,
  0.337973;-0.854242;0.395025;,
  -0.639114;-0.554218;0.533269;,
  -0.639114;-0.554218;0.533269;,
  -0.639114;-0.554218;0.533269;,
  -0.639114;-0.554218;0.533269;,
  0.638949;-0.554824;0.532836;,
  0.638949;-0.554824;0.532836;,
  0.638949;-0.554824;0.532836;,
  -0.550928;-0.802329;-0.229665;,
  -0.550928;-0.802329;-0.229665;,
  0.550642;-0.802456;-0.229908;,
  0.550642;-0.802456;-0.229908;,
  -0.141194;-0.341931;0.929057;,
  0.140857;-0.342026;0.929073;,
  0.142756;0.367751;0.918901;,
  -0.143102;0.367627;0.918897;,
  0.550642;-0.802456;-0.229908;,
  -0.550928;-0.802329;-0.229665;,
  0.638949;-0.554824;0.532836;,
  -0.639114;-0.554218;0.533269;,
  0.337973;-0.854242;0.395025;,
  0.302255;0.912403;0.275976;,
  -0.338385;-0.853921;0.395367;,
  -0.302586;0.912179;0.276355;,
  -0.725488;0.384515;0.570802;,
  -0.782726;-0.622067;-0.019319;,
  -0.914814;-0.233691;-0.329399;,
  -0.809183;0.586484;-0.035500;,
  -0.914169;0.230764;-0.333232;,
  0.725401;0.385409;0.570309;,
  0.808876;0.586856;-0.036326;,
  0.913998;0.230734;-0.333722;,
  0.782733;-0.622032;-0.020144;,
  0.914645;-0.233661;-0.329890;,
  0.405099;0.882579;-0.238641;,
  0.785152;0.416915;-0.457951;,
  0.888357;-0.248233;-0.386266;,
  0.737878;-0.671886;-0.064074;,
  -0.405099;0.882579;-0.238641;,
  -0.785152;0.416915;-0.457951;,
  -0.888357;-0.248233;-0.386266;,
  -0.738055;-0.671727;-0.063696;,
  0.626931;-0.409983;-0.662474;,
  0.397682;0.591541;-0.701375;,
  0.101875;0.958533;-0.266152;,
  -0.626931;-0.409983;-0.662474;,
  -0.397682;0.591541;-0.701375;,
  -0.101875;0.958533;-0.266152;;

  38;
  4;66,65,48,41;,
  4;47,9,2,40;,
  4;8,11,4,1;,
  4;10,13,6,3;,
  4;12,62,60,5;,
  4;61,51,43,59;,
  6;36,31,28,32,33,55;,
  6;58,21,20,22,24,27;,
  4;54,92,68,42;,
  4;92,91,96,68;,
  4;91,90,97,96;,
  4;90,16,0,97;,
  3;15,39,98;,
  4;64,63,73,50;,
  4;88,57,49,67;,
  4;87,88,67,93;,
  4;86,87,93,94;,
  4;19,86,94,7;,
  3;46,18,95;,
  4;63,66,35,53;,
  4;84,83,88,87;,
  4;82,84,87,86;,
  4;23,82,86,17;,
  3;81,85,45;,
  3;30,34,38;,
  3;83,56,88;,
  4;79,29,14,90;,
  4;77,79,90,91;,
  4;76,77,91,92;,
  3;52,76,92;,
  4;66,63,64,65;,
  3;66,37,75;,
  3;65,26,44;,
  3;64,71,69;,
  3;63,70,73;,
  4;65,64,69,25;,
  3;72,80,81;,
  3;74,89,78;;
 }
 MeshTextureCoords { 
 99;
 0.126890;0.035813;,
 0.726240;0.278481;,
 0.720598;0.347678;,
 0.014949;0.205388;,
 0.637210;0.278129;,
 0.626382;0.961379;,
 0.014949;0.246092;,
 0.126890;0.035813;,
 0.726890;0.350728;,
 0.721575;0.283181;,
 0.137395;0.205388;,
 0.637734;0.349688;,
 0.626382;0.864792;,
 0.137395;0.246092;,
 0.195092;0.044508;,
 0.697139;0.580853;,
 0.195092;0.044508;,
 0.195092;0.044508;,
 0.697139;0.580853;,
 0.195092;0.044508;,
 0.706880;0.586090;,
 0.681209;0.692694;,
 0.744964;0.585762;,
 0.207384;0.052546;,
 0.769279;0.690439;,
 0.543779;0.616116;,
 0.543779;0.616116;,
 0.764430;0.782661;,
 0.744964;0.583809;,
 0.207384;0.052546;,
 0.673335;0.699885;,
 0.769279;0.690439;,
 0.706880;0.584137;,
 0.681209;0.692694;,
 0.774841;0.697932;,
 0.180498;0.618069;,
 0.764430;0.782661;,
 0.225429;0.594966;,
 0.761166;0.630332;,
 0.761169;0.629496;,
 0.639696;0.352561;,
 0.225429;0.594966;,
 0.390928;0.174668;,
 0.999381;0.973411;,
 0.500227;0.593989;,
 0.761166;0.630332;,
 0.761169;0.629496;,
 0.637743;0.281228;,
 0.500227;0.593989;,
 0.390928;0.174668;,
 0.497871;0.773677;,
 0.999381;0.840066;,
 0.390928;0.157943;,
 0.181474;0.750884;,
 0.390923;0.165973;,
 0.684901;0.782200;,
 0.390923;0.165973;,
 0.390923;0.165973;,
 0.684901;0.782200;,
 0.746006;0.974387;,
 0.746142;0.974632;,
 0.746982;0.842996;,
 0.747118;0.842751;,
 0.263800;0.727401;,
 0.454293;0.726425;,
 0.454293;0.628748;,
 0.264776;0.631677;,
 0.126890;0.174668;,
 0.126890;0.174668;,
 0.548662;0.753814;,
 0.181474;0.750884;,
 0.497871;0.773677;,
 0.761166;0.630332;,
 0.224856;0.774653;,
 0.761166;0.630332;,
 0.180498;0.618069;,
 0.207384;0.157943;,
 0.109258;0.119784;,
 0.673335;0.699885;,
 0.109258;0.092758;,
 0.774841;0.697932;,
 0.673335;0.699885;,
 0.109258;0.092758;,
 0.207384;0.157943;,
 0.109258;0.119784;,
 0.697139;0.580853;,
 0.085821;0.090850;,
 0.085821;0.122140;,
 0.195092;0.165973;,
 0.697139;0.580853;,
 0.085821;0.090850;,
 0.085821;0.122140;,
 0.195092;0.165973;,
 0.001392;0.128383;,
 0.001392;0.082098;,
 0.752894;0.580668;,
 0.001392;0.128383;,
 0.001392;0.082098;,
 0.752894;0.580668;;
 }
}
}
Frame frm-SS01 {
  FrameTransformMatrix {
1.000000,0.000000,0.000000,0.000000,
0.000000,1.000000,0.000000,0.000000,
0.000000,0.000000,1.000000,0.000000,
0.787999,0.484871,0.075200,1.000000;;
 }
Mesh SS01 {
 4;
 0.001960;-0.002292;-0.000000;,
 0.001508;0.002612;-0.000000;,
 -0.001734;-0.000160;-0.002463;,
 -0.001734;-0.000160;0.002463;;

 4;
 3;2,1,0;,
 3;3,0,1;,
 3;0,3,2;,
 3;1,2,3;;

 MeshMaterialList {
  1;
  4;
  0,
  0,
  0,
  0;
Material {
 0.988701;0.005650;0.000000;1.000000;;
 0.000000;
 1.000000;0.000000;0.000000;;
 0.0; 0.0; 0.0;;
 }
}
 MeshNormals {
  4;
  0.649830;-0.760079;-0.000000;,
  0.500000;0.866025;0.000000;,
  -0.574915;-0.052973;-0.816497;,
  -0.574915;-0.052973;0.816496;;

  4;
  3;2,1,0;,
  3;3,0,1;,
  3;0,3,2;,
  3;1,2,3;;
 }
 MeshTextureCoords { 
 4;
 0.000000;0.000000;,
 0.000000;0.000000;,
 0.000000;0.000000;,
 0.000000;0.000000;;
 }
}
}
Frame frm-SS02 {
  FrameTransformMatrix {
1.000000,0.000000,0.000000,0.000000,
0.000000,1.000000,0.000000,0.000000,
0.000000,0.000000,1.000000,0.000000,
-0.788000,0.484871,0.075200,1.000000;;
 }
Mesh SS02 {
 4;
 0.001005;0.002844;-0.000000;,
 -0.003016;0.000000;-0.000000;,
 0.001005;-0.001422;-0.002463;,
 0.001005;-0.001422;0.002463;;

 4;
 3;2,1,0;,
 3;3,0,1;,
 3;0,3,2;,
 3;1,2,3;;

 MeshMaterialList {
  1;
  4;
  0,
  0,
  0,
  0;
Material {
 0.000000;1.000000;0.000000;1.000000;;
 0.000000;
 0.000000;1.000000;0.000000;;
 0.0; 0.0; 0.0;;
 }
}
 MeshNormals {
  4;
  0.333333;0.942809;-0.000000;,
  -1.000000;-0.000000;0.000000;,
  0.333333;-0.471404;-0.816497;,
  0.333333;-0.471404;0.816497;;

  4;
  3;2,1,0;,
  3;3,0,1;,
  3;0,3,2;,
  3;1,2,3;;
 }
 MeshTextureCoords { 
 4;
 0.000000;0.000000;,
 0.000000;0.000000;,
 0.000000;0.000000;,
 0.000000;0.000000;;
 }
}
}
Frame frm-SS03 {
  FrameTransformMatrix {
-1.000000,0.000000,-0.000000,0.000000,
0.000000,1.000000,0.000000,0.000000,
0.000000,0.000000,-1.000000,0.000000,
0.787999,-0.414203,0.075200,1.000000;;
 }
Mesh SS03 {
 4;
 0.001005;0.002844;-0.000000;,
 -0.003016;0.000000;-0.000000;,
 0.001005;-0.001422;0.002463;,
 0.001005;-0.001422;-0.002463;;

 4;
 3;0,1,2;,
 3;1,0,3;,
 3;2,3,0;,
 3;3,2,1;;

 MeshMaterialList {
  1;
  4;
  0,
  0,
  0,
  0;
Material {
 0.988701;0.005650;0.000000;1.000000;;
 0.000000;
 1.000000;0.000000;0.000000;;
 0.0; 0.0; 0.0;;
 }
}
 MeshNormals {
  4;
  0.333333;0.942809;0.000000;,
  -1.000000;-0.000000;-0.000000;,
  0.333333;-0.471404;0.816497;,
  0.333333;-0.471404;-0.816497;;

  4;
  3;0,1,2;,
  3;1,0,3;,
  3;2,3,0;,
  3;3,2,1;;
 }
 MeshTextureCoords { 
 4;
 0.000000;0.000000;,
 0.000000;0.000000;,
 0.000000;0.000000;,
 0.000000;0.000000;;
 }
}
}
Frame frm-SS04 {
  FrameTransformMatrix {
1.000000,0.000000,0.000000,0.000000,
0.000000,1.000000,0.000000,0.000000,
0.000000,0.000000,1.000000,0.000000,
-0.788000,-0.414203,0.075200,1.000000;;
 }
Mesh SS04 {
 4;
 0.001005;0.002844;-0.000000;,
 -0.003016;0.000000;-0.000000;,
 0.001005;-0.001422;-0.002463;,
 0.001005;-0.001422;0.002463;;

 4;
 3;2,1,0;,
 3;3,0,1;,
 3;0,3,2;,
 3;1,2,3;;

 MeshMaterialList {
  1;
  4;
  0,
  0,
  0,
  0;
Material {
 0.000000;1.000000;0.000000;1.000000;;
 0.000000;
 0.000000;1.000000;0.000000;;
 0.0; 0.0; 0.0;;
 }
}
 MeshNormals {
  4;
  0.333333;0.942809;-0.000000;,
  -1.000000;-0.000000;0.000000;,
  0.333333;-0.471404;-0.816497;,
  0.333333;-0.471404;0.816497;;

  4;
  3;2,1,0;,
  3;3,0,1;,
  3;0,3,2;,
  3;1,2,3;;
 }
 MeshTextureCoords { 
 4;
 0.000000;0.000000;,
 0.000000;0.000000;,
 0.000000;0.000000;,
 0.000000;0.000000;;
 }
}
}
Frame frm-lthrust {
  FrameTransformMatrix {
1.000000,0.000000,0.000000,0.000000,
0.000000,1.000000,0.000000,0.000000,
0.000000,0.000000,1.000000,0.000000,
0.203870,-0.001863,0.853335,1.000000;;
 }
Mesh lthrust {
 4;
 -0.002844;-0.001005;0.000000;,
 0.000000;0.003016;0.000000;,
 0.001422;-0.001005;0.002463;,
 0.001422;-0.001005;-0.002463;;

 4;
 3;2,1,0;,
 3;3,0,1;,
 3;0,3,2;,
 3;1,2,3;;

 MeshNormals {
  4;
  -0.942809;-0.333333;0.000000;,
  0.000000;1.000000;-0.000000;,
  0.471404;-0.333333;0.816497;,
  0.471404;-0.333333;-0.816497;;

  4;
  3;2,1,0;,
  3;3,0,1;,
  3;0,3,2;,
  3;1,2,3;;
 }
}
}
Frame frm-trail {
  FrameTransformMatrix {
1.000000,0.000000,0.000000,0.000000,
0.000000,1.000000,0.000000,0.000000,
0.000000,0.000000,1.000000,0.000000,
0.000000,-0.003741,0.866638,1.000000;;
 }
Mesh trail {
 4;
 -0.002844;-0.001005;0.000000;,
 0.000000;0.003016;0.000000;,
 0.001422;-0.001005;0.002463;,
 0.001422;-0.001005;-0.002463;;

 4;
 3;2,1,0;,
 3;3,0,1;,
 3;0,3,2;,
 3;1,2,3;;

 MeshNormals {
  4;
  -0.942809;-0.333333;0.000000;,
  0.000000;1.000000;-0.000000;,
  0.471404;-0.333333;0.816497;,
  0.471404;-0.333333;-0.816497;;

  4;
  3;2,1,0;,
  3;3,0,1;,
  3;0,3,2;,
  3;1,2,3;;
 }
}
}
Frame frm-rthrust {
  FrameTransformMatrix {
-1.000000,0.000000,-0.000000,0.000000,
0.000000,1.000000,0.000000,0.000000,
0.000000,0.000000,-1.000000,0.000000,
-0.178148,-0.001863,0.858647,1.000000;;
 }
Mesh rthrust {
 4;
 -0.002843;-0.001005;-0.000000;,
 0.000000;0.003016;-0.000000;,
 0.001422;-0.001005;-0.002463;,
 0.001422;-0.001005;0.002462;;

 4;
 3;0,1,2;,
 3;1,0,3;,
 3;2,3,0;,
 3;3,2,1;;

 MeshNormals {
  4;
  -0.942809;-0.333333;-0.000000;,
  0.000000;1.000000;0.000000;,
  0.471404;-0.333333;-0.816497;,
  0.471404;-0.333333;0.816497;;

  4;
  3;0,1,2;,
  3;1,0,3;,
  3;2,3,0;,
  3;3,2,1;;
 }
}
}
Frame frm-rwepemt {
  FrameTransformMatrix {
1.000000,0.000000,0.000000,0.000000,
0.000000,1.000000,0.000000,0.000000,
0.000000,0.000000,1.000000,0.000000,
0.000000,-0.380210,-1.280038,1.000000;;
 }
Mesh rwepemt {
 4;
 -0.002844;-0.001005;0.000000;,
 0.000000;0.003016;0.000000;,
 0.001422;-0.001005;0.002463;,
 0.001422;-0.001005;-0.002463;;

 4;
 3;2,1,0;,
 3;3,0,1;,
 3;0,3,2;,
 3;1,2,3;;

 MeshNormals {
  4;
  -0.942809;-0.333333;0.000000;,
  0.000000;1.000000;-0.000000;,
  0.471404;-0.333334;0.816497;,
  0.471404;-0.333334;-0.816497;;

  4;
  3;2,1,0;,
  3;3,0,1;,
  3;0,3,2;,
  3;1,2,3;;
 }
}
}
Frame frm-cockpt {
  FrameTransformMatrix {
1.000000,0.000000,0.000000,0.000000,
0.000000,1.000000,0.000000,0.000000,
0.000000,0.000000,1.000000,0.000000,
-0.000000,0.099691,-0.416413,1.000000;;
 }
Mesh cockpt {
 4;
 -0.010228;-0.003616;-0.000000;,
 0.000000;0.010849;0.000000;,
 0.005114;-0.003616;0.008858;,
 0.005114;-0.003616;-0.008858;;

 4;
 3;2,1,0;,
 3;3,0,1;,
 3;0,3,2;,
 3;1,2,3;;

 MeshNormals {
  4;
  -0.942809;-0.333333;0.000000;,
  0.000000;1.000000;-0.000000;,
  0.471404;-0.333333;0.816497;,
  0.471404;-0.333333;-0.816497;;

  4;
  3;2,1,0;,
  3;3,0,1;,
  3;0,3,2;,
  3;1,2,3;;
 }
}
}
}
AnimationSet {
 Animation anim-extru4 {
  {frm-extru4}
  AnimationKey {
  2;
  2;
  1; 3; 0.000000, 0.039706, 0.946175;;,
  100; 3; 0.000000, 0.039706, 0.946175;;;
  }
 }
 Animation anim-SS01 {
  {frm-SS01}
  AnimationKey {
  2;
  2;
  1; 3; 0.787999, 0.484871, 0.075200;;,
  100; 3; 0.787999, 0.484871, 0.075200;;;
  }
 }
 Animation anim-SS02 {
  {frm-SS02}
  AnimationKey {
  2;
  2;
  1; 3; -0.788000, 0.484871, 0.075200;;,
  100; 3; -0.788000, 0.484871, 0.075200;;;
  }
 }
 Animation anim-SS03 {
  {frm-SS03}
  AnimationKey {
  0;
  2;
  1; 4; 0.000000, 0.000000, 1.000000, -0.000000;;,
  100; 4; 0.000000, 0.000000, 1.000000, -0.000000;;;
  }
  AnimationKey {
  2;
  2;
  1; 3; 0.787999, -0.414203, 0.075200;;,
  100; 3; 0.787999, -0.414203, 0.075200;;;
  }
 }
 Animation anim-SS04 {
  {frm-SS04}
  AnimationKey {
  2;
  2;
  1; 3; -0.788000, -0.414203, 0.075200;;,
  100; 3; -0.788000, -0.414203, 0.075200;;;
  }
 }
 Animation anim-lthrust {
  {frm-lthrust}
  AnimationKey {
  2;
  2;
  1; 3; 0.203870, -0.001863, 0.853335;;,
  100; 3; 0.203870, -0.001863, 0.853335;;;
  }
 }
 Animation anim-trail {
  {frm-trail}
  AnimationKey {
  2;
  2;
  1; 3; 0.000000, -0.003741, 0.866638;;,
  100; 3; 0.000000, -0.003741, 0.866638;;;
  }
 }
 Animation anim-rthrust {
  {frm-rthrust}
  AnimationKey {
  0;
  2;
  1; 4; 0.000000, 0.000000, 1.000000, -0.000000;;,
  100; 4; 0.000000, 0.000000, 1.000000, -0.000000;;;
  }
  AnimationKey {
  2;
  2;
  1; 3; -0.178148, -0.001863, 0.858647;;,
  100; 3; -0.178148, -0.001863, 0.858647;;;
  }
 }
 Animation anim-rwepemt {
  {frm-rwepemt}
  AnimationKey {
  2;
  2;
  1; 3; 0.000000, -0.380210, -1.280038;;,
  100; 3; 0.000000, -0.380210, -1.280038;;;
  }
 }
 Animation anim-cockpt {
  {frm-cockpt}
  AnimationKey {
  2;
  2;
  1; 3; -0.000000, 0.099691, -0.416413;;,
  100; 3; -0.000000, 0.099691, -0.416413;;;
  }
 }
}
