xof 0302txt 0032
template Header {
 <3D82AB43-62DA-11cf-AB39-0020AF71E433>
 WORD major;
 WORD minor;
 DWORD flags;
}

template Vector {
 <3D82AB5E-62DA-11cf-AB39-0020AF71E433>
 FLOAT x;
 FLOAT y;
 FLOAT z;
}

template Coords2d {
 <F6F23F44-7686-11cf-8F52-0040333594A3>
 FLOAT u;
 FLOAT v;
}

template Matrix4x4 {
 <F6F23F45-7686-11cf-8F52-0040333594A3>
 array FLOAT matrix[16];
}

template ColorRGBA {
 <35FF44E0-6C7C-11cf-8F52-0040333594A3>
 FLOAT red;
 FLOAT green;
 FLOAT blue;
 FLOAT alpha;
}

template ColorRGB {
 <D3E16E81-7835-11cf-8F52-0040333594A3>
 FLOAT red;
 FLOAT green;
 FLOAT blue;
}

template TextureFilename {
 <A42790E1-7810-11cf-8F52-0040333594A3>
 STRING filename;
}

template Material {
 <3D82AB4D-62DA-11cf-AB39-0020AF71E433>
 ColorRGBA faceColor;
 FLOAT power;
 ColorRGB specularColor;
 ColorRGB emissiveColor;
 [...]
}

template MeshFace {
 <3D82AB5F-62DA-11cf-AB39-0020AF71E433>
 DWORD nFaceVertexIndices;
 array DWORD faceVertexIndices[nFaceVertexIndices];
}

template MeshTextureCoords {
 <F6F23F40-7686-11cf-8F52-0040333594A3>
 DWORD nTextureCoords;
 array Coords2d textureCoords[nTextureCoords];
}

template MeshMaterialList {
 <F6F23F42-7686-11cf-8F52-0040333594A3>
 DWORD nMaterials;
 DWORD nFaceIndexes;
 array DWORD faceIndexes[nFaceIndexes];
 [Material]
}

template MeshNormals {
 <F6F23F43-7686-11cf-8F52-0040333594A3>
 DWORD nNormals;
 array Vector normals[nNormals];
 DWORD nFaceNormals;
 array MeshFace faceNormals[nFaceNormals];
}

template Mesh {
 <3D82AB44-62DA-11cf-AB39-0020AF71E433>
 DWORD nVertices;
 array Vector vertices[nVertices];
 DWORD nFaces;
 array MeshFace faces[nFaces];
 [...]
}

template FrameTransformMatrix {
 <F6F23F41-7686-11cf-8F52-0040333594A3>
 Matrix4x4 frameMatrix;
}

template Frame {
 <3D82AB46-62DA-11cf-AB39-0020AF71E433>
 [...]
}
template FloatKeys {
 <10DD46A9-775B-11cf-8F52-0040333594A3>
 DWORD nValues;
 array FLOAT values[nValues];
}

template TimedFloatKeys {
 <F406B180-7B3B-11cf-8F52-0040333594A3>
 DWORD time;
 FloatKeys tfkeys;
}

template AnimationKey {
 <10DD46A8-775B-11cf-8F52-0040333594A3>
 DWORD keyType;
 DWORD nKeys;
 array TimedFloatKeys keys[nKeys];
}

template AnimationOptions {
 <E2BF56C0-840F-11cf-8F52-0040333594A3>
 DWORD openclosed;
 DWORD positionquality;
}

template Animation {
 <3D82AB4F-62DA-11cf-AB39-0020AF71E433>
 [...]
}

template AnimationSet {
 <3D82AB50-62DA-11cf-AB39-0020AF71E433>
 [Animation]
}

Header {
 1;
 0;
 1;
}

Frame frm-fuselg0 {
  FrameTransformMatrix {
1.000000,0.000000,0.000000,0.000000,
0.000000,1.000000,0.000000,0.000000,
0.000000,0.000000,1.000000,0.000000,
0.000000,0.000000,-1.377536,1.000000;;
 }
Frame frm-fuselg1 {
  FrameTransformMatrix {
1.000000,0.000000,0.000000,0.000000,
0.000000,1.000000,0.000000,0.000000,
0.000000,0.000000,1.000000,0.000000,
0.000000,0.000000,0.000000,1.000000;;
 }
Mesh fuselg1 {
 284;
 0.484018;-0.289986;0.497762;,
 0.484018;-0.289986;0.497762;,
 0.484018;-0.289986;0.497762;,
 0.484018;-0.289986;0.497762;,
 0.484018;0.289986;0.497762;,
 0.484018;0.289986;0.497762;,
 0.484018;0.289986;0.497762;,
 0.702629;0.255621;-0.019369;,
 0.702629;0.255621;-0.019369;,
 0.702629;0.255621;-0.019369;,
 0.702629;0.255621;-0.019369;,
 0.702629;0.255621;-0.019369;,
 0.702629;0.255621;-0.019369;,
 0.702629;-0.255621;-0.019369;,
 0.702629;-0.255621;-0.019369;,
 0.482824;0.390566;-2.364418;,
 -1.196983;0.337834;-1.612368;,
 -1.196983;0.337834;-1.612368;,
 -1.196983;0.337834;-1.612368;,
 -1.196983;0.337834;-1.612368;,
 -1.196983;0.337834;-1.612368;,
 -1.129743;-0.340873;-0.456479;,
 -1.129743;-0.340873;-0.456479;,
 -0.702643;-0.255621;-0.019369;,
 -0.702643;-0.255621;-0.019369;,
 -0.702643;-0.255621;-0.019369;,
 -0.702643;-0.255621;-0.019369;,
 -0.702643;-0.255621;-0.019369;,
 -0.702643;-0.255621;-0.019369;,
 1.129730;-0.340873;-0.456480;,
 1.129730;-0.340873;-0.456480;,
 1.129730;-0.340873;-0.456480;,
 -1.474056;0.335095;-0.837012;,
 -1.474056;0.335095;-0.837012;,
 1.129730;0.340873;-0.456480;,
 1.129730;0.340873;-0.456480;,
 -0.482838;-0.390565;-2.364418;,
 -0.484031;-0.289986;0.497763;,
 -0.484031;-0.289986;0.497763;,
 -0.484031;-0.289986;0.497763;,
 -1.039326;-0.308359;-2.168622;,
 -1.039326;-0.308359;-2.168622;,
 -1.039326;-0.308359;-2.168622;,
 -1.196983;-0.337834;-1.612368;,
 -1.196983;-0.337834;-1.612368;,
 -1.196983;-0.337834;-1.612368;,
 -0.484032;0.289986;0.497762;,
 -0.484032;0.289986;0.497762;,
 -0.484032;0.289986;0.497762;,
 -0.484032;0.289986;0.497762;,
 0.976614;0.308359;-2.168622;,
 0.976614;0.308359;-2.168622;,
 0.976614;0.308359;-2.168622;,
 1.196970;0.337834;-1.612369;,
 1.196970;0.337834;-1.612369;,
 -0.482838;0.390565;-2.364418;,
 -1.474056;-0.335095;-0.837012;,
 -1.474056;-0.335095;-0.837012;,
 -1.474056;-0.335095;-0.837012;,
 -1.474056;-0.335095;-0.837012;,
 1.474043;0.335095;-0.837012;,
 1.474043;0.335095;-0.837012;,
 1.474043;0.335095;-0.837012;,
 1.474043;0.335095;-0.837012;,
 0.482824;-0.390564;-2.364418;,
 0.482824;-0.390564;-2.364418;,
 1.196970;-0.337834;-1.612369;,
 1.196970;-0.337834;-1.612369;,
 0.976614;-0.308359;-2.168622;,
 0.976614;-0.308359;-2.168622;,
 0.976614;-0.308359;-2.168622;,
 1.474042;-0.335095;-0.837012;,
 1.474042;-0.335095;-0.837012;,
 1.474042;-0.335095;-0.837012;,
 1.474042;-0.335095;-0.837012;,
 -0.702643;0.255621;-0.019369;,
 -0.702643;0.255621;-0.019369;,
 -0.702643;0.255621;-0.019369;,
 -0.702643;0.255621;-0.019369;,
 -0.702643;0.255621;-0.019369;,
 -1.129743;0.340873;-0.456479;,
 -1.129743;0.340873;-0.456479;,
 -1.039326;0.308359;-2.168622;,
 -1.039326;0.308359;-2.168622;,
 0.408836;0.708639;-0.138276;,
 0.408836;0.708639;-0.138276;,
 0.408836;0.708639;-0.138276;,
 -0.226123;0.717191;-0.774314;,
 -0.226123;0.717191;-0.774314;,
 -0.226123;0.717191;-0.774314;,
 -0.226123;0.717191;-0.774314;,
 -0.226123;0.717191;-0.774314;,
 0.226109;0.717191;-0.774314;,
 0.226109;0.717191;-0.774314;,
 0.226109;0.717191;-0.774314;,
 -0.408849;0.708639;-0.138276;,
 -0.408849;0.708639;-0.138276;,
 -0.408849;0.708639;-0.138276;,
 -0.408849;0.708639;-0.138276;,
 -0.408849;0.708639;-0.138276;,
 -0.408849;0.708639;-0.138276;,
 -0.182733;0.700087;0.497762;,
 -0.182733;0.700087;0.497762;,
 -0.182733;0.700087;0.497762;,
 -0.182733;0.700087;0.497762;,
 -0.182733;0.700087;0.497762;,
 0.182719;0.700087;0.497762;,
 0.182719;0.700087;0.497762;,
 0.182719;0.700087;0.497762;,
 0.182719;0.700087;0.497762;,
 0.182719;0.700087;0.497762;,
 0.408836;-0.708639;-0.138276;,
 0.408836;-0.708639;-0.138276;,
 0.408836;-0.708639;-0.138276;,
 -0.182733;-0.700087;0.497763;,
 -0.182733;-0.700087;0.497763;,
 -0.182733;-0.700087;0.497763;,
 0.182719;-0.700087;0.497762;,
 0.182719;-0.700087;0.497762;,
 0.182719;-0.700087;0.497762;,
 -0.408849;-0.708639;-0.138276;,
 -0.408849;-0.708639;-0.138276;,
 -0.408849;-0.708639;-0.138276;,
 -0.226123;-0.717191;-0.774314;,
 -0.226123;-0.717191;-0.774314;,
 -0.226123;-0.717191;-0.774314;,
 0.226110;-0.717191;-0.774314;,
 0.226110;-0.717191;-0.774314;,
 0.226110;-0.717191;-0.774314;,
 0.241210;0.935403;-0.149271;,
 0.241210;0.935403;-0.149271;,
 0.241210;0.935403;-0.149271;,
 0.241210;0.935403;-0.149271;,
 0.241210;0.935403;-0.149271;,
 0.241210;0.935403;-0.149271;,
 -0.133415;0.946692;-0.524534;,
 -0.133415;0.946692;-0.524534;,
 -0.133415;0.946692;-0.524534;,
 -0.133415;0.946692;-0.524534;,
 0.133402;0.946692;-0.524534;,
 0.133402;0.946692;-0.524534;,
 0.133402;0.946692;-0.524534;,
 -0.241224;0.935403;-0.149271;,
 -0.241224;0.935403;-0.149271;,
 -0.241224;0.935403;-0.149271;,
 -0.241224;0.935403;-0.149271;,
 -0.107815;0.924115;0.225992;,
 -0.107815;0.924115;0.225992;,
 -0.107815;0.924115;0.225992;,
 -0.107815;0.924115;0.225992;,
 0.107802;0.924115;0.225992;,
 0.107802;0.924115;0.225992;,
 0.107802;0.924115;0.225992;,
 0.241210;-0.935403;-0.149271;,
 0.241210;-0.935403;-0.149271;,
 0.241210;-0.935403;-0.149271;,
 0.241210;-0.935403;-0.149271;,
 -0.107815;-0.924115;0.225992;,
 -0.107815;-0.924115;0.225992;,
 -0.107815;-0.924115;0.225992;,
 -0.107815;-0.924115;0.225992;,
 -0.107815;-0.924115;0.225992;,
 -0.107815;-0.924115;0.225992;,
 0.107802;-0.924115;0.225992;,
 0.107802;-0.924115;0.225992;,
 0.107802;-0.924115;0.225992;,
 -0.241224;-0.935403;-0.149271;,
 -0.241224;-0.935403;-0.149271;,
 -0.241224;-0.935403;-0.149271;,
 -0.133415;-0.946691;-0.524533;,
 -0.133415;-0.946691;-0.524533;,
 -0.133415;-0.946691;-0.524533;,
 -0.133415;-0.946691;-0.524533;,
 0.133402;-0.946691;-0.524533;,
 0.133402;-0.946691;-0.524533;,
 0.133402;-0.946691;-0.524533;,
 0.133402;-0.946691;-0.524533;,
 0.299692;-0.124570;-2.173585;,
 0.299692;-0.124570;-2.173585;,
 0.299692;-0.124570;-2.173585;,
 0.482824;0.000001;-2.364418;,
 0.482824;0.000001;-2.364418;,
 -0.482838;-0.000000;-2.364418;,
 -0.482838;-0.000000;-2.364418;,
 -0.321217;-0.124571;-2.173585;,
 -0.321217;-0.124571;-2.173585;,
 -0.321217;-0.124571;-2.173585;,
 -0.224013;0.164481;-2.171103;,
 -0.224013;0.164481;-2.171103;,
 -0.224013;0.164481;-2.171103;,
 0.230155;0.193894;-2.171103;,
 0.230155;0.193894;-2.171103;,
 0.230155;0.193894;-2.171103;,
 0.230155;0.193894;-2.171103;,
 0.555474;0.207262;-0.839494;,
 0.330294;0.210151;-0.458961;,
 -0.224013;0.164481;-2.171103;,
 -0.508326;0.177849;-0.839493;,
 -0.283146;0.180738;-0.458961;,
 -0.702643;0.000000;-0.019369;,
 -0.349066;-0.124571;-0.461443;,
 -0.455114;-0.124571;-0.841975;,
 -0.321217;-0.124571;-2.173585;,
 -0.482838;-0.000000;-2.364418;,
 0.482824;0.000001;-2.364418;,
 0.299692;-0.124570;-2.173585;,
 0.452900;-0.124570;-0.841975;,
 0.346852;-0.124570;-0.461443;,
 0.702629;0.000000;-0.019369;,
 0.442662;-0.471976;-1.901072;,
 -0.442676;0.471976;-1.901072;,
 0.442662;-0.471976;-1.901072;,
 -0.442676;0.471976;-1.901072;,
 0.133402;-0.946691;-0.524533;,
 -0.133415;-0.946691;-0.524533;,
 -0.241224;-0.935403;-0.149271;,
 0.107802;-0.924115;0.225992;,
 -0.107815;-0.924115;0.225992;,
 0.241210;-0.935403;-0.149271;,
 0.107802;0.924115;0.225992;,
 -0.107815;0.924115;0.225992;,
 -0.241224;0.935403;-0.149271;,
 0.133402;0.946692;-0.524534;,
 -0.133415;0.946692;-0.524534;,
 0.241210;0.935403;-0.149271;,
 0.226110;-0.717191;-0.774314;,
 -0.226123;-0.717191;-0.774314;,
 -0.408849;-0.708639;-0.138276;,
 0.182719;-0.700087;0.497762;,
 -0.182733;-0.700087;0.497763;,
 0.408836;-0.708639;-0.138276;,
 0.182719;0.700087;0.497762;,
 -0.182733;0.700087;0.497762;,
 -0.408849;0.708639;-0.138276;,
 0.226109;0.717191;-0.774314;,
 -0.226123;0.717191;-0.774314;,
 0.408836;0.708639;-0.138276;,
 0.365445;0.700087;0.497762;,
 -1.039326;0.308359;-2.168622;,
 -1.129743;0.340873;-0.456479;,
 -0.702643;0.255621;-0.019369;,
 -0.365459;0.700087;0.497762;,
 0.452226;-0.717191;-0.774314;,
 1.474042;-0.335095;-0.837012;,
 -0.177030;-0.553388;-1.808667;,
 -0.452239;0.717191;-0.774314;,
 -0.177031;0.553388;-1.808667;,
 0.177017;-0.553388;-1.808666;,
 0.000186;-0.000045;6.331633;,
 0.976614;-0.308359;-2.168622;,
 1.196970;-0.337834;-1.612369;,
 0.526210;-0.605029;-1.612369;,
 0.482824;-0.390564;-2.364418;,
 1.474043;0.335095;-0.837012;,
 0.452226;0.717191;-0.774314;,
 -1.474056;-0.335095;-0.837012;,
 -0.452239;-0.717191;-0.774313;,
 -0.482838;0.390565;-2.364418;,
 0.526210;0.605029;-1.612369;,
 1.196970;0.337834;-1.612369;,
 0.976614;0.308359;-2.168622;,
 -0.484032;0.289986;0.497762;,
 0.442662;0.471977;-1.901072;,
 -0.526224;-0.605029;-1.612368;,
 -1.196983;-0.337834;-1.612368;,
 -1.039326;-0.308359;-2.168622;,
 -0.484031;-0.289986;0.497763;,
 -0.442676;-0.471977;-1.901072;,
 -0.482838;-0.390565;-2.364418;,
 1.129730;0.340873;-0.456480;,
 -1.474056;0.335095;-0.837012;,
 -0.526224;0.605028;-1.612369;,
 0.177016;0.553388;-1.808666;,
 1.129730;-0.340873;-0.456480;,
 -0.702643;-0.255621;-0.019369;,
 -1.129743;-0.340873;-0.456479;,
 -1.196983;0.337834;-1.612368;,
 0.482824;0.390566;-2.364418;,
 0.365446;-0.700087;0.497762;,
 -0.365459;-0.700087;0.497763;,
 0.702629;-0.255621;-0.019369;,
 0.702629;0.255621;-0.019369;,
 0.484018;0.289986;0.497762;,
 0.484018;-0.289986;0.497762;;

 138;
 3;12,6,3;,
 4;208,14,31,207;,
 4;2,13,208,11;,
 3;149,105,110;,
 3;152,148,109;,
 3;104,241,248;,
 3;108,103,248;,
 3;237,107,248;,
 3;162,116,122;,
 3;168,161,121;,
 3;20,33,245;,
 3;271,19,245;,
 3;167,120,125;,
 3;172,166,124;,
 3;237,5,10;,
 3;278,280,1;,
 3;176,128,113;,
 3;156,175,112;,
 3;279,248,39;,
 3;155,111,119;,
 3;165,154,118;,
 3;241,49,248;,
 3;244,263,267;,
 3;171,123,127;,
 3;174,170,126;,
 3;48,38,248;,
 3;164,117,115;,
 3;160,163,114;,
 3;0,4,248;,
 3;134,86,94;,
 3;141,133,93;,
 3;100,241,102;,
 3;151,106,85;,
 3;132,150,84;,
 4;47,79,199,28;,
 3;37,46,27;,
 3;140,92,91;,
 3;138,139,90;,
 4;189,83,55,183;,
 3;42,36,267;,
 3;45,41,267;,
 3;261,241,78;,
 3;81,77,245;,
 3;32,80,245;,
 3;225,242,230;,
 3;52,15,262;,
 3;54,51,262;,
 3;248,278,283;,
 3;76,241,99;,
 3;245,75,98;,
 3;26,256,227;,
 3;279,25,227;,
 3;256,24,22;,
 3;59,256,21;,
 3;263,244,247;,
 3;251,263,247;,
 3;254,9,35;,
 3;63,254,34;,
 4;201,58,275,200;,
 3;67,251,209;,
 3;74,66,70;,
 5;192,50,53,62,194;,
 3;153,216,159;,
 3;173,218,158;,
 3;169,213,157;,
 3;215,214,217;,
 3;231,237,236;,
 3;236,237,8;,
 3;254,236,7;,
 3;246,271,258;,
 3;272,246,258;,
 3;18,271,210;,
 3;229,279,227;,
 3;263,256,57;,
 3;44,263,56;,
 5;186,40,43,255,201;,
 3;267,263,264;,
 3;258,254,61;,
 3;259,258,60;,
 3;257,82,17;,
 3;210,257,16;,
 3;251,250,73;,
 3;242,251,72;,
 3;270,276,238;,
 3;228,278,248;,
 3;229,228,248;,
 3;279,229,248;,
 3;278,230,280;,
 4;200,275,23,199;,
 3;242,71,30;,
 3;242,29,280;,
 3;230,242,280;,
 3;212,271,246;,
 3;227,256,226;,
 4;207,273,243,206;,
 3;65,69,250;,
 3;209,64,250;,
 3;230,278,228;,
 3;226,256,263;,
 3;225,226,263;,
 3;242,225,263;,
 3;251,242,263;,
 3;279,266,274;,
 3;147,219,131;,
 3;145,146,130;,
 3;137,144,129;,
 3;222,136,224;,
 3;248,282,237;,
 3;234,254,258;,
 3;89,234,258;,
 3;245,88,258;,
 3;271,245,258;,
 3;87,245,97;,
 4;179,68,252,181;,
 3;211,251,247;,
 3;236,254,234;,
 3;258,262,272;,
 3;143,96,101;,
 3;220,142,232;,
 3;262,258,259;,
 3;135,235,95;,
 3;221,223,233;,
 4;199,240,239,198;,
 4;198,239,270,197;,
 4;197,270,238,188;,
 4;182,268,265,185;,
 4;180,277,260,191;,
 4;206,243,249,178;,
 4;194,253,269,195;,
 4;195,269,281,208;,
 3;198,200,199;,
 4;197,201,200,198;,
 4;187,184,201,197;,
 3;203,202,196;,
 4;195,207,206,194;,
 3;208,207,195;,
 4;194,206,177,190;,
 3;193,205,204;;

 MeshMaterialList {
  5;
  138;
  0,
  0,
  0,
  1,
  1,
  2,
  2,
  2,
  1,
  1,
  2,
  2,
  1,
  1,
  2,
  2,
  1,
  1,
  2,
  1,
  1,
  2,
  2,
  1,
  1,
  2,
  1,
  1,
  2,
  1,
  1,
  2,
  1,
  1,
  0,
  0,
  1,
  1,
  3,
  2,
  2,
  2,
  2,
  2,
  2,
  2,
  2,
  2,
  2,
  2,
  2,
  2,
  2,
  2,
  2,
  2,
  2,
  2,
  0,
  2,
  0,
  0,
  1,
  1,
  1,
  1,
  2,
  2,
  2,
  2,
  2,
  2,
  2,
  2,
  2,
  0,
  2,
  2,
  2,
  2,
  2,
  2,
  2,
  0,
  2,
  2,
  2,
  2,
  0,
  2,
  2,
  2,
  2,
  2,
  0,
  2,
  2,
  2,
  2,
  2,
  2,
  2,
  2,
  1,
  1,
  1,
  1,
  2,
  2,
  2,
  2,
  2,
  2,
  4,
  2,
  2,
  2,
  1,
  1,
  2,
  1,
  1,
  0,
  0,
  0,
  3,
  4,
  0,
  0,
  0,
  0,
  0,
  0,
  3,
  0,
  0,
  0,
  4;
Material {
 1.000000;1.000000;1.000000;1.000000;;
 0.000000;
 1.000000;1.000000;1.000000;;
 0.0; 0.0; 0.0;;
 TextureFilename {
  "utl92.ppm";
 }
 }
Material {
 1.000000;1.000000;1.000000;1.000000;;
 0.000000;
 1.000000;1.000000;1.000000;;
 0.0; 0.0; 0.0;;
 TextureFilename {
  "utl92.ppm";
 }
 }
Material {
 1.000000;1.000000;1.000000;1.000000;;
 0.000000;
 1.000000;1.000000;1.000000;;
 0.0; 0.0; 0.0;;
 TextureFilename {
  "utl92.ppm";
 }
 }
Material {
 1.000000;1.000000;1.000000;1.000000;;
 0.000000;
 1.000000;1.000000;1.000000;;
 0.0; 0.0; 0.0;;
 TextureFilename {
  "utl92.ppm";
 }
 }
Material {
 1.000000;1.000000;1.000000;1.000000;;
 0.000000;
 1.000000;1.000000;1.000000;;
 0.0; 0.0; 0.0;;
 TextureFilename {
  "utl92.ppm";
 }
 }
}
 MeshNormals {
  284;
  0.957069;-0.109261;0.268479;,
  0.957069;-0.109261;0.268479;,
  0.957069;-0.109261;0.268479;,
  0.957069;-0.109261;0.268479;,
  0.961990;0.136655;0.236434;,
  0.961990;0.136655;0.236434;,
  0.961990;0.136655;0.236434;,
  0.926544;0.264013;0.267980;,
  0.926544;0.264013;0.267980;,
  0.926544;0.264013;0.267980;,
  0.926544;0.264013;0.267980;,
  0.926544;0.264013;0.267980;,
  0.926544;0.264013;0.267980;,
  0.914260;-0.316216;0.253252;,
  0.914260;-0.316216;0.253252;,
  0.934915;0.169234;-0.311919;,
  -0.346871;0.917512;-0.194555;,
  -0.346871;0.917512;-0.194555;,
  -0.346871;0.917512;-0.194555;,
  -0.346871;0.917512;-0.194555;,
  -0.346871;0.917512;-0.194555;,
  -0.884302;0.064779;0.462400;,
  -0.884302;0.064779;0.462400;,
  -0.923307;-0.262610;0.280249;,
  -0.923307;-0.262610;0.280249;,
  -0.923307;-0.262610;0.280249;,
  -0.923307;-0.262610;0.280249;,
  -0.923307;-0.262610;0.280249;,
  -0.923307;-0.262610;0.280249;,
  0.884518;0.065307;0.461913;,
  0.884518;0.065307;0.461913;,
  0.884518;0.065307;0.461913;,
  -0.917278;0.395625;0.045627;,
  -0.917278;0.395625;0.045627;,
  0.892656;-0.115627;0.435656;,
  0.892656;-0.115627;0.435656;,
  -0.728850;-0.280926;-0.624387;,
  -0.961982;-0.136654;0.236465;,
  -0.961982;-0.136654;0.236465;,
  -0.961982;-0.136654;0.236465;,
  -0.825647;-0.134977;-0.547803;,
  -0.825647;-0.134977;-0.547803;,
  -0.825647;-0.134977;-0.547803;,
  -0.511886;-0.789548;-0.338507;,
  -0.511886;-0.789548;-0.338507;,
  -0.511886;-0.789548;-0.338507;,
  -0.957062;0.109260;0.268505;,
  -0.957062;0.109260;0.268505;,
  -0.957062;0.109260;0.268505;,
  -0.957062;0.109260;0.268505;,
  0.935812;0.056832;-0.347888;,
  0.935812;0.056832;-0.347888;,
  0.935812;0.056832;-0.347888;,
  0.490947;0.795693;-0.354744;,
  0.490947;0.795693;-0.354744;,
  -0.608143;0.728527;-0.315293;,
  -0.870602;-0.481049;0.103167;,
  -0.870602;-0.481049;0.103167;,
  -0.870602;-0.481049;0.103167;,
  -0.870602;-0.481049;0.103167;,
  0.854984;0.507807;0.105514;,
  0.854984;0.507807;0.105514;,
  0.854984;0.507807;0.105514;,
  0.854984;0.507807;0.105514;,
  0.592531;-0.703605;-0.392233;,
  0.592531;-0.703605;-0.392233;,
  0.497008;-0.813327;-0.302459;,
  0.497008;-0.813327;-0.302459;,
  0.758587;0.543369;-0.359577;,
  0.758587;0.543369;-0.359577;,
  0.758587;0.543369;-0.359577;,
  0.997509;-0.050061;-0.049695;,
  0.997509;-0.050061;-0.049695;,
  0.997509;-0.050061;-0.049695;,
  0.997509;-0.050061;-0.049695;,
  -0.917269;0.318740;0.238795;,
  -0.917269;0.318740;0.238795;,
  -0.917269;0.318740;0.238795;,
  -0.917269;0.318740;0.238795;,
  -0.917269;0.318740;0.238795;,
  -0.890626;-0.107032;0.441961;,
  -0.890626;-0.107032;0.441961;,
  -0.930558;-0.024799;-0.365304;,
  -0.930558;-0.024799;-0.365304;,
  0.631334;0.771391;0.079830;,
  0.631334;0.771391;0.079830;,
  0.631334;0.771391;0.079830;,
  -0.147547;0.929404;-0.338286;,
  -0.147547;0.929404;-0.338286;,
  -0.147547;0.929404;-0.338286;,
  -0.147547;0.929404;-0.338286;,
  -0.147547;0.929404;-0.338286;,
  0.301454;0.917980;-0.257755;,
  0.301454;0.917980;-0.257755;,
  0.301454;0.917980;-0.257755;,
  -0.639291;0.768965;0.000581;,
  -0.639291;0.768965;0.000581;,
  -0.639291;0.768965;0.000581;,
  -0.639291;0.768965;0.000581;,
  -0.639291;0.768965;0.000581;,
  -0.639291;0.768965;0.000581;,
  -0.282760;0.920135;0.270923;,
  -0.282760;0.920135;0.270923;,
  -0.282760;0.920135;0.270923;,
  -0.282760;0.920135;0.270923;,
  -0.282760;0.920135;0.270923;,
  0.138361;0.934227;0.328750;,
  0.138361;0.934227;0.328750;,
  0.138361;0.934227;0.328750;,
  0.138361;0.934227;0.328750;,
  0.138361;0.934227;0.328750;,
  0.639291;-0.768965;0.000581;,
  0.639291;-0.768965;0.000581;,
  0.639291;-0.768965;0.000581;,
  -0.138361;-0.934229;0.328745;,
  -0.138361;-0.934229;0.328745;,
  -0.138361;-0.934229;0.328745;,
  0.282760;-0.920136;0.270918;,
  0.282760;-0.920136;0.270918;,
  0.282760;-0.920136;0.270918;,
  -0.631334;-0.771391;0.079830;,
  -0.631334;-0.771391;0.079830;,
  -0.631334;-0.771391;0.079830;,
  -0.301454;-0.917980;-0.257755;,
  -0.301454;-0.917980;-0.257755;,
  -0.301454;-0.917980;-0.257755;,
  0.147547;-0.929404;-0.338286;,
  0.147547;-0.929404;-0.338286;,
  0.147547;-0.929404;-0.338286;,
  0.381539;0.924344;-0.003888;,
  0.381539;0.924344;-0.003888;,
  0.381539;0.924344;-0.003888;,
  0.381539;0.924344;-0.003888;,
  0.381539;0.924344;-0.003888;,
  0.381539;0.924344;-0.003888;,
  -0.367967;0.897571;-0.242829;,
  -0.367967;0.897571;-0.242829;,
  -0.367967;0.897571;-0.242829;,
  -0.367967;0.897571;-0.242829;,
  0.229944;0.867887;-0.440338;,
  0.229944;0.867887;-0.440338;,
  0.229944;0.867887;-0.440338;,
  -0.521727;0.847939;0.093811;,
  -0.521727;0.847939;0.093811;,
  -0.521727;0.847939;0.093811;,
  -0.521727;0.847939;0.093811;,
  -0.166540;0.918425;0.358832;,
  -0.166540;0.918425;0.358832;,
  -0.166540;0.918425;0.358832;,
  -0.166540;0.918425;0.358832;,
  0.430752;0.832290;0.348921;,
  0.430752;0.832290;0.348921;,
  0.430752;0.832290;0.348921;,
  0.521728;-0.847939;0.093810;,
  0.521728;-0.847939;0.093810;,
  0.521728;-0.847939;0.093810;,
  0.521728;-0.847939;0.093810;,
  -0.242597;-0.946926;0.210895;,
  -0.242597;-0.946926;0.210895;,
  -0.242597;-0.946926;0.210895;,
  -0.242597;-0.946926;0.210895;,
  -0.242597;-0.946926;0.210895;,
  -0.242597;-0.946926;0.210895;,
  0.208660;-0.872800;0.441226;,
  0.208660;-0.872800;0.441226;,
  0.208660;-0.872800;0.441226;,
  -0.655987;-0.754102;-0.031806;,
  -0.655987;-0.754102;-0.031806;,
  -0.655987;-0.754102;-0.031806;,
  -0.183423;-0.920739;-0.344378;,
  -0.183423;-0.920739;-0.344378;,
  -0.183423;-0.920739;-0.344378;,
  -0.183423;-0.920739;-0.344378;,
  0.367967;-0.897571;-0.242829;,
  0.367967;-0.897571;-0.242829;,
  0.367967;-0.897571;-0.242829;,
  0.367967;-0.897571;-0.242829;,
  0.828653;0.557414;0.051224;,
  0.828653;0.557414;0.051224;,
  0.828653;0.557414;0.051224;,
  0.979209;-0.086542;0.183469;,
  0.979209;-0.086542;0.183469;,
  -0.998722;0.050123;-0.006547;,
  -0.998722;0.050123;-0.006547;,
  -0.792752;0.609161;0.021601;,
  -0.792752;0.609161;0.021601;,
  -0.792752;0.609161;0.021601;,
  -0.857209;-0.501480;0.117093;,
  -0.857209;-0.501480;0.117093;,
  -0.857209;-0.501480;0.117093;,
  0.800417;-0.582867;0.139993;,
  0.800417;-0.582867;0.139993;,
  0.800417;-0.582867;0.139993;,
  0.800417;-0.582867;0.139993;,
  0.723635;-0.682739;0.101093;,
  0.746465;-0.653161;-0.127161;,
  -0.857209;-0.501480;0.117093;,
  -0.772228;-0.623751;0.120828;,
  -0.792107;-0.596722;-0.128409;,
  -0.959805;0.089218;-0.266111;,
  -0.747745;0.655513;-0.105738;,
  -0.763594;0.636109;0.110860;,
  -0.792752;0.609161;0.021601;,
  -0.998722;0.050123;-0.006547;,
  0.979209;-0.086542;0.183469;,
  0.828653;0.557414;0.051224;,
  0.804313;0.584314;0.107972;,
  0.785444;0.608558;-0.112848;,
  0.961925;0.050319;-0.268640;,
  0.282017;-0.905903;-0.315922;,
  -0.282017;0.905903;-0.315921;,
  0.117973;-0.888434;-0.443585;,
  -0.117974;0.888434;-0.443584;,
  0.367967;-0.897571;-0.242829;,
  -0.183423;-0.920739;-0.344378;,
  -0.655987;-0.754102;-0.031806;,
  0.208660;-0.872800;0.441226;,
  -0.242597;-0.946926;0.210895;,
  0.521728;-0.847939;0.093810;,
  0.430752;0.832290;0.348921;,
  -0.166540;0.918425;0.358832;,
  -0.521727;0.847939;0.093811;,
  0.229944;0.867887;-0.440338;,
  -0.367967;0.897571;-0.242829;,
  0.381539;0.924344;-0.003888;,
  0.147547;-0.929404;-0.338286;,
  -0.301454;-0.917980;-0.257755;,
  -0.631334;-0.771391;0.079830;,
  0.282760;-0.920136;0.270918;,
  -0.138361;-0.934229;0.328745;,
  0.639291;-0.768965;0.000581;,
  0.138361;0.934227;0.328750;,
  -0.282760;0.920135;0.270923;,
  -0.639291;0.768965;0.000581;,
  0.301454;0.917980;-0.257755;,
  -0.147547;0.929404;-0.338286;,
  0.631334;0.771391;0.079830;,
  0.648108;0.745111;0.157371;,
  -0.930558;-0.024799;-0.365304;,
  -0.890626;-0.107032;0.441961;,
  -0.917269;0.318740;0.238795;,
  -0.648106;0.745109;0.157386;,
  0.276922;-0.958329;0.070143;,
  0.997509;-0.050061;-0.049695;,
  -0.059403;-0.934316;-0.351462;,
  -0.289600;0.956066;0.045493;,
  -0.039571;0.946773;-0.319461;,
  0.039571;-0.946773;-0.319461;,
  0.000014;-0.000004;1.000000;,
  0.758587;0.543369;-0.359577;,
  0.497008;-0.813327;-0.302459;,
  0.197629;-0.944892;-0.261003;,
  0.592531;-0.703605;-0.392233;,
  0.854984;0.507807;0.105514;,
  0.323281;0.940374;0.105760;,
  -0.870602;-0.481049;0.103167;,
  -0.323281;-0.940374;0.105760;,
  -0.608143;0.728527;-0.315293;,
  0.118108;0.967706;-0.222702;,
  0.490947;0.795693;-0.354744;,
  0.935812;0.056832;-0.347888;,
  -0.957062;0.109260;0.268505;,
  0.226193;0.924537;-0.306704;,
  -0.118108;-0.967706;-0.222702;,
  -0.511886;-0.789548;-0.338507;,
  -0.825647;-0.134977;-0.547803;,
  -0.961982;-0.136654;0.236465;,
  -0.218160;-0.928415;-0.300752;,
  -0.728850;-0.280926;-0.624387;,
  0.892656;-0.115627;0.435656;,
  -0.917278;0.395625;0.045627;,
  -0.167024;0.943430;-0.286433;,
  0.059403;0.934315;-0.351463;,
  0.884518;0.065307;0.461913;,
  -0.923307;-0.262610;0.280249;,
  -0.884302;0.064779;0.462400;,
  -0.346871;0.917512;-0.194555;,
  0.934915;0.169234;-0.311919;,
  0.648109;-0.745111;0.157366;,
  -0.648106;-0.745110;0.157381;,
  0.914260;-0.316216;0.253252;,
  0.926544;0.264013;0.267980;,
  0.961990;0.136655;0.236434;,
  0.957069;-0.109261;0.268479;;

  138;
  3;12,6,3;,
  4;208,14,31,207;,
  4;2,13,208,11;,
  3;149,105,110;,
  3;152,148,109;,
  3;104,241,248;,
  3;108,103,248;,
  3;237,107,248;,
  3;162,116,122;,
  3;168,161,121;,
  3;20,33,245;,
  3;271,19,245;,
  3;167,120,125;,
  3;172,166,124;,
  3;237,5,10;,
  3;278,280,1;,
  3;176,128,113;,
  3;156,175,112;,
  3;279,248,39;,
  3;155,111,119;,
  3;165,154,118;,
  3;241,49,248;,
  3;244,263,267;,
  3;171,123,127;,
  3;174,170,126;,
  3;48,38,248;,
  3;164,117,115;,
  3;160,163,114;,
  3;0,4,248;,
  3;134,86,94;,
  3;141,133,93;,
  3;100,241,102;,
  3;151,106,85;,
  3;132,150,84;,
  4;47,79,199,28;,
  3;37,46,27;,
  3;140,92,91;,
  3;138,139,90;,
  4;189,83,55,183;,
  3;42,36,267;,
  3;45,41,267;,
  3;261,241,78;,
  3;81,77,245;,
  3;32,80,245;,
  3;225,242,230;,
  3;52,15,262;,
  3;54,51,262;,
  3;248,278,283;,
  3;76,241,99;,
  3;245,75,98;,
  3;26,256,227;,
  3;279,25,227;,
  3;256,24,22;,
  3;59,256,21;,
  3;263,244,247;,
  3;251,263,247;,
  3;254,9,35;,
  3;63,254,34;,
  4;201,58,275,200;,
  3;67,251,209;,
  3;74,66,70;,
  5;192,50,53,62,194;,
  3;153,216,159;,
  3;173,218,158;,
  3;169,213,157;,
  3;215,214,217;,
  3;231,237,236;,
  3;236,237,8;,
  3;254,236,7;,
  3;246,271,258;,
  3;272,246,258;,
  3;18,271,210;,
  3;229,279,227;,
  3;263,256,57;,
  3;44,263,56;,
  5;186,40,43,255,201;,
  3;267,263,264;,
  3;258,254,61;,
  3;259,258,60;,
  3;257,82,17;,
  3;210,257,16;,
  3;251,250,73;,
  3;242,251,72;,
  3;270,276,238;,
  3;228,278,248;,
  3;229,228,248;,
  3;279,229,248;,
  3;278,230,280;,
  4;200,275,23,199;,
  3;242,71,30;,
  3;242,29,280;,
  3;230,242,280;,
  3;212,271,246;,
  3;227,256,226;,
  4;207,273,243,206;,
  3;65,69,250;,
  3;209,64,250;,
  3;230,278,228;,
  3;226,256,263;,
  3;225,226,263;,
  3;242,225,263;,
  3;251,242,263;,
  3;279,266,274;,
  3;147,219,131;,
  3;145,146,130;,
  3;137,144,129;,
  3;222,136,224;,
  3;248,282,237;,
  3;234,254,258;,
  3;89,234,258;,
  3;245,88,258;,
  3;271,245,258;,
  3;87,245,97;,
  4;179,68,252,181;,
  3;211,251,247;,
  3;236,254,234;,
  3;258,262,272;,
  3;143,96,101;,
  3;220,142,232;,
  3;262,258,259;,
  3;135,235,95;,
  3;221,223,233;,
  4;199,240,239,198;,
  4;198,239,270,197;,
  4;197,270,238,188;,
  4;182,268,265,185;,
  4;180,277,260,191;,
  4;206,243,249,178;,
  4;194,253,269,195;,
  4;195,269,281,208;,
  3;198,200,199;,
  4;197,201,200,198;,
  4;187,184,201,197;,
  3;203,202,196;,
  4;195,207,206,194;,
  3;208,207,195;,
  4;194,206,177,190;,
  3;193,205,204;;
 }
 MeshTextureCoords { 
 284;
 0.406453;0.407323;,
 0.403133;0.406502;,
 0.470175;0.555120;,
 0.470175;0.555120;,
 0.406844;0.572146;,
 0.403133;0.406502;,
 0.470175;0.435574;,
 0.344172;0.345515;,
 0.344172;0.345515;,
 0.344172;0.345515;,
 0.344172;0.345515;,
 0.521204;0.442657;,
 0.521204;0.442657;,
 0.521204;0.548036;,
 0.521204;0.548036;,
 0.072372;0.390142;,
 0.159537;0.731194;,
 0.159537;0.731194;,
 0.159537;0.731194;,
 0.159537;0.731194;,
 0.159537;0.731194;,
 0.293509;0.717542;,
 0.293509;0.717542;,
 0.521204;0.548036;,
 0.344172;0.630828;,
 0.344172;0.630828;,
 0.344172;0.630828;,
 0.521204;0.548036;,
 0.521204;0.548036;,
 0.293509;0.258801;,
 0.293509;0.258801;,
 0.564336;0.565609;,
 0.249404;0.787448;,
 0.249404;0.787448;,
 0.293509;0.258801;,
 0.293509;0.258801;,
 0.072372;0.586201;,
 0.470175;0.555120;,
 0.406844;0.572146;,
 0.405086;0.576678;,
 0.733284;0.558907;,
 0.111466;0.659987;,
 0.111466;0.659987;,
 0.678395;0.564983;,
 0.159537;0.731194;,
 0.159537;0.731194;,
 0.470175;0.435574;,
 0.470175;0.435574;,
 0.406453;0.407323;,
 0.405086;0.576678;,
 0.733284;0.431787;,
 0.104632;0.321959;,
 0.104632;0.321959;,
 0.678395;0.425711;,
 0.159537;0.245149;,
 0.568508;0.934209;,
 0.249404;0.787448;,
 0.249404;0.787448;,
 0.601885;0.564418;,
 0.249404;0.787448;,
 0.249404;0.188895;,
 0.249404;0.188895;,
 0.601886;0.426276;,
 0.249404;0.188895;,
 0.072372;0.390142;,
 0.072372;0.390142;,
 0.678395;0.564982;,
 0.159537;0.245149;,
 0.504011;0.911207;,
 0.104632;0.321959;,
 0.733284;0.558907;,
 0.249404;0.188895;,
 0.249404;0.188895;,
 0.249404;0.188895;,
 0.601886;0.564418;,
 0.344172;0.630828;,
 0.344172;0.630828;,
 0.344172;0.630828;,
 0.344172;0.630828;,
 0.521204;0.442657;,
 0.293509;0.717542;,
 0.293509;0.717542;,
 0.111466;0.659987;,
 0.496997;0.907413;,
 0.320229;0.427139;,
 0.320229;0.427139;,
 0.320229;0.427139;,
 0.256671;0.534080;,
 0.256671;0.534080;,
 0.256671;0.534080;,
 0.281334;0.525130;,
 0.281334;0.525130;,
 0.281334;0.455339;,
 0.281334;0.455339;,
 0.281334;0.455339;,
 0.320229;0.553330;,
 0.320229;0.553330;,
 0.330390;0.571179;,
 0.330390;0.571179;,
 0.330390;0.571179;,
 0.330390;0.571179;,
 0.359125;0.518434;,
 0.404109;0.525271;,
 0.404109;0.525271;,
 0.404109;0.525271;,
 0.359125;0.518434;,
 0.359125;0.462035;,
 0.404109;0.451073;,
 0.404109;0.451073;,
 0.359125;0.462035;,
 0.359125;0.462035;,
 0.320229;0.427139;,
 0.320229;0.427139;,
 0.320229;0.427139;,
 0.359125;0.518434;,
 0.359125;0.518434;,
 0.359125;0.518434;,
 0.359125;0.462035;,
 0.359125;0.462035;,
 0.359125;0.462035;,
 0.320229;0.553330;,
 0.320229;0.553330;,
 0.320229;0.553330;,
 0.281334;0.525130;,
 0.281334;0.525130;,
 0.281334;0.525130;,
 0.281334;0.455339;,
 0.281334;0.455339;,
 0.281334;0.455339;,
 0.319557;0.453008;,
 0.319557;0.453008;,
 0.319557;0.453008;,
 0.319557;0.453008;,
 0.319557;0.453008;,
 0.319557;0.453008;,
 0.296608;0.510823;,
 0.296608;0.510823;,
 0.296608;0.510823;,
 0.296608;0.510823;,
 0.296608;0.469646;,
 0.296608;0.469646;,
 0.296608;0.469646;,
 0.319557;0.527461;,
 0.319557;0.527461;,
 0.319557;0.527461;,
 0.319557;0.527461;,
 0.342505;0.506872;,
 0.342505;0.506872;,
 0.342505;0.506872;,
 0.342505;0.506872;,
 0.342505;0.473597;,
 0.342505;0.473597;,
 0.342505;0.473597;,
 0.319557;0.453008;,
 0.319557;0.453008;,
 0.319557;0.453008;,
 0.319557;0.453008;,
 0.342505;0.506872;,
 0.342505;0.506872;,
 0.342505;0.506872;,
 0.342505;0.506872;,
 0.342505;0.506872;,
 0.342505;0.506872;,
 0.342505;0.473597;,
 0.342505;0.473597;,
 0.342505;0.473597;,
 0.319557;0.527461;,
 0.319557;0.527461;,
 0.319557;0.527461;,
 0.296608;0.510823;,
 0.296608;0.510823;,
 0.296608;0.510823;,
 0.296608;0.510823;,
 0.296608;0.469646;,
 0.296608;0.469646;,
 0.296608;0.469646;,
 0.296608;0.469646;,
 0.733773;0.521024;,
 0.733773;0.521024;,
 0.504011;0.911207;,
 0.560528;0.822044;,
 0.560528;0.822044;,
 0.568128;0.819579;,
 0.568128;0.819579;,
 0.733773;0.521024;,
 0.496997;0.907413;,
 0.733773;0.521024;,
 0.733528;0.461443;,
 0.733528;0.461443;,
 0.496997;0.907413;,
 0.733528;0.455381;,
 0.504011;0.911207;,
 0.733528;0.455381;,
 0.504011;0.911207;,
 0.602130;0.452625;,
 0.564581;0.452030;,
 0.496997;0.907413;,
 0.602130;0.458688;,
 0.564581;0.458092;,
 0.521204;0.495347;,
 0.564826;0.521024;,
 0.602375;0.521024;,
 0.496997;0.907413;,
 0.568128;0.819579;,
 0.560528;0.822044;,
 0.504011;0.911207;,
 0.602375;0.521024;,
 0.564826;0.521024;,
 0.521204;0.495347;,
 0.126075;0.398296;,
 0.126075;0.578047;,
 0.126075;0.398296;,
 0.126075;0.578047;,
 0.296608;0.469646;,
 0.296608;0.510823;,
 0.319557;0.527461;,
 0.342505;0.473597;,
 0.342505;0.506872;,
 0.319557;0.453008;,
 0.342505;0.473597;,
 0.342505;0.506872;,
 0.319557;0.527461;,
 0.296608;0.469646;,
 0.296608;0.510823;,
 0.319557;0.453008;,
 0.256671;0.442263;,
 0.256671;0.534080;,
 0.330390;0.571179;,
 0.404109;0.451073;,
 0.404109;0.525271;,
 0.330390;0.405164;,
 0.404109;0.451073;,
 0.359125;0.518434;,
 0.320229;0.553330;,
 0.256671;0.442263;,
 0.281334;0.525130;,
 0.330390;0.405164;,
 0.404109;0.430575;,
 0.733284;0.431787;,
 0.564336;0.425085;,
 0.521204;0.442657;,
 0.404109;0.552604;,
 0.256671;0.396355;,
 0.601886;0.564418;,
 0.136785;0.524113;,
 0.256671;0.579989;,
 0.136785;0.524113;,
 0.136786;0.452230;,
 1.000000;0.499935;,
 0.733284;0.558907;,
 0.159537;0.245149;,
 0.159537;0.381334;,
 0.560528;0.927188;,
 0.601886;0.426276;,
 0.256671;0.396355;,
 0.601885;0.564418;,
 0.256671;0.579989;,
 0.072372;0.586201;,
 0.159537;0.381334;,
 0.159537;0.245149;,
 0.504390;0.846380;,
 0.405086;0.576678;,
 0.126075;0.398297;,
 0.159537;0.595010;,
 0.159537;0.731194;,
 0.497758;0.841829;,
 0.405086;0.576678;,
 0.126075;0.578047;,
 0.568128;0.819579;,
 0.564336;0.425085;,
 0.601885;0.426276;,
 0.159537;0.595010;,
 0.136786;0.452231;,
 0.564336;0.565609;,
 0.344172;0.630828;,
 0.564336;0.565609;,
 0.678395;0.425711;,
 0.560528;0.822044;,
 0.404109;0.430575;,
 0.404109;0.552604;,
 0.344172;0.345515;,
 0.521204;0.442657;,
 0.403133;0.406502;,
 0.403133;0.406502;;
 }
}
Frame frm-afinzzz {
  FrameTransformMatrix {
1.000000,0.000000,0.000000,0.000000,
0.000000,1.000000,0.000000,0.000000,
0.000000,0.000000,1.000000,0.000000,
-0.000006,0.000001,4.027233,1.000000;;
 }
Mesh afinzzz {
 48;
 -0.434733;-0.000000;0.972791;,
 -0.434733;-0.000000;0.972791;,
 0.000000;0.000000;2.247383;,
 0.000000;0.000000;2.247383;,
 0.000000;0.000000;2.247383;,
 0.000000;0.000000;2.247383;,
 0.000000;0.000000;2.247383;,
 -0.000000;0.265627;-0.972791;,
 -0.000000;0.265627;-0.972791;,
 -0.000000;0.265627;-0.972791;,
 -0.000000;0.177084;-0.000000;,
 -0.000000;0.177084;-0.000000;,
 -0.000000;0.177084;-0.000000;,
 -0.000000;0.177084;-0.000000;,
 0.229099;-0.000000;-0.972791;,
 0.229099;-0.000000;-0.972791;,
 0.565792;0.000000;-0.000000;,
 0.565792;0.000000;-0.000000;,
 0.565792;0.000000;-0.000000;,
 0.565792;0.000000;-0.000000;,
 0.434734;0.000000;0.972791;,
 0.434734;0.000000;0.972791;,
 0.434734;0.000000;0.972791;,
 -0.000000;-0.265627;-0.972791;,
 -0.000000;-0.265627;-0.972791;,
 -0.000000;-0.177084;0.000000;,
 -0.000000;-0.177084;0.000000;,
 -0.000000;-0.177084;0.000000;,
 -0.000000;-0.177084;0.000000;,
 -0.000000;-0.177084;0.000000;,
 -0.229099;-0.000000;-0.972791;,
 -0.229099;-0.000000;-0.972791;,
 -0.565792;-0.000000;0.000000;,
 -0.565792;-0.000000;0.000000;,
 -0.565792;-0.000000;0.000000;,
 -0.565792;-0.000000;0.000000;,
 -0.565792;-0.000000;0.000000;,
 -0.565792;-0.000000;0.000000;,
 -0.229099;-0.000000;-0.972791;,
 -0.000000;-0.177084;0.000000;,
 -0.000000;-0.265627;-0.972791;,
 0.434734;0.000000;0.972791;,
 0.565792;0.000000;-0.000000;,
 0.229099;-0.000000;-0.972791;,
 -0.000000;0.177084;-0.000000;,
 -0.000000;0.265627;-0.972791;,
 0.000000;0.000000;2.247383;,
 -0.434733;-0.000000;0.972791;;

 16;
 3;6,13,36;,
 3;35,31,24;,
 3;1,5,34;,
 3;19,15,9;,
 3;22,18,8;,
 3;12,4,21;,
 3;7,11,20;,
 3;29,3,0;,
 3;2,28,17;,
 3;27,23,14;,
 3;41,46,16;,
 3;33,40,26;,
 3;47,32,25;,
 3;42,39,43;,
 3;10,45,30;,
 3;37,44,38;;

 MeshMaterialList {
  2;
  16;
  0,
  0,
  0,
  1,
  1,
  1,
  1,
  0,
  1,
  1,
  1,
  0,
  0,
  1,
  0,
  0;
Material {
 1.000000;1.000000;1.000000;1.000000;;
 0.000000;
 1.000000;1.000000;1.000000;;
 0.0; 0.0; 0.0;;
 TextureFilename {
  "utl92.ppm";
 }
 }
Material {
 1.000000;1.000000;1.000000;1.000000;;
 0.000000;
 1.000000;1.000000;1.000000;;
 0.0; 0.0; 0.0;;
 TextureFilename {
  "utl92.ppm";
 }
 }
}
 MeshNormals {
  48;
  -0.487767;-0.863140;0.130662;,
  -0.487767;-0.863140;0.130662;,
  -0.024947;-0.001277;0.999688;,
  -0.024947;-0.001277;0.999688;,
  -0.024947;-0.001277;0.999688;,
  -0.024947;-0.001277;0.999688;,
  -0.024947;-0.001277;0.999688;,
  0.182119;0.983043;-0.021423;,
  0.182119;0.983043;-0.021423;,
  0.182119;0.983043;-0.021423;,
  -0.306079;0.951528;0.030158;,
  -0.306079;0.951528;0.030158;,
  -0.306079;0.951528;0.030158;,
  -0.306079;0.951528;0.030158;,
  0.861147;-0.488535;-0.140569;,
  0.861147;-0.488535;-0.140569;,
  0.794473;-0.597081;-0.110936;,
  0.794473;-0.597081;-0.110936;,
  0.794473;-0.597081;-0.110936;,
  0.794473;-0.597081;-0.110936;,
  0.416946;0.904124;0.093357;,
  0.416946;0.904124;0.093357;,
  0.416946;0.904124;0.093357;,
  -0.140248;-0.988297;-0.059990;,
  -0.140248;-0.988297;-0.059990;,
  0.181816;-0.982612;0.037635;,
  0.181816;-0.982612;0.037635;,
  0.181816;-0.982612;0.037635;,
  0.181816;-0.982612;0.037635;,
  0.181816;-0.982612;0.037635;,
  -0.861147;0.488535;-0.140569;,
  -0.861147;0.488535;-0.140569;,
  -0.971282;0.190137;-0.143033;,
  -0.971282;0.190137;-0.143033;,
  -0.971282;0.190137;-0.143033;,
  -0.971282;0.190137;-0.143033;,
  -0.971282;0.190137;-0.143033;,
  -0.971282;0.190137;-0.143033;,
  -0.861147;0.488535;-0.140569;,
  0.181816;-0.982612;0.037635;,
  -0.140248;-0.988297;-0.059990;,
  0.416946;0.904124;0.093357;,
  0.794473;-0.597081;-0.110936;,
  0.861147;-0.488535;-0.140569;,
  -0.306079;0.951528;0.030158;,
  0.182119;0.983043;-0.021423;,
  -0.024947;-0.001277;0.999688;,
  -0.487767;-0.863140;0.130662;;

  16;
  3;6,13,36;,
  3;35,31,24;,
  3;1,5,34;,
  3;19,15,9;,
  3;22,18,8;,
  3;12,4,21;,
  3;7,11,20;,
  3;29,3,0;,
  3;2,28,17;,
  3;27,23,14;,
  3;41,46,16;,
  3;33,40,26;,
  3;47,32,25;,
  3;42,39,43;,
  3;10,45,30;,
  3;37,44,38;;
 }
 MeshTextureCoords { 
 48;
 0.387639;0.097255;,
 0.387639;0.097255;,
 0.217714;0.006167;,
 0.216372;0.005614;,
 0.217714;0.006167;,
 0.216372;0.005614;,
 0.216372;0.005614;,
 0.611318;0.005636;,
 0.611318;0.005636;,
 0.611318;0.005636;,
 0.486982;0.007619;,
 0.495967;0.005796;,
 0.495967;0.005796;,
 0.486982;0.007619;,
 0.611365;0.014241;,
 0.611365;0.014241;,
 0.493167;0.109753;,
 0.493167;0.109753;,
 0.493167;0.109753;,
 0.493167;0.109753;,
 0.370985;0.090671;,
 0.370985;0.090671;,
 0.370985;0.090671;,
 0.611318;0.005636;,
 0.588442;0.020794;,
 0.486982;0.007746;,
 0.486982;0.007746;,
 0.495967;0.005796;,
 0.495967;0.005796;,
 0.486982;0.007746;,
 0.587744;0.025023;,
 0.589378;0.009649;,
 0.485706;0.100195;,
 0.485706;0.100195;,
 0.485706;0.100195;,
 0.485706;0.100195;,
 0.485706;0.100195;,
 0.485706;0.100195;,
 0.587744;0.025023;,
 0.495967;0.005796;,
 0.588442;0.020794;,
 0.370985;0.090671;,
 0.493167;0.109753;,
 0.611365;0.014241;,
 0.486982;0.007619;,
 0.589531;0.010354;,
 0.217714;0.006167;,
 0.387639;0.097255;;
 }
}
}
Frame frm-SSb1 {
  FrameTransformMatrix {
0.000083,0.000000,0.000000,0.000000,
0.000000,0.000083,0.000000,0.000000,
0.000000,0.000000,0.000083,0.000000,
-0.000007,0.417660,2.849971,1.000000;;
 }
Mesh SSb1 {
 6;
 -0.000000;-0.000000;-0.000000;,
 0.000000;-0.000000;-0.000000;,
 0.000000;-0.000000;0.000000;,
 -0.000000;-0.000000;-0.000000;,
 0.000000;-0.000000;-0.000000;,
 -0.000000;0.000000;-0.000000;;

 8;
 3;5,3,2;,
 3;4,2,3;,
 3;5,2,1;,
 3;4,1,2;,
 3;5,1,0;,
 3;4,0,1;,
 3;5,0,3;,
 3;4,3,0;;

 MeshMaterialList {
  1;
  8;
  0,
  0,
  0,
  0,
  0,
  0,
  0,
  0;
Material {
 0.740113;0.450000;1.000000;0.500000;;
 0.000000;
 0.740113;0.450000;1.000000;;
 0.0; 0.0; 0.0;;
 }
}
 MeshNormals {
  6;
  -0.000000;-0.000000;-1.000000;,
  1.000000;0.000001;-0.000000;,
  0.000000;0.000000;1.000000;,
  -1.000000;-0.000001;0.000000;,
  0.000001;-1.000000;0.000000;,
  -0.000001;1.000000;0.000000;;

  8;
  3;5,3,2;,
  3;4,2,3;,
  3;5,2,1;,
  3;4,1,2;,
  3;5,1,0;,
  3;4,0,1;,
  3;5,0,3;,
  3;4,3,0;;
 }
 MeshTextureCoords { 
 6;
 0.000000;0.000000;,
 0.000000;0.000000;,
 0.000000;0.000000;,
 0.000000;0.000000;,
 0.000000;0.000000;,
 0.000000;0.000000;;
 }
}
}
Frame frm-SSb2 {
  FrameTransformMatrix {
-0.000010,0.000000,0.000000,0.000000,
0.000000,-0.000010,0.000000,0.000000,
0.000000,0.000000,-0.000010,0.000000,
-0.000007,0.466726,2.435748,1.000000;;
 }
Mesh SSb2 {
 6;
 -0.000000;0.000000;-0.000000;,
 0.000000;0.000000;0.000000;,
 -0.000000;0.000000;0.000000;,
 -0.000000;0.000000;0.000000;,
 -0.000000;-0.000000;0.000000;,
 -0.000000;0.000000;0.000000;;

 8;
 3;5,3,2;,
 3;4,2,3;,
 3;5,2,1;,
 3;4,1,2;,
 3;5,1,0;,
 3;4,0,1;,
 3;5,0,3;,
 3;4,3,0;;

 MeshMaterialList {
  1;
  8;
  0,
  0,
  0,
  0,
  0,
  0,
  0,
  0;
Material {
 0.740113;0.450000;1.000000;0.500000;;
 0.000000;
 0.740113;0.450000;1.000000;;
 0.0; 0.0; 0.0;;
 }
}
 MeshNormals {
  6;
  -0.000000;-0.000000;-1.000000;,
  1.000000;0.000001;-0.000000;,
  0.000000;0.000000;1.000000;,
  -1.000000;-0.000001;0.000000;,
  0.000001;-1.000000;-0.000000;,
  -0.000001;1.000000;0.000000;;

  8;
  3;5,3,2;,
  3;4,2,3;,
  3;5,2,1;,
  3;4,1,2;,
  3;5,1,0;,
  3;4,0,1;,
  3;5,0,3;,
  3;4,3,0;;
 }
 MeshTextureCoords { 
 6;
 0.000000;0.000000;,
 0.000000;0.000000;,
 0.000000;0.000000;,
 0.000000;0.000000;,
 0.000000;0.000000;,
 0.000000;0.000000;;
 }
}
}
Frame frm-SSb3 {
  FrameTransformMatrix {
-0.000010,0.000000,0.000000,0.000000,
0.000000,-0.000010,0.000000,0.000000,
0.000000,0.000000,-0.000010,0.000000,
-0.000007,0.514892,2.034745,1.000000;;
 }
Mesh SSb3 {
 6;
 0.000000;0.000000;-0.000000;,
 0.000000;0.000000;0.000000;,
 0.000000;0.000000;0.000000;,
 -0.000000;0.000000;0.000000;,
 0.000000;-0.000000;0.000000;,
 0.000000;0.000000;0.000000;;

 8;
 3;5,3,2;,
 3;4,2,3;,
 3;5,2,1;,
 3;4,1,2;,
 3;5,1,0;,
 3;4,0,1;,
 3;5,0,3;,
 3;4,3,0;;

 MeshMaterialList {
  1;
  8;
  0,
  0,
  0,
  0,
  0,
  0,
  0,
  0;
Material {
 0.740113;0.450000;1.000000;0.500000;;
 0.000000;
 0.740113;0.450000;1.000000;;
 0.0; 0.0; 0.0;;
 }
}
 MeshNormals {
  6;
  -0.000000;-0.000000;-1.000000;,
  1.000000;0.000001;-0.000000;,
  0.000000;0.000000;1.000000;,
  -1.000000;-0.000001;0.000000;,
  0.000001;-1.000000;-0.000000;,
  -0.000001;1.000000;0.000000;;

  8;
  3;5,3,2;,
  3;4,2,3;,
  3;5,2,1;,
  3;4,1,2;,
  3;5,1,0;,
  3;4,0,1;,
  3;5,0,3;,
  3;4,3,0;;
 }
 MeshTextureCoords { 
 6;
 0.000000;0.000000;,
 0.000000;0.000000;,
 0.000000;0.000000;,
 0.000000;0.000000;,
 0.000000;0.000000;,
 0.000000;0.000000;;
 }
}
}
Frame frm-SSb4 {
  FrameTransformMatrix {
-0.000010,0.000000,0.000000,0.000000,
0.000000,-0.000010,0.000000,0.000000,
0.000000,0.000000,-0.000010,0.000000,
-0.000007,0.555801,1.683525,1.000000;;
 }
Mesh SSb4 {
 6;
 0.000000;0.000000;-0.000000;,
 0.000000;0.000000;-0.000000;,
 0.000000;0.000000;0.000000;,
 -0.000000;0.000000;-0.000000;,
 0.000000;-0.000000;-0.000000;,
 0.000000;0.000000;-0.000000;;

 8;
 3;5,3,2;,
 3;4,2,3;,
 3;5,2,1;,
 3;4,1,2;,
 3;5,1,0;,
 3;4,0,1;,
 3;5,0,3;,
 3;4,3,0;;

 MeshMaterialList {
  1;
  8;
  0,
  0,
  0,
  0,
  0,
  0,
  0,
  0;
Material {
 0.740113;0.450000;1.000000;0.500000;;
 0.000000;
 0.740113;0.450000;1.000000;;
 0.0; 0.0; 0.0;;
 }
}
 MeshNormals {
  6;
  -0.000000;-0.000000;-1.000000;,
  1.000000;0.000001;-0.000000;,
  0.000000;0.000000;1.000000;,
  -1.000000;-0.000001;0.000000;,
  0.000001;-1.000000;-0.000000;,
  -0.000001;1.000000;0.000000;;

  8;
  3;5,3,2;,
  3;4,2,3;,
  3;5,2,1;,
  3;4,1,2;,
  3;5,1,0;,
  3;4,0,1;,
  3;5,0,3;,
  3;4,3,0;;
 }
 MeshTextureCoords { 
 6;
 0.000000;0.000000;,
 0.000000;0.000000;,
 0.000000;0.000000;,
 0.000000;0.000000;,
 0.000000;0.000000;,
 0.000000;0.000000;;
 }
}
}
Frame frm-turwepemt1 {
  FrameTransformMatrix {
1.000000,0.000000,0.000000,0.000000,
0.000000,1.000000,0.000000,0.000000,
0.000000,0.000000,1.000000,0.000000,
-0.000007,0.931464,-0.100836,1.000000;;
 }
Mesh turwepemt1 {
 8;
 -0.005000;0.005014;0.004986;,
 -0.005000;-0.004986;0.005014;,
 0.005000;0.005014;0.004986;,
 0.005000;-0.004986;0.005014;,
 -0.005000;0.004986;-0.005014;,
 -0.005000;-0.005014;-0.004986;,
 0.005000;0.004986;-0.005014;,
 0.005000;-0.005014;-0.004986;;

 6;
 4;5,4,6,7;,
 4;4,0,2,6;,
 4;0,1,3,2;,
 4;1,5,7,3;,
 4;7,6,2,3;,
 4;1,0,4,5;;

 MeshMaterialList {
  1;
  6;
  0,
  0,
  0,
  0,
  0,
  0;
Material {
 1.000000;1.000000;1.000000;1.000000;;
 0.000000;
 1.000000;1.000000;1.000000;;
 0.000000;0.000000;0.000000;;
 TextureFilename {
  "utl92.ppm";
 }
 }
}
 MeshNormals {
  8;
  -0.577344;0.578973;0.575729;,
  -0.577356;-0.575723;0.578967;,
  0.577356;0.578962;0.575729;,
  0.577344;-0.575734;0.578967;,
  -0.577344;0.575734;-0.578967;,
  -0.577356;-0.578962;-0.575729;,
  0.577356;0.575723;-0.578967;,
  0.577344;-0.578973;-0.575729;;

  6;
  4;5,4,6,7;,
  4;4,0,2,6;,
  4;0,1,3,2;,
  4;1,5,7,3;,
  4;7,6,2,3;,
  4;1,0,4,5;;
 }
 MeshTextureCoords { 
 8;
 0.000000;1.000000;,
 0.000000;1.000000;,
 0.000000;1.000000;,
 0.000000;1.000000;,
 0.000000;1.000000;,
 0.000000;1.000000;,
 0.000000;1.000000;,
 0.000000;1.000000;;
 }
}
}
Frame frm-turwepemt2 {
  FrameTransformMatrix {
1.000000,0.000000,0.000000,0.000000,
0.000000,1.000000,0.000000,0.000000,
0.000000,0.000000,1.000000,0.000000,
-0.000006,-0.947524,-0.100837,1.000000;;
 }
Mesh turwepemt2 {
 8;
 -0.005000;-0.005026;-0.004974;,
 -0.005000;0.004974;-0.005026;,
 0.005000;-0.005026;-0.004974;,
 0.005000;0.004974;-0.005026;,
 -0.005000;-0.004974;0.005026;,
 -0.005000;0.005026;0.004974;,
 0.005000;-0.004974;0.005026;,
 0.005000;0.005026;0.004974;;

 6;
 4;5,4,6,7;,
 4;4,0,2,6;,
 4;0,1,3,2;,
 4;1,5,7,3;,
 4;7,6,2,3;,
 4;1,0,4,5;;

 MeshMaterialList {
  1;
  6;
  0,
  0,
  0,
  0,
  0,
  0;
Material {
 1.000000;1.000000;1.000000;1.000000;;
 0.000000;
 1.000000;1.000000;1.000000;;
 0.000000;0.000000;0.000000;;
 TextureFilename {
  "utl92.ppm";
 }
 }
}
 MeshNormals {
  8;
  -0.577350;-0.580359;-0.574326;,
  -0.577350;0.574326;-0.580359;,
  0.577350;-0.580359;-0.574326;,
  0.577350;0.574326;-0.580359;,
  -0.577350;-0.574326;0.580359;,
  -0.577350;0.580359;0.574326;,
  0.577350;-0.574326;0.580359;,
  0.577350;0.580359;0.574326;;

  6;
  4;5,4,6,7;,
  4;4,0,2,6;,
  4;0,1,3,2;,
  4;1,5,7,3;,
  4;7,6,2,3;,
  4;1,0,4,5;;
 }
 MeshTextureCoords { 
 8;
 0.000000;1.000000;,
 0.000000;1.000000;,
 0.000000;1.000000;,
 0.000000;1.000000;,
 0.000000;1.000000;,
 0.000000;1.000000;,
 0.000000;1.000000;,
 0.000000;1.000000;;
 }
}
}
Frame frm-ffuselg {
  FrameTransformMatrix {
1.000000,0.000000,0.000000,0.000000,
0.000000,1.000000,0.000000,0.000000,
0.000000,0.000000,1.000000,0.000000,
-0.000007,0.000000,-2.306385,1.000000;;
 }
Mesh ffuselg {
 156;
 -0.000000;0.000000;-1.246160;,
 -0.000000;0.000000;-1.246160;,
 -0.000000;0.000000;-1.246160;,
 -0.000000;0.000000;-1.246160;,
 -0.000000;0.000000;-1.246160;,
 -0.000000;0.000000;-1.246160;,
 -0.000000;0.000000;-1.246160;,
 -0.177023;-0.553388;0.497718;,
 -0.177023;-0.553388;0.497718;,
 -0.177023;-0.553388;0.497718;,
 -0.196143;0.452855;0.000000;,
 -0.196143;0.452855;0.000000;,
 -0.196143;0.452855;0.000000;,
 -0.196143;0.452855;0.000000;,
 -0.196143;0.452855;0.000000;,
 -0.108411;0.258052;-0.964090;,
 -0.108411;0.258052;-0.964090;,
 -0.108411;0.258052;-0.964090;,
 -0.108411;0.258052;-0.964090;,
 -0.108411;0.258052;-0.964090;,
 -0.057014;0.129892;-1.169763;,
 -0.057014;0.129892;-1.169763;,
 -0.057014;0.129892;-1.169763;,
 -0.057014;0.129892;-1.169763;,
 -0.442669;0.471976;0.405313;,
 -0.482831;0.390565;-0.058033;,
 -0.482831;0.390565;-0.058033;,
 -0.482831;0.390565;-0.058033;,
 -0.261726;0.137766;-0.964090;,
 -0.261726;0.137766;-0.964090;,
 -0.261726;0.137766;-0.964090;,
 -0.261726;0.137766;-0.964090;,
 -0.261726;0.137766;-0.964090;,
 -0.137643;0.053803;-1.169763;,
 -0.137643;0.053803;-1.169763;,
 -0.137643;0.053803;-1.169763;,
 -0.137643;0.053803;-1.169763;,
 -0.482831;-0.390565;-0.058033;,
 -0.482831;-0.390565;-0.058033;,
 -0.482831;-0.390565;-0.058033;,
 -0.482831;-0.390565;-0.058033;,
 -0.261726;-0.137767;-0.964090;,
 -0.261726;-0.137767;-0.964090;,
 -0.261726;-0.137767;-0.964090;,
 -0.261726;-0.137767;-0.964090;,
 -0.261726;-0.137767;-0.964090;,
 -0.137643;-0.053803;-1.169763;,
 -0.137643;-0.053803;-1.169763;,
 -0.137643;-0.053803;-1.169763;,
 -0.137643;-0.053803;-1.169763;,
 0.177023;0.553388;0.497719;,
 0.177023;0.553388;0.497719;,
 -0.196142;-0.452856;-0.000000;,
 -0.196142;-0.452856;-0.000000;,
 -0.196142;-0.452856;-0.000000;,
 -0.108411;-0.258052;-0.964090;,
 -0.108411;-0.258052;-0.964090;,
 -0.108411;-0.258052;-0.964090;,
 -0.108411;-0.258052;-0.964090;,
 -0.108411;-0.258052;-0.964090;,
 -0.108411;-0.258052;-0.964090;,
 -0.057014;-0.129892;-1.169763;,
 -0.057014;-0.129892;-1.169763;,
 -0.057014;-0.129892;-1.169763;,
 -0.057014;-0.129892;-1.169763;,
 0.177024;-0.553388;0.497719;,
 0.196143;-0.452855;-0.000000;,
 0.196143;-0.452855;-0.000000;,
 0.196143;-0.452855;-0.000000;,
 0.196143;-0.452855;-0.000000;,
 0.196143;-0.452855;-0.000000;,
 0.196143;-0.452855;-0.000000;,
 0.196143;-0.452855;-0.000000;,
 0.108410;-0.258051;-0.964090;,
 0.108410;-0.258051;-0.964090;,
 0.108410;-0.258051;-0.964090;,
 0.108410;-0.258051;-0.964090;,
 0.057013;-0.129891;-1.169763;,
 0.057013;-0.129891;-1.169763;,
 0.057013;-0.129891;-1.169763;,
 0.057013;-0.129891;-1.169763;,
 0.442669;-0.471976;0.405313;,
 0.482831;-0.390565;-0.058033;,
 0.482831;-0.390565;-0.058033;,
 0.482831;-0.390565;-0.058033;,
 0.261726;-0.137766;-0.964090;,
 0.261726;-0.137766;-0.964090;,
 0.261726;-0.137766;-0.964090;,
 0.261726;-0.137766;-0.964090;,
 0.261726;-0.137766;-0.964090;,
 0.137642;-0.053803;-1.169763;,
 0.137642;-0.053803;-1.169763;,
 0.137642;-0.053803;-1.169763;,
 0.137642;-0.053803;-1.169763;,
 0.261726;0.137767;-0.964090;,
 0.261726;0.137767;-0.964090;,
 0.261726;0.137767;-0.964090;,
 0.261726;0.137767;-0.964090;,
 0.261726;0.137767;-0.964090;,
 0.137642;0.053803;-1.169763;,
 0.137642;0.053803;-1.169763;,
 0.137642;0.053803;-1.169763;,
 0.137642;0.053803;-1.169763;,
 -0.177024;0.553388;0.497718;,
 -0.177024;0.553388;0.497718;,
 0.196142;0.452856;-0.000000;,
 0.196142;0.452856;-0.000000;,
 0.196142;0.452856;-0.000000;,
 0.196142;0.452856;-0.000000;,
 0.196142;0.452856;-0.000000;,
 0.108410;0.258052;-0.964090;,
 0.108410;0.258052;-0.964090;,
 0.108410;0.258052;-0.964090;,
 0.108410;0.258052;-0.964090;,
 0.108410;0.258052;-0.964090;,
 0.057013;0.129892;-1.169763;,
 0.057013;0.129892;-1.169763;,
 0.057013;0.129892;-1.169763;,
 0.057013;0.129892;-1.169763;,
 0.482830;0.390565;-0.058033;,
 0.482830;0.390565;-0.058033;,
 0.482830;0.390565;-0.058033;,
 0.482830;0.390565;-0.058033;,
 0.482830;0.390565;-0.058033;,
 0.057013;0.129892;-1.169763;,
 0.108410;0.258052;-0.964090;,
 0.196142;0.452856;-0.000000;,
 -0.177024;0.553388;0.497718;,
 0.137642;0.053803;-1.169763;,
 0.261726;0.137767;-0.964090;,
 0.442669;0.471977;0.405313;,
 0.137642;-0.053803;-1.169763;,
 0.261726;-0.137766;-0.964090;,
 0.482831;-0.390565;-0.058033;,
 0.442669;-0.471976;0.405313;,
 0.057013;-0.129891;-1.169763;,
 0.108410;-0.258051;-0.964090;,
 0.196143;-0.452855;-0.000000;,
 0.177024;-0.553388;0.497719;,
 -0.057014;-0.129892;-1.169763;,
 -0.108411;-0.258052;-0.964090;,
 -0.196142;-0.452856;-0.000000;,
 0.177023;0.553388;0.497719;,
 -0.137643;-0.053803;-1.169763;,
 -0.261726;-0.137767;-0.964090;,
 -0.482831;-0.390565;-0.058033;,
 -0.442668;-0.471977;0.405313;,
 -0.137643;0.053803;-1.169763;,
 -0.261726;0.137766;-0.964090;,
 -0.482831;0.390565;-0.058033;,
 -0.442669;0.471976;0.405313;,
 -0.057014;0.129892;-1.169763;,
 -0.108411;0.258052;-0.964090;,
 -0.196143;0.452855;0.000000;,
 -0.177023;-0.553388;0.497718;,
 -0.000000;0.000000;-1.246160;;

 52;
 3;6,23,118;,
 3;14,27,24;,
 3;104,13,150;,
 3;80,76,60;,
 3;64,79,59;,
 3;32,26,12;,
 3;19,31,11;,
 3;36,30,18;,
 3;22,35,17;,
 3;9,146,40;,
 3;54,8,39;,
 3;58,53,38;,
 3;98,114,121;,
 3;5,34,21;,
 3;20,16,113;,
 3;117,151,112;,
 3;51,130,120;,
 3;109,50,119;,
 3;111,108,123;,
 3;97,122,84;,
 3;89,96,83;,
 3;93,88,75;,
 3;78,92,74;,
 3;81,65,72;,
 3;82,134,71;,
 3;4,91,77;,
 3;57,73,70;,
 3;52,56,69;,
 3;7,141,68;,
 3;138,154,67;,
 3;3,116,102;,
 3;2,135,63;,
 3;1,62,49;,
 3;87,133,66;,
 3;45,37,25;,
 3;29,44,149;,
 3;136,86,137;,
 3;115,110,95;,
 3;101,124,94;,
 3;61,55,43;,
 3;48,139,42;,
 3;47,41,28;,
 3;33,46,148;,
 3;100,129,85;,
 3;90,99,132;,
 3;0,128,131;,
 3;155,143,147;,
 3;103,142,107;,
 3;10,127,106;,
 3;15,153,105;,
 3;125,152,126;,
 3;144,140,145;;

 MeshMaterialList {
  2;
  52;
  0,
  0,
  0,
  0,
  0,
  0,
  0,
  0,
  0,
  0,
  0,
  0,
  0,
  0,
  0,
  0,
  0,
  0,
  0,
  1,
  1,
  0,
  0,
  0,
  0,
  0,
  0,
  0,
  0,
  0,
  0,
  0,
  0,
  0,
  1,
  1,
  0,
  0,
  0,
  0,
  0,
  1,
  1,
  1,
  1,
  1,
  1,
  0,
  0,
  0,
  0,
  0;
Material {
 0.994350;1.000000;0.983051;1.000000;;
 0.000000;
 1.000000;1.000000;1.000000;;
 0.0; 0.0; 0.0;;
 TextureFilename {
  "utl92.ppm";
 }
 }
Material {
 1.000000;0.994350;0.994350;1.000000;;
 0.000000;
 1.000000;1.000000;1.000000;;
 0.0; 0.0; 0.0;;
 TextureFilename {
  "utl92.ppm";
 }
 }
}
 MeshNormals {
  156;
  -0.000000;0.000000;-1.000000;,
  -0.000000;0.000000;-1.000000;,
  -0.000000;0.000000;-1.000000;,
  -0.000000;0.000000;-1.000000;,
  -0.000000;0.000000;-1.000000;,
  -0.000000;0.000000;-1.000000;,
  -0.000000;0.000000;-1.000000;,
  -0.104233;-0.977360;-0.184127;,
  -0.104233;-0.977360;-0.184127;,
  -0.104233;-0.977360;-0.184127;,
  -0.197621;0.956944;-0.212614;,
  -0.197621;0.956944;-0.212614;,
  -0.197621;0.956944;-0.212614;,
  -0.197621;0.956944;-0.212614;,
  -0.197621;0.956944;-0.212614;,
  -0.302558;0.865372;-0.399486;,
  -0.302558;0.865372;-0.399486;,
  -0.302558;0.865372;-0.399486;,
  -0.302558;0.865372;-0.399486;,
  -0.302558;0.865372;-0.399486;,
  -0.196809;0.678696;-0.707558;,
  -0.196809;0.678696;-0.707558;,
  -0.196809;0.678696;-0.707558;,
  -0.196809;0.678696;-0.707558;,
  -0.204344;0.964065;-0.169770;,
  -0.728445;0.616718;-0.298374;,
  -0.728445;0.616718;-0.298374;,
  -0.728445;0.616718;-0.298374;,
  -0.763777;0.457399;-0.455445;,
  -0.763777;0.457399;-0.455445;,
  -0.763777;0.457399;-0.455445;,
  -0.763777;0.457399;-0.455445;,
  -0.763777;0.457399;-0.455445;,
  -0.596325;0.349493;-0.722670;,
  -0.596325;0.349493;-0.722670;,
  -0.596325;0.349493;-0.722670;,
  -0.596325;0.349493;-0.722670;,
  -0.489343;-0.832605;-0.259446;,
  -0.489343;-0.832605;-0.259446;,
  -0.489343;-0.832605;-0.259446;,
  -0.489343;-0.832605;-0.259446;,
  -0.815332;-0.364440;-0.449908;,
  -0.815332;-0.364440;-0.449908;,
  -0.815332;-0.364440;-0.449908;,
  -0.815332;-0.364440;-0.449908;,
  -0.815332;-0.364440;-0.449908;,
  -0.664056;-0.204452;-0.719186;,
  -0.664056;-0.204452;-0.719186;,
  -0.664056;-0.204452;-0.719186;,
  -0.664056;-0.204452;-0.719186;,
  0.138912;0.973988;-0.179026;,
  0.138912;0.973988;-0.179026;,
  -0.084992;-0.976231;-0.199374;,
  -0.084992;-0.976231;-0.199374;,
  -0.084992;-0.976231;-0.199374;,
  -0.189865;-0.903921;-0.383248;,
  -0.189865;-0.903921;-0.383248;,
  -0.189865;-0.903921;-0.383248;,
  -0.189865;-0.903921;-0.383248;,
  -0.189865;-0.903921;-0.383248;,
  -0.189865;-0.903921;-0.383248;,
  -0.300714;-0.629608;-0.716356;,
  -0.300714;-0.629608;-0.716356;,
  -0.300714;-0.629608;-0.716356;,
  -0.300714;-0.629608;-0.716356;,
  0.115187;-0.974529;-0.192417;,
  0.147845;-0.966525;-0.209691;,
  0.147845;-0.966525;-0.209691;,
  0.147845;-0.966525;-0.209691;,
  0.147845;-0.966525;-0.209691;,
  0.147845;-0.966525;-0.209691;,
  0.147845;-0.966525;-0.209691;,
  0.147845;-0.966525;-0.209691;,
  0.361513;-0.824657;-0.435029;,
  0.361513;-0.824657;-0.435029;,
  0.361513;-0.824657;-0.435029;,
  0.361513;-0.824657;-0.435029;,
  0.196808;-0.678696;-0.707558;,
  0.196808;-0.678696;-0.707558;,
  0.196808;-0.678696;-0.707558;,
  0.196808;-0.678696;-0.707558;,
  0.204343;-0.964065;-0.169770;,
  0.728445;-0.616718;-0.298374;,
  0.728445;-0.616718;-0.298374;,
  0.728445;-0.616718;-0.298374;,
  0.763777;-0.457399;-0.455445;,
  0.763777;-0.457399;-0.455445;,
  0.763777;-0.457399;-0.455445;,
  0.763777;-0.457399;-0.455445;,
  0.763777;-0.457399;-0.455445;,
  0.596324;-0.349493;-0.722670;,
  0.596324;-0.349493;-0.722670;,
  0.596324;-0.349493;-0.722670;,
  0.596324;-0.349493;-0.722670;,
  0.815332;0.364441;-0.449908;,
  0.815332;0.364441;-0.449908;,
  0.815332;0.364441;-0.449908;,
  0.815332;0.364441;-0.449908;,
  0.815332;0.364441;-0.449908;,
  0.664056;0.204453;-0.719187;,
  0.664056;0.204453;-0.719187;,
  0.664056;0.204453;-0.719187;,
  0.664056;0.204453;-0.719187;,
  -0.076734;0.977882;-0.194572;,
  -0.076734;0.977882;-0.194572;,
  0.056637;0.978345;-0.199083;,
  0.056637;0.978345;-0.199083;,
  0.056637;0.978345;-0.199083;,
  0.056637;0.978345;-0.199083;,
  0.056637;0.978345;-0.199083;,
  0.221661;0.883480;-0.412711;,
  0.221661;0.883480;-0.412711;,
  0.221661;0.883480;-0.412711;,
  0.221661;0.883480;-0.412711;,
  0.221661;0.883480;-0.412711;,
  0.300713;0.629608;-0.716355;,
  0.300713;0.629608;-0.716355;,
  0.300713;0.629608;-0.716355;,
  0.300713;0.629608;-0.716355;,
  0.193947;0.963950;-0.182168;,
  0.193947;0.963950;-0.182168;,
  0.854832;0.406825;-0.322112;,
  0.854832;0.406825;-0.322112;,
  0.193947;0.963950;-0.182168;,
  0.300713;0.629608;-0.716355;,
  0.221661;0.883480;-0.412711;,
  0.056637;0.978345;-0.199083;,
  -0.076734;0.977882;-0.194572;,
  0.664056;0.204453;-0.719187;,
  0.815332;0.364441;-0.449908;,
  0.242568;0.958863;-0.147451;,
  0.596324;-0.349493;-0.722670;,
  0.763777;-0.457399;-0.455445;,
  0.728445;-0.616718;-0.298374;,
  0.204343;-0.964065;-0.169770;,
  0.196808;-0.678696;-0.707558;,
  0.361513;-0.824657;-0.435029;,
  0.147845;-0.966525;-0.209691;,
  0.115187;-0.974529;-0.192417;,
  -0.300714;-0.629608;-0.716356;,
  -0.189865;-0.903921;-0.383248;,
  -0.084992;-0.976231;-0.199374;,
  0.138912;0.973988;-0.179026;,
  -0.664056;-0.204452;-0.719186;,
  -0.815332;-0.364440;-0.449908;,
  -0.489343;-0.832605;-0.259446;,
  -0.242568;-0.958863;-0.147451;,
  -0.596325;0.349493;-0.722670;,
  -0.763777;0.457399;-0.455445;,
  -0.728445;0.616718;-0.298374;,
  -0.204344;0.964065;-0.169770;,
  -0.196809;0.678696;-0.707558;,
  -0.302558;0.865372;-0.399486;,
  -0.197621;0.956944;-0.212614;,
  -0.104233;-0.977360;-0.184127;,
  -0.000000;0.000000;-1.000000;;

  52;
  3;6,23,118;,
  3;14,27,24;,
  3;104,13,150;,
  3;80,76,60;,
  3;64,79,59;,
  3;32,26,12;,
  3;19,31,11;,
  3;36,30,18;,
  3;22,35,17;,
  3;9,146,40;,
  3;54,8,39;,
  3;58,53,38;,
  3;98,114,121;,
  3;5,34,21;,
  3;20,16,113;,
  3;117,151,112;,
  3;51,130,120;,
  3;109,50,119;,
  3;111,108,123;,
  3;97,122,84;,
  3;89,96,83;,
  3;93,88,75;,
  3;78,92,74;,
  3;81,65,72;,
  3;82,134,71;,
  3;4,91,77;,
  3;57,73,70;,
  3;52,56,69;,
  3;7,141,68;,
  3;138,154,67;,
  3;3,116,102;,
  3;2,135,63;,
  3;1,62,49;,
  3;87,133,66;,
  3;45,37,25;,
  3;29,44,149;,
  3;136,86,137;,
  3;115,110,95;,
  3;101,124,94;,
  3;61,55,43;,
  3;48,139,42;,
  3;47,41,28;,
  3;33,46,148;,
  3;100,129,85;,
  3;90,99,132;,
  3;0,128,131;,
  3;155,143,147;,
  3;103,142,107;,
  3;10,127,106;,
  3;15,153,105;,
  3;125,152,126;,
  3;144,140,145;;
 }
 MeshTextureCoords { 
 156;
 0.951606;0.877005;,
 0.004391;0.495343;,
 0.004391;0.495343;,
 0.004391;0.495343;,
 0.004391;0.495343;,
 0.004391;0.495343;,
 0.004391;0.495343;,
 0.114385;0.530968;,
 0.114385;0.530968;,
 0.114385;0.530968;,
 0.082656;0.535376;,
 0.082656;0.535376;,
 0.082656;0.535376;,
 0.082656;0.535376;,
 0.082656;0.535376;,
 0.020747;0.524037;,
 0.020747;0.524037;,
 0.020747;0.524037;,
 0.020747;0.524037;,
 0.020747;0.524037;,
 0.007229;0.515049;,
 0.007229;0.515049;,
 0.007229;0.515049;,
 0.007229;0.515049;,
 0.111724;0.589392;,
 0.843585;0.935669;,
 0.080747;0.566853;,
 0.080747;0.566853;,
 0.923588;0.900759;,
 0.923588;0.900759;,
 0.022779;0.539253;,
 0.022779;0.539253;,
 0.022779;0.539253;,
 0.950815;0.882810;,
 0.012571;0.528027;,
 0.012571;0.528027;,
 0.012571;0.528027;,
 0.843420;0.814692;,
 0.080788;0.566812;,
 0.080788;0.566812;,
 0.080788;0.566812;,
 0.926852;0.848872;,
 0.022867;0.539276;,
 0.022867;0.539276;,
 0.926852;0.848872;,
 0.926852;0.848872;,
 0.950746;0.861598;,
 0.950746;0.861598;,
 0.012360;0.528286;,
 0.012360;0.528286;,
 0.114206;0.456511;,
 0.114206;0.456511;,
 0.082348;0.537129;,
 0.082348;0.537129;,
 0.082348;0.537129;,
 0.020153;0.522505;,
 0.020153;0.522505;,
 0.020153;0.522505;,
 0.020153;0.522505;,
 0.020153;0.522505;,
 0.020153;0.522505;,
 0.006719;0.515674;,
 0.006719;0.515674;,
 0.006719;0.515674;,
 0.006719;0.515674;,
 0.114867;0.457894;,
 0.082498;0.455488;,
 0.082498;0.455488;,
 0.082498;0.455488;,
 0.082498;0.455488;,
 0.082498;0.455488;,
 0.082498;0.455488;,
 0.082498;0.455488;,
 0.019852;0.475852;,
 0.019852;0.475852;,
 0.019852;0.475852;,
 0.019852;0.475852;,
 0.006567;0.487794;,
 0.006672;0.488220;,
 0.006672;0.488220;,
 0.006672;0.488220;,
 0.109815;0.398359;,
 0.080908;0.418845;,
 0.843063;0.815330;,
 0.843063;0.815330;,
 0.921080;0.843525;,
 0.021704;0.452738;,
 0.021808;0.452738;,
 0.021808;0.452738;,
 0.921080;0.843525;,
 0.947283;0.870764;,
 0.007417;0.473961;,
 0.007417;0.473321;,
 0.007417;0.473321;,
 0.022035;0.451434;,
 0.022035;0.451434;,
 0.921279;0.897704;,
 0.921279;0.897704;,
 0.022035;0.451434;,
 0.947737;0.883573;,
 0.947737;0.883573;,
 0.007628;0.473702;,
 0.007628;0.473702;,
 0.114039;0.530226;,
 0.114039;0.530226;,
 0.082387;0.455230;,
 0.082387;0.455230;,
 0.082387;0.455230;,
 0.082387;0.455230;,
 0.082387;0.455230;,
 0.019606;0.476531;,
 0.019606;0.476531;,
 0.020866;0.474610;,
 0.019606;0.476531;,
 0.019606;0.476531;,
 0.007077;0.487168;,
 0.007077;0.487168;,
 0.007182;0.487595;,
 0.007077;0.487168;,
 0.080552;0.417606;,
 0.080552;0.417606;,
 0.080552;0.417606;,
 0.842889;0.928468;,
 0.080552;0.417606;,
 0.007077;0.487168;,
 0.019606;0.476531;,
 0.082387;0.455230;,
 0.114039;0.530226;,
 0.947737;0.883573;,
 0.921279;0.897704;,
 0.109779;0.399289;,
 0.947283;0.870764;,
 0.921080;0.843525;,
 0.080908;0.418845;,
 0.109815;0.398359;,
 0.006567;0.487794;,
 0.019852;0.475852;,
 0.082498;0.455488;,
 0.114867;0.457894;,
 0.006719;0.515674;,
 0.020153;0.522505;,
 0.082348;0.537129;,
 0.114206;0.456511;,
 0.950746;0.861598;,
 0.022867;0.539276;,
 0.080788;0.566812;,
 0.112390;0.588462;,
 0.950815;0.882810;,
 0.923588;0.900759;,
 0.843585;0.935669;,
 0.111724;0.589392;,
 0.007229;0.515049;,
 0.020747;0.524037;,
 0.082656;0.535376;,
 0.114385;0.530968;,
 0.958917;0.874714;;
 }
}
}
Frame frm-sphere2 {
  FrameTransformMatrix {
1.000000,0.000000,0.000000,0.000000,
0.000000,1.000000,0.000000,0.000000,
0.000000,0.000000,1.000000,0.000000,
-0.002009,0.030096,-0.943346,1.000000;;
 }
Mesh sphere2 {
 131;
 -0.000000;-0.325853;0.916802;,
 -0.000000;-0.240678;1.261869;,
 -0.000000;-0.240678;1.261869;,
 -0.000000;-0.126532;1.483416;,
 -0.000000;-0.126532;1.483416;,
 -0.000000;0.000000;1.559756;,
 -0.000000;0.000000;1.559756;,
 -0.000000;0.126532;1.483416;,
 -0.000000;0.126532;1.483416;,
 -0.000000;0.240678;1.261869;,
 -0.000000;0.240678;1.261869;,
 -0.000000;0.325853;0.916802;,
 -1.193734;-0.325853;0.283307;,
 -1.643034;-0.240678;0.389939;,
 -1.643034;-0.240678;0.389939;,
 -1.931502;-0.126532;0.458401;,
 -1.931502;-0.126532;0.458401;,
 -2.030901;0.000000;0.481991;,
 -2.030901;0.000000;0.481991;,
 -1.931502;0.126532;0.458401;,
 -1.931502;0.126532;0.458401;,
 -1.643034;0.240678;0.389939;,
 -1.643034;0.240678;0.389939;,
 -1.193734;0.325853;0.283307;,
 -0.935703;-0.325853;-0.685338;,
 -1.287885;-0.240678;-0.943287;,
 -1.287885;-0.240678;-0.943287;,
 -1.513999;-0.126532;-1.108901;,
 -1.513999;-0.126532;-1.108901;,
 -1.591913;0.000000;-1.165967;,
 -1.591913;0.000000;-1.165967;,
 -1.513999;0.126532;-1.108901;,
 -1.513999;0.126532;-1.108901;,
 -1.287885;0.240678;-0.943287;,
 -1.287885;0.240678;-0.943287;,
 -0.935703;0.325853;-0.685338;,
 0.935703;-0.325853;-0.685338;,
 1.287885;-0.240678;-0.943287;,
 1.287885;-0.240678;-0.943287;,
 1.513998;-0.126532;-1.108900;,
 1.513998;-0.126532;-1.108900;,
 1.591913;0.000000;-1.165967;,
 1.591913;0.000000;-1.165967;,
 1.513998;0.126532;-1.108900;,
 1.513998;0.126532;-1.108900;,
 1.287885;0.240678;-0.943287;,
 1.287885;0.240678;-0.943287;,
 0.935703;0.325853;-0.685338;,
 1.193734;-0.325853;0.283307;,
 1.643034;-0.240678;0.389939;,
 1.643034;-0.240678;0.389939;,
 1.931502;-0.126532;0.458401;,
 1.931502;-0.126532;0.458401;,
 1.931502;-0.126532;0.458401;,
 2.030901;0.000000;0.481991;,
 2.030901;0.000000;0.481991;,
 1.931502;0.126532;0.458401;,
 1.931502;0.126532;0.458401;,
 1.643034;0.240678;0.389939;,
 1.643034;0.240678;0.389939;,
 1.193734;0.325853;0.283307;,
 0.737768;0.325853;0.741708;,
 1.015451;0.240678;1.020874;,
 1.193734;0.126532;1.200109;,
 1.255167;0.000000;1.261869;,
 1.193734;-0.126532;1.200109;,
 1.015451;-0.240678;1.020874;,
 0.737768;-0.325853;0.741708;,
 1.193734;0.325853;0.283307;,
 1.643034;0.240678;0.389939;,
 1.931502;0.126532;0.458401;,
 2.030901;0.000000;0.481991;,
 1.931502;-0.126532;0.458401;,
 1.643034;-0.240678;0.389939;,
 1.193734;-0.325853;0.283307;,
 1.263772;0.325853;-0.283307;,
 1.739433;0.240678;-0.389939;,
 2.044826;0.126532;-0.458401;,
 2.150057;0.000000;-0.481991;,
 2.044826;-0.126532;-0.458401;,
 1.739433;-0.240678;-0.389939;,
 1.263772;-0.325853;-0.283307;,
 0.935703;0.325853;-0.685338;,
 1.287885;0.240678;-0.943287;,
 1.513998;0.126532;-1.108900;,
 1.591913;0.000000;-1.165967;,
 1.513998;-0.126532;-1.108900;,
 1.287885;-0.240678;-0.943287;,
 0.935703;-0.325853;-0.685338;,
 -0.000000;0.325853;-0.739880;,
 -0.000000;0.240678;-1.058723;,
 -0.000000;0.126532;-1.263432;,
 -0.000000;0.000000;-1.333971;,
 -0.000000;-0.126532;-1.263432;,
 -0.000000;-0.240678;-1.058723;,
 -0.000000;-0.325853;-0.739881;,
 -0.935703;0.325853;-0.685338;,
 -1.287885;0.240678;-0.943287;,
 -1.513999;0.126532;-1.108901;,
 -1.591913;0.000000;-1.165967;,
 -1.513999;-0.126532;-1.108901;,
 -1.287885;-0.240678;-0.943287;,
 -0.935703;-0.325853;-0.685338;,
 -1.263772;0.325853;-0.283307;,
 -1.739433;0.240678;-0.389939;,
 -2.044826;0.126532;-0.458401;,
 -2.150058;0.000000;-0.481991;,
 -2.044826;-0.126532;-0.458401;,
 -1.739433;-0.240678;-0.389939;,
 -1.263772;-0.325853;-0.283307;,
 -1.193734;0.325853;0.283307;,
 -1.643034;0.240678;0.389939;,
 -1.931502;0.126532;0.458401;,
 -2.030901;0.000000;0.481991;,
 -1.931502;-0.126532;0.458401;,
 -1.643034;-0.240678;0.389939;,
 -1.193734;-0.325853;0.283307;,
 -0.737768;0.325853;0.741708;,
 -1.015451;0.240678;1.020874;,
 -1.193734;0.126532;1.200109;,
 -1.255166;0.000000;1.261869;,
 -1.193734;-0.126532;1.200109;,
 -1.015451;-0.240678;1.020874;,
 -0.737768;-0.325853;0.741708;,
 -0.000000;0.325853;0.916802;,
 -0.000000;0.240678;1.261869;,
 -0.000000;0.126532;1.483416;,
 -0.000000;0.000000;1.559756;,
 -0.000000;-0.126532;1.483416;,
 -0.000000;-0.240678;1.261869;,
 -0.000000;-0.325853;0.916802;;

 60;
 4;50,66,67,48;,
 4;53,65,66,49;,
 4;2,122,123,0;,
 4;4,121,122,1;,
 4;6,120,121,3;,
 4;8,119,120,5;,
 4;10,118,119,7;,
 4;11,117,118,9;,
 4;61,124,125,62;,
 4;62,125,126,63;,
 4;75,60,59,76;,
 4;47,75,76,46;,
 4;122,14,12,123;,
 4;121,16,13,122;,
 4;120,18,15,121;,
 4;119,20,17,120;,
 4;118,22,19,119;,
 4;117,23,21,118;,
 4;63,126,127,64;,
 4;64,127,128,65;,
 4;76,58,57,77;,
 4;45,76,77,44;,
 4;115,108,109,116;,
 4;114,107,108,115;,
 4;113,106,107,114;,
 4;112,105,106,113;,
 4;111,104,105,112;,
 4;110,103,104,111;,
 4;65,128,129,66;,
 4;66,129,130,67;,
 4;77,56,55,78;,
 4;43,77,78,42;,
 4;108,26,24,109;,
 4;107,28,25,108;,
 4;106,30,27,107;,
 4;105,32,29,106;,
 4;104,34,31,105;,
 4;103,35,33,104;,
 4;41,78,79,40;,
 4;78,54,52,79;,
 4;79,51,73,80;,
 4;39,79,80,38;,
 4;101,94,95,102;,
 4;100,93,94,101;,
 4;99,92,93,100;,
 4;98,91,92,99;,
 4;97,90,91,98;,
 4;96,89,90,97;,
 4;68,61,62,69;,
 4;69,62,63,70;,
 4;80,73,74,81;,
 4;37,80,81,36;,
 4;94,87,88,95;,
 4;93,86,87,94;,
 4;92,85,86,93;,
 4;91,84,85,92;,
 4;90,83,84,91;,
 4;89,82,83,90;,
 4;70,63,64,71;,
 4;71,64,65,72;;

 MeshMaterialList {
  1;
  60;
  0,
  0,
  0,
  0,
  0,
  0,
  0,
  0,
  0,
  0,
  0,
  0,
  0,
  0,
  0,
  0,
  0,
  0,
  0,
  0,
  0,
  0,
  0,
  0,
  0,
  0,
  0,
  0,
  0,
  0,
  0,
  0,
  0,
  0,
  0,
  0,
  0,
  0,
  0,
  0,
  0,
  0,
  0,
  0,
  0,
  0,
  0,
  0,
  0,
  0,
  0,
  0,
  0,
  0,
  0,
  0,
  0,
  0,
  0,
  0;
Material {
 1.000000;1.000000;1.000000;1.000000;;
 50.000000;
 1.000000;1.000000;1.000000;;
 0.0; 0.0; 0.0;;
 TextureFilename {
  "utl92.ppm";
 }
 }
}
 MeshNormals {
  131;
  -0.000000;-0.938179;0.346151;,
  -0.000000;-0.944228;0.329292;,
  -0.000000;-0.944228;0.329292;,
  0.000000;-0.778646;0.627463;,
  0.000000;-0.778646;0.627463;,
  0.000000;0.000000;1.000000;,
  0.000000;0.000000;1.000000;,
  0.000000;0.778646;0.627463;,
  0.000000;0.778646;0.627463;,
  -0.000000;0.944228;0.329292;,
  -0.000000;0.944228;0.329292;,
  0.000000;0.938179;0.346151;,
  -0.242217;-0.962061;0.125575;,
  -0.229973;-0.965865;0.119234;,
  -0.229973;-0.965865;0.119234;,
  -0.467817;-0.849932;0.242409;,
  -0.467817;-0.849932;0.242409;,
  -0.887919;0.000000;0.460001;,
  -0.887919;0.000000;0.460001;,
  -0.467817;0.849932;0.242409;,
  -0.467817;0.849932;0.242409;,
  -0.229973;0.965865;0.119234;,
  -0.229973;0.965865;0.119234;,
  -0.242217;0.962061;0.125575;,
  -0.086406;-0.976833;-0.195783;,
  -0.122011;-0.955563;-0.268351;,
  -0.122011;-0.955563;-0.268351;,
  -0.246625;-0.815084;-0.524226;,
  -0.246625;-0.815084;-0.524226;,
  -0.429205;0.000000;-0.903207;,
  -0.429205;0.000000;-0.903207;,
  -0.246625;0.815085;-0.524226;,
  -0.246625;0.815085;-0.524226;,
  -0.122011;0.955563;-0.268351;,
  -0.122011;0.955563;-0.268351;,
  -0.086406;0.976833;-0.195783;,
  0.086406;-0.976833;-0.195783;,
  0.122011;-0.955563;-0.268351;,
  0.122011;-0.955563;-0.268351;,
  0.246625;-0.815084;-0.524226;,
  0.246625;-0.815084;-0.524226;,
  0.429205;0.000000;-0.903207;,
  0.429205;0.000000;-0.903207;,
  0.246625;0.815084;-0.524226;,
  0.246625;0.815084;-0.524226;,
  0.122011;0.955563;-0.268351;,
  0.122011;0.955563;-0.268351;,
  0.086406;0.976833;-0.195783;,
  0.242217;-0.962061;0.125575;,
  0.229973;-0.965865;0.119234;,
  0.229973;-0.965865;0.119234;,
  0.467817;-0.849932;0.242409;,
  0.467817;-0.849932;0.242409;,
  0.467817;-0.849932;0.242409;,
  0.887919;0.000000;0.460001;,
  0.887919;0.000000;0.460001;,
  0.467817;0.849932;0.242409;,
  0.467817;0.849932;0.242409;,
  0.229973;0.965865;0.119234;,
  0.229973;0.965865;0.119234;,
  0.242217;0.962061;0.125574;,
  0.149132;0.947392;0.283211;,
  0.141799;0.952584;0.269214;,
  0.276307;0.804431;0.525875;,
  0.464814;0.000000;0.885408;,
  0.276307;-0.804431;0.525876;,
  0.141799;-0.952584;0.269214;,
  0.149132;-0.947392;0.283211;,
  0.242217;0.962061;0.125574;,
  0.229973;0.965865;0.119234;,
  0.467817;0.849932;0.242409;,
  0.887919;0.000000;0.460001;,
  0.467817;-0.849932;0.242409;,
  0.229973;-0.965865;0.119234;,
  0.242217;-0.962061;0.125575;,
  0.242182;0.967315;-0.075164;,
  0.229691;0.970655;-0.071206;,
  0.474168;0.867812;-0.148551;,
  0.953950;0.000000;-0.299967;,
  0.474168;-0.867812;-0.148551;,
  0.229691;-0.970655;-0.071206;,
  0.242182;-0.967315;-0.075164;,
  0.086406;0.976833;-0.195783;,
  0.122011;0.955563;-0.268351;,
  0.246625;0.815084;-0.524226;,
  0.429205;0.000000;-0.903207;,
  0.246625;-0.815084;-0.524226;,
  0.122011;-0.955563;-0.268351;,
  0.086406;-0.976833;-0.195783;,
  0.000000;0.962420;-0.271567;,
  0.000000;0.930149;-0.367183;,
  0.000000;0.740955;-0.671554;,
  0.000000;0.000000;-1.000000;,
  0.000000;-0.740955;-0.671554;,
  0.000000;-0.930149;-0.367183;,
  0.000000;-0.962419;-0.271567;,
  -0.086406;0.976833;-0.195783;,
  -0.122011;0.955563;-0.268351;,
  -0.246625;0.815085;-0.524226;,
  -0.429205;0.000000;-0.903207;,
  -0.246625;-0.815084;-0.524226;,
  -0.122011;-0.955563;-0.268351;,
  -0.086406;-0.976833;-0.195783;,
  -0.242182;0.967315;-0.075164;,
  -0.229691;0.970655;-0.071206;,
  -0.474168;0.867812;-0.148551;,
  -0.953950;0.000000;-0.299967;,
  -0.474168;-0.867812;-0.148551;,
  -0.229692;-0.970655;-0.071206;,
  -0.242182;-0.967315;-0.075164;,
  -0.242217;0.962061;0.125575;,
  -0.229973;0.965865;0.119234;,
  -0.467817;0.849932;0.242409;,
  -0.887919;0.000000;0.460001;,
  -0.467817;-0.849932;0.242409;,
  -0.229973;-0.965865;0.119234;,
  -0.242217;-0.962061;0.125575;,
  -0.149132;0.947392;0.283211;,
  -0.141799;0.952584;0.269214;,
  -0.276307;0.804431;0.525875;,
  -0.464814;0.000000;0.885408;,
  -0.276307;-0.804431;0.525875;,
  -0.141799;-0.952584;0.269214;,
  -0.149132;-0.947392;0.283211;,
  0.000000;0.938179;0.346151;,
  -0.000000;0.944228;0.329292;,
  0.000000;0.778646;0.627463;,
  0.000000;0.000000;1.000000;,
  0.000000;-0.778646;0.627463;,
  -0.000000;-0.944228;0.329292;,
  -0.000000;-0.938179;0.346151;;

  60;
  4;50,66,67,48;,
  4;53,65,66,49;,
  4;2,122,123,0;,
  4;4,121,122,1;,
  4;6,120,121,3;,
  4;8,119,120,5;,
  4;10,118,119,7;,
  4;11,117,118,9;,
  4;61,124,125,62;,
  4;62,125,126,63;,
  4;75,60,59,76;,
  4;47,75,76,46;,
  4;122,14,12,123;,
  4;121,16,13,122;,
  4;120,18,15,121;,
  4;119,20,17,120;,
  4;118,22,19,119;,
  4;117,23,21,118;,
  4;63,126,127,64;,
  4;64,127,128,65;,
  4;76,58,57,77;,
  4;45,76,77,44;,
  4;115,108,109,116;,
  4;114,107,108,115;,
  4;113,106,107,114;,
  4;112,105,106,113;,
  4;111,104,105,112;,
  4;110,103,104,111;,
  4;65,128,129,66;,
  4;66,129,130,67;,
  4;77,56,55,78;,
  4;43,77,78,42;,
  4;108,26,24,109;,
  4;107,28,25,108;,
  4;106,30,27,107;,
  4;105,32,29,106;,
  4;104,34,31,105;,
  4;103,35,33,104;,
  4;41,78,79,40;,
  4;78,54,52,79;,
  4;79,51,73,80;,
  4;39,79,80,38;,
  4;101,94,95,102;,
  4;100,93,94,101;,
  4;99,92,93,100;,
  4;98,91,92,99;,
  4;97,90,91,98;,
  4;96,89,90,97;,
  4;68,61,62,69;,
  4;69,62,63,70;,
  4;80,73,74,81;,
  4;37,80,81,36;,
  4;94,87,88,95;,
  4;93,86,87,94;,
  4;92,85,86,93;,
  4;91,84,85,92;,
  4;90,83,84,91;,
  4;89,82,83,90;,
  4;70,63,64,71;,
  4;71,64,65,72;;
 }
 MeshTextureCoords { 
 131;
 0.865522;0.031419;,
 0.882614;0.123288;,
 0.882614;0.123288;,
 0.895516;0.198958;,
 0.895516;0.198958;,
 0.904527;0.258292;,
 0.904527;0.258292;,
 0.895516;0.198958;,
 0.895516;0.198958;,
 0.882614;0.123288;,
 0.882614;0.123288;,
 0.865522;0.031419;,
 0.718394;0.043833;,
 0.699472;0.126179;,
 0.699472;0.126179;,
 0.680760;0.210920;,
 0.680760;0.210920;,
 0.672246;0.265719;,
 0.672246;0.265719;,
 0.680760;0.210920;,
 0.680760;0.210920;,
 0.699472;0.126179;,
 0.699472;0.126179;,
 0.718394;0.043833;,
 0.718394;0.043833;,
 0.699472;0.126179;,
 0.699472;0.126179;,
 0.680760;0.210920;,
 0.680760;0.210920;,
 0.672246;0.265719;,
 0.672246;0.265719;,
 0.680760;0.210920;,
 0.680760;0.210920;,
 0.699472;0.126179;,
 0.699472;0.126179;,
 0.718394;0.043833;,
 0.865522;0.031419;,
 0.882614;0.123288;,
 0.882614;0.123288;,
 0.895516;0.198958;,
 0.895516;0.198958;,
 0.904527;0.258292;,
 0.904527;0.258292;,
 0.895516;0.198958;,
 0.895516;0.198958;,
 0.882614;0.123288;,
 0.882614;0.123288;,
 0.865522;0.031419;,
 0.865522;0.031419;,
 0.882614;0.123288;,
 0.882614;0.123288;,
 0.680760;0.210920;,
 0.680760;0.210920;,
 0.895516;0.198958;,
 0.672246;0.265719;,
 0.672246;0.265719;,
 0.680760;0.210920;,
 0.680760;0.210920;,
 0.699472;0.126179;,
 0.699472;0.126179;,
 0.718394;0.043833;,
 0.790555;0.061261;,
 0.789115;0.182090;,
 0.789267;0.284583;,
 0.791634;0.359712;,
 0.789267;0.284583;,
 0.789115;0.182090;,
 0.790555;0.061261;,
 0.865522;0.031419;,
 0.882614;0.123288;,
 0.895516;0.198958;,
 0.904527;0.258292;,
 0.895516;0.198958;,
 0.699472;0.126179;,
 0.718394;0.043833;,
 0.790555;0.061261;,
 0.789115;0.182090;,
 0.789267;0.284583;,
 0.791634;0.359712;,
 0.789267;0.284583;,
 0.789115;0.182090;,
 0.790555;0.061261;,
 0.718394;0.043833;,
 0.699472;0.126179;,
 0.680760;0.210920;,
 0.672246;0.265719;,
 0.680760;0.210920;,
 0.699472;0.126179;,
 0.718394;0.043833;,
 0.790555;0.061261;,
 0.789115;0.182090;,
 0.789267;0.284583;,
 0.791634;0.359712;,
 0.789267;0.284583;,
 0.789115;0.182090;,
 0.790555;0.061261;,
 0.865522;0.031419;,
 0.882614;0.123288;,
 0.895516;0.198958;,
 0.904527;0.258292;,
 0.895516;0.198958;,
 0.882614;0.123288;,
 0.865522;0.031419;,
 0.790555;0.061261;,
 0.789115;0.182090;,
 0.789267;0.284583;,
 0.791634;0.359712;,
 0.789267;0.284583;,
 0.789115;0.182090;,
 0.790555;0.061261;,
 0.865522;0.031419;,
 0.882614;0.123288;,
 0.895516;0.198958;,
 0.904527;0.258292;,
 0.895516;0.198958;,
 0.882614;0.123288;,
 0.865522;0.031419;,
 0.790555;0.061261;,
 0.789115;0.182090;,
 0.789267;0.284583;,
 0.791634;0.359712;,
 0.789267;0.284583;,
 0.789115;0.182090;,
 0.790555;0.061261;,
 0.718394;0.043833;,
 0.699472;0.126179;,
 0.680760;0.210920;,
 0.672246;0.265719;,
 0.680760;0.210920;,
 0.699472;0.126179;,
 0.718394;0.043833;;
 }
}
}
Frame frm-missemt {
  FrameTransformMatrix {
1.000000,0.000000,0.000000,0.000000,
0.000000,1.000000,0.000000,0.000000,
0.000000,0.000000,1.000000,0.000000,
-0.000006,-0.773264,-1.756303,1.000000;;
 }
Mesh missemt {
 8;
 -0.005000;-0.005026;-0.004974;,
 -0.005000;0.004974;-0.005026;,
 0.005000;-0.005026;-0.004974;,
 0.005000;0.004974;-0.005026;,
 -0.005000;-0.004974;0.005026;,
 -0.005000;0.005026;0.004974;,
 0.005000;-0.004974;0.005026;,
 0.005000;0.005026;0.004974;;

 6;
 4;5,4,6,7;,
 4;4,0,2,6;,
 4;0,1,3,2;,
 4;1,5,7,3;,
 4;7,6,2,3;,
 4;1,0,4,5;;

 MeshMaterialList {
  1;
  6;
  0,
  0,
  0,
  0,
  0,
  0;
Material {
 1.000000;1.000000;1.000000;1.000000;;
 0.000000;
 1.000000;1.000000;1.000000;;
 0.000000;0.000000;0.000000;;
 TextureFilename {
  "utl92.ppm";
 }
 }
}
 MeshNormals {
  8;
  -0.577350;-0.580359;-0.574326;,
  -0.577350;0.574326;-0.580359;,
  0.577350;-0.580359;-0.574326;,
  0.577350;0.574326;-0.580359;,
  -0.577350;-0.574326;0.580359;,
  -0.577350;0.580359;0.574326;,
  0.577350;-0.574326;0.580359;,
  0.577350;0.580359;0.574326;;

  6;
  4;5,4,6,7;,
  4;4,0,2,6;,
  4;0,1,3,2;,
  4;1,5,7,3;,
  4;7,6,2,3;,
  4;1,0,4,5;;
 }
 MeshTextureCoords { 
 8;
 0.000000;1.000000;,
 0.000000;1.000000;,
 0.000000;1.000000;,
 0.000000;1.000000;,
 0.000000;1.000000;,
 0.000000;1.000000;,
 0.000000;1.000000;,
 0.000000;1.000000;;
 }
}
}
}
Frame frm-cockpt {
  FrameTransformMatrix {
1.000000,0.000000,0.000000,0.000000,
0.000000,1.000000,0.000000,0.000000,
0.000000,0.000000,1.000000,0.000000,
-0.000007,0.000000,-2.957382,1.000000;;
 }
Mesh cockpt {
 8;
 -0.005000;0.005000;-0.005000;,
 -0.005000;0.005000;0.005000;,
 0.005000;0.005000;-0.005000;,
 0.005000;0.005000;0.005000;,
 -0.005000;-0.005000;-0.005000;,
 -0.005000;-0.005000;0.005000;,
 0.005000;-0.005000;-0.005000;,
 0.005000;-0.005000;0.005000;;

 6;
 4;5,4,6,7;,
 4;4,0,2,6;,
 4;0,1,3,2;,
 4;1,5,7,3;,
 4;7,6,2,3;,
 4;1,0,4,5;;

 MeshNormals {
  8;
  -0.577351;0.577350;-0.577350;,
  -0.577351;0.577350;0.577351;,
  0.577350;0.577351;-0.577350;,
  0.577350;0.577351;0.577350;,
  -0.577350;-0.577351;-0.577350;,
  -0.577350;-0.577351;0.577350;,
  0.577351;-0.577350;-0.577351;,
  0.577351;-0.577350;0.577350;;

  6;
  4;5,4,6,7;,
  4;4,0,2,6;,
  4;0,1,3,2;,
  4;1,5,7,3;,
  4;7,6,2,3;,
  4;1,0,4,5;;
 }
}
}
Frame frm-trail {
  FrameTransformMatrix {
1.000000,0.000000,0.000000,0.000000,
0.000000,1.000000,0.000000,0.000000,
0.000000,0.000000,1.000000,0.000000,
-0.000006,-0.000002,6.268781,1.000000;;
 }
Mesh trail {
 8;
 -0.005000;0.005000;-0.005000;,
 -0.005000;0.005000;0.005000;,
 0.005000;0.005000;-0.005000;,
 0.005000;0.005000;0.005000;,
 -0.005000;-0.005000;-0.005000;,
 -0.005000;-0.005000;0.005000;,
 0.005000;-0.005000;-0.005000;,
 0.005000;-0.005000;0.005000;;

 6;
 4;5,4,6,7;,
 4;4,0,2,6;,
 4;0,1,3,2;,
 4;1,5,7,3;,
 4;7,6,2,3;,
 4;1,0,4,5;;

 MeshNormals {
  8;
  -0.577351;0.577350;-0.577350;,
  -0.577351;0.577350;0.577351;,
  0.577350;0.577351;-0.577350;,
  0.577350;0.577351;0.577350;,
  -0.577350;-0.577351;-0.577350;,
  -0.577350;-0.577351;0.577350;,
  0.577351;-0.577350;-0.577351;,
  0.577351;-0.577350;0.577350;;

  6;
  4;5,4,6,7;,
  4;4,0,2,6;,
  4;0,1,3,2;,
  4;1,5,7,3;,
  4;7,6,2,3;,
  4;1,0,4,5;;
 }
}
}
Frame frm-thrust {
  FrameTransformMatrix {
1.000000,0.000000,0.000000,0.000000,
0.000000,1.000000,0.000000,0.000000,
0.000000,0.000000,1.000000,0.000000,
-0.000006,-0.000002,6.268781,1.000000;;
 }
Mesh thrust {
 8;
 -0.005000;0.005000;-0.005000;,
 -0.005000;0.005000;0.005000;,
 0.005000;0.005000;-0.005000;,
 0.005000;0.005000;0.005000;,
 -0.005000;-0.005000;-0.005000;,
 -0.005000;-0.005000;0.005000;,
 0.005000;-0.005000;-0.005000;,
 0.005000;-0.005000;0.005000;;

 6;
 4;5,4,6,7;,
 4;4,0,2,6;,
 4;0,1,3,2;,
 4;1,5,7,3;,
 4;7,6,2,3;,
 4;1,0,4,5;;

 MeshNormals {
  8;
  -0.577351;0.577350;-0.577350;,
  -0.577350;0.577350;0.577351;,
  0.577349;0.577351;-0.577350;,
  0.577350;0.577351;0.577350;,
  -0.577350;-0.577351;-0.577350;,
  -0.577349;-0.577351;0.577350;,
  0.577350;-0.577350;-0.577351;,
  0.577351;-0.577350;0.577350;;

  6;
  4;5,4,6,7;,
  4;4,0,2,6;,
  4;0,1,3,2;,
  4;1,5,7,3;,
  4;7,6,2,3;,
  4;1,0,4,5;;
 }
}
}
Frame frm-smoke {
  FrameTransformMatrix {
1.000000,0.000000,0.000000,0.000000,
0.000000,1.000000,0.000000,0.000000,
0.000000,0.000000,1.000000,0.000000,
-0.000007,-0.000002,6.268781,1.000000;;
 }
Mesh smoke {
 8;
 -0.005000;0.005000;-0.005000;,
 -0.005000;0.005000;0.005000;,
 0.005000;0.005000;-0.005000;,
 0.005000;0.005000;0.005000;,
 -0.005000;-0.005000;-0.005000;,
 -0.005000;-0.005000;0.005000;,
 0.005000;-0.005000;-0.005000;,
 0.005000;-0.005000;0.005000;;

 6;
 4;5,4,6,7;,
 4;4,0,2,6;,
 4;0,1,3,2;,
 4;1,5,7,3;,
 4;7,6,2,3;,
 4;1,0,4,5;;

 MeshNormals {
  8;
  -0.577351;0.577350;-0.577350;,
  -0.577351;0.577350;0.577350;,
  0.577350;0.577351;-0.577350;,
  0.577350;0.577351;0.577351;,
  -0.577350;-0.577351;-0.577351;,
  -0.577350;-0.577351;0.577350;,
  0.577351;-0.577350;-0.577350;,
  0.577351;-0.577350;0.577350;;

  6;
  4;5,4,6,7;,
  4;4,0,2,6;,
  4;0,1,3,2;,
  4;1,5,7,3;,
  4;7,6,2,3;,
  4;1,0,4,5;;
 }
}
}
}
AnimationSet {
 Animation anim-fuselg0 {
  {frm-fuselg0}
  AnimationKey {
  2;
  2;
  1; 3; 0.000000, 0.000000, -1.377536;;,
  91; 3; 0.000000, 0.000000, -1.377536;;;
  }
 }
 Animation anim-afinzzz {
  {frm-afinzzz}
  AnimationKey {
  2;
  2;
  1; 3; -0.000006, 0.000001, 4.027233;;,
  91; 3; -0.000006, 0.000001, 4.027233;;;
  }
 }
 Animation anim-SSb1 {
  {frm-SSb1}
  AnimationKey {
  1;
  30;
  1; 3; 0.000083, 0.000083, 0.000083;;,
  2; 3; 0.005880, 0.005880, 0.005880;;,
  3; 3; 0.011536, 0.011536, 0.011536;;,
  5; 3; 0.003807, 0.003807, 0.003807;;,
  6; 3; -0.000010, -0.000010, -0.000010;;,
  16; 3; 0.001516, 0.001516, 0.001516;;,
  17; 3; 0.007313, 0.007313, 0.007313;;,
  18; 3; 0.010581, 0.010581, 0.010581;;,
  20; 3; 0.002852, 0.002852, 0.002852;;,
  21; 3; -0.000010, -0.000010, -0.000010;;,
  31; 3; 0.002949, 0.002949, 0.002949;;,
  32; 3; 0.008746, 0.008746, 0.008746;;,
  33; 3; 0.009625, 0.009625, 0.009625;;,
  35; 3; 0.001896, 0.001896, 0.001896;;,
  36; 3; -0.000010, -0.000010, -0.000010;;,
  46; 3; 0.004382, 0.004382, 0.004382;;,
  47; 3; 0.010179, 0.010179, 0.010179;;,
  48; 3; 0.008670, 0.008670, 0.008670;;,
  50; 3; 0.000941, 0.000941, 0.000941;;,
  51; 3; -0.000010, -0.000010, -0.000010;;,
  62; 3; 0.011579, 0.011579, 0.011579;;,
  64; 3; 0.003850, 0.003850, 0.003850;;,
  65; 3; -0.000010, -0.000010, -0.000010;;,
  75; 3; 0.001452, 0.001452, 0.001452;;,
  76; 3; 0.007249, 0.007249, 0.007249;;,
  77; 3; 0.010624, 0.010624, 0.010624;;,
  79; 3; 0.002894, 0.002894, 0.002894;;,
  80; 3; -0.000010, -0.000010, -0.000010;;,
  90; 3; 0.002885, 0.002885, 0.002885;;,
  91; 3; 0.008682, 0.008682, 0.008682;;;
  }
  AnimationKey {
  2;
  2;
  1; 3; -0.000007, 0.417660, 2.849971;;,
  91; 3; -0.000007, 0.417660, 2.849971;;;
  }
 }
 Animation anim-SSb2 {
  {frm-SSb2}
  AnimationKey {
  1;
  32;
  1; 3; -0.000010, -0.000010, -0.000010;;,
  3; 3; 0.001983, 0.001983, 0.001983;;,
  4; 3; 0.007780, 0.007780, 0.007780;;,
  5; 3; 0.010269, 0.010269, 0.010269;;,
  7; 3; 0.002540, 0.002540, 0.002540;;,
  8; 3; -0.000010, -0.000010, -0.000010;;,
  18; 3; 0.003416, 0.003416, 0.003416;;,
  19; 3; 0.009213, 0.009213, 0.009213;;,
  20; 3; 0.009314, 0.009314, 0.009314;;,
  22; 3; 0.001585, 0.001585, 0.001585;;,
  23; 3; -0.000010, -0.000010, -0.000010;;,
  33; 3; 0.004850, 0.004850, 0.004850;;,
  34; 3; 0.010646, 0.010646, 0.010646;;,
  35; 3; 0.008359, 0.008359, 0.008359;;,
  37; 3; 0.000629, 0.000629, 0.000629;;,
  38; 3; -0.000010, -0.000010, -0.000010;;,
  47; 3; 0.000486, 0.000486, 0.000486;;,
  48; 3; 0.006283, 0.006283, 0.006283;;,
  49; 3; 0.011268, 0.011268, 0.011268;;,
  51; 3; 0.003539, 0.003539, 0.003539;;,
  52; 3; -0.000010, -0.000010, -0.000010;;,
  62; 3; 0.001919, 0.001919, 0.001919;;,
  63; 3; 0.007716, 0.007716, 0.007716;;,
  64; 3; 0.010312, 0.010312, 0.010312;;,
  66; 3; 0.002583, 0.002583, 0.002583;;,
  67; 3; -0.000010, -0.000010, -0.000010;;,
  77; 3; 0.003352, 0.003352, 0.003352;;,
  78; 3; 0.009149, 0.009149, 0.009149;;,
  79; 3; 0.009357, 0.009357, 0.009357;;,
  81; 3; 0.001628, 0.001628, 0.001628;;,
  82; 3; -0.000010, -0.000010, -0.000010;;,
  91; 3; -0.000010, -0.000010, -0.000010;;;
  }
  AnimationKey {
  2;
  2;
  1; 3; -0.000007, 0.466726, 2.435748;;,
  91; 3; -0.000007, 0.466726, 2.435748;;;
  }
 }
 Animation anim-SSb3 {
  {frm-SSb3}
  AnimationKey {
  1;
  32;
  1; 3; -0.000010, -0.000010, -0.000010;;,
  5; 3; 0.005111, 0.005111, 0.005111;;,
  6; 3; 0.010908, 0.010908, 0.010908;;,
  7; 3; 0.008185, 0.008185, 0.008185;;,
  9; 3; 0.000455, 0.000455, 0.000455;;,
  10; 3; -0.000010, -0.000010, -0.000010;;,
  19; 3; 0.000747, 0.000747, 0.000747;;,
  20; 3; 0.006544, 0.006544, 0.006544;;,
  21; 3; 0.011094, 0.011094, 0.011094;;,
  23; 3; 0.003365, 0.003365, 0.003365;;,
  24; 3; -0.000010, -0.000010, -0.000010;;,
  34; 3; 0.002180, 0.002180, 0.002180;;,
  35; 3; 0.007977, 0.007977, 0.007977;;,
  36; 3; 0.010138, 0.010138, 0.010138;;,
  38; 3; 0.002409, 0.002409, 0.002409;;,
  39; 3; -0.000010, -0.000010, -0.000010;;,
  49; 3; 0.003613, 0.003613, 0.003613;;,
  50; 3; 0.009410, 0.009410, 0.009410;;,
  51; 3; 0.009183, 0.009183, 0.009183;;,
  53; 3; 0.001454, 0.001454, 0.001454;;,
  54; 3; -0.000010, -0.000010, -0.000010;;,
  64; 3; 0.005046, 0.005046, 0.005046;;,
  65; 3; 0.010843, 0.010843, 0.010843;;,
  66; 3; 0.008227, 0.008227, 0.008227;;,
  68; 3; 0.000498, 0.000498, 0.000498;;,
  69; 3; -0.000010, -0.000010, -0.000010;;,
  78; 3; 0.000683, 0.000683, 0.000683;;,
  79; 3; 0.006479, 0.006479, 0.006479;;,
  80; 3; 0.011137, 0.011137, 0.011137;;,
  82; 3; 0.003407, 0.003407, 0.003407;;,
  83; 3; -0.000010, -0.000010, -0.000010;;,
  91; 3; -0.000010, -0.000010, -0.000010;;;
  }
  AnimationKey {
  2;
  2;
  1; 3; -0.000007, 0.514892, 2.034745;;,
  91; 3; -0.000007, 0.514892, 2.034745;;;
  }
 }
 Animation anim-SSb4 {
  {frm-SSb4}
  AnimationKey {
  1;
  32;
  1; 3; -0.000010, -0.000010, -0.000010;;,
  6; 3; 0.002196, 0.002196, 0.002196;;,
  7; 3; 0.007993, 0.007993, 0.007993;;,
  8; 3; 0.010128, 0.010128, 0.010128;;,
  10; 3; 0.002399, 0.002399, 0.002399;;,
  11; 3; -0.000010, -0.000010, -0.000010;;,
  21; 3; 0.003629, 0.003629, 0.003629;;,
  22; 3; 0.009426, 0.009426, 0.009426;;,
  23; 3; 0.009172, 0.009172, 0.009172;;,
  25; 3; 0.001443, 0.001443, 0.001443;;,
  26; 3; -0.000010, -0.000010, -0.000010;;,
  36; 3; 0.005062, 0.005062, 0.005062;;,
  37; 3; 0.010859, 0.010859, 0.010859;;,
  38; 3; 0.008217, 0.008217, 0.008217;;,
  40; 3; 0.000488, 0.000488, 0.000488;;,
  41; 3; -0.000010, -0.000010, -0.000010;;,
  50; 3; 0.000698, 0.000698, 0.000698;;,
  51; 3; 0.006495, 0.006495, 0.006495;;,
  52; 3; 0.011126, 0.011126, 0.011126;;,
  54; 3; 0.003397, 0.003397, 0.003397;;,
  55; 3; -0.000010, -0.000010, -0.000010;;,
  65; 3; 0.002131, 0.002131, 0.002131;;,
  66; 3; 0.007928, 0.007928, 0.007928;;,
  67; 3; 0.010171, 0.010171, 0.010171;;,
  69; 3; 0.002442, 0.002442, 0.002442;;,
  70; 3; -0.000010, -0.000010, -0.000010;;,
  80; 3; 0.003564, 0.003564, 0.003564;;,
  81; 3; 0.009361, 0.009361, 0.009361;;,
  82; 3; 0.009216, 0.009216, 0.009216;;,
  84; 3; 0.001486, 0.001486, 0.001486;;,
  85; 3; -0.000010, -0.000010, -0.000010;;,
  91; 3; -0.000010, -0.000010, -0.000010;;;
  }
  AnimationKey {
  2;
  2;
  1; 3; -0.000007, 0.555801, 1.683525;;,
  91; 3; -0.000007, 0.555801, 1.683525;;;
  }
 }
 Animation anim-turwepemt1 {
  {frm-turwepemt1}
  AnimationKey {
  2;
  2;
  1; 3; -0.000007, 0.931464, -0.100836;;,
  91; 3; -0.000007, 0.931464, -0.100836;;;
  }
 }
 Animation anim-turwepemt2 {
  {frm-turwepemt2}
  AnimationKey {
  2;
  2;
  1; 3; -0.000006, -0.947524, -0.100837;;,
  91; 3; -0.000006, -0.947524, -0.100837;;;
  }
 }
 Animation anim-ffuselg {
  {frm-ffuselg}
  AnimationKey {
  2;
  2;
  1; 3; -0.000007, 0.000000, -2.306385;;,
  91; 3; -0.000007, 0.000000, -2.306385;;;
  }
 }
 Animation anim-sphere2 {
  {frm-sphere2}
  AnimationKey {
  2;
  2;
  1; 3; -0.002009, 0.030096, -0.943346;;,
  91; 3; -0.002009, 0.030096, -0.943346;;;
  }
 }
 Animation anim-missemt {
  {frm-missemt}
  AnimationKey {
  2;
  2;
  1; 3; -0.000006, -0.773264, -1.756303;;,
  91; 3; -0.000006, -0.773264, -1.756303;;;
  }
 }
 Animation anim-cockpt {
  {frm-cockpt}
  AnimationKey {
  2;
  2;
  1; 3; -0.000007, 0.000000, -2.957382;;,
  91; 3; -0.000007, 0.000000, -2.957382;;;
  }
 }
 Animation anim-trail {
  {frm-trail}
  AnimationKey {
  2;
  2;
  1; 3; -0.000006, -0.000002, 6.268781;;,
  91; 3; -0.000006, -0.000002, 6.268781;;;
  }
 }
 Animation anim-thrust {
  {frm-thrust}
  AnimationKey {
  2;
  2;
  1; 3; -0.000006, -0.000002, 6.268781;;,
  91; 3; -0.000006, -0.000002, 6.268781;;;
  }
 }
 Animation anim-smoke {
  {frm-smoke}
  AnimationKey {
  2;
  2;
  1; 3; -0.000007, -0.000002, 6.268781;;,
  91; 3; -0.000007, -0.000002, 6.268781;;;
  }
 }
}
