xof 0302txt 0032
template Header {
 <3D82AB43-62DA-11cf-AB39-0020AF71E433>
 WORD major;
 WORD minor;
 DWORD flags;
}

template Vector {
 <3D82AB5E-62DA-11cf-AB39-0020AF71E433>
 FLOAT x;
 FLOAT y;
 FLOAT z;
}

template Coords2d {
 <F6F23F44-7686-11cf-8F52-0040333594A3>
 FLOAT u;
 FLOAT v;
}

template Matrix4x4 {
 <F6F23F45-7686-11cf-8F52-0040333594A3>
 array FLOAT matrix[16];
}

template ColorRGBA {
 <35FF44E0-6C7C-11cf-8F52-0040333594A3>
 FLOAT red;
 FLOAT green;
 FLOAT blue;
 FLOAT alpha;
}

template ColorRGB {
 <D3E16E81-7835-11cf-8F52-0040333594A3>
 FLOAT red;
 FLOAT green;
 FLOAT blue;
}

template TextureFilename {
 <A42790E1-7810-11cf-8F52-0040333594A3>
 STRING filename;
}

template Material {
 <3D82AB4D-62DA-11cf-AB39-0020AF71E433>
 ColorRGBA faceColor;
 FLOAT power;
 ColorRGB specularColor;
 ColorRGB emissiveColor;
 [...]
}

template MeshFace {
 <3D82AB5F-62DA-11cf-AB39-0020AF71E433>
 DWORD nFaceVertexIndices;
 array DWORD faceVertexIndices[nFaceVertexIndices];
}

template MeshTextureCoords {
 <F6F23F40-7686-11cf-8F52-0040333594A3>
 DWORD nTextureCoords;
 array Coords2d textureCoords[nTextureCoords];
}

template MeshMaterialList {
 <F6F23F42-7686-11cf-8F52-0040333594A3>
 DWORD nMaterials;
 DWORD nFaceIndexes;
 array DWORD faceIndexes[nFaceIndexes];
 [Material]
}

template MeshNormals {
 <F6F23F43-7686-11cf-8F52-0040333594A3>
 DWORD nNormals;
 array Vector normals[nNormals];
 DWORD nFaceNormals;
 array MeshFace faceNormals[nFaceNormals];
}

template Mesh {
 <3D82AB44-62DA-11cf-AB39-0020AF71E433>
 DWORD nVertices;
 array Vector vertices[nVertices];
 DWORD nFaces;
 array MeshFace faces[nFaces];
 [...]
}

template FrameTransformMatrix {
 <F6F23F41-7686-11cf-8F52-0040333594A3>
 Matrix4x4 frameMatrix;
}

template Frame {
 <3D82AB46-62DA-11cf-AB39-0020AF71E433>
 [...]
}
template FloatKeys {
 <10DD46A9-775B-11cf-8F52-0040333594A3>
 DWORD nValues;
 array FLOAT values[nValues];
}

template TimedFloatKeys {
 <F406B180-7B3B-11cf-8F52-0040333594A3>
 DWORD time;
 FloatKeys tfkeys;
}

template AnimationKey {
 <10DD46A8-775B-11cf-8F52-0040333594A3>
 DWORD keyType;
 DWORD nKeys;
 array TimedFloatKeys keys[nKeys];
}

template AnimationOptions {
 <E2BF56C0-840F-11cf-8F52-0040333594A3>
 DWORD openclosed;
 DWORD positionquality;
}

template Animation {
 <3D82AB4F-62DA-11cf-AB39-0020AF71E433>
 [...]
}

template AnimationSet {
 <3D82AB50-62DA-11cf-AB39-0020AF71E433>
 [Animation]
}

Header {
 1;
 0;
 1;
}

Frame frm-bgrnd53 {
  FrameTransformMatrix {
1.000000,0.000000,0.000000,0.000000,
0.000000,1.000000,0.000000,0.000000,
0.000000,0.000000,1.000000,0.000000,
0.000000,0.000000,0.000000,1.000000;;
 }
Mesh bgrnd53 {
 115;
 2.361959;4.499309;0.472262;,
 2.361959;4.499309;0.472262;,
 2.361959;4.499309;0.472262;,
 1.872830;-4.104169;1.391900;,
 1.872830;-4.104169;1.391900;,
 1.872830;-4.104169;1.391900;,
 1.872830;-4.104169;1.391900;,
 3.350837;-2.449341;1.709261;,
 3.350837;-2.449341;1.709261;,
 4.280711;-0.943243;2.279216;,
 4.280711;-0.943243;2.279216;,
 4.194069;0.699023;2.310280;,
 4.194069;0.699023;2.310280;,
 3.360336;2.998498;1.803611;,
 3.360336;2.998498;1.803611;,
 3.360336;2.998498;1.803611;,
 -0.106716;5.941457;-0.062820;,
 -0.106716;5.941457;-0.062820;,
 -0.106716;5.941457;-0.062820;,
 -0.106716;5.941457;-0.062820;,
 -0.106716;5.941457;-0.062820;,
 -0.106716;5.941457;-0.062820;,
 -0.106716;5.941457;-0.062820;,
 0.338545;-4.930716;0.246113;,
 0.338545;-4.930716;0.246113;,
 0.338545;-4.930716;0.246113;,
 0.338545;-4.930716;0.246113;,
 0.338545;-4.930716;0.246113;,
 0.338545;-4.930716;0.246113;,
 0.338545;-4.930716;0.246113;,
 0.338545;-4.930716;0.246113;,
 -0.106716;5.941457;-0.062820;,
 1.998110;1.969686;-4.215110;,
 1.935965;0.456993;-4.635905;,
 1.519202;-1.189981;-4.942195;,
 0.432510;4.648365;-3.164238;,
 0.430479;2.998697;-4.401024;,
 0.296933;1.196166;-4.943855;,
 0.045206;-0.596972;-5.340218;,
 0.451454;-2.481250;-5.044531;,
 0.368688;-3.612269;-3.942502;,
 0.352954;-4.310450;-2.567246;,
 -1.108696;4.147467;-3.798956;,
 -1.269689;2.681737;-4.612255;,
 -1.649164;0.659870;-5.068648;,
 -1.806156;-1.890448;-5.036662;,
 -1.422434;5.019863;-2.427897;,
 -2.428713;3.922834;-3.195790;,
 -2.873224;2.383184;-3.988674;,
 -3.391541;0.460137;-4.366761;,
 -3.655937;-1.248560;-4.358850;,
 -3.067125;-2.545473;-3.749292;,
 -1.472163;-3.752536;-3.008406;,
 -3.280901;3.682150;-1.757417;,
 -3.901319;2.165955;-2.292502;,
 -4.480367;0.519609;-2.714569;,
 -4.619345;-1.374083;-2.742071;,
 -3.460477;-2.985224;-1.842885;,
 -2.575392;4.810837;-0.597901;,
 -3.524414;3.567936;-0.054367;,
 -4.181392;2.104976;-0.192918;,
 -4.774977;0.639282;-0.475585;,
 -5.027151;-1.081434;-0.703530;,
 -3.939713;-2.821535;-0.400042;,
 -2.321382;-4.185802;-0.548525;,
 -3.740071;2.238810;1.583615;,
 -4.481637;-0.033573;1.900377;,
 -4.342089;-2.094251;1.597270;,
 -2.772132;-3.760096;1.007119;,
 -2.528475;4.289288;1.656174;,
 -3.094614;2.448548;2.988452;,
 -3.615359;-0.855781;4.107271;,
 -3.324482;-2.298958;3.558299;,
 -2.508216;-3.459247;2.498662;,
 -2.994444;0.849613;4.138019;,
 -2.180665;-0.607004;4.867679;,
 -1.850993;-2.215105;4.589976;,
 -1.396988;-3.490001;3.466031;,
 -1.339520;-4.227229;2.031106;,
 -0.865156;4.804140;2.647268;,
 -1.654683;3.910036;3.702477;,
 -2.138671;2.657642;4.414615;,
 -1.169636;1.186993;4.825825;,
 -0.447220;-0.333491;4.713927;,
 -0.267891;-2.045726;4.742754;,
 0.385772;3.318450;4.336175;,
 0.931375;1.168734;4.646926;,
 1.460705;-0.430351;4.290380;,
 1.126979;-2.060247;4.229877;,
 0.324136;-3.844997;3.059472;,
 1.118095;4.593472;2.309496;,
 2.286652;3.222079;3.479364;,
 2.995533;0.950414;3.864993;,
 2.911927;-1.291802;3.425774;,
 1.865848;-3.049296;2.776816;,
 3.360336;2.998498;1.803611;,
 4.194069;0.699023;2.310280;,
 4.280711;-0.943243;2.279216;,
 3.350837;-2.449341;1.709261;,
 1.872830;-4.104169;1.391900;,
 2.361959;4.499309;0.472262;,
 3.616976;2.927123;-0.075653;,
 4.529898;0.856645;0.382911;,
 4.707541;-0.624346;0.583197;,
 3.842344;-2.438623;-0.040592;,
 3.288276;3.231799;-1.548824;,
 4.308316;1.016291;-1.412821;,
 3.907364;-1.293904;-1.751668;,
 3.128161;-2.824817;-2.041911;,
 2.037678;4.738817;-1.462471;,
 2.096860;3.676786;-3.065404;,
 3.392215;1.659781;-3.127203;,
 2.932300;-0.848653;-3.585939;,
 2.013402;-3.177126;-3.262348;,
 2.360404;-4.040462;-0.896138;;

 115;
 4;112,107,108,113;,
 4;111,106,107,112;,
 4;110,105,106,111;,
 4;106,103,104,107;,
 4;105,101,102,106;,
 4;109,2,101,105;,
 4;104,8,6,114;,
 4;103,10,7,104;,
 4;102,12,9,103;,
 4;101,15,11,102;,
 4;96,92,93,97;,
 4;14,91,92,96;,
 4;1,90,91,13;,
 3;22,109,35;,
 4;92,86,87,93;,
 4;91,85,86,92;,
 4;87,83,84,88;,
 4;86,82,83,87;,
 4;85,81,82,86;,
 4;90,79,80,85;,
 4;84,76,77,89;,
 4;83,75,76,84;,
 4;82,74,75,83;,
 4;76,72,73,77;,
 4;75,71,72,76;,
 4;80,69,70,81;,
 4;72,67,68,73;,
 4;71,66,67,72;,
 4;70,65,66,74;,
 4;65,60,61,66;,
 4;69,59,60,65;,
 4;62,56,57,63;,
 4;61,55,56,62;,
 4;60,54,55,61;,
 4;59,53,54,60;,
 3;35,46,21;,
 4;55,49,50,56;,
 4;54,48,49,55;,
 4;53,47,48,54;,
 4;58,46,47,53;,
 4;49,44,45,50;,
 4;48,43,44,49;,
 4;47,42,43,48;,
 4;45,39,40,52;,
 4;44,37,38,45;,
 4;43,36,37,44;,
 4;42,35,36,43;,
 4;38,33,34,39;,
 4;37,32,33,38;,
 4;36,110,32,37;,
 4;40,113,114,41;,
 4;34,112,113,39;,
 4;33,111,112,34;,
 3;50,45,51;,
 3;61,62,66;,
 3;38,39,45;,
 3;74,66,71;,
 3;46,58,20;,
 3;69,79,19;,
 3;66,62,67;,
 3;63,57,64;,
 3;79,90,18;,
 3;109,105,110;,
 3;90,0,17;,
 3;62,63,67;,
 3;16,100,109;,
 3;77,73,78;,
 3;93,88,94;,
 3;50,51,56;,
 3;56,51,57;,
 3;98,94,5;,
 3;88,89,94;,
 3;46,42,47;,
 3;88,84,89;,
 3;100,95,101;,
 3;93,94,98;,
 3;81,74,82;,
 3;108,104,114;,
 3;58,53,59;,
 3;35,110,36;,
 3;90,85,91;,
 3;31,58,69;,
 3;97,93,98;,
 3;87,88,93;,
 3;77,78,89;,
 3;51,52,57;,
 3;69,65,70;,
 3;110,111,32;,
 3;35,109,110;,
 3;67,63,68;,
 3;32,111,33;,
 3;81,70,74;,
 3;74,71,75;,
 3;102,103,106;,
 3;39,113,40;,
 3;108,114,113;,
 3;57,52,64;,
 3;73,68,78;,
 3;63,64,68;,
 3;79,69,80;,
 3;58,59,69;,
 3;46,35,42;,
 3;107,104,108;,
 3;80,81,85;,
 3;51,45,52;,
 3;40,41,52;,
 3;94,89,4;,
 3;29,41,114;,
 3;28,89,78;,
 3;3,89,27;,
 3;114,99,26;,
 3;52,41,25;,
 3;24,78,68;,
 3;23,68,64;,
 3;30,64,52;;

 MeshMaterialList {
  1;
  115;
  0,
  0,
  0,
  0,
  0,
  0,
  0,
  0,
  0,
  0,
  0,
  0,
  0,
  0,
  0,
  0,
  0,
  0,
  0,
  0,
  0,
  0,
  0,
  0,
  0,
  0,
  0,
  0,
  0,
  0,
  0,
  0,
  0,
  0,
  0,
  0,
  0,
  0,
  0,
  0,
  0,
  0,
  0,
  0,
  0,
  0,
  0,
  0,
  0,
  0,
  0,
  0,
  0,
  0,
  0,
  0,
  0,
  0,
  0,
  0,
  0,
  0,
  0,
  0,
  0,
  0,
  0,
  0,
  0,
  0,
  0,
  0,
  0,
  0,
  0,
  0,
  0,
  0,
  0,
  0,
  0,
  0,
  0,
  0,
  0,
  0,
  0,
  0,
  0,
  0,
  0,
  0,
  0,
  0,
  0,
  0,
  0,
  0,
  0,
  0,
  0,
  0,
  0,
  0,
  0,
  0,
  0,
  0,
  0,
  0,
  0,
  0,
  0,
  0,
  0;
Material {
 1.000000;1.000000;1.000000;1.000000;;
 50.000000;
 1.000000;1.000000;1.000000;;
 0.0; 0.0; 0.0;;
 TextureFilename {
  "bgrnd53.ppm";
 }
 }
}
 MeshNormals {
  115;
  0.637456;0.758958;0.132786;,
  0.637456;0.758958;0.132786;,
  0.637456;0.758958;0.132786;,
  0.504323;-0.797032;0.332263;,
  0.504323;-0.797032;0.332263;,
  0.504323;-0.797032;0.332263;,
  0.504323;-0.797032;0.332263;,
  0.688735;-0.611663;0.389245;,
  0.688735;-0.611663;0.389245;,
  0.849333;-0.293399;0.438807;,
  0.849333;-0.293399;0.438807;,
  0.890387;0.202324;0.407769;,
  0.890387;0.202324;0.407769;,
  0.795261;0.540800;0.274036;,
  0.795261;0.540800;0.274036;,
  0.795261;0.540800;0.274036;,
  0.026639;0.998642;0.044776;,
  0.026639;0.998642;0.044776;,
  0.026639;0.998642;0.044776;,
  0.026639;0.998642;0.044776;,
  0.026639;0.998642;0.044776;,
  0.026639;0.998642;0.044776;,
  0.026639;0.998642;0.044776;,
  -0.018810;-0.998757;0.046152;,
  -0.018810;-0.998757;0.046152;,
  -0.018810;-0.998757;0.046152;,
  -0.018810;-0.998757;0.046152;,
  -0.018810;-0.998757;0.046152;,
  -0.018810;-0.998757;0.046152;,
  -0.018810;-0.998757;0.046152;,
  -0.018810;-0.998757;0.046152;,
  0.026639;0.998642;0.044776;,
  0.478612;0.305467;-0.823177;,
  0.484476;0.096200;-0.869499;,
  0.565659;-0.144271;-0.811921;,
  0.208691;0.788998;-0.577866;,
  0.213903;0.444856;-0.869683;,
  0.144618;0.239140;-0.960155;,
  0.100912;0.034840;-0.994285;,
  0.237136;-0.428176;-0.872028;,
  0.118883;-0.816363;-0.565171;,
  0.079342;-0.941827;-0.326597;,
  -0.197671;0.681459;-0.704655;,
  -0.178814;0.405677;-0.896355;,
  -0.205746;0.164027;-0.964761;,
  -0.260288;-0.368474;-0.892456;,
  -0.294972;0.868065;-0.399318;,
  -0.574697;0.627778;-0.524993;,
  -0.624026;0.411528;-0.664256;,
  -0.631837;0.199356;-0.749025;,
  -0.642824;-0.260187;-0.720472;,
  -0.537589;-0.682398;-0.495310;,
  -0.304333;-0.859956;-0.409703;,
  -0.800343;0.556296;-0.223575;,
  -0.867851;0.405533;-0.287015;,
  -0.909370;0.242815;-0.337769;,
  -0.874602;-0.340868;-0.344790;,
  -0.633974;-0.736851;-0.234793;,
  -0.627635;0.778073;-0.026015;,
  -0.845954;0.530068;0.058219;,
  -0.916274;0.396636;0.055882;,
  -0.970185;0.241831;0.016100;,
  -0.977896;-0.207524;0.025573;,
  -0.737875;-0.674640;-0.020023;,
  -0.475491;-0.873842;-0.101528;,
  -0.872246;0.389873;0.295273;,
  -0.940924;0.129028;0.313073;,
  -0.857222;-0.469893;0.210645;,
  -0.530202;-0.834868;0.147924;,
  -0.665907;0.688389;0.287555;,
  -0.815680;0.405718;0.412383;,
  -0.736419;-0.015845;0.676340;,
  -0.659957;-0.522786;0.539584;,
  -0.485489;-0.788758;0.377043;,
  -0.633582;0.217582;0.742450;,
  -0.290468;-0.029854;0.956419;,
  -0.232344;-0.482052;0.844774;,
  -0.220110;-0.800388;0.557612;,
  -0.260040;-0.913181;0.313814;,
  -0.158570;0.889106;0.429356;,
  -0.327893;0.724818;0.605908;,
  -0.445957;0.355566;0.821398;,
  -0.090358;0.066467;0.993689;,
  0.066257;-0.017164;0.997655;,
  0.151638;-0.366288;0.918063;,
  0.152133;0.535950;0.830430;,
  0.242156;0.056946;0.968565;,
  0.315818;-0.096119;0.943939;,
  0.411812;-0.405844;0.815905;,
  0.198565;-0.795629;0.572317;,
  0.333291;0.827524;0.451797;,
  0.553706;0.561890;0.614564;,
  0.603829;0.102114;0.790546;,
  0.577004;-0.357827;0.734184;,
  0.534011;-0.619849;0.574996;,
  0.795261;0.540800;0.274036;,
  0.890387;0.202324;0.407769;,
  0.849333;-0.293399;0.438807;,
  0.688735;-0.611663;0.389245;,
  0.504323;-0.797032;0.332263;,
  0.637456;0.758958;0.132786;,
  0.856838;0.515055;0.023401;,
  0.966529;0.253391;0.040181;,
  0.989435;-0.144864;0.005803;,
  0.856279;-0.512392;-0.065127;,
  0.816235;0.530040;-0.229823;,
  0.950449;0.133648;-0.280685;,
  0.882415;-0.267944;-0.386717;,
  0.777630;-0.536458;-0.327879;,
  0.569696;0.782864;-0.250141;,
  0.576276;0.546636;-0.607532;,
  0.757188;0.195903;-0.623128;,
  0.765020;-0.212690;-0.607871;,
  0.592964;-0.606564;-0.529597;,
  0.557962;-0.816192;-0.150028;;

  115;
  4;112,107,108,113;,
  4;111,106,107,112;,
  4;110,105,106,111;,
  4;106,103,104,107;,
  4;105,101,102,106;,
  4;109,2,101,105;,
  4;104,8,6,114;,
  4;103,10,7,104;,
  4;102,12,9,103;,
  4;101,15,11,102;,
  4;96,92,93,97;,
  4;14,91,92,96;,
  4;1,90,91,13;,
  3;22,109,35;,
  4;92,86,87,93;,
  4;91,85,86,92;,
  4;87,83,84,88;,
  4;86,82,83,87;,
  4;85,81,82,86;,
  4;90,79,80,85;,
  4;84,76,77,89;,
  4;83,75,76,84;,
  4;82,74,75,83;,
  4;76,72,73,77;,
  4;75,71,72,76;,
  4;80,69,70,81;,
  4;72,67,68,73;,
  4;71,66,67,72;,
  4;70,65,66,74;,
  4;65,60,61,66;,
  4;69,59,60,65;,
  4;62,56,57,63;,
  4;61,55,56,62;,
  4;60,54,55,61;,
  4;59,53,54,60;,
  3;35,46,21;,
  4;55,49,50,56;,
  4;54,48,49,55;,
  4;53,47,48,54;,
  4;58,46,47,53;,
  4;49,44,45,50;,
  4;48,43,44,49;,
  4;47,42,43,48;,
  4;45,39,40,52;,
  4;44,37,38,45;,
  4;43,36,37,44;,
  4;42,35,36,43;,
  4;38,33,34,39;,
  4;37,32,33,38;,
  4;36,110,32,37;,
  4;40,113,114,41;,
  4;34,112,113,39;,
  4;33,111,112,34;,
  3;50,45,51;,
  3;61,62,66;,
  3;38,39,45;,
  3;74,66,71;,
  3;46,58,20;,
  3;69,79,19;,
  3;66,62,67;,
  3;63,57,64;,
  3;79,90,18;,
  3;109,105,110;,
  3;90,0,17;,
  3;62,63,67;,
  3;16,100,109;,
  3;77,73,78;,
  3;93,88,94;,
  3;50,51,56;,
  3;56,51,57;,
  3;98,94,5;,
  3;88,89,94;,
  3;46,42,47;,
  3;88,84,89;,
  3;100,95,101;,
  3;93,94,98;,
  3;81,74,82;,
  3;108,104,114;,
  3;58,53,59;,
  3;35,110,36;,
  3;90,85,91;,
  3;31,58,69;,
  3;97,93,98;,
  3;87,88,93;,
  3;77,78,89;,
  3;51,52,57;,
  3;69,65,70;,
  3;110,111,32;,
  3;35,109,110;,
  3;67,63,68;,
  3;32,111,33;,
  3;81,70,74;,
  3;74,71,75;,
  3;102,103,106;,
  3;39,113,40;,
  3;108,114,113;,
  3;57,52,64;,
  3;73,68,78;,
  3;63,64,68;,
  3;79,69,80;,
  3;58,59,69;,
  3;46,35,42;,
  3;107,104,108;,
  3;80,81,85;,
  3;51,45,52;,
  3;40,41,52;,
  3;94,89,4;,
  3;29,41,114;,
  3;28,89,78;,
  3;3,89,27;,
  3;114,99,26;,
  3;52,41,25;,
  3;24,78,68;,
  3;23,68,64;,
  3;30,64,52;;
 }
 MeshTextureCoords { 
 115;
 0.002687;0.187539;,
 0.002687;0.187539;,
 0.948401;0.184682;,
 0.026957;0.843967;,
 0.026957;0.843967;,
 0.026957;0.843967;,
 0.984099;0.846824;,
 0.987466;0.707646;,
 0.987466;0.707646;,
 0.989748;0.592090;,
 0.989748;0.592090;,
 0.991909;0.490397;,
 0.991909;0.490397;,
 0.004852;0.325139;,
 0.004852;0.325139;,
 0.990566;0.325139;,
 0.884172;0.023058;,
 0.050417;0.031646;,
 0.158988;0.025932;,
 0.264703;0.025932;,
 0.536131;0.028789;,
 0.638458;0.023058;,
 0.769886;0.014487;,
 0.393062;0.994129;,
 0.298776;0.991272;,
 0.646409;0.982676;,
 0.929266;0.988390;,
 0.061634;0.979843;,
 0.198776;0.994129;,
 0.760695;0.985533;,
 0.524491;0.988415;,
 0.404703;0.025932;,
 0.741266;0.404819;,
 0.733345;0.505906;,
 0.717722;0.605282;,
 0.695139;0.206138;,
 0.686568;0.335531;,
 0.679901;0.457533;,
 0.671256;0.569257;,
 0.684476;0.675939;,
 0.686595;0.764149;,
 0.697318;0.851738;,
 0.625351;0.258675;,
 0.627021;0.362360;,
 0.619185;0.493252;,
 0.614354;0.641041;,
 0.586211;0.169728;,
 0.565217;0.269908;,
 0.569045;0.382047;,
 0.562989;0.505504;,
 0.556852;0.601423;,
 0.559040;0.688134;,
 0.597947;0.799910;,
 0.494305;0.268829;,
 0.501103;0.385908;,
 0.503459;0.501897;,
 0.502012;0.613961;,
 0.494000;0.743035;,
 0.449080;0.167582;,
 0.415576;0.267484;,
 0.421512;0.382182;,
 0.430746;0.493581;,
 0.437403;0.602593;,
 0.430237;0.732448;,
 0.449088;0.863671;,
 0.349151;0.371516;,
 0.350233;0.538636;,
 0.357694;0.669086;,
 0.354875;0.815953;,
 0.317965;0.213824;,
 0.291243;0.366882;,
 0.280050;0.580659;,
 0.284003;0.669808;,
 0.287247;0.772135;,
 0.264718;0.481387;,
 0.233014;0.567767;,
 0.226724;0.661528;,
 0.224820;0.761446;,
 0.251432;0.851084;,
 0.211967;0.188944;,
 0.231155;0.282062;,
 0.237181;0.372016;,
 0.204274;0.460014;,
 0.182033;0.557484;,
 0.176209;0.656834;,
 0.153659;0.324271;,
 0.137458;0.459793;,
 0.117546;0.565513;,
 0.127669;0.667009;,
 0.149199;0.800795;,
 0.097061;0.190214;,
 0.079173;0.324672;,
 0.067708;0.474918;,
 0.060804;0.619600;,
 0.077174;0.754395;,
 0.990566;0.325139;,
 0.006194;0.490397;,
 0.004034;0.592090;,
 0.001752;0.707646;,
 0.984099;0.846824;,
 0.948401;0.184682;,
 0.913846;0.320494;,
 0.928738;0.479031;,
 0.934487;0.574977;,
 0.915105;0.705522;,
 0.850227;0.301017;,
 0.867687;0.467806;,
 0.851992;0.627409;,
 0.828815;0.732564;,
 0.825775;0.175278;,
 0.767777;0.276637;,
 0.801522;0.425026;,
 0.779541;0.593525;,
 0.760119;0.748025;,
 0.865083;0.836916;;
 }
}
}
