xof 0302txt 0032
template Header {
 <3D82AB43-62DA-11cf-AB39-0020AF71E433>
 WORD major;
 WORD minor;
 DWORD flags;
}

template Vector {
 <3D82AB5E-62DA-11cf-AB39-0020AF71E433>
 FLOAT x;
 FLOAT y;
 FLOAT z;
}

template Coords2d {
 <F6F23F44-7686-11cf-8F52-0040333594A3>
 FLOAT u;
 FLOAT v;
}

template Matrix4x4 {
 <F6F23F45-7686-11cf-8F52-0040333594A3>
 array FLOAT matrix[16];
}

template ColorRGBA {
 <35FF44E0-6C7C-11cf-8F52-0040333594A3>
 FLOAT red;
 FLOAT green;
 FLOAT blue;
 FLOAT alpha;
}

template ColorRGB {
 <D3E16E81-7835-11cf-8F52-0040333594A3>
 FLOAT red;
 FLOAT green;
 FLOAT blue;
}

template TextureFilename {
 <A42790E1-7810-11cf-8F52-0040333594A3>
 STRING filename;
}

template Material {
 <3D82AB4D-62DA-11cf-AB39-0020AF71E433>
 ColorRGBA faceColor;
 FLOAT power;
 ColorRGB specularColor;
 ColorRGB emissiveColor;
 [...]
}

template MeshFace {
 <3D82AB5F-62DA-11cf-AB39-0020AF71E433>
 DWORD nFaceVertexIndices;
 array DWORD faceVertexIndices[nFaceVertexIndices];
}

template MeshTextureCoords {
 <F6F23F40-7686-11cf-8F52-0040333594A3>
 DWORD nTextureCoords;
 array Coords2d textureCoords[nTextureCoords];
}

template MeshMaterialList {
 <F6F23F42-7686-11cf-8F52-0040333594A3>
 DWORD nMaterials;
 DWORD nFaceIndexes;
 array DWORD faceIndexes[nFaceIndexes];
 [Material]
}

template MeshNormals {
 <F6F23F43-7686-11cf-8F52-0040333594A3>
 DWORD nNormals;
 array Vector normals[nNormals];
 DWORD nFaceNormals;
 array MeshFace faceNormals[nFaceNormals];
}

template Mesh {
 <3D82AB44-62DA-11cf-AB39-0020AF71E433>
 DWORD nVertices;
 array Vector vertices[nVertices];
 DWORD nFaces;
 array MeshFace faces[nFaces];
 [...]
}

template FrameTransformMatrix {
 <F6F23F41-7686-11cf-8F52-0040333594A3>
 Matrix4x4 frameMatrix;
}

template Frame {
 <3D82AB46-62DA-11cf-AB39-0020AF71E433>
 [...]
}
template FloatKeys {
 <10DD46A9-775B-11cf-8F52-0040333594A3>
 DWORD nValues;
 array FLOAT values[nValues];
}

template TimedFloatKeys {
 <F406B180-7B3B-11cf-8F52-0040333594A3>
 DWORD time;
 FloatKeys tfkeys;
}

template AnimationKey {
 <10DD46A8-775B-11cf-8F52-0040333594A3>
 DWORD keyType;
 DWORD nKeys;
 array TimedFloatKeys keys[nKeys];
}

template AnimationOptions {
 <E2BF56C0-840F-11cf-8F52-0040333594A3>
 DWORD openclosed;
 DWORD positionquality;
}

template Animation {
 <3D82AB4F-62DA-11cf-AB39-0020AF71E433>
 [...]
}

template AnimationSet {
 <3D82AB50-62DA-11cf-AB39-0020AF71E433>
 [Animation]
}

Header {
 1;
 0;
 1;
}

Frame frm-bounding_model {
  FrameTransformMatrix {
1.000000,0.000000,0.000000,0.000000,
0.000000,1.000000,0.000000,0.000000,
0.000000,0.000000,1.000000,0.000000,
0.000000,0.000000,5.185570,1.000000;;
 }
Frame frm-tbound1 {
  FrameTransformMatrix {
1.000000,0.000000,0.000000,0.000000,
0.000000,1.000000,0.000000,0.000000,
0.000000,0.000000,1.000000,0.000000,
0.000000,0.000000,0.000000,1.000000;;
 }
Mesh tbound1 {
 49;
 7.339868;34.868603;-7.441708;,
 -7.340361;-35.491882;-7.444913;,
 23.258610;-30.559198;0.170131;,
 -2.740430;-31.859034;7.934025;,
 2.740434;31.859041;7.934072;,
 32.886040;0.471202;-14.448598;,
 -32.886017;-0.471165;-14.448630;,
 0.000018;31.720644;-16.922056;,
 -7.286191;34.868603;-7.441708;,
 26.617802;-26.617788;-6.716181;,
 0.000009;-31.720602;-16.922102;,
 7.285698;-35.491879;-7.448480;,
 -26.617785;26.617815;-6.716169;,
 -30.559195;23.258623;0.170146;,
 -23.258600;30.559216;0.170153;,
 30.559206;-23.258606;0.170137;,
 -28.739464;-28.739452;-0.204027;,
 -27.560171;-27.560158;-8.315229;,
 28.739475;28.739470;-0.203958;,
 27.560188;27.560184;-8.315165;,
 -0.000017;-6.367025;44.304470;,
 6.366986;-0.000024;44.304478;,
 -0.000014;6.366978;44.304482;,
 -6.367017;-0.000022;44.304474;,
 10.957303;-0.000010;21.978064;,
 -10.957313;-0.000006;21.978052;,
 -0.000004;10.957299;21.978065;,
 -0.000007;-10.957315;21.978050;,
 0.000023;4.517129;-35.338215;,
 0.000022;-4.517063;-35.338219;,
 4.517118;0.000032;-35.338215;,
 -4.517074;0.000034;-35.338219;,
 -23.470104;9.721664;-21.029955;,
 -35.009254;7.037108;-7.444921;,
 -35.594780;7.039885;-3.546651;,
 -7.289575;35.453171;-3.543296;,
 7.343595;35.453171;-3.543296;,
 23.470142;9.721661;-21.029932;,
 35.141800;6.982439;-7.448483;,
 35.727314;6.986774;-3.550214;,
 23.470137;-9.721618;-21.029947;,
 35.141796;-7.643620;-7.444912;,
 35.727318;-7.646396;-3.546643;,
 7.290033;-36.077396;-3.550211;,
 -7.343138;-36.077400;-3.546643;,
 -23.470110;-9.721614;-21.029970;,
 -35.009254;-7.588950;-7.448490;,
 -35.594776;-7.593286;-3.550221;,
 0.000027;0.000040;-45.218410;;

 69;
 3;16,27,25;,
 4;17,16,47,46;,
 4;1,44,16,17;,
 4;23,22,26,25;,
 3;45,10,17;,
 4;31,29,10,45;,
 3;48,29,31;,
 4;33,46,47,34;,
 3;3,2,27;,
 3;43,2,3;,
 4;1,11,43,44;,
 3;10,1,17;,
 3;10,11,1;,
 4;20,23,25,27;,
 3;45,17,6;,
 4;2,15,24,27;,
 4;13,12,33,34;,
 3;9,15,2;,
 4;12,14,35,8;,
 3;10,40,9;,
 4;29,30,40,10;,
 3;48,30,29;,
 3;13,16,25;,
 3;15,18,24;,
 4;42,39,18,15;,
 4;41,38,39,42;,
 3;5,19,38;,
 3;37,19,5;,
 3;30,37,40;,
 3;31,45,32;,
 3;18,26,24;,
 4;18,19,0,36;,
 4;22,21,24,26;,
 4;19,18,39,38;,
 3;37,7,19;,
 4;30,28,7,37;,
 3;48,28,30;,
 4;34,47,16,13;,
 3;4,14,26;,
 3;35,14,4;,
 4;0,8,35,36;,
 3;7,0,19;,
 3;7,8,0;,
 4;21,20,27,24;,
 3;6,17,46;,
 4;21,22,23,20;,
 4;14,13,25,26;,
 4;9,2,43,11;,
 3;12,13,14;,
 4;15,9,41,42;,
 3;7,32,12;,
 4;28,31,32,7;,
 3;48,31,28;,
 3;11,10,9;,
 3;8,7,12;,
 3;6,12,32;,
 3;32,45,6;,
 3;33,12,6;,
 3;6,46,33;,
 3;41,9,5;,
 3;38,41,5;,
 3;5,9,40;,
 3;40,37,5;,
 3;26,18,4;,
 3;4,18,36;,
 3;36,35,4;,
 3;3,16,44;,
 3;3,44,43;,
 3;27,16,3;;

 MeshNormals {
  49;
  0.153847;0.945517;-0.286929;,
  -0.163691;-0.934690;-0.315532;,
  0.453299;-0.792350;0.408291;,
  -0.021439;-0.796993;0.603607;,
  0.022006;0.816257;0.577269;,
  0.793691;-0.020197;-0.607986;,
  -0.799557;0.019548;-0.600272;,
  -0.021133;0.720603;-0.693026;,
  -0.184344;0.928561;-0.322166;,
  0.643874;-0.604768;-0.468703;,
  0.020982;-0.702106;-0.711763;,
  0.194982;-0.917440;-0.346823;,
  -0.645207;0.609873;-0.460177;,
  -0.800715;0.349690;0.486388;,
  -0.445396;0.803270;0.395448;,
  0.797404;-0.353653;0.488954;,
  -0.617325;-0.543734;0.568562;,
  -0.630175;-0.573313;-0.523633;,
  0.613463;0.551939;0.564824;,
  0.627858;0.583268;-0.515356;,
  -0.000000;-0.735880;0.677112;,
  0.735879;-0.000001;0.677113;,
  -0.000000;0.735879;0.677113;,
  -0.735880;-0.000000;0.677112;,
  0.754903;0.003456;0.655827;,
  -0.754904;-0.003457;0.655826;,
  0.006789;0.680652;0.732575;,
  -0.006790;-0.680653;0.732574;,
  0.000000;0.734345;-0.678776;,
  0.000000;-0.734344;-0.678777;,
  0.668661;0.000000;-0.743567;,
  -0.668660;0.000001;-0.743568;,
  -0.561806;0.291642;-0.774157;,
  -0.925314;0.182435;-0.332431;,
  -0.974151;0.142247;0.175485;,
  -0.142428;0.986223;0.084134;,
  0.143105;0.985384;0.092409;,
  0.538780;0.268345;-0.798566;,
  0.943439;0.155378;-0.292884;,
  0.967293;0.139137;0.212098;,
  0.561807;-0.291640;-0.774157;,
  0.919109;-0.188523;-0.345974;,
  0.972176;-0.149673;0.180200;,
  0.154501;-0.981461;0.113416;,
  -0.153779;-0.981179;0.116788;,
  -0.538779;-0.268343;-0.798567;,
  -0.943853;-0.156541;-0.290925;,
  -0.967617;-0.140255;0.209871;,
  0.000000;0.000001;-1.000000;;

  69;
  3;16,27,25;,
  4;17,16,47,46;,
  4;1,44,16,17;,
  4;23,22,26,25;,
  3;45,10,17;,
  4;31,29,10,45;,
  3;48,29,31;,
  4;33,46,47,34;,
  3;3,2,27;,
  3;43,2,3;,
  4;1,11,43,44;,
  3;10,1,17;,
  3;10,11,1;,
  4;20,23,25,27;,
  3;45,17,6;,
  4;2,15,24,27;,
  4;13,12,33,34;,
  3;9,15,2;,
  4;12,14,35,8;,
  3;10,40,9;,
  4;29,30,40,10;,
  3;48,30,29;,
  3;13,16,25;,
  3;15,18,24;,
  4;42,39,18,15;,
  4;41,38,39,42;,
  3;5,19,38;,
  3;37,19,5;,
  3;30,37,40;,
  3;31,45,32;,
  3;18,26,24;,
  4;18,19,0,36;,
  4;22,21,24,26;,
  4;19,18,39,38;,
  3;37,7,19;,
  4;30,28,7,37;,
  3;48,28,30;,
  4;34,47,16,13;,
  3;4,14,26;,
  3;35,14,4;,
  4;0,8,35,36;,
  3;7,0,19;,
  3;7,8,0;,
  4;21,20,27,24;,
  3;6,17,46;,
  4;21,22,23,20;,
  4;14,13,25,26;,
  4;9,2,43,11;,
  3;12,13,14;,
  4;15,9,41,42;,
  3;7,32,12;,
  4;28,31,32,7;,
  3;48,31,28;,
  3;11,10,9;,
  3;8,7,12;,
  3;6,12,32;,
  3;32,45,6;,
  3;33,12,6;,
  3;6,46,33;,
  3;41,9,5;,
  3;38,41,5;,
  3;5,9,40;,
  3;40,37,5;,
  3;26,18,4;,
  3;4,18,36;,
  3;36,35,4;,
  3;3,16,44;,
  3;3,44,43;,
  3;27,16,3;;
 }
}
}
}
AnimationSet {
 Animation anim-bounding_model {
  {frm-bounding_model}
  AnimationKey {
  2;
  2;
  1; 3; 0.000000, 0.000000, 5.185570;;,
  100; 3; 0.000000, 0.000000, 5.185570;;;
  }
 }
}
