xof 0302txt 0032
template Header {
 <3D82AB43-62DA-11cf-AB39-0020AF71E433>
 WORD major;
 WORD minor;
 DWORD flags;
}

template Vector {
 <3D82AB5E-62DA-11cf-AB39-0020AF71E433>
 FLOAT x;
 FLOAT y;
 FLOAT z;
}

template Coords2d {
 <F6F23F44-7686-11cf-8F52-0040333594A3>
 FLOAT u;
 FLOAT v;
}

template Matrix4x4 {
 <F6F23F45-7686-11cf-8F52-0040333594A3>
 array FLOAT matrix[16];
}

template ColorRGBA {
 <35FF44E0-6C7C-11cf-8F52-0040333594A3>
 FLOAT red;
 FLOAT green;
 FLOAT blue;
 FLOAT alpha;
}

template ColorRGB {
 <D3E16E81-7835-11cf-8F52-0040333594A3>
 FLOAT red;
 FLOAT green;
 FLOAT blue;
}

template TextureFilename {
 <A42790E1-7810-11cf-8F52-0040333594A3>
 STRING filename;
}

template Material {
 <3D82AB4D-62DA-11cf-AB39-0020AF71E433>
 ColorRGBA faceColor;
 FLOAT power;
 ColorRGB specularColor;
 ColorRGB emissiveColor;
 [...]
}

template MeshFace {
 <3D82AB5F-62DA-11cf-AB39-0020AF71E433>
 DWORD nFaceVertexIndices;
 array DWORD faceVertexIndices[nFaceVertexIndices];
}

template MeshTextureCoords {
 <F6F23F40-7686-11cf-8F52-0040333594A3>
 DWORD nTextureCoords;
 array Coords2d textureCoords[nTextureCoords];
}

template MeshMaterialList {
 <F6F23F42-7686-11cf-8F52-0040333594A3>
 DWORD nMaterials;
 DWORD nFaceIndexes;
 array DWORD faceIndexes[nFaceIndexes];
 [Material]
}

template MeshNormals {
 <F6F23F43-7686-11cf-8F52-0040333594A3>
 DWORD nNormals;
 array Vector normals[nNormals];
 DWORD nFaceNormals;
 array MeshFace faceNormals[nFaceNormals];
}

template Mesh {
 <3D82AB44-62DA-11cf-AB39-0020AF71E433>
 DWORD nVertices;
 array Vector vertices[nVertices];
 DWORD nFaces;
 array MeshFace faces[nFaces];
 [...]
}

template FrameTransformMatrix {
 <F6F23F41-7686-11cf-8F52-0040333594A3>
 Matrix4x4 frameMatrix;
}

template Frame {
 <3D82AB46-62DA-11cf-AB39-0020AF71E433>
 [...]
}
template FloatKeys {
 <10DD46A9-775B-11cf-8F52-0040333594A3>
 DWORD nValues;
 array FLOAT values[nValues];
}

template TimedFloatKeys {
 <F406B180-7B3B-11cf-8F52-0040333594A3>
 DWORD time;
 FloatKeys tfkeys;
}

template AnimationKey {
 <10DD46A8-775B-11cf-8F52-0040333594A3>
 DWORD keyType;
 DWORD nKeys;
 array TimedFloatKeys keys[nKeys];
}

template AnimationOptions {
 <E2BF56C0-840F-11cf-8F52-0040333594A3>
 DWORD openclosed;
 DWORD positionquality;
}

template Animation {
 <3D82AB4F-62DA-11cf-AB39-0020AF71E433>
 [...]
}

template AnimationSet {
 <3D82AB50-62DA-11cf-AB39-0020AF71E433>
 [Animation]
}

Header {
 1;
 0;
 1;
}

Frame frm-fig01 {
  FrameTransformMatrix {
1.000000,0.000000,0.000000,0.000000,
0.000000,1.000000,0.000000,0.000000,
0.000000,0.000000,1.000000,0.000000,
0.000000,0.000000,-0.773609,1.000000;;
 }
Frame frm-fuselg1 {
  FrameTransformMatrix {
1.000000,0.000000,0.000000,0.000000,
0.000000,1.000000,0.000000,0.000000,
0.000000,0.000000,1.000000,0.000000,
0.000000,0.000000,0.000000,1.000000;;
 }
Mesh fuselg1 {
 154;
 -0.358721;1.208097;1.040845;,
 -0.210668;1.208455;0.097267;,
 -0.210668;1.208455;0.097267;,
 -0.210668;1.208455;0.097267;,
 -0.210668;1.208455;0.097267;,
 -0.210668;1.208455;0.097267;,
 -0.111798;1.211873;0.001060;,
 -0.111798;1.211873;0.001060;,
 -0.180794;0.947876;-0.191598;,
 -0.180794;0.947876;-0.191598;,
 -0.180794;0.947876;-0.191598;,
 -0.155317;0.506304;-1.165749;,
 -0.155317;0.506304;-1.165749;,
 -0.160970;0.254972;-1.433817;,
 -0.160970;0.254972;-1.433817;,
 -0.160970;0.254972;-1.433817;,
 -0.160376;0.010215;-1.437027;,
 -0.160376;0.010215;-1.437027;,
 -0.149159;-0.046338;-1.568624;,
 -0.149159;-0.046338;-1.568624;,
 -0.148712;-0.231336;-1.568624;,
 -0.148712;-0.231336;-1.568624;,
 -0.148712;-0.231336;-1.568624;,
 -0.261353;-0.375090;-1.322890;,
 -0.261353;-0.375090;-1.322890;,
 -0.314826;-0.377956;-0.894959;,
 -0.314826;-0.377956;-0.894959;,
 -0.314826;-0.377956;-0.894959;,
 -0.697996;-0.375704;-0.612278;,
 -0.697996;-0.375704;-0.612278;,
 -0.697996;-0.375704;-0.612278;,
 -0.699079;-0.378885;0.581514;,
 -0.699079;-0.378885;0.581514;,
 -0.699897;-0.102879;0.747109;,
 -0.699897;-0.102879;0.747109;,
 -0.518566;0.006171;1.037487;,
 -0.518566;0.006171;1.037487;,
 0.350977;1.209812;1.041494;,
 0.204647;1.209459;0.097646;,
 0.204647;1.209459;0.097646;,
 0.204647;1.209459;0.097646;,
 0.204647;1.209459;0.097646;,
 0.204647;1.209459;0.097646;,
 0.105938;1.212399;0.001259;,
 0.105938;1.212399;0.001259;,
 0.176561;0.948739;-0.191272;,
 0.176561;0.948739;-0.191272;,
 0.176561;0.948739;-0.191272;,
 0.154998;0.507054;-1.165466;,
 0.154998;0.507054;-1.165466;,
 0.162355;0.255753;-1.433522;,
 0.162355;0.255753;-1.433522;,
 0.162355;0.255753;-1.433522;,
 0.162950;0.010997;-1.436732;,
 0.162950;0.010997;-1.436732;,
 0.152246;-0.045610;-1.568348;,
 0.152246;-0.045610;-1.568348;,
 0.152693;-0.230608;-1.568348;,
 0.152693;-0.230608;-1.568348;,
 0.152693;-0.230608;-1.568348;,
 0.265579;-0.373816;-1.322409;,
 0.265579;-0.373816;-1.322409;,
 0.318283;-0.376427;-0.894381;,
 0.318283;-0.376427;-0.894381;,
 0.318283;-0.376427;-0.894381;,
 0.700921;-0.372324;-0.611000;,
 0.700921;-0.372324;-0.611000;,
 0.700921;-0.372324;-0.611000;,
 0.699838;-0.375505;0.582792;,
 0.699838;-0.375505;0.582792;,
 0.699020;-0.099499;0.748387;,
 0.699020;-0.099499;0.748387;,
 0.516634;0.008673;1.038432;,
 0.516634;0.008673;1.038432;,
 -0.477743;0.512266;0.618186;,
 -0.477743;0.512266;0.618186;,
 -0.477743;0.512266;0.618186;,
 0.474132;0.514566;0.619055;,
 0.474132;0.514566;0.619055;,
 0.474132;0.514566;0.619055;,
 -0.180386;0.696372;-0.759193;,
 -0.180386;0.696372;-0.759193;,
 -0.180386;0.696372;-0.759193;,
 0.178406;0.697239;-0.758865;,
 0.178406;0.697239;-0.758865;,
 0.178406;0.697239;-0.758865;,
 0.178406;0.697239;-0.758865;,
 0.294754;0.592897;-0.709809;,
 -0.180386;0.696372;-0.759193;,
 -0.296319;0.591469;-0.710349;,
 0.699493;0.127496;-0.370442;,
 -0.699423;0.124116;-0.371720;,
 0.378388;0.305409;-0.577704;,
 -0.378804;0.303579;-0.578396;,
 -0.438768;0.586565;0.137682;,
 0.435676;0.588678;0.138481;,
 0.698504;0.326105;0.187796;,
 -0.700413;0.322725;0.186518;,
 0.474132;0.514566;0.619055;,
 -0.477743;0.512266;0.618186;,
 0.429581;1.003388;0.810451;,
 0.516634;0.008673;1.038432;,
 0.699020;-0.099499;0.748387;,
 0.699838;-0.375505;0.582792;,
 0.700921;-0.372324;-0.611000;,
 0.318283;-0.376427;-0.894381;,
 0.265579;-0.373816;-1.322409;,
 0.152693;-0.230608;-1.568348;,
 0.152246;-0.045610;-1.568348;,
 0.162950;0.010997;-1.436732;,
 0.162355;0.255753;-1.433522;,
 0.154998;0.507054;-1.165466;,
 0.176561;0.948739;-0.191272;,
 0.105938;1.212399;0.001259;,
 0.204647;1.209459;0.097646;,
 0.350977;1.209812;1.041494;,
 0.293398;-0.155338;-1.319834;,
 -0.700409;0.193627;0.523865;,
 0.274019;0.413570;-1.107630;,
 0.264669;0.009653;-1.341153;,
 0.264714;-0.077760;-1.158986;,
 0.297451;0.819500;-0.193579;,
 0.264189;0.210703;-1.346799;,
 0.698908;0.276411;-0.123754;,
 0.700383;-0.161897;-0.578434;,
 0.426464;0.528767;-0.258227;,
 0.335384;-0.032875;-0.819785;,
 -0.435905;1.001297;0.809661;,
 -0.518566;0.006171;1.037487;,
 -0.699897;-0.102879;0.747109;,
 -0.699079;-0.378885;0.581514;,
 -0.697996;-0.375704;-0.612278;,
 -0.314826;-0.377956;-0.894959;,
 -0.261353;-0.375090;-1.322890;,
 -0.148712;-0.231336;-1.568624;,
 -0.149159;-0.046338;-1.568624;,
 -0.160376;0.010215;-1.437027;,
 -0.160970;0.254972;-1.433817;,
 -0.155317;0.506304;-1.165749;,
 -0.180794;0.947876;-0.191598;,
 -0.111798;1.211873;0.001060;,
 -0.210668;1.208455;0.097267;,
 -0.358721;1.208097;1.040845;,
 -0.290232;-0.156748;-1.320367;,
 0.698507;0.197007;0.525143;,
 -0.273990;0.412246;-1.108130;,
 -0.262262;0.008380;-1.341635;,
 -0.262218;-0.079034;-1.159467;,
 -0.301053;0.818054;-0.194126;,
 -0.262743;0.209430;-1.347280;,
 -0.700009;0.273031;-0.125032;,
 -0.698534;-0.165277;-0.579712;,
 -0.428542;0.526701;-0.259008;,
 -0.333723;-0.034491;-0.820396;;

 60;
 4;149,15,17,146;,
 4;34,36,76,117;,
 3;127,0,5;,
 5;27,153,147,143,24;,
 4;26,64,67,30;,
 4;25,29,151,153;,
 4;121,47,44,42;,
 4;148,4,7,10;,
 4;145,89,82,12;,
 4;11,14,149,145;,
 4;149,146,143,147;,
 8;117,97,150,91,151,28,32,33;,
 4;150,152,93,91;,
 3;143,22,23;,
 5;21,143,146,16,19;,
 4;3,148,152,94;,
 5;116,59,56,54,119;,
 4;41,95,125,121;,
 4;119,53,52,122;,
 4;71,144,79,73;,
 3;40,37,100;,
 4;124,66,63,126;,
 4;87,118,49,85;,
 4;118,122,51,48;,
 4;120,116,119,122;,
 8;96,144,70,69,65,124,90,123;,
 4;92,125,123,90;,
 3;61,58,116;,
 4;89,145,153,93;,
 4;127,2,94,75;,
 5;60,116,120,126,62;,
 4;102,129,31,68;,
 4;102,72,35,129;,
 4;126,120,122,118;,
 4;87,121,125,92;,
 4;115,39,1,142;,
 4;43,6,141,38;,
 4;9,140,113,46;,
 4;81,8,45,84;,
 4;138,111,50,13;,
 4;137,110,109,136;,
 4;136,109,55,18;,
 4;135,108,57,20;,
 4;134,107,106,133;,
 4;133,106,105,132;,
 4;131,104,103,130;,
 4;96,123,125,95;,
 4;152,150,97,94;,
 4;114,100,78,95;,
 4;117,74,94,97;,
 4;95,77,144,96;,
 4;153,151,91,93;,
 4;90,124,126,92;,
 4;118,87,92,126;,
 4;152,148,89,93;,
 4;145,149,147,153;,
 4;148,139,80,89;,
 4;83,111,138,88;,
 4;86,112,121,87;,
 4;128,101,98,99;;

 MeshMaterialList {
  8;
  60;
  0,
  0,
  0,
  0,
  1,
  0,
  0,
  0,
  0,
  0,
  0,
  0,
  0,
  0,
  0,
  0,
  0,
  0,
  0,
  0,
  0,
  0,
  0,
  0,
  0,
  0,
  0,
  0,
  0,
  0,
  0,
  2,
  2,
  0,
  0,
  3,
  4,
  4,
  5,
  5,
  6,
  6,
  7,
  1,
  1,
  1,
  0,
  0,
  0,
  0,
  0,
  0,
  0,
  0,
  0,
  0,
  0,
  5,
  0,
  0;
Material {
 1.000000;1.000000;1.000000;1.000000;;
 0.000000;
 1.000000;1.000000;1.000000;;
 0.0; 0.0; 0.0;;
 TextureFilename {
  "fig01.ppm";
 }
 }
Material {
 1.000000;1.000000;1.000000;1.000000;;
 0.000000;
 1.000000;1.000000;1.000000;;
 0.0; 0.0; 0.0;;
 TextureFilename {
  "fig01.ppm";
 }
 }
Material {
 1.000000;1.000000;1.000000;1.000000;;
 0.000000;
 1.000000;1.000000;1.000000;;
 0.0; 0.0; 0.0;;
 TextureFilename {
  "fig01.ppm";
 }
 }
Material {
 1.000000;1.000000;1.000000;1.000000;;
 0.000000;
 1.000000;1.000000;1.000000;;
 0.0; 0.0; 0.0;;
 TextureFilename {
  "fig01.ppm";
 }
 }
Material {
 1.000000;1.000000;1.000000;1.000000;;
 0.000000;
 1.000000;1.000000;1.000000;;
 0.0; 0.0; 0.0;;
 TextureFilename {
  "fig01.ppm";
 }
 }
Material {
 1.000000;1.000000;1.000000;1.000000;;
 0.000000;
 1.000000;1.000000;1.000000;;
 0.0; 0.0; 0.0;;
 TextureFilename {
  "fig01.ppm";
 }
 }
Material {
 1.000000;1.000000;1.000000;1.000000;;
 0.000000;
 1.000000;1.000000;1.000000;;
 0.0; 0.0; 0.0;;
 TextureFilename {
  "fig01.ppm";
 }
 }
Material {
 1.000000;1.000000;1.000000;1.000000;;
 0.000000;
 1.000000;1.000000;1.000000;;
 0.0; 0.0; 0.0;;
 TextureFilename {
  "fig01.ppm";
 }
 }
}
 MeshNormals {
  154;
  -0.506558;0.858565;-0.079157;,
  -0.662121;0.724947;-0.189863;,
  -0.662121;0.724947;-0.189863;,
  -0.662121;0.724947;-0.189863;,
  -0.662121;0.724947;-0.189863;,
  -0.662121;0.724947;-0.189863;,
  -0.227260;0.825816;-0.516121;,
  -0.227260;0.825816;-0.516121;,
  -0.353984;0.743591;-0.567245;,
  -0.353984;0.743591;-0.567245;,
  -0.353984;0.743591;-0.567245;,
  -0.371147;0.765246;-0.525974;,
  -0.371147;0.765246;-0.525974;,
  -0.386042;0.370628;-0.844752;,
  -0.386042;0.370628;-0.844752;,
  -0.386042;0.370628;-0.844752;,
  -0.480085;0.312775;-0.819567;,
  -0.480085;0.312775;-0.819567;,
  -0.366788;0.459098;-0.809133;,
  -0.366788;0.459098;-0.809133;,
  -0.519763;-0.283887;-0.805764;,
  -0.519763;-0.283887;-0.805764;,
  -0.519763;-0.283887;-0.805764;,
  -0.634129;-0.677298;-0.373026;,
  -0.634129;-0.677298;-0.373026;,
  -0.634825;-0.679953;-0.366961;,
  -0.634825;-0.679953;-0.366961;,
  -0.634825;-0.679953;-0.366961;,
  -0.653486;-0.681871;-0.328645;,
  -0.653486;-0.681871;-0.328645;,
  -0.653486;-0.681871;-0.328645;,
  -0.445732;-0.779991;0.439247;,
  -0.445732;-0.779991;0.439247;,
  -0.677208;-0.403789;0.615097;,
  -0.677208;-0.403789;0.615097;,
  -0.472834;0.110570;0.874187;,
  -0.472834;0.110570;0.874187;,
  0.502547;0.861003;-0.078235;,
  0.658955;0.728139;-0.188657;,
  0.658955;0.728139;-0.188657;,
  0.658955;0.728139;-0.188657;,
  0.658955;0.728139;-0.188657;,
  0.658955;0.728139;-0.188657;,
  0.224210;0.826907;-0.515709;,
  0.224210;0.826907;-0.515709;,
  0.351422;0.745296;-0.566601;,
  0.351422;0.745296;-0.566601;,
  0.351422;0.745296;-0.566601;,
  0.368405;0.767033;-0.525298;,
  0.368405;0.767033;-0.525298;,
  0.385790;0.372493;-0.844047;,
  0.385790;0.372493;-0.844047;,
  0.385790;0.372493;-0.844047;,
  0.480064;0.315095;-0.818690;,
  0.480064;0.315095;-0.818690;,
  0.366042;0.460868;-0.808464;,
  0.366042;0.460868;-0.808464;,
  0.522599;-0.281368;-0.804812;,
  0.522599;-0.281368;-0.804812;,
  0.522599;-0.281368;-0.804812;,
  0.638075;-0.674224;-0.371864;,
  0.638075;-0.674224;-0.371864;,
  0.638773;-0.676876;-0.365797;,
  0.638773;-0.676876;-0.365797;,
  0.638773;-0.676876;-0.365797;,
  0.657373;-0.678704;-0.327448;,
  0.657373;-0.678704;-0.327448;,
  0.657373;-0.678704;-0.327448;,
  0.448693;-0.777830;0.440064;,
  0.448693;-0.777830;0.440064;,
  0.678026;-0.400515;0.616335;,
  0.678026;-0.400515;0.616335;,
  0.470696;0.112850;0.875048;,
  0.470696;0.112850;0.875048;,
  -0.751145;0.562848;0.344940;,
  -0.751145;0.562848;0.344940;,
  -0.751145;0.562848;0.344940;,
  0.747784;0.566470;0.346309;,
  0.747784;0.566470;0.346309;,
  0.747784;0.566470;0.346309;,
  -0.377656;0.838860;-0.392033;,
  -0.377656;0.838860;-0.392033;,
  -0.377656;0.838860;-0.392033;,
  0.374313;0.840677;-0.391347;,
  0.374313;0.840677;-0.391347;,
  0.374313;0.840677;-0.391347;,
  0.374313;0.840677;-0.391347;,
  0.856524;0.442732;-0.265244;,
  -0.377656;0.838860;-0.392033;,
  -0.858168;0.438589;-0.266811;,
  0.838248;0.370657;-0.399942;,
  -0.839297;0.366604;-0.401474;,
  0.840528;0.373142;-0.392782;,
  -0.841602;0.369078;-0.394319;,
  -0.864017;0.498292;-0.071967;,
  0.861729;0.502462;-0.070391;,
  0.880651;0.473761;0.002046;,
  -0.882933;0.469500;0.000435;,
  0.747784;0.566470;0.346309;,
  -0.751145;0.562848;0.344940;,
  0.917208;0.371700;-0.143420;,
  0.470696;0.112850;0.875048;,
  0.678026;-0.400515;0.616335;,
  0.448693;-0.777830;0.440064;,
  0.657373;-0.678704;-0.327448;,
  0.638773;-0.676876;-0.365797;,
  0.638075;-0.674224;-0.371864;,
  0.522599;-0.281368;-0.804812;,
  0.366042;0.460868;-0.808464;,
  0.480064;0.315095;-0.818690;,
  0.385790;0.372493;-0.844047;,
  0.368405;0.767033;-0.525298;,
  0.351422;0.745296;-0.566601;,
  0.224210;0.826907;-0.515709;,
  0.658955;0.728139;-0.188657;,
  0.502547;0.861003;-0.078235;,
  0.963131;0.038159;-0.266313;,
  -0.913522;0.357596;0.193913;,
  0.889104;0.342213;-0.303948;,
  0.899662;0.084805;-0.428272;,
  0.997114;0.030749;-0.069407;,
  0.811197;0.493114;-0.314322;,
  0.913768;0.172174;-0.367945;,
  0.862761;0.463740;-0.201466;,
  0.815988;0.210368;-0.538432;,
  0.831071;0.504379;-0.234357;,
  0.902282;0.144941;-0.406053;,
  -0.918730;0.367264;-0.145096;,
  -0.472834;0.110570;0.874187;,
  -0.677208;-0.403789;0.615097;,
  -0.445732;-0.779991;0.439247;,
  -0.653486;-0.681871;-0.328645;,
  -0.634825;-0.679953;-0.366961;,
  -0.634129;-0.677298;-0.373026;,
  -0.519763;-0.283887;-0.805764;,
  -0.366788;0.459098;-0.809133;,
  -0.480085;0.312775;-0.819567;,
  -0.386042;0.370628;-0.844752;,
  -0.371147;0.765246;-0.525974;,
  -0.353984;0.743591;-0.567245;,
  -0.227260;0.825816;-0.516121;,
  -0.662121;0.724947;-0.189863;,
  -0.506558;0.858565;-0.079157;,
  -0.962816;0.033506;-0.268072;,
  0.911428;0.362005;0.195580;,
  -0.890190;0.337914;-0.305573;,
  -0.899277;0.080458;-0.429916;,
  -0.997123;0.025930;-0.071228;,
  -0.812995;0.489190;-0.315806;,
  -0.913916;0.167758;-0.369614;,
  -0.864622;0.459566;-0.203044;,
  -0.816010;0.206425;-0.539923;,
  -0.833069;0.500358;-0.235877;,
  -0.902229;0.140581;-0.407702;;

  60;
  4;149,15,17,146;,
  4;34,36,76,117;,
  3;127,0,5;,
  5;27,153,147,143,24;,
  4;26,64,67,30;,
  4;25,29,151,153;,
  4;121,47,44,42;,
  4;148,4,7,10;,
  4;145,89,82,12;,
  4;11,14,149,145;,
  4;149,146,143,147;,
  8;117,97,150,91,151,28,32,33;,
  4;150,152,93,91;,
  3;143,22,23;,
  5;21,143,146,16,19;,
  4;3,148,152,94;,
  5;116,59,56,54,119;,
  4;41,95,125,121;,
  4;119,53,52,122;,
  4;71,144,79,73;,
  3;40,37,100;,
  4;124,66,63,126;,
  4;87,118,49,85;,
  4;118,122,51,48;,
  4;120,116,119,122;,
  8;96,144,70,69,65,124,90,123;,
  4;92,125,123,90;,
  3;61,58,116;,
  4;89,145,153,93;,
  4;127,2,94,75;,
  5;60,116,120,126,62;,
  4;102,129,31,68;,
  4;102,72,35,129;,
  4;126,120,122,118;,
  4;87,121,125,92;,
  4;115,39,1,142;,
  4;43,6,141,38;,
  4;9,140,113,46;,
  4;81,8,45,84;,
  4;138,111,50,13;,
  4;137,110,109,136;,
  4;136,109,55,18;,
  4;135,108,57,20;,
  4;134,107,106,133;,
  4;133,106,105,132;,
  4;131,104,103,130;,
  4;96,123,125,95;,
  4;152,150,97,94;,
  4;114,100,78,95;,
  4;117,74,94,97;,
  4;95,77,144,96;,
  4;153,151,91,93;,
  4;90,124,126,92;,
  4;118,87,92,126;,
  4;152,148,89,93;,
  4;145,149,147,153;,
  4;148,139,80,89;,
  4;83,111,138,88;,
  4;86,112,121,87;,
  4;128,101,98,99;;
 }
 MeshTextureCoords { 
 154;
 0.522313;0.247022;,
 0.746429;0.993655;,
 0.354805;0.248585;,
 0.354805;0.248585;,
 0.354805;0.248585;,
 0.354805;0.248585;,
 0.547782;0.934712;,
 0.336501;0.248986;,
 0.372930;0.953475;,
 0.738355;0.836750;,
 0.281923;0.357813;,
 0.088066;0.512806;,
 0.088066;0.512806;,
 0.076834;0.953013;,
 0.044312;0.574877;,
 0.044312;0.574877;,
 0.033911;0.671271;,
 0.033911;0.671271;,
 0.010636;0.954770;,
 0.010561;0.695054;,
 0.010933;0.972665;,
 0.005874;0.767286;,
 0.005874;0.767286;,
 0.046004;0.824359;,
 0.046004;0.824359;,
 0.142546;0.831609;,
 0.578617;0.225827;,
 0.142546;0.831609;,
 0.197860;0.829667;,
 0.197860;0.829667;,
 0.614254;0.320639;,
 0.836562;0.753627;,
 0.452041;0.829265;,
 0.480955;0.717555;,
 0.480955;0.717555;,
 0.858462;0.577489;,
 0.516599;0.680244;,
 0.522313;0.247022;,
 0.560426;0.854518;,
 0.746660;0.798521;,
 0.354805;0.248585;,
 0.354805;0.248585;,
 0.354805;0.248585;,
 0.547590;0.870430;,
 0.336501;0.248986;,
 0.372881;0.850145;,
 0.738967;0.968721;,
 0.281923;0.357813;,
 0.088066;0.512806;,
 0.088066;0.512806;,
 0.076834;0.850447;,
 0.044312;0.574877;,
 0.044312;0.574877;,
 0.033911;0.671271;,
 0.033911;0.671271;,
 0.010464;0.851986;,
 0.010561;0.695054;,
 0.011328;0.840077;,
 0.005874;0.767286;,
 0.005874;0.767286;,
 0.046004;0.824359;,
 0.046004;0.824359;,
 0.142546;0.831609;,
 0.142546;0.831609;,
 0.578617;0.100039;,
 0.197860;0.829667;,
 0.197860;0.829667;,
 0.614658;0.003670;,
 0.997372;0.753939;,
 0.452041;0.829265;,
 0.480955;0.717555;,
 0.480955;0.717555;,
 0.973386;0.577486;,
 0.516599;0.680244;,
 0.429191;0.514251;,
 0.429191;0.514251;,
 0.429191;0.514251;,
 0.429191;0.514251;,
 0.429191;0.514251;,
 0.429191;0.514251;,
 0.168648;0.448076;,
 0.207393;0.953683;,
 0.168648;0.448076;,
 0.207393;0.849990;,
 0.207393;0.849990;,
 0.168648;0.448076;,
 0.168648;0.448076;,
 0.178350;0.481587;,
 0.207393;0.953683;,
 0.178350;0.481587;,
 0.245537;0.651865;,
 0.245537;0.651865;,
 0.204517;0.586625;,
 0.204517;0.586625;,
 0.346451;0.483252;,
 0.346451;0.483252;,
 0.356177;0.579351;,
 0.356177;0.579351;,
 0.859375;0.750000;,
 0.990234;0.750000;,
 0.469476;0.320114;,
 0.859375;0.503906;,
 0.997382;0.689425;,
 0.764969;0.003670;,
 0.614658;0.003670;,
 0.578617;0.100039;,
 0.533924;0.101433;,
 0.505328;0.134889;,
 0.082374;0.839862;,
 0.057153;0.851747;,
 0.173664;0.851617;,
 0.159525;0.850063;,
 0.281923;0.357813;,
 0.681052;0.947063;,
 0.354805;0.248585;,
 0.900362;0.798510;,
 0.057446;0.754772;,
 0.423037;0.626486;,
 0.099507;0.547042;,
 0.051664;0.675757;,
 0.089331;0.726423;,
 0.280663;0.398855;,
 0.062654;0.598446;,
 0.294429;0.597495;,
 0.204314;0.757526;,
 0.267827;0.505118;,
 0.156546;0.710097;,
 0.469476;0.320114;,
 0.992188;0.507813;,
 0.836572;0.690416;,
 0.764564;0.320639;,
 0.614254;0.320639;,
 0.578617;0.225827;,
 0.533924;0.225028;,
 0.505244;0.190991;,
 0.082453;0.972450;,
 0.057376;0.955016;,
 0.173705;0.954774;,
 0.159476;0.953590;,
 0.281923;0.357813;,
 0.680493;0.855219;,
 0.560532;0.947200;,
 0.901291;0.993043;,
 0.057446;0.754772;,
 0.423037;0.626486;,
 0.099507;0.547042;,
 0.051664;0.675757;,
 0.089331;0.726423;,
 0.280663;0.398855;,
 0.062654;0.598446;,
 0.294429;0.597495;,
 0.204314;0.757526;,
 0.267827;0.505118;,
 0.156546;0.710097;;
 }
}
Frame frm-rfuselg {
  FrameTransformMatrix {
1.000000,0.000000,0.000000,0.000000,
0.000000,1.000000,0.000000,0.000000,
0.000000,0.000000,1.000000,0.000000,
0.000000,0.000000,0.000000,1.000000;;
 }
Mesh rfuselg {
 167;
 -0.171196;0.643432;2.412557;,
 -0.171196;0.643432;2.412557;,
 -0.171196;0.643432;2.412557;,
 -0.171196;0.643432;2.412557;,
 0.163499;0.644240;2.412863;,
 0.163499;0.644240;2.412863;,
 0.163499;0.644240;2.412863;,
 0.163499;0.644240;2.412863;,
 0.294108;0.494606;2.412982;,
 0.240252;0.293749;2.412932;,
 0.240252;0.293749;2.412932;,
 -0.246256;0.292574;2.412488;,
 -0.301081;0.493169;2.412439;,
 0.126959;1.145868;3.251167;,
 0.126959;1.145868;3.251167;,
 -0.131992;1.145242;3.250930;,
 -0.131992;1.145242;3.250930;,
 -0.208708;0.322817;1.850459;,
 -0.208708;0.322817;1.850459;,
 -0.208708;0.322817;1.850459;,
 -0.245702;0.292575;1.806312;,
 -0.245702;0.292575;1.806312;,
 -0.245702;0.292575;1.806312;,
 -0.246019;0.292575;2.153512;,
 -0.246019;0.292575;2.153512;,
 -0.246019;0.292575;2.153512;,
 -0.208945;0.322816;2.109434;,
 -0.208945;0.322816;2.109434;,
 -0.208945;0.322816;2.109434;,
 -0.245465;0.292576;1.547336;,
 -0.245465;0.292576;1.547336;,
 -0.245465;0.292576;1.547336;,
 -0.300291;0.493170;1.547287;,
 -0.300291;0.493170;1.547287;,
 -0.300291;0.493170;1.547287;,
 -0.300291;0.493170;1.547287;,
 0.377090;0.542724;0.397893;,
 -0.196793;0.612747;1.547180;,
 -0.196793;0.612747;1.547180;,
 0.416542;0.997400;0.835392;,
 0.416542;0.997400;0.835392;,
 0.416542;0.997400;0.835392;,
 0.336865;0.997208;0.577217;,
 0.240489;0.293750;2.153957;,
 0.240489;0.293750;2.153957;,
 0.203349;0.323812;2.109811;,
 0.203349;0.323812;2.109811;,
 0.193889;0.610176;1.547542;,
 0.193889;0.610176;1.547542;,
 0.193889;0.610176;1.547542;,
 -0.167287;0.736488;2.703463;,
 -0.167287;0.736488;2.703463;,
 -0.167287;0.736488;2.703463;,
 -0.467367;0.046662;1.066527;,
 -0.467367;0.046662;1.066527;,
 -0.467367;0.046662;1.066527;,
 -0.208391;0.322818;1.503258;,
 -0.208391;0.322818;1.503258;,
 -0.208391;0.322818;1.503258;,
 0.203903;0.323814;1.503634;,
 0.203903;0.323814;1.503634;,
 0.203903;0.323814;1.503634;,
 0.465007;0.048914;1.067378;,
 0.465007;0.048914;1.067378;,
 0.465007;0.048914;1.067378;,
 -0.182322;1.004640;2.232991;,
 -0.182322;1.004640;2.232991;,
 -0.182322;1.004640;2.232991;,
 -0.158661;1.145177;2.861271;,
 -0.158661;1.145177;2.861271;,
 -0.158661;1.145177;2.861271;,
 0.465938;0.540069;0.655899;,
 0.465938;0.540069;0.655899;,
 0.465938;0.540069;0.655899;,
 0.465938;0.540069;0.655899;,
 0.154340;1.145934;2.861557;,
 0.154340;1.145934;2.861557;,
 0.203586;0.323813;1.850835;,
 0.203586;0.323813;1.850835;,
 0.240806;0.293751;1.806756;,
 0.240806;0.293751;1.806756;,
 0.241042;0.293751;1.547781;,
 0.241042;0.293751;1.547781;,
 0.165117;0.737291;2.703767;,
 0.165117;0.737291;2.703767;,
 0.178580;1.005512;2.233320;,
 0.178580;1.005512;2.233320;,
 -0.192283;1.017388;1.666539;,
 -0.192283;1.017388;1.666539;,
 -0.192283;1.017388;1.666539;,
 -0.464169;0.537826;0.655035;,
 -0.464169;0.537826;0.655035;,
 -0.464169;0.537826;0.655035;,
 -0.464169;0.537826;0.655035;,
 -0.375926;0.540905;0.397205;,
 -0.370137;0.069214;0.756966;,
 0.372928;0.071009;0.757644;,
 -0.282809;1.157943;0.760785;,
 0.279251;1.159301;0.761298;,
 -0.338685;0.995576;0.576600;,
 -0.348844;1.183031;1.073844;,
 -0.348844;1.183031;1.073844;,
 -0.348844;1.183031;1.073844;,
 -0.417882;0.995384;0.834630;,
 -0.417882;0.995384;0.834630;,
 -0.417882;0.995384;0.834630;,
 0.345399;1.184708;1.074478;,
 0.345399;1.184708;1.074478;,
 0.345399;1.184708;1.074478;,
 0.294898;0.494608;1.547830;,
 0.294898;0.494608;1.547830;,
 0.294898;0.494608;1.547830;,
 0.294898;0.494608;1.547830;,
 0.187449;1.018305;1.666886;,
 0.187449;1.018305;1.666886;,
 0.187449;1.018305;1.666886;,
 0.294898;0.494608;1.547830;,
 0.345399;1.184708;1.074478;,
 -0.417882;0.995384;0.834630;,
 -0.348844;1.183031;1.073844;,
 -0.338685;0.995576;0.576600;,
 0.279251;1.159301;0.761298;,
 -0.282809;1.157943;0.760785;,
 0.372928;0.071009;0.757644;,
 -0.370137;0.069214;0.756966;,
 -0.375926;0.540905;0.397205;,
 -0.464169;0.537826;0.655035;,
 -0.192283;1.017388;1.666539;,
 0.294662;0.494608;1.806806;,
 0.178580;1.005512;2.233320;,
 0.165117;0.737291;2.703767;,
 0.241042;0.293751;1.547781;,
 0.240806;0.293751;1.806756;,
 0.203586;0.323813;1.850835;,
 0.154340;1.145934;2.861557;,
 0.465938;0.540069;0.655899;,
 -0.158661;1.145177;2.861271;,
 -0.182322;1.004640;2.232991;,
 0.465007;0.048914;1.067378;,
 0.203903;0.323814;1.503634;,
 -0.208391;0.322818;1.503258;,
 -0.467367;0.046662;1.066527;,
 -0.167287;0.736488;2.703463;,
 0.294345;0.494607;2.154006;,
 0.193889;0.610176;1.547542;,
 0.203349;0.323812;2.109811;,
 0.240489;0.293750;2.153957;,
 0.336865;0.997208;0.577217;,
 0.416542;0.997400;0.835392;,
 -0.196793;0.612747;1.547180;,
 0.377090;0.542724;0.397893;,
 -0.300291;0.493170;1.547287;,
 -0.245465;0.292576;1.547336;,
 -0.300845;0.493169;2.153463;,
 -0.208945;0.322816;2.109434;,
 -0.246019;0.292575;2.153512;,
 -0.300527;0.493170;1.806262;,
 -0.245702;0.292575;1.806312;,
 -0.208708;0.322817;1.850459;,
 -0.131992;1.145242;3.250930;,
 0.126959;1.145868;3.251167;,
 -0.301081;0.493169;2.412439;,
 -0.246256;0.292574;2.412488;,
 0.240252;0.293749;2.412932;,
 0.294108;0.494606;2.412982;,
 0.163499;0.644240;2.412863;,
 -0.171196;0.643432;2.412557;;

 50;
 4;64,61,58,55;,
 3;93,35,38;,
 3;105,89,102;,
 4;88,114,108,101;,
 6;12,11,10,8,7,3;,
 4;162,161,153,25;,
 6;34,156,153,161,2,37;,
 3;153,28,24;,
 4;156,19,27,153;,
 3;156,22,18;,
 4;33,31,21,156;,
 3;57,30,32;,
 4;9,162,23,44;,
 4;46,43,155,26;,
 4;20,80,78,17;,
 4;79,157,29,82;,
 4;81,152,56,60;,
 4;45,154,158,77;,
 4;1,52,70,67;,
 4;86,113,87,66;,
 4;76,85,65,69;,
 4;51,0,6,84;,
 4;83,14,16,50;,
 3;142,15,68;,
 4;136,159,13,75;,
 3;134,160,130;,
 4;134,130,5,129;,
 4;4,49,115,129;,
 3;115,41,107;,
 4;74,40,115,48;,
 6;165,164,143,128,112,47;,
 3;146,145,143;,
 4;145,133,128,143;,
 3;132,128,133;,
 4;111,59,63,73;,
 3;131,139,110;,
 4;164,163,146,143;,
 4;128,132,131,109;,
 4;140,151,92,54;,
 4;96,36,72,62;,
 4;98,97,100,106;,
 4;104,119,122,99;,
 4;91,103,120,94;,
 4;42,121,117,39;,
 4;148,71,150,147;,
 4;53,90,125,95;,
 4;138,141,124,123;,
 3;144,116,135;,
 4;149,127,118,126;,
 4;137,127,149,166;;

 MeshMaterialList {
  5;
  50;
  0,
  1,
  1,
  2,
  3,
  4,
  4,
  4,
  4,
  4,
  4,
  4,
  4,
  4,
  4,
  4,
  4,
  4,
  1,
  2,
  2,
  1,
  1,
  1,
  2,
  1,
  1,
  1,
  1,
  1,
  4,
  4,
  4,
  4,
  4,
  4,
  4,
  4,
  4,
  4,
  4,
  4,
  4,
  4,
  4,
  4,
  4,
  1,
  1,
  1;
Material {
 1.000000;1.000000;1.000000;1.000000;;
 0.000000;
 1.000000;1.000000;1.000000;;
 0.0; 0.0; 0.0;;
 TextureFilename {
  "fig01.ppm";
 }
 }
Material {
 1.000000;1.000000;1.000000;1.000000;;
 0.000000;
 1.000000;1.000000;1.000000;;
 0.0; 0.0; 0.0;;
 TextureFilename {
  "fig01.ppm";
 }
 }
Material {
 1.000000;1.000000;1.000000;1.000000;;
 0.000000;
 1.000000;1.000000;1.000000;;
 0.0; 0.0; 0.0;;
 TextureFilename {
  "fig01.ppm";
 }
 }
Material {
 1.000000;1.000000;1.000000;1.000000;;
 0.000000;
 1.000000;1.000000;1.000000;;
 0.0; 0.0; 0.0;;
 TextureFilename {
  "fig01.ppm";
 }
 }
Material {
 1.000000;0.994350;1.000000;1.000000;;
 0.000000;
 1.000000;1.000000;1.000000;;
 0.0; 0.0; 0.0;;
 TextureFilename {
  "fig01.ppm";
 }
 }
}
 MeshNormals {
  167;
  -0.903012;-0.083128;0.421497;,
  -0.903012;-0.083128;0.421497;,
  -0.903012;-0.083128;0.421497;,
  -0.903012;-0.083128;0.421497;,
  0.903217;-0.083233;0.421035;,
  0.903217;-0.083233;0.421035;,
  0.903217;-0.083233;0.421035;,
  0.903217;-0.083233;0.421035;,
  0.870890;0.202141;0.447983;,
  0.515425;-0.670789;0.533272;,
  0.515425;-0.670789;0.533272;,
  -0.513151;-0.673274;0.532333;,
  -0.872674;0.197931;0.446390;,
  0.819448;0.162736;0.549565;,
  0.819448;0.162736;0.549565;,
  -0.821199;0.158989;0.548047;,
  -0.821199;0.158989;0.548047;,
  -0.488380;-0.777625;0.395959;,
  -0.488380;-0.777625;0.395959;,
  -0.488380;-0.777625;0.395959;,
  -0.534304;-0.738670;0.410956;,
  -0.534304;-0.738670;0.410956;,
  -0.534304;-0.738670;0.410956;,
  -0.533551;-0.738667;-0.411941;,
  -0.533551;-0.738667;-0.411941;,
  -0.533551;-0.738667;-0.411941;,
  -0.487654;-0.777622;-0.396860;,
  -0.487654;-0.777622;-0.396860;,
  -0.487654;-0.777622;-0.396860;,
  -0.533552;-0.738668;-0.411936;,
  -0.533552;-0.738668;-0.411936;,
  -0.533552;-0.738668;-0.411936;,
  -0.975929;0.210506;-0.057000;,
  -0.975929;0.210506;-0.057000;,
  -0.975929;0.210506;-0.057000;,
  -0.975929;0.210506;-0.057000;,
  0.950037;-0.019466;-0.311529;,
  -0.932696;0.337691;0.126662;,
  -0.932696;0.337691;0.126662;,
  0.978361;0.206862;0.004218;,
  0.978361;0.206862;0.004218;,
  0.978361;0.206862;0.004218;,
  0.877433;0.396392;-0.270156;,
  0.537865;-0.736079;-0.410962;,
  0.537865;-0.736079;-0.410962;,
  0.492129;-0.775255;-0.395965;,
  0.492129;-0.775255;-0.395965;,
  0.931212;0.340292;0.130557;,
  0.931212;0.340292;0.130557;,
  0.931212;0.340292;0.130557;,
  -0.696593;-0.623866;0.354329;,
  -0.696593;-0.623866;0.354329;,
  -0.696593;-0.623866;0.354329;,
  -0.666376;-0.728582;0.158466;,
  -0.666376;-0.728582;0.158466;,
  -0.666376;-0.728582;0.158466;,
  -0.644049;-0.730388;-0.227452;,
  -0.644049;-0.730388;-0.227452;,
  -0.644049;-0.730388;-0.227452;,
  0.646997;-0.728740;-0.224348;,
  0.646997;-0.728740;-0.224348;,
  0.646997;-0.728740;-0.224348;,
  0.667929;-0.726173;0.162923;,
  0.667929;-0.726173;0.162923;,
  0.667929;-0.726173;0.162923;,
  -0.710216;0.702192;-0.050196;,
  -0.710216;0.702192;-0.050196;,
  -0.710216;0.702192;-0.050196;,
  -0.710337;0.702559;-0.042807;,
  -0.710337;0.702559;-0.042807;,
  -0.710337;0.702559;-0.042807;,
  0.990342;0.134499;0.033668;,
  0.990342;0.134499;0.033668;,
  0.990342;0.134499;0.033668;,
  0.990342;0.134499;0.033668;,
  0.708341;0.704503;-0.043918;,
  0.708341;0.704503;-0.043918;,
  0.491407;-0.775259;0.396854;,
  0.491407;-0.775259;0.396854;,
  0.537115;-0.736082;0.411935;,
  0.537115;-0.736082;0.411935;,
  0.537866;-0.736080;-0.410957;,
  0.537866;-0.736080;-0.410957;,
  0.698426;-0.622575;0.352988;,
  0.698426;-0.622575;0.352988;,
  0.709426;0.702923;-0.051124;,
  0.709426;0.702923;-0.051124;,
  -0.810111;0.536459;0.236498;,
  -0.810111;0.536459;0.236498;,
  -0.810111;0.536459;0.236498;,
  -0.990988;0.130822;0.028794;,
  -0.990988;0.130822;0.028794;,
  -0.990988;0.130822;0.028794;,
  -0.990988;0.130822;0.028794;,
  -0.949010;-0.024530;-0.314290;,
  -0.573305;-0.783364;-0.240130;,
  0.578258;-0.781082;-0.235645;,
  -0.450150;0.876012;-0.173115;,
  0.443736;0.879288;-0.173063;,
  -0.881079;0.388887;-0.269197;,
  -0.569467;0.818855;0.071991;,
  -0.569467;0.818855;0.071991;,
  -0.569467;0.818855;0.071991;,
  -0.979794;0.199993;0.002591;,
  -0.979794;0.199993;0.002591;,
  -0.979794;0.199993;0.002591;,
  0.563720;0.822730;0.073048;,
  0.563720;0.822730;0.073048;,
  0.563720;0.822730;0.073048;,
  0.975400;0.213964;-0.053047;,
  0.975400;0.213964;-0.053047;,
  0.975400;0.213964;-0.053047;,
  0.975400;0.213964;-0.053047;,
  0.807471;0.539059;0.239596;,
  0.807471;0.539059;0.239596;,
  0.807471;0.539059;0.239596;,
  0.975400;0.213964;-0.053047;,
  0.563720;0.822730;0.073048;,
  -0.979794;0.199993;0.002591;,
  -0.569467;0.818855;0.071991;,
  -0.881079;0.388887;-0.269197;,
  0.443736;0.879288;-0.173063;,
  -0.450150;0.876012;-0.173115;,
  0.578258;-0.781082;-0.235645;,
  -0.573305;-0.783364;-0.240130;,
  -0.949010;-0.024530;-0.314290;,
  -0.990988;0.130822;0.028794;,
  -0.810111;0.536459;0.236498;,
  0.974850;-0.075784;0.209579;,
  0.709426;0.702923;-0.051124;,
  0.698426;-0.622575;0.352988;,
  0.537866;-0.736080;-0.410957;,
  0.537115;-0.736082;0.411935;,
  0.491407;-0.775259;0.396854;,
  0.708341;0.704503;-0.043918;,
  0.990342;0.134499;0.033668;,
  -0.710337;0.702559;-0.042807;,
  -0.710216;0.702192;-0.050196;,
  0.667929;-0.726173;0.162923;,
  0.646997;-0.728740;-0.224348;,
  -0.644049;-0.730388;-0.227452;,
  -0.666376;-0.728582;0.158466;,
  -0.696593;-0.623866;0.354329;,
  0.975223;-0.075782;-0.207839;,
  0.931212;0.340292;0.130557;,
  0.492129;-0.775255;-0.395965;,
  0.537865;-0.736079;-0.410962;,
  0.877433;0.396392;-0.270156;,
  0.978361;0.206862;0.004218;,
  -0.932696;0.337691;0.126662;,
  0.950037;-0.019466;-0.311529;,
  -0.975929;0.210506;-0.057000;,
  -0.533552;-0.738668;-0.411936;,
  -0.974464;-0.080491;-0.209620;,
  -0.487654;-0.777622;-0.396860;,
  -0.533551;-0.738667;-0.411941;,
  -0.974854;-0.080493;0.207798;,
  -0.534304;-0.738670;0.410956;,
  -0.488380;-0.777625;0.395959;,
  -0.821199;0.158989;0.548047;,
  0.819448;0.162736;0.549565;,
  -0.872674;0.197931;0.446390;,
  -0.513151;-0.673274;0.532333;,
  0.515425;-0.670789;0.533272;,
  0.870890;0.202141;0.447983;,
  0.903217;-0.083233;0.421035;,
  -0.903012;-0.083128;0.421497;;

  50;
  4;64,61,58,55;,
  3;93,35,38;,
  3;105,89,102;,
  4;88,114,108,101;,
  6;12,11,10,8,7,3;,
  4;162,161,153,25;,
  6;34,156,153,161,2,37;,
  3;153,28,24;,
  4;156,19,27,153;,
  3;156,22,18;,
  4;33,31,21,156;,
  3;57,30,32;,
  4;9,162,23,44;,
  4;46,43,155,26;,
  4;20,80,78,17;,
  4;79,157,29,82;,
  4;81,152,56,60;,
  4;45,154,158,77;,
  4;1,52,70,67;,
  4;86,113,87,66;,
  4;76,85,65,69;,
  4;51,0,6,84;,
  4;83,14,16,50;,
  3;142,15,68;,
  4;136,159,13,75;,
  3;134,160,130;,
  4;134,130,5,129;,
  4;4,49,115,129;,
  3;115,41,107;,
  4;74,40,115,48;,
  6;165,164,143,128,112,47;,
  3;146,145,143;,
  4;145,133,128,143;,
  3;132,128,133;,
  4;111,59,63,73;,
  3;131,139,110;,
  4;164,163,146,143;,
  4;128,132,131,109;,
  4;140,151,92,54;,
  4;96,36,72,62;,
  4;98,97,100,106;,
  4;104,119,122,99;,
  4;91,103,120,94;,
  4;42,121,117,39;,
  4;148,71,150,147;,
  4;53,90,125,95;,
  4;138,141,124,123;,
  3;144,116,135;,
  4;149,127,118,126;,
  4;137,127,149,166;;
 }
 MeshTextureCoords { 
 167;
 0.981527;0.739074;,
 0.731312;0.480208;,
 0.772296;0.524913;,
 0.285633;0.215839;,
 0.731312;0.480208;,
 0.731312;0.480208;,
 0.850748;0.739074;,
 0.246307;0.215839;,
 0.230784;0.259833;,
 0.769902;0.638528;,
 0.237338;0.326256;,
 0.292532;0.326256;,
 0.301156;0.262421;,
 0.460490;0.949063;,
 0.850748;0.494662;,
 0.815342;0.331793;,
 0.981527;0.494662;,
 0.676476;0.624830;,
 0.676476;0.624830;,
 0.676476;0.624830;,
 0.670727;0.636575;,
 0.670727;0.629739;,
 0.670727;0.629739;,
 0.722558;0.637257;,
 0.722558;0.630715;,
 0.722558;0.630715;,
 0.711112;0.623560;,
 0.711112;0.623560;,
 0.711112;0.623560;,
 0.618832;0.638027;,
 0.620297;0.631191;,
 0.620297;0.631191;,
 0.619321;0.573098;,
 0.619321;0.573098;,
 0.619321;0.573098;,
 0.581686;0.491280;,
 0.961914;0.748047;,
 0.621762;0.540538;,
 0.582438;0.475533;,
 0.540026;0.396778;,
 0.487434;0.326895;,
 0.487434;0.326895;,
 0.498019;0.398844;,
 0.722558;0.637257;,
 0.722558;0.630715;,
 0.713553;0.626490;,
 0.710624;0.623560;,
 0.621762;0.540538;,
 0.582438;0.475533;,
 0.582438;0.475533;,
 0.981527;0.651687;,
 0.981527;0.651687;,
 0.779403;0.459487;,
 0.954102;0.607422;,
 0.590560;0.631782;,
 0.656751;0.774354;,
 0.610634;0.624830;,
 0.610634;0.624830;,
 0.635567;0.655560;,
 0.608287;0.587082;,
 0.610634;0.624830;,
 0.599344;0.655653;,
 0.954102;0.607422;,
 0.590560;0.631782;,
 0.576428;0.774310;,
 0.556076;0.849088;,
 0.556076;0.849088;,
 0.705468;0.362697;,
 0.786976;0.328414;,
 0.531483;0.849087;,
 0.786976;0.328414;,
 0.961914;0.748047;,
 0.907227;0.748047;,
 0.435489;0.497710;,
 0.457408;0.481086;,
 0.531833;0.948829;,
 0.531833;0.948829;,
 0.677941;0.626783;,
 0.675824;0.624830;,
 0.670727;0.636575;,
 0.670727;0.629739;,
 0.618832;0.638027;,
 0.620297;0.631191;,
 0.850748;0.651687;,
 0.850748;0.651687;,
 0.555925;0.948226;,
 0.555925;0.948226;,
 0.605029;0.849387;,
 0.605029;0.849387;,
 0.603514;0.344366;,
 0.907227;0.748047;,
 0.954102;0.607422;,
 0.435489;0.497710;,
 0.457408;0.481086;,
 0.993164;0.607422;,
 0.993164;0.607422;,
 0.993164;0.607422;,
 0.868164;0.623047;,
 0.985352;0.623047;,
 0.498019;0.398844;,
 0.860352;0.498047;,
 0.681211;0.849895;,
 0.534523;0.264314;,
 0.907227;0.748047;,
 0.540026;0.396778;,
 0.487434;0.326895;,
 0.993164;0.498047;,
 0.534523;0.264314;,
 0.681303;0.948758;,
 0.619321;0.573098;,
 0.619321;0.573098;,
 0.613683;0.520356;,
 0.619321;0.573098;,
 0.605219;0.948045;,
 0.605219;0.948045;,
 0.603514;0.344366;,
 0.581686;0.491280;,
 0.564204;0.308742;,
 0.487434;0.326895;,
 0.564204;0.308742;,
 0.961914;0.748047;,
 0.521484;0.308594;,
 0.521484;0.308594;,
 0.985352;0.623047;,
 0.868164;0.623047;,
 0.961914;0.748047;,
 0.457408;0.481086;,
 0.603514;0.344366;,
 0.669957;0.572121;,
 0.705468;0.362697;,
 0.779403;0.459487;,
 0.620297;0.631191;,
 0.670727;0.629739;,
 0.676476;0.624830;,
 0.786976;0.328414;,
 0.457408;0.481086;,
 0.531483;0.849087;,
 0.705468;0.362697;,
 0.993164;0.498047;,
 0.610634;0.624830;,
 0.608287;0.587082;,
 0.860352;0.498047;,
 0.779403;0.459487;,
 0.718242;0.571145;,
 0.582438;0.475533;,
 0.711112;0.623560;,
 0.722558;0.630715;,
 0.954102;0.607422;,
 0.993164;0.607422;,
 0.582438;0.475533;,
 0.907227;0.748047;,
 0.613683;0.520356;,
 0.620297;0.631191;,
 0.718242;0.571145;,
 0.713065;0.557154;,
 0.722558;0.630715;,
 0.669957;0.572121;,
 0.670727;0.629739;,
 0.678266;0.557447;,
 0.460715;0.849075;,
 0.815342;0.331793;,
 0.772296;0.572121;,
 0.771855;0.630715;,
 0.771855;0.630715;,
 0.772296;0.572121;,
 0.772296;0.524913;,
 0.731312;0.480208;;
 }
}
}
Frame frm-SSf {
  FrameTransformMatrix {
1.000000,0.000000,0.000000,0.000000,
0.000000,1.000000,0.000000,0.000000,
0.000000,0.000000,1.000000,0.000000,
0.000011,-0.280979,-1.481672,1.000000;;
 }
Mesh SSf {
 4;
 -0.000000;0.000000;0.000000;,
 0.000000;0.000000;0.000000;,
 -0.000000;0.000000;0.000000;,
 -0.000000;0.000000;0.000000;;

 4;
 3;2,1,3;,
 3;2,0,1;,
 3;2,3,0;,
 3;3,1,0;;

 MeshMaterialList {
  1;
  4;
  0,
  0,
  0,
  0;
Material {
 1.000000;1.000000;1.000000;1.000000;;
 50.000000;
 1.000000;1.000000;1.000000;;
 0.0; 0.0; 0.0;;
 }
}
 MeshNormals {
  4;
  0.000000;0.000000;0.000000;,
  0.000000;0.000000;0.000000;,
  0.000000;0.000000;0.000000;,
  0.000000;0.000000;0.000000;;

  4;
  3;2,1,3;,
  3;2,0,1;,
  3;2,3,0;,
  3;3,1,0;;
 }
 MeshTextureCoords { 
 4;
 0.000000;0.000000;,
 0.000000;0.000000;,
 0.000000;0.000000;,
 0.000000;0.000000;;
 }
}
}
Frame frm-tractr1 {
  FrameTransformMatrix {
1.000000,0.000000,0.000000,0.000000,
0.000000,1.000000,0.000000,0.000000,
0.000000,0.000000,1.000000,0.000000,
0.000021,-0.148857,-1.808535,1.000000;;
 }
Mesh tractr1 {
 24;
 -0.338216;-0.142379;0.040812;,
 -0.338216;-0.142379;0.040812;,
 -0.407552;-0.215986;-0.040761;,
 -0.407552;-0.215986;-0.040761;,
 -0.338325;0.142740;0.040812;,
 -0.338325;0.142740;0.040812;,
 -0.407538;0.216012;-0.040761;,
 -0.407538;0.216012;-0.040761;,
 0.338311;-0.142740;0.040697;,
 0.338311;-0.142740;0.040697;,
 0.407539;-0.216012;-0.040748;,
 0.407539;-0.216012;-0.040748;,
 0.338202;0.142379;0.040697;,
 0.338202;0.142379;0.040697;,
 0.407553;0.215986;-0.040748;,
 0.407553;0.215986;-0.040748;,
 0.407553;0.215986;-0.040748;,
 0.338202;0.142379;0.040697;,
 0.407539;-0.216012;-0.040748;,
 0.338311;-0.142740;0.040697;,
 -0.407538;0.216012;-0.040761;,
 -0.338325;0.142740;0.040812;,
 -0.407552;-0.215986;-0.040761;,
 -0.338216;-0.142379;0.040812;;

 6;
 4;5,7,3,1;,
 4;6,15,11,2;,
 4;14,13,9,10;,
 4;12,4,0,8;,
 4;23,22,18,19;,
 4;17,16,20,21;;

 MeshMaterialList {
  1;
  6;
  0,
  0,
  0,
  0,
  0,
  0;
Material {
 1.000000;1.000000;1.000000;1.000000;;
 0.000000;
 1.000000;1.000000;1.000000;;
 0.0; 0.0; 0.0;;
 TextureFilename {
  "fig01.ppm";
 }
 }
}
 MeshNormals {
  24;
  -0.446428;-0.217423;0.868003;,
  -0.446428;-0.217423;0.868003;,
  -0.686281;-0.668950;0.285526;,
  -0.686281;-0.668950;0.285526;,
  -0.176286;0.343730;0.922373;,
  -0.176286;0.343730;0.922373;,
  -0.686245;0.669632;0.284009;,
  -0.686245;0.669632;0.284009;,
  0.176335;-0.343707;0.922373;,
  0.176335;-0.343707;0.922373;,
  0.685974;-0.669399;0.285210;,
  0.685974;-0.669399;0.285210;,
  0.446084;0.217157;0.868246;,
  0.446084;0.217157;0.868246;,
  0.685968;0.668978;0.286211;,
  0.685968;0.668978;0.286211;,
  0.685968;0.668978;0.286211;,
  0.446084;0.217157;0.868246;,
  0.685974;-0.669399;0.285210;,
  0.176335;-0.343707;0.922373;,
  -0.686245;0.669632;0.284009;,
  -0.176286;0.343730;0.922373;,
  -0.686281;-0.668950;0.285526;,
  -0.446428;-0.217423;0.868003;;

  6;
  4;5,7,3,1;,
  4;6,15,11,2;,
  4;14,13,9,10;,
  4;12,4,0,8;,
  4;23,22,18,19;,
  4;17,16,20,21;;
 }
 MeshTextureCoords { 
 24;
 0.687584;0.783976;,
 0.005108;0.116031;,
 0.812577;0.784344;,
 0.015932;0.092069;,
 0.687911;0.653156;,
 0.094257;0.116342;,
 0.812904;0.652548;,
 0.082213;0.092062;,
 0.812577;0.784344;,
 0.015932;0.092069;,
 0.005108;0.116031;,
 0.687584;0.783976;,
 0.812904;0.652548;,
 0.082213;0.092062;,
 0.094257;0.116342;,
 0.687911;0.653156;,
 0.082213;0.092062;,
 0.094257;0.116342;,
 0.015932;0.092069;,
 0.005108;0.116031;,
 0.015932;0.092069;,
 0.005108;0.116031;,
 0.082213;0.092062;,
 0.094257;0.116342;;
 }
}
Frame frm-tractr2 {
  FrameTransformMatrix {
1.000000,0.000000,0.000000,0.000000,
0.000000,1.000000,0.000000,0.000000,
0.000000,0.000000,1.000000,0.000000,
-0.000142,0.005815,0.140579,1.000000;;
 }
Mesh tractr2 {
 8;
 0.035202;0.035190;-0.100298;,
 0.035199;0.035190;0.100299;,
 0.035192;-0.035201;-0.100298;,
 0.035189;-0.035201;0.100299;,
 -0.035189;0.035201;-0.100299;,
 -0.035192;0.035201;0.100298;,
 -0.035199;-0.035190;-0.100299;,
 -0.035202;-0.035190;0.100298;;

 4;
 4;5,4,6,7;,
 4;7,6,2,3;,
 4;0,1,3,2;,
 4;1,0,4,5;;

 MeshMaterialList {
  1;
  4;
  0,
  0,
  0,
  0;
Material {
 1.000000;1.000000;1.000000;1.000000;;
 0.000000;
 1.000000;1.000000;1.000000;;
 0.0; 0.0; 0.0;;
 TextureFilename {
  "fig01.ppm";
 }
 }
}
 MeshNormals {
  8;
  0.707214;0.707000;0.000011;,
  0.707214;0.707000;0.000011;,
  0.707000;-0.707214;0.000010;,
  0.707000;-0.707214;0.000010;,
  -0.707000;0.707214;-0.000010;,
  -0.707000;0.707214;-0.000010;,
  -0.707214;-0.707000;-0.000011;,
  -0.707214;-0.707000;-0.000011;;

  4;
  4;5,4,6,7;,
  4;7,6,2,3;,
  4;0,1,3,2;,
  4;1,0,4,5;;
 }
 MeshTextureCoords { 
 8;
 0.016795;0.041752;,
 0.138869;0.042729;,
 0.016783;0.085197;,
 0.138857;0.085197;,
 0.016783;0.085197;,
 0.138857;0.085197;,
 0.016795;0.041752;,
 0.138869;0.042729;;
 }
}
}
Frame frm-fcrgatt {
  FrameTransformMatrix {
1.000000,0.000000,0.000000,0.000000,
0.000000,1.000000,0.000000,0.000000,
0.000000,0.000000,1.000000,0.000000,
0.000000,0.005275,-0.040896,1.000000;;
 }
}
}
Frame frm-lights1 {
  FrameTransformMatrix {
1.000000,0.000000,0.000000,0.000000,
0.000000,1.000000,0.000000,0.000000,
0.000000,0.000000,1.000000,0.000000,
0.000041,1.265425,0.695558,1.000000;;
 }
Mesh lights1 {
 18;
 -0.244158;-0.056477;0.068682;,
 -0.244149;-0.000955;0.068682;,
 -0.244149;-0.000955;0.068682;,
 0.244139;-0.056550;0.068690;,
 0.244147;-0.001028;0.068690;,
 0.244147;-0.001028;0.068690;,
 0.214843;-0.056545;-0.066632;,
 0.214851;-0.001023;-0.066632;,
 -0.214858;-0.056481;-0.066638;,
 -0.214849;-0.000959;-0.066638;,
 -0.214849;-0.000959;-0.066638;,
 -0.214858;-0.056481;-0.066638;,
 0.214851;-0.001023;-0.066632;,
 0.214843;-0.056545;-0.066632;,
 0.244147;-0.001028;0.068690;,
 0.244139;-0.056550;0.068690;,
 -0.244149;-0.000955;0.068682;,
 -0.244158;-0.056477;0.068682;;

 5;
 4;6,8,9,7;,
 4;5,3,13,12;,
 4;2,4,12,10;,
 4;0,1,10,11;,
 4;14,16,17,15;;

 MeshMaterialList {
  1;
  5;
  0,
  0,
  0,
  0,
  0;
Material {
 1.000000;1.000000;1.000000;1.000000;;
 0.000000;
 1.000000;1.000000;1.000000;;
 0.0; 0.0; 0.0;;
 TextureFilename {
  "fig01.ppm";
 }
 }
}
 MeshNormals {
  18;
  -0.778342;0.000117;0.627840;,
  -0.608768;0.623051;0.491130;,
  -0.608768;0.623051;0.491130;,
  0.778323;-0.000117;0.627864;,
  0.608939;0.622869;0.491149;,
  0.608939;0.622869;0.491149;,
  0.627864;-0.000094;-0.778323;,
  0.528337;0.540406;-0.654845;,
  -0.627840;0.000094;-0.778342;,
  -0.528155;0.540564;-0.654861;,
  -0.528155;0.540564;-0.654861;,
  -0.627840;0.000094;-0.778342;,
  0.528337;0.540406;-0.654845;,
  0.627864;-0.000094;-0.778323;,
  0.608939;0.622869;0.491149;,
  0.778323;-0.000117;0.627864;,
  -0.608768;0.623051;0.491130;,
  -0.778342;0.000117;0.627840;;

  5;
  4;6,8,9,7;,
  4;5,3,13,12;,
  4;2,4,12,10;,
  4;0,1,10,11;,
  4;14,16,17,15;;
 }
 MeshTextureCoords { 
 18;
 0.993164;0.498047;,
 0.993164;0.544922;,
 0.836914;0.498047;,
 0.836914;0.498047;,
 0.993164;0.498047;,
 0.836914;0.544922;,
 0.836914;0.498047;,
 0.836914;0.544922;,
 0.993164;0.498047;,
 0.993164;0.544922;,
 0.836914;0.544922;,
 0.836914;0.498047;,
 0.993164;0.544922;,
 0.993164;0.498047;,
 0.836914;0.498047;,
 0.836914;0.544922;,
 0.993164;0.498047;,
 0.993164;0.544922;;
 }
}
Frame frm-tlights4 {
  FrameTransformMatrix {
1.000000,0.000000,0.000000,0.000000,
0.000000,1.000000,0.000000,0.000000,
0.000000,0.000000,1.000000,0.000000,
0.184413,0.062871,-0.003843,1.000000;;
 }
Mesh tlights4 {
 20;
 -0.041121;-0.064695;0.120265;,
 -0.069997;0.087762;0.073847;,
 -0.086178;0.087765;-0.064689;,
 -0.061347;-0.064692;-0.112569;,
 0.109359;-0.064717;0.120267;,
 0.109359;-0.064717;0.120267;,
 0.050387;0.087744;0.073849;,
 0.050387;0.087744;0.073849;,
 0.017352;0.087749;-0.064688;,
 0.017352;0.087749;-0.064688;,
 0.068065;-0.064711;-0.112567;,
 0.068065;-0.064711;-0.112567;,
 0.068065;-0.064711;-0.112567;,
 0.017352;0.087749;-0.064688;,
 0.050387;0.087744;0.073849;,
 0.109359;-0.064717;0.120267;,
 -0.061347;-0.064692;-0.112569;,
 -0.086178;0.087765;-0.064689;,
 -0.069997;0.087762;0.073847;,
 -0.041121;-0.064695;0.120265;;

 5;
 4;11,5,0,3;,
 4;4,7,1,19;,
 4;6,9,2,18;,
 4;8,10,16,17;,
 4;12,13,14,15;;

 MeshMaterialList {
  1;
  5;
  0,
  0,
  0,
  0,
  0;
Material {
 1.000000;1.000000;1.000000;1.000000;;
 0.000000;
 1.000000;1.000000;1.000000;;
 0.0; 0.0; 0.0;;
 TextureFilename {
  "fig01.ppm";
 }
 }
}
 MeshNormals {
  20;
  -0.645283;-0.111132;0.755817;,
  0.000111;0.803514;0.595286;,
  0.000130;0.806113;-0.591762;,
  -0.712109;-0.115961;-0.692426;,
  0.732890;-0.297577;0.611817;,
  0.732890;-0.297577;0.611817;,
  0.664247;0.689815;0.287979;,
  0.664247;0.689815;0.287979;,
  0.645874;0.637467;-0.420099;,
  0.645874;0.637467;-0.420099;,
  0.832105;-0.120707;-0.541323;,
  0.832105;-0.120707;-0.541323;,
  0.832105;-0.120707;-0.541323;,
  0.645874;0.637467;-0.420099;,
  0.664247;0.689815;0.287979;,
  0.732890;-0.297577;0.611817;,
  -0.712109;-0.115961;-0.692426;,
  0.000130;0.806113;-0.591762;,
  0.000111;0.803514;0.595286;,
  -0.645283;-0.111132;0.755817;;

  5;
  4;11,5,0,3;,
  4;4,7,1,19;,
  4;6,9,2,18;,
  4;8,10,16,17;,
  4;12,13,14,15;;
 }
 MeshTextureCoords { 
 20;
 0.256030;0.154671;,
 0.256030;0.154671;,
 0.256030;0.154671;,
 0.256333;0.083543;,
 0.295386;0.083555;,
 0.295406;0.154685;,
 0.295386;0.083555;,
 0.295406;0.154685;,
 0.295386;0.083555;,
 0.295406;0.154685;,
 0.295406;0.154685;,
 0.295386;0.083555;,
 0.295386;0.083555;,
 0.295406;0.154685;,
 0.256030;0.154671;,
 0.256333;0.083543;,
 0.256030;0.154671;,
 0.256333;0.083543;,
 0.256333;0.083543;,
 0.256333;0.083543;;
 }
}
}
Frame frm-tlights3 {
  FrameTransformMatrix {
1.000000,0.000000,0.000000,0.000000,
0.000000,1.000000,0.000000,0.000000,
0.000000,0.000000,1.000000,0.000000,
0.000241,-0.622454,-0.003846,1.000000;;
 }
Mesh tlights3 {
 16;
 -0.005261;0.620653;0.120265;,
 -0.004167;0.773106;0.073848;,
 -0.003565;0.773106;-0.064688;,
 -0.004508;0.620653;-0.112568;,
 0.145219;0.620631;0.120268;,
 0.116217;0.773088;0.073850;,
 0.099965;0.773091;-0.064686;,
 0.124905;0.620634;-0.112566;,
 0.124905;0.620634;-0.112566;,
 0.099965;0.773091;-0.064686;,
 0.116217;0.773088;0.073850;,
 0.145219;0.620631;0.120268;,
 -0.004508;0.620653;-0.112568;,
 -0.003565;0.773106;-0.064688;,
 -0.004167;0.773106;0.073848;,
 -0.005261;0.620653;0.120265;;

 4;
 4;7,4,0,3;,
 4;11,5,1,15;,
 4;10,6,2,14;,
 4;9,8,12,13;;

 MeshMaterialList {
  1;
  4;
  0,
  0,
  0,
  0;
Material {
 1.000000;1.000000;1.000000;1.000000;;
 0.000000;
 1.000000;1.000000;1.000000;;
 0.0; 0.0; 0.0;;
 TextureFilename {
  "fig01.ppm";
 }
 }
}
 MeshNormals {
  16;
  -0.000101;-0.595286;0.803514;,
  0.000111;0.803514;0.595286;,
  0.000130;0.806113;-0.591762;,
  -0.000076;-0.591762;-0.806113;,
  -0.000101;-0.595286;0.803514;,
  0.000111;0.803514;0.595286;,
  0.000130;0.806113;-0.591762;,
  -0.000076;-0.591762;-0.806113;,
  -0.000076;-0.591762;-0.806113;,
  0.000130;0.806113;-0.591762;,
  0.000111;0.803514;0.595286;,
  -0.000101;-0.595286;0.803514;,
  -0.000076;-0.591762;-0.806113;,
  0.000130;0.806113;-0.591762;,
  0.000111;0.803514;0.595286;,
  -0.000101;-0.595286;0.803514;;

  4;
  4;7,4,0,3;,
  4;11,5,1,15;,
  4;10,6,2,14;,
  4;9,8,12,13;;
 }
 MeshTextureCoords { 
 16;
 0.213943;0.152417;,
 0.253065;0.088021;,
 0.213943;0.152417;,
 0.214222;0.088232;,
 0.253160;0.152417;,
 0.214222;0.088232;,
 0.253160;0.152417;,
 0.253065;0.088021;,
 0.253160;0.152417;,
 0.253065;0.088021;,
 0.253065;0.088021;,
 0.213943;0.152417;,
 0.213943;0.152417;,
 0.214222;0.088232;,
 0.214222;0.088232;,
 0.253160;0.152417;;
 }
}
}
Frame frm-tlights1 {
  FrameTransformMatrix {
1.000000,0.000000,0.000000,0.000000,
0.000000,1.000000,0.000000,0.000000,
0.000000,0.000000,1.000000,0.000000,
0.001097,-0.622454,-0.003846,1.000000;;
 }
Mesh tlights1 {
 19;
 -0.144394;0.620677;0.120263;,
 -0.115468;0.773125;0.073846;,
 -0.099282;0.773122;-0.064689;,
 -0.124161;0.620673;-0.112570;,
 -0.294873;0.620702;0.120261;,
 -0.294873;0.620702;0.120261;,
 -0.235851;0.773145;0.073844;,
 -0.202812;0.773140;-0.064691;,
 -0.202812;0.773140;-0.064691;,
 -0.253573;0.620695;-0.112572;,
 -0.253573;0.620695;-0.112572;,
 -0.253573;0.620695;-0.112572;,
 -0.202812;0.773140;-0.064691;,
 -0.235851;0.773145;0.073844;,
 -0.294873;0.620702;0.120261;,
 -0.124161;0.620673;-0.112570;,
 -0.099282;0.773122;-0.064689;,
 -0.115468;0.773125;0.073846;,
 -0.144394;0.620677;0.120263;;

 5;
 4;3,0,5,10;,
 4;18,1,6,4;,
 4;17,2,8,13;,
 4;16,15,9,7;,
 4;14,13,12,11;;

 MeshMaterialList {
  1;
  5;
  0,
  0,
  0,
  0,
  0;
Material {
 1.000000;1.000000;1.000000;1.000000;;
 0.000000;
 1.000000;1.000000;1.000000;;
 0.0; 0.0; 0.0;;
 TextureFilename {
  "fig01.ppm";
 }
 }
}
 MeshNormals {
  19;
  0.645225;-0.111338;0.755836;,
  0.000127;0.803514;0.595286;,
  0.000145;0.806113;-0.591762;,
  0.712093;-0.116188;-0.692405;,
  -0.733003;-0.297344;0.611795;,
  -0.733003;-0.297344;0.611795;,
  -0.664036;0.690026;0.287959;,
  -0.645658;0.637673;-0.420119;,
  -0.645658;0.637673;-0.420119;,
  -0.832128;-0.120442;-0.541348;,
  -0.832128;-0.120442;-0.541348;,
  -0.832128;-0.120442;-0.541348;,
  -0.645658;0.637673;-0.420119;,
  -0.664036;0.690026;0.287959;,
  -0.733003;-0.297344;0.611795;,
  0.712093;-0.116188;-0.692405;,
  0.000145;0.806113;-0.591762;,
  0.000127;0.803514;0.595286;,
  0.645225;-0.111338;0.755836;;

  5;
  4;3,0,5,10;,
  4;18,1,6,4;,
  4;17,2,8,13;,
  4;16,15,9,7;,
  4;14,13,12,11;;
 }
 MeshTextureCoords { 
 19;
 0.256250;0.088281;,
 0.256250;0.088281;,
 0.293750;0.154688;,
 0.256250;0.154688;,
 0.293750;0.154688;,
 0.294531;0.087500;,
 0.294531;0.087500;,
 0.256250;0.088281;,
 0.256250;0.154688;,
 0.256250;0.154688;,
 0.293750;0.154688;,
 0.293750;0.154688;,
 0.294531;0.087500;,
 0.256250;0.088281;,
 0.256250;0.154688;,
 0.293750;0.154688;,
 0.294531;0.087500;,
 0.294531;0.087500;,
 0.256250;0.154688;;
 }
}
}
Frame frm-tlights2 {
  FrameTransformMatrix {
1.000000,0.000000,0.000000,0.000000,
0.000000,1.000000,0.000000,0.000000,
0.000000,0.000000,1.000000,0.000000,
-0.000439,-0.622454,-0.003846,1.000000;;
 }
Mesh tlights2 {
 16;
 0.005455;0.620652;0.120266;,
 0.004411;0.773105;0.073848;,
 0.003814;0.773105;-0.064688;,
 0.004709;0.620652;-0.112568;,
 -0.145025;0.620677;0.120263;,
 -0.115972;0.773125;0.073846;,
 -0.099716;0.773122;-0.064689;,
 -0.124703;0.620674;-0.112570;,
 -0.124703;0.620674;-0.112570;,
 -0.099716;0.773122;-0.064689;,
 -0.115972;0.773125;0.073846;,
 -0.145025;0.620677;0.120263;,
 0.004709;0.620652;-0.112568;,
 0.003814;0.773105;-0.064688;,
 0.004411;0.773105;0.073848;,
 0.005455;0.620652;0.120266;;

 4;
 4;3,0,4,7;,
 4;15,1,5,11;,
 4;14,2,6,10;,
 4;13,12,8,9;;

 MeshMaterialList {
  1;
  4;
  0,
  0,
  0,
  0;
Material {
 1.000000;1.000000;1.000000;1.000000;;
 0.000000;
 1.000000;1.000000;1.000000;;
 0.0; 0.0; 0.0;;
 TextureFilename {
  "fig01.ppm";
 }
 }
}
 MeshNormals {
  16;
  -0.000113;-0.595286;0.803514;,
  0.000127;0.803514;0.595286;,
  0.000145;0.806113;-0.591762;,
  -0.000088;-0.591762;-0.806113;,
  -0.000113;-0.595286;0.803514;,
  0.000127;0.803514;0.595286;,
  0.000145;0.806113;-0.591762;,
  -0.000088;-0.591762;-0.806113;,
  -0.000088;-0.591762;-0.806113;,
  0.000145;0.806113;-0.591762;,
  0.000127;0.803514;0.595286;,
  -0.000113;-0.595286;0.803514;,
  -0.000088;-0.591762;-0.806113;,
  0.000145;0.806113;-0.591762;,
  0.000127;0.803514;0.595286;,
  -0.000113;-0.595286;0.803514;;

  4;
  4;3,0,4,7;,
  4;15,1,5,11;,
  4;14,2,6,10;,
  4;13,12,8,9;;
 }
 MeshTextureCoords { 
 16;
 0.215123;0.153460;,
 0.253348;0.087054;,
 0.215123;0.153460;,
 0.215402;0.087054;,
 0.253348;0.153460;,
 0.215402;0.087054;,
 0.253348;0.153460;,
 0.253348;0.087054;,
 0.253348;0.153460;,
 0.253348;0.087054;,
 0.253348;0.087054;,
 0.215123;0.153460;,
 0.215123;0.153460;,
 0.215402;0.087054;,
 0.215402;0.087054;,
 0.253348;0.153460;;
 }
}
}
}
}
Frame frm-thrust0 {
  FrameTransformMatrix {
0.000000,0.000000,1.000000,0.000000,
-0.002400,0.999997,0.000000,0.000000,
-0.999997,-0.002400,0.000000,0.000000,
-0.002000,-0.003045,0.287560,1.000000;;
 }
Frame frm-lengine {
  FrameTransformMatrix {
1.000000,0.000000,0.000000,0.000000,
0.000000,1.000000,0.000000,0.000000,
0.000000,0.000000,1.000000,0.000000,
-0.000451,-0.001864,0.992524,1.000000;;
 }
Mesh lengine {
 51;
 -0.474046;0.121730;0.247934;,
 -0.474046;0.121730;0.247934;,
 0.501336;-0.162197;0.224238;,
 0.501336;-0.162197;0.224238;,
 0.501336;0.294318;-0.023697;,
 0.501336;0.294318;-0.023697;,
 0.298842;0.399886;-0.000001;,
 0.298842;0.399886;-0.000001;,
 0.298842;0.399886;-0.000001;,
 -0.474046;0.243468;-0.000001;,
 -0.474046;0.243468;-0.000001;,
 0.501336;0.142146;0.224238;,
 0.501336;0.142146;0.224238;,
 0.501336;0.142146;-0.271632;,
 0.501336;0.142146;-0.271632;,
 0.298842;0.199939;-0.288297;,
 0.298842;0.199939;-0.288297;,
 -0.474046;0.121730;-0.247935;,
 -0.474046;0.121730;-0.247935;,
 0.501336;-0.314369;-0.023697;,
 0.501336;-0.314369;-0.023697;,
 -0.474046;-0.121745;0.247934;,
 -0.474046;-0.121745;0.247934;,
 0.501336;-0.162197;-0.271632;,
 0.501336;-0.162197;-0.271632;,
 0.298842;-0.199954;-0.288297;,
 0.298842;-0.199954;-0.288297;,
 -0.474046;-0.121745;-0.247935;,
 -0.474046;-0.121745;-0.247935;,
 0.298842;-0.399900;-0.000000;,
 0.298842;-0.399900;-0.000000;,
 -0.474046;-0.243482;-0.000000;,
 -0.474046;-0.243482;-0.000000;,
 -0.474046;-0.243482;-0.000000;,
 0.298842;-0.399900;-0.000000;,
 -0.474046;-0.121745;-0.247935;,
 0.298842;-0.199954;-0.288297;,
 0.501336;-0.162197;-0.271632;,
 -0.474046;-0.121745;0.247934;,
 0.501336;-0.314369;-0.023697;,
 -0.474046;0.121730;-0.247935;,
 0.298842;0.199939;-0.288297;,
 0.501336;0.142146;-0.271632;,
 0.501336;0.142146;0.224238;,
 0.298842;-0.199954;0.288296;,
 -0.474046;0.243468;-0.000001;,
 0.298842;0.399886;-0.000001;,
 0.501336;0.294318;-0.023697;,
 0.298842;0.199939;0.288296;,
 0.501336;-0.162197;0.224238;,
 -0.474046;0.121730;0.247934;;

 14;
 4;48,8,10,1;,
 4;24,20,30,26;,
 4;5,14,16,7;,
 4;6,15,18,9;,
 4;44,48,0,22;,
 4;25,29,32,28;,
 4;19,3,44,34;,
 4;12,4,46,48;,
 4;13,23,36,41;,
 4;41,36,27,17;,
 4;2,11,48,44;,
 4;34,44,21,31;,
 6;39,37,42,47,43,49;,
 6;38,50,45,40,35,33;;

 MeshMaterialList {
  1;
  14;
  0,
  0,
  0,
  0,
  0,
  0,
  0,
  0,
  0,
  0,
  0,
  0,
  0,
  0;
Material {
 1.000000;1.000000;1.000000;1.000000;;
 0.000000;
 1.000000;1.000000;1.000000;;
 0.0; 0.0; 0.0;;
 TextureFilename {
  "fig01.ppm";
 }
 }
}
 MeshNormals {
  51;
  -0.524820;0.426146;0.736861;,
  -0.524820;0.426146;0.736861;,
  0.680721;-0.351062;0.642942;,
  0.680721;-0.351062;0.642942;,
  0.743012;0.669209;-0.009559;,
  0.743012;0.669209;-0.009559;,
  0.134735;0.990879;-0.002210;,
  0.134735;0.990879;-0.002210;,
  0.134735;0.990879;-0.002210;,
  -0.603312;0.797505;-0.000000;,
  -0.603312;0.797505;-0.000000;,
  0.701528;0.336646;0.628115;,
  0.701528;0.336646;0.628115;,
  0.597769;0.379156;-0.706338;,
  0.597769;0.379156;-0.706338;,
  0.058452;0.486100;-0.871946;,
  0.058452;0.486100;-0.871946;,
  -0.524820;0.426145;-0.736861;,
  -0.524820;0.426145;-0.736861;,
  0.705467;-0.708692;-0.008406;,
  0.705467;-0.708692;-0.008406;,
  -0.576985;-0.408894;0.707031;,
  -0.576985;-0.408894;0.707031;,
  0.570792;-0.392543;-0.721184;,
  0.570792;-0.392543;-0.721184;,
  0.036557;-0.489067;-0.871480;,
  0.036557;-0.489067;-0.871480;,
  -0.524820;-0.426145;-0.736861;,
  -0.524820;-0.426145;-0.736861;,
  0.091796;-0.995777;-0.001610;,
  0.091796;-0.995777;-0.001610;,
  -0.642535;-0.763652;0.063122;,
  -0.642535;-0.763652;0.063122;,
  -0.642535;-0.763652;0.063122;,
  0.091796;-0.995777;-0.001610;,
  -0.524820;-0.426145;-0.736861;,
  0.036557;-0.489067;-0.871480;,
  0.570792;-0.392543;-0.721184;,
  -0.576985;-0.408894;0.707031;,
  0.705467;-0.708692;-0.008406;,
  -0.524820;0.426145;-0.736861;,
  0.058452;0.486100;-0.871946;,
  0.597769;0.379156;-0.706338;,
  0.701528;0.336646;0.628115;,
  0.133390;-0.485796;0.863834;,
  -0.603312;0.797505;-0.000000;,
  0.134735;0.990879;-0.002210;,
  0.743012;0.669209;-0.009559;,
  0.153465;0.481179;0.863085;,
  0.680721;-0.351062;0.642942;,
  -0.524820;0.426146;0.736861;;

  14;
  4;48,8,10,1;,
  4;24,20,30,26;,
  4;5,14,16,7;,
  4;6,15,18,9;,
  4;44,48,0,22;,
  4;25,29,32,28;,
  4;19,3,44,34;,
  4;12,4,46,48;,
  4;13,23,36,41;,
  4;41,36,27,17;,
  4;2,11,48,44;,
  4;34,44,21,31;,
  6;39,37,42,47,43,49;,
  6;38,50,45,40,35,33;;
 }
 MeshTextureCoords { 
 51;
 0.422852;0.240234;,
 0.422852;0.240234;,
 0.372070;0.005859;,
 0.372070;0.005859;,
 0.473633;0.005859;,
 0.425070;0.006354;,
 0.434570;0.052734;,
 0.434570;0.052734;,
 0.493164;0.052734;,
 0.422852;0.240234;,
 0.469727;0.240234;,
 0.425070;0.006354;,
 0.425070;0.006354;,
 0.372070;0.005859;,
 0.473633;0.005859;,
 0.493164;0.052734;,
 0.493164;0.052734;,
 0.379883;0.240234;,
 0.469727;0.240234;,
 0.325195;0.005859;,
 0.372070;0.005859;,
 0.379883;0.240234;,
 0.379883;0.240234;,
 0.425070;0.006354;,
 0.325195;0.005859;,
 0.309570;0.052734;,
 0.309570;0.052734;,
 0.422852;0.240234;,
 0.336914;0.240234;,
 0.364258;0.052734;,
 0.364258;0.052734;,
 0.336914;0.240234;,
 0.379883;0.240234;,
 0.266602;0.335289;,
 0.309570;0.052734;,
 0.293042;0.311329;,
 0.434570;0.052734;,
 0.505935;0.810618;,
 0.240161;0.311329;,
 0.534306;0.847026;,
 0.293042;0.239452;,
 0.364258;0.052734;,
 0.507150;0.744306;,
 0.564149;0.743377;,
 0.364258;0.052734;,
 0.266602;0.215493;,
 0.493164;0.052734;,
 0.535165;0.711071;,
 0.434570;0.052734;,
 0.565208;0.810595;,
 0.240161;0.239452;;
 }
}
}
Frame frm-rengine {
  FrameTransformMatrix {
0.999988,0.000000,-0.004800,0.000000,
-0.000009,0.999998,-0.001800,0.000000,
0.004800,0.001800,0.999987,0.000000,
-0.002261,0.002922,-0.988518,1.000000;;
 }
Mesh rengine {
 51;
 -0.474046;0.121730;-0.247934;,
 -0.474046;0.121730;-0.247934;,
 0.501336;-0.162197;-0.224238;,
 0.501336;-0.162197;-0.224238;,
 0.501336;0.294318;0.023697;,
 0.501336;0.294318;0.023697;,
 0.298842;0.399886;0.000001;,
 0.298842;0.399886;0.000001;,
 0.298842;0.399886;0.000001;,
 -0.474046;0.243468;0.000001;,
 -0.474046;0.243468;0.000001;,
 0.501336;0.142146;-0.224238;,
 0.501336;0.142146;-0.224238;,
 0.501336;0.142146;0.271632;,
 0.501336;0.142146;0.271632;,
 0.298842;0.199939;0.288297;,
 0.298842;0.199939;0.288297;,
 -0.474046;0.121730;0.247935;,
 -0.474046;0.121730;0.247935;,
 0.501336;-0.314369;0.023697;,
 0.501336;-0.314369;0.023697;,
 -0.474046;-0.121745;-0.247934;,
 -0.474046;-0.121745;-0.247934;,
 0.501336;-0.162197;0.271632;,
 0.501336;-0.162197;0.271632;,
 0.298842;-0.199954;0.288297;,
 0.298842;-0.199954;0.288297;,
 -0.474046;-0.121745;0.247935;,
 -0.474046;-0.121745;0.247935;,
 0.298842;-0.399900;0.000001;,
 0.298842;-0.399900;0.000001;,
 -0.474046;-0.243482;0.000001;,
 -0.474046;-0.243482;0.000001;,
 -0.474046;-0.243482;0.000001;,
 0.298842;-0.399900;0.000001;,
 -0.474046;-0.121745;0.247935;,
 0.298842;-0.199954;0.288297;,
 0.501336;-0.162197;0.271632;,
 -0.474046;-0.121745;-0.247934;,
 0.501336;-0.314369;0.023697;,
 -0.474046;0.121730;0.247935;,
 0.298842;0.199939;0.288297;,
 0.501336;0.142146;0.271632;,
 0.501336;0.142146;-0.224238;,
 0.298842;-0.199954;-0.288296;,
 -0.474046;0.243468;0.000001;,
 0.298842;0.399886;0.000001;,
 0.501336;0.294318;0.023697;,
 0.298842;0.199939;-0.288296;,
 0.501336;-0.162197;-0.224238;,
 -0.474046;0.121730;-0.247934;;

 14;
 4;1,10,8,48;,
 4;26,30,20,24;,
 4;7,16,14,5;,
 4;9,18,15,6;,
 4;22,0,48,44;,
 4;28,32,29,25;,
 4;34,44,3,19;,
 4;48,46,4,12;,
 4;41,36,23,13;,
 4;17,27,36,41;,
 4;44,48,11,2;,
 4;31,21,44,34;,
 6;49,43,47,42,37,39;,
 6;33,35,40,45,50,38;;

 MeshMaterialList {
  1;
  14;
  0,
  0,
  0,
  0,
  0,
  0,
  0,
  0,
  0,
  0,
  0,
  0,
  0,
  0;
Material {
 1.000000;1.000000;1.000000;1.000000;;
 0.000000;
 1.000000;1.000000;1.000000;;
 0.0; 0.0; 0.0;;
 TextureFilename {
  "fig01.ppm";
 }
 }
}
 MeshNormals {
  51;
  -0.524820;0.426146;-0.736861;,
  -0.524820;0.426146;-0.736861;,
  0.680721;-0.351062;-0.642942;,
  0.680721;-0.351062;-0.642942;,
  0.743012;0.669209;0.009559;,
  0.743012;0.669209;0.009559;,
  0.134735;0.990879;0.002210;,
  0.134735;0.990879;0.002210;,
  0.134735;0.990879;0.002210;,
  -0.603312;0.797505;0.000000;,
  -0.603312;0.797505;0.000000;,
  0.701528;0.336646;-0.628115;,
  0.701528;0.336646;-0.628115;,
  0.597769;0.379156;0.706338;,
  0.597769;0.379156;0.706338;,
  0.058452;0.486100;0.871946;,
  0.058452;0.486100;0.871946;,
  -0.524820;0.426145;0.736861;,
  -0.524820;0.426145;0.736861;,
  0.705467;-0.708692;0.008406;,
  0.705467;-0.708692;0.008406;,
  -0.576985;-0.408894;-0.707031;,
  -0.576985;-0.408894;-0.707031;,
  0.570792;-0.392543;0.721184;,
  0.570792;-0.392543;0.721184;,
  0.036557;-0.489067;0.871480;,
  0.036557;-0.489067;0.871480;,
  -0.524820;-0.426145;0.736861;,
  -0.524820;-0.426145;0.736861;,
  0.091796;-0.995777;0.001610;,
  0.091796;-0.995777;0.001610;,
  -0.642535;-0.763652;-0.063122;,
  -0.642535;-0.763652;-0.063122;,
  -0.642535;-0.763652;-0.063122;,
  0.091796;-0.995777;0.001610;,
  -0.524820;-0.426145;0.736861;,
  0.036557;-0.489067;0.871480;,
  0.570792;-0.392543;0.721184;,
  -0.576985;-0.408894;-0.707031;,
  0.705467;-0.708692;0.008406;,
  -0.524820;0.426145;0.736861;,
  0.058452;0.486100;0.871946;,
  0.597769;0.379156;0.706338;,
  0.701528;0.336646;-0.628115;,
  0.133390;-0.485796;-0.863834;,
  -0.603312;0.797505;0.000000;,
  0.134735;0.990879;0.002210;,
  0.743012;0.669209;0.009559;,
  0.153465;0.481179;-0.863085;,
  0.680721;-0.351062;-0.642942;,
  -0.524820;0.426146;-0.736861;;

  14;
  4;1,10,8,48;,
  4;26,30,20,24;,
  4;7,16,14,5;,
  4;9,18,15,6;,
  4;22,0,48,44;,
  4;28,32,29,25;,
  4;34,44,3,19;,
  4;48,46,4,12;,
  4;41,36,23,13;,
  4;17,27,36,41;,
  4;44,48,11,2;,
  4;31,21,44,34;,
  6;49,43,47,42,37,39;,
  6;33,35,40,45,50,38;;
 }
 MeshTextureCoords { 
 51;
 0.422852;0.240234;,
 0.422852;0.240234;,
 0.372070;0.005859;,
 0.372070;0.005859;,
 0.473633;0.005859;,
 0.425070;0.006354;,
 0.434570;0.052734;,
 0.434570;0.052734;,
 0.493164;0.052734;,
 0.422852;0.240234;,
 0.469727;0.240234;,
 0.425070;0.006354;,
 0.425070;0.006354;,
 0.372070;0.005859;,
 0.473633;0.005859;,
 0.493164;0.052734;,
 0.493164;0.052734;,
 0.379883;0.240234;,
 0.469727;0.240234;,
 0.325195;0.005859;,
 0.372070;0.005859;,
 0.379883;0.240234;,
 0.379883;0.240234;,
 0.425070;0.006354;,
 0.325195;0.005859;,
 0.309570;0.052734;,
 0.309570;0.052734;,
 0.422852;0.240234;,
 0.336914;0.240234;,
 0.364258;0.052734;,
 0.364258;0.052734;,
 0.336914;0.240234;,
 0.379883;0.240234;,
 0.266602;0.335289;,
 0.309570;0.052734;,
 0.293042;0.311329;,
 0.434570;0.052734;,
 0.505812;0.805591;,
 0.240161;0.311329;,
 0.537205;0.843566;,
 0.293042;0.239452;,
 0.364258;0.052734;,
 0.506197;0.740319;,
 0.565107;0.742737;,
 0.364258;0.052734;,
 0.266602;0.215493;,
 0.493164;0.052734;,
 0.540514;0.714173;,
 0.434570;0.052734;,
 0.565380;0.811818;,
 0.240161;0.239452;;
 }
}
}
}
Frame frm-tractr0 {
  FrameTransformMatrix {
1.000000,0.000000,0.000000,0.000000,
0.000000,1.000000,0.000000,0.000000,
0.000000,0.000000,1.000000,0.000000,
0.000000,0.000000,0.000000,1.000000;;
 }
Frame frm-ltractr1 {
  FrameTransformMatrix {
1.000000,0.000000,0.000000,0.000000,
0.000000,1.000000,0.000000,0.000000,
0.000000,0.000000,1.000000,0.000000,
1.580886,0.000064,0.211678,1.000000;;
 }
Mesh ltractr1 {
 15;
 0.283699;-0.041547;0.041565;,
 0.283698;-0.041547;-0.041574;,
 0.283698;-0.041547;-0.041574;,
 0.283692;0.041592;0.041565;,
 0.283692;0.041592;0.041565;,
 0.283691;0.041592;-0.041574;,
 0.283691;0.041592;-0.041574;,
 0.283691;0.041592;-0.041574;,
 0.283692;0.041592;0.041565;,
 0.283698;-0.041547;-0.041574;,
 0.283699;-0.041547;0.041565;,
 -0.313440;0.041545;-0.041565;,
 -0.313439;0.041545;0.041574;,
 -0.313433;-0.041595;-0.041565;,
 -0.313432;-0.041595;0.041574;;

 5;
 4;4,6,11,12;,
 4;11,5,2,13;,
 4;7,3,0,1;,
 4;8,12,14,10;,
 4;14,13,9,10;;

 MeshMaterialList {
  1;
  5;
  0,
  0,
  0,
  0,
  0;
Material {
 1.000000;1.000000;1.000000;1.000000;;
 0.000000;
 1.000000;1.000000;1.000000;;
 0.0; 0.0; 0.0;;
 TextureFilename {
  "fig01.ppm";
 }
 }
}
 MeshNormals {
  15;
  0.577405;-0.577304;0.577342;,
  0.577388;-0.577304;-0.577359;,
  0.577388;-0.577304;-0.577359;,
  0.577312;0.577397;0.577342;,
  0.577312;0.577397;0.577342;,
  0.577295;0.577397;-0.577359;,
  0.577295;0.577397;-0.577359;,
  0.577295;0.577397;-0.577359;,
  0.577312;0.577397;0.577342;,
  0.577388;-0.577304;-0.577359;,
  0.577405;-0.577304;0.577342;,
  -0.000067;0.707107;-0.707107;,
  -0.000046;0.707107;0.707107;,
  0.000046;-0.707107;-0.707107;,
  0.000067;-0.707107;0.707107;;

  5;
  4;4,6,11,12;,
  4;11,5,2,13;,
  4;7,3,0,1;,
  4;8,12,14,10;,
  4;14,13,9,10;;
 }
 MeshTextureCoords { 
 15;
 0.813477;0.784580;,
 0.813475;0.654697;,
 0.138408;0.082112;,
 0.687489;0.784180;,
 0.138408;0.082112;,
 0.138407;0.042927;,
 0.138407;0.042927;,
 0.687487;0.655273;,
 0.138408;0.082112;,
 0.138408;0.082112;,
 0.138407;0.042927;,
 0.017611;0.042949;,
 0.017612;0.082134;,
 0.017612;0.082134;,
 0.017611;0.042949;;
 }
}
Frame frm-lttractr {
  FrameTransformMatrix {
1.000000,0.000000,0.000000,0.000000,
0.000000,1.000000,0.000000,0.000000,
0.000000,0.000000,1.000000,0.000000,
0.139666,0.081647,-0.006329,1.000000;;
 }
Mesh lttractr {
 24;
 0.142456;-0.040893;-0.338173;,
 0.142456;-0.040893;-0.338173;,
 0.216131;0.040638;-0.407488;,
 0.216131;0.040638;-0.407488;,
 -0.142663;-0.040730;-0.338368;,
 -0.142663;-0.040730;-0.338368;,
 -0.215868;0.040884;-0.407603;,
 -0.215868;0.040884;-0.407603;,
 0.142615;-0.040779;0.338354;,
 0.142615;-0.040779;0.338354;,
 0.215913;0.040625;0.407604;,
 0.215913;0.040625;0.407604;,
 -0.142504;-0.040616;0.338159;,
 -0.142504;-0.040616;0.338159;,
 -0.216085;0.040871;0.407489;,
 -0.216085;0.040871;0.407489;,
 -0.216085;0.040871;0.407489;,
 -0.142504;-0.040616;0.338159;,
 0.215913;0.040625;0.407604;,
 0.142615;-0.040779;0.338354;,
 -0.215868;0.040884;-0.407603;,
 -0.142663;-0.040730;-0.338368;,
 0.216131;0.040638;-0.407488;,
 0.142456;-0.040893;-0.338173;;

 6;
 4;5,7,3,1;,
 4;6,15,11,2;,
 4;14,13,9,10;,
 4;12,4,0,8;,
 4;23,22,18,19;,
 4;17,16,20,21;;

 MeshMaterialList {
  1;
  6;
  0,
  0,
  0,
  0,
  0,
  0;
Material {
 0.866667;0.866667;0.866667;1.000000;;
 0.000000;
 1.000000;1.000000;1.000000;;
 0.0; 0.0; 0.0;;
 TextureFilename {
  "fig01.ppm";
 }
 }
}
 MeshNormals {
  24;
  0.217061;-0.868127;-0.446364;,
  0.217061;-0.868127;-0.446364;,
  0.668992;-0.285908;-0.686081;,
  0.668992;-0.285908;-0.686081;,
  -0.344204;-0.922177;-0.176390;,
  -0.344204;-0.922177;-0.176390;,
  -0.669589;-0.283626;-0.686445;,
  -0.669589;-0.283626;-0.686445;,
  0.343128;-0.922569;0.176437;,
  0.343128;-0.922569;0.176437;,
  0.669031;-0.285593;0.686174;,
  0.669031;-0.285593;0.686174;,
  -0.217786;-0.868122;0.446019;,
  -0.217786;-0.868122;0.446019;,
  -0.669346;-0.285829;0.685768;,
  -0.669346;-0.285829;0.685768;,
  -0.669346;-0.285829;0.685768;,
  -0.217786;-0.868122;0.446019;,
  0.669031;-0.285593;0.686174;,
  0.343128;-0.922569;0.176437;,
  -0.669589;-0.283626;-0.686445;,
  -0.344204;-0.922177;-0.176390;,
  0.668992;-0.285908;-0.686081;,
  0.217061;-0.868127;-0.446364;;

  6;
  4;5,7,3,1;,
  4;6,15,11,2;,
  4;14,13,9,10;,
  4;12,4,0,8;,
  4;23,22,18,19;,
  4;17,16,20,21;;
 }
 MeshTextureCoords { 
 24;
 0.005691;0.133235;,
 0.002448;0.117251;,
 0.006095;0.453430;,
 0.015443;0.091819;,
 0.090585;0.133484;,
 0.093695;0.117298;,
 0.091477;0.454655;,
 0.082072;0.091246;,
 0.006095;0.453430;,
 0.082072;0.091246;,
 0.093695;0.117298;,
 0.005691;0.133235;,
 0.091477;0.454655;,
 0.015443;0.091819;,
 0.002448;0.117251;,
 0.090585;0.133484;,
 0.082072;0.091246;,
 0.093695;0.117298;,
 0.082072;0.091246;,
 0.093695;0.117298;,
 0.015443;0.091819;,
 0.002448;0.117251;,
 0.015443;0.091819;,
 0.002448;0.117251;;
 }
}
Frame frm-ltcrgatt {
  FrameTransformMatrix {
1.000000,0.000000,0.000000,0.000000,
0.000000,1.000000,0.000000,0.000000,
0.000000,0.000000,1.000000,0.000000,
0.000921,0.040612,0.005982,1.000000;;
 }
}
}
Frame frm-SSl {
  FrameTransformMatrix {
1.000000,0.000000,0.000000,0.000000,
0.000000,1.000000,0.000000,0.000000,
0.000000,0.000000,1.000000,0.000000,
0.281197,-0.007521,0.001140,1.000000;;
 }
Mesh SSl {
 4;
 0.000001;0.000021;0.000022;,
 0.000001;0.000021;-0.000022;,
 0.000022;0.000000;-0.000000;,
 0.000001;-0.000015;-0.000000;;

 4;
 3;3,1,2;,
 3;1,0,2;,
 3;0,3,2;,
 3;0,1,3;;

 MeshMaterialList {
  1;
  4;
  0,
  0,
  0,
  0;
Material {
 1.000000;0.000000;0.000000;0.500000;;
 0.000000;
 1.000000;0.000000;0.000000;;
 0.0; 0.0; 0.0;;
 }
}
 MeshNormals {
  4;
  0.000000;0.000000;0.000000;,
  0.000000;0.000000;0.000000;,
  0.000000;0.000000;0.000000;,
  0.000000;0.000000;0.000000;;

  4;
  3;3,1,2;,
  3;1,0,2;,
  3;0,3,2;,
  3;0,1,3;;
 }
 MeshTextureCoords { 
 4;
 0.000000;0.000000;,
 0.000000;0.000000;,
 0.000000;0.000000;,
 0.000000;0.000000;;
 }
}
}
Frame frm-lbtractr {
  FrameTransformMatrix {
1.000000,0.000000,0.000000,0.000000,
0.000000,1.000000,0.000000,0.000000,
0.000000,0.000000,1.000000,0.000000,
0.139666,-0.081776,-0.006329,1.000000;;
 }
Mesh lbtractr {
 22;
 0.142481;0.040917;-0.338159;,
 0.142481;0.040917;-0.338159;,
 0.216176;-0.040600;-0.407467;,
 0.216176;-0.040600;-0.407467;,
 -0.142638;0.040705;-0.338381;,
 -0.142638;0.040705;-0.338381;,
 -0.215822;-0.040922;-0.407624;,
 -0.215822;-0.040922;-0.407624;,
 0.142575;0.040804;0.338368;,
 0.142575;0.040804;0.338368;,
 0.215880;-0.040587;0.407625;,
 -0.142544;0.040592;0.338146;,
 -0.142544;0.040592;0.338146;,
 -0.216118;-0.040909;0.407468;,
 -0.216118;-0.040909;0.407468;,
 -0.142544;0.040592;0.338146;,
 0.215880;-0.040587;0.407625;,
 0.142575;0.040804;0.338368;,
 -0.215822;-0.040922;-0.407624;,
 -0.142638;0.040705;-0.338381;,
 0.216176;-0.040600;-0.407467;,
 0.142481;0.040917;-0.338159;;

 6;
 4;1,3,7,5;,
 4;2,10,13,6;,
 4;16,9,12,14;,
 4;8,0,4,11;,
 4;17,16,20,21;,
 4;19,18,14,15;;

 MeshMaterialList {
  1;
  6;
  0,
  0,
  0,
  0,
  0,
  0;
Material {
 0.866667;0.866667;0.866667;1.000000;;
 0.000000;
 1.000000;1.000000;1.000000;;
 0.0; 0.0; 0.0;;
 TextureFilename {
  "fig01.ppm";
 }
 }
}
 MeshNormals {
  22;
  0.216954;0.868164;-0.446343;,
  0.216954;0.868164;-0.446343;,
  0.669008;0.286023;-0.686017;,
  0.669008;0.286023;-0.686017;,
  -0.344347;0.922117;-0.176423;,
  -0.344347;0.922117;-0.176423;,
  -0.669572;0.283509;-0.686509;,
  -0.669572;0.283509;-0.686509;,
  0.342951;0.922628;0.176470;,
  0.342951;0.922628;0.176470;,
  0.668916;0.285709;0.686238;,
  -0.217979;0.868085;0.445998;,
  -0.217979;0.868085;0.445998;,
  -0.669461;0.285713;0.685704;,
  -0.669461;0.285713;0.685704;,
  -0.217979;0.868085;0.445998;,
  0.668916;0.285709;0.686238;,
  0.342951;0.922628;0.176470;,
  -0.669572;0.283509;-0.686509;,
  -0.344347;0.922117;-0.176423;,
  0.669008;0.286023;-0.686017;,
  0.216954;0.868164;-0.446343;;

  6;
  4;1,3,7,5;,
  4;2,10,13,6;,
  4;16,9,12,14;,
  4;8,0,4,11;,
  4;17,16,20,21;,
  4;19,18,14,15;;
 }
 MeshTextureCoords { 
 22;
 0.006849;0.452885;,
 0.015296;0.091583;,
 0.006823;0.136141;,
 0.004107;0.115923;,
 0.088600;0.453685;,
 0.081498;0.091480;,
 0.088574;0.135964;,
 0.092839;0.115522;,
 0.006823;0.136141;,
 0.015296;0.091583;,
 0.006849;0.452885;,
 0.088574;0.135964;,
 0.081498;0.091480;,
 0.088600;0.453685;,
 0.092839;0.115522;,
 0.081498;0.091480;,
 0.004107;0.115923;,
 0.015296;0.091583;,
 0.004107;0.115923;,
 0.015296;0.091583;,
 0.092839;0.115522;,
 0.081498;0.091480;;
 }
}
Frame frm-lbcrgatt {
  FrameTransformMatrix {
1.000000,0.000000,0.000000,0.000000,
0.000000,1.000000,0.000000,0.000000,
0.000000,0.000000,1.000000,0.000000,
0.000920,-0.041331,0.005982,1.000000;;
 }
}
}
}
Frame frm-rtractr {
  FrameTransformMatrix {
-1.000000,0.000000,-0.000000,0.000000,
0.000000,1.000000,0.000000,0.000000,
0.000000,0.000000,-1.000000,0.000000,
-1.580886,0.000064,0.211678,1.000000;;
 }
Mesh rtractr {
 15;
 0.283699;-0.041547;-0.041565;,
 0.283698;-0.041547;0.041574;,
 0.283698;-0.041547;0.041574;,
 0.283692;0.041592;-0.041565;,
 0.283692;0.041592;-0.041565;,
 0.283691;0.041592;0.041574;,
 0.283691;0.041592;0.041574;,
 0.283691;0.041592;0.041574;,
 0.283692;0.041592;-0.041565;,
 0.283698;-0.041547;0.041574;,
 0.283699;-0.041547;-0.041565;,
 -0.313440;0.041545;0.041565;,
 -0.313439;0.041545;-0.041574;,
 -0.313433;-0.041595;0.041565;,
 -0.313432;-0.041595;-0.041574;;

 5;
 4;12,11,6,4;,
 4;13,2,5,11;,
 4;1,0,3,7;,
 4;10,14,12,8;,
 4;10,9,13,14;;

 MeshMaterialList {
  1;
  5;
  0,
  0,
  0,
  0,
  0;
Material {
 1.000000;1.000000;1.000000;1.000000;;
 0.000000;
 1.000000;1.000000;1.000000;;
 0.0; 0.0; 0.0;;
 TextureFilename {
  "fig01.ppm";
 }
 }
}
 MeshNormals {
  15;
  0.577405;-0.577304;-0.577342;,
  0.577388;-0.577304;0.577359;,
  0.577388;-0.577304;0.577359;,
  0.577313;0.577397;-0.577342;,
  0.577313;0.577397;-0.577342;,
  0.577295;0.577397;0.577359;,
  0.577295;0.577397;0.577359;,
  0.577295;0.577397;0.577359;,
  0.577313;0.577397;-0.577342;,
  0.577388;-0.577304;0.577359;,
  0.577405;-0.577304;-0.577342;,
  -0.000067;0.707107;0.707107;,
  -0.000046;0.707107;-0.707107;,
  0.000046;-0.707107;0.707107;,
  0.000067;-0.707107;-0.707107;;

  5;
  4;12,11,6,4;,
  4;13,2,5,11;,
  4;1,0,3,7;,
  4;10,14,12,8;,
  4;10,9,13,14;;
 }
 MeshTextureCoords { 
 15;
 0.813477;0.784580;,
 0.813475;0.654697;,
 0.138408;0.082112;,
 0.687489;0.784180;,
 0.138408;0.082112;,
 0.138407;0.042927;,
 0.138407;0.042927;,
 0.687487;0.655273;,
 0.138408;0.082112;,
 0.138408;0.082112;,
 0.138407;0.042927;,
 0.017611;0.042949;,
 0.017612;0.082134;,
 0.017612;0.082134;,
 0.017611;0.042949;;
 }
}
Frame frm-rttractr {
  FrameTransformMatrix {
1.000000,0.000000,0.000000,0.000000,
0.000000,1.000000,0.000000,0.000000,
0.000000,0.000000,1.000000,0.000000,
0.139666,0.081647,0.006330,1.000000;;
 }
Mesh rttractr {
 24;
 0.142456;-0.040893;0.338173;,
 0.142456;-0.040893;0.338173;,
 0.216131;0.040638;0.407488;,
 0.216131;0.040638;0.407488;,
 -0.142663;-0.040730;0.338368;,
 -0.142663;-0.040730;0.338368;,
 -0.215868;0.040884;0.407603;,
 -0.215868;0.040884;0.407603;,
 0.142615;-0.040779;-0.338354;,
 0.142615;-0.040779;-0.338354;,
 0.215913;0.040625;-0.407604;,
 0.215913;0.040625;-0.407604;,
 -0.142504;-0.040616;-0.338159;,
 -0.142504;-0.040616;-0.338159;,
 -0.216085;0.040871;-0.407489;,
 -0.216085;0.040871;-0.407489;,
 -0.216085;0.040871;-0.407489;,
 -0.142504;-0.040616;-0.338159;,
 0.215913;0.040625;-0.407604;,
 0.142615;-0.040779;-0.338354;,
 -0.215868;0.040884;0.407603;,
 -0.142663;-0.040730;0.338368;,
 0.216131;0.040638;0.407488;,
 0.142456;-0.040893;0.338173;;

 6;
 4;1,3,7,5;,
 4;2,11,15,6;,
 4;10,9,13,14;,
 4;8,0,4,12;,
 4;19,18,22,23;,
 4;21,20,16,17;;

 MeshMaterialList {
  1;
  6;
  0,
  0,
  0,
  0,
  0,
  0;
Material {
 0.866667;0.866667;0.866667;1.000000;;
 0.000000;
 1.000000;1.000000;1.000000;;
 0.0; 0.0; 0.0;;
 TextureFilename {
  "fig01.ppm";
 }
 }
}
 MeshNormals {
  24;
  0.291007;-0.908840;0.298872;,
  0.291007;-0.908840;0.298872;,
  0.669037;-0.285517;0.686199;,
  0.669037;-0.285517;0.686199;,
  -0.291806;-0.908570;0.298915;,
  -0.291806;-0.908570;0.298915;,
  -0.669011;-0.284857;0.686499;,
  -0.669011;-0.284857;0.686499;,
  0.290704;-0.908963;-0.298794;,
  0.290704;-0.908963;-0.298794;,
  0.668754;-0.286250;-0.686170;,
  0.668754;-0.286250;-0.686170;,
  -0.291980;-0.908568;-0.298751;,
  -0.291980;-0.908568;-0.298751;,
  -0.669432;-0.285383;-0.685870;,
  -0.669432;-0.285383;-0.685870;,
  -0.669432;-0.285383;-0.685870;,
  -0.291980;-0.908568;-0.298751;,
  0.668754;-0.286250;-0.686170;,
  0.290704;-0.908963;-0.298794;,
  -0.669011;-0.284857;0.686499;,
  -0.291806;-0.908570;0.298915;,
  0.669037;-0.285517;0.686199;,
  0.291007;-0.908840;0.298872;;

  6;
  4;1,3,7,5;,
  4;2,11,15,6;,
  4;10,9,13,14;,
  4;8,0,4,12;,
  4;19,18,22,23;,
  4;21,20,16,17;;
 }
 MeshTextureCoords { 
 24;
 0.005691;0.133235;,
 0.002448;0.117251;,
 0.006095;0.453430;,
 0.015443;0.091819;,
 0.090585;0.133484;,
 0.093695;0.117298;,
 0.091477;0.454655;,
 0.082072;0.091246;,
 0.006095;0.453430;,
 0.082072;0.091246;,
 0.093695;0.117298;,
 0.005691;0.133235;,
 0.091477;0.454655;,
 0.015443;0.091819;,
 0.002448;0.117251;,
 0.090585;0.133484;,
 0.082072;0.091246;,
 0.093695;0.117298;,
 0.082072;0.091246;,
 0.093695;0.117298;,
 0.015443;0.091819;,
 0.002448;0.117251;,
 0.015443;0.091819;,
 0.002448;0.117251;;
 }
}
Frame frm-rtcrgatt {
  FrameTransformMatrix {
1.000000,0.000000,0.000000,0.000000,
0.000000,1.000000,0.000000,0.000000,
0.000000,0.000000,1.000000,0.000000,
0.000921,0.040612,-0.005982,1.000000;;
 }
}
}
Frame frm-SSR {
  FrameTransformMatrix {
1.000000,0.000000,0.000000,0.000000,
0.000000,1.000000,0.000000,0.000000,
0.000000,0.000000,1.000000,0.000000,
0.281197,-0.007521,-0.001139,1.000000;;
 }
Mesh SSR {
 4;
 0.000001;0.000021;-0.000022;,
 0.000001;0.000021;0.000022;,
 0.000022;0.000000;-0.000000;,
 0.000001;-0.000015;-0.000000;;

 4;
 3;2,1,3;,
 3;2,0,1;,
 3;2,3,0;,
 3;3,1,0;;

 MeshMaterialList {
  1;
  4;
  0,
  0,
  0,
  0;
Material {
 1.000000;0.000000;0.000000;0.500000;;
 0.000000;
 1.000000;0.000000;0.000000;;
 0.0; 0.0; 0.0;;
 }
}
 MeshNormals {
  4;
  0.052396;0.272534;-0.960718;,
  0.052367;0.272534;0.960720;,
  0.982960;-0.183818;0.000015;,
  -0.312308;-0.949981;-0.000005;;

  4;
  3;2,1,3;,
  3;2,0,1;,
  3;2,3,0;,
  3;3,1,0;;
 }
 MeshTextureCoords { 
 4;
 0.000000;0.000000;,
 0.000000;0.000000;,
 0.000000;0.000000;,
 0.000000;0.000000;;
 }
}
}
Frame frm-rbtractr {
  FrameTransformMatrix {
1.000000,0.000000,0.000000,0.000000,
0.000000,1.000000,0.000000,0.000000,
0.000000,0.000000,1.000000,0.000000,
0.139666,-0.081776,0.006329,1.000000;;
 }
Mesh rbtractr {
 22;
 0.142481;0.040917;0.338159;,
 0.142481;0.040917;0.338159;,
 0.216176;-0.040600;0.407467;,
 0.216176;-0.040600;0.407467;,
 -0.142638;0.040705;0.338382;,
 -0.142638;0.040705;0.338382;,
 -0.215822;-0.040922;0.407624;,
 -0.215822;-0.040922;0.407624;,
 0.142575;0.040804;-0.338368;,
 0.142575;0.040804;-0.338368;,
 0.215880;-0.040587;-0.407625;,
 -0.142544;0.040592;-0.338145;,
 -0.142544;0.040592;-0.338145;,
 -0.216118;-0.040909;-0.407468;,
 -0.216118;-0.040909;-0.407468;,
 -0.142544;0.040592;-0.338145;,
 0.215880;-0.040587;-0.407625;,
 0.142575;0.040804;-0.338368;,
 -0.215822;-0.040922;0.407624;,
 -0.142638;0.040705;0.338382;,
 0.216176;-0.040600;0.407467;,
 0.142481;0.040917;0.338159;;

 6;
 4;5,7,3,1;,
 4;6,13,10,2;,
 4;14,12,9,16;,
 4;11,4,0,8;,
 4;21,20,16,17;,
 4;15,14,18,19;;

 MeshMaterialList {
  1;
  6;
  0,
  0,
  0,
  0,
  0,
  0;
Material {
 0.866667;0.866667;0.866667;1.000000;;
 0.000000;
 1.000000;1.000000;1.000000;;
 0.0; 0.0; 0.0;;
 TextureFilename {
  "fig01.ppm";
 }
 }
}
 MeshNormals {
  22;
  0.290879;0.908890;0.298844;,
  0.290879;0.908890;0.298844;,
  0.669054;0.285633;0.686135;,
  0.669054;0.285633;0.686135;,
  -0.291935;0.908519;0.298943;,
  -0.291935;0.908519;0.298943;,
  -0.668994;0.284741;0.686564;,
  -0.668994;0.284741;0.686564;,
  0.290518;0.909013;-0.298822;,
  0.290518;0.909013;-0.298822;,
  0.668639;0.286366;-0.686234;,
  -0.292166;0.908517;-0.298722;,
  -0.292166;0.908517;-0.298722;,
  -0.669547;0.285267;-0.685805;,
  -0.669547;0.285267;-0.685805;,
  -0.292166;0.908517;-0.298722;,
  0.668639;0.286366;-0.686234;,
  0.290518;0.909013;-0.298822;,
  -0.668994;0.284741;0.686564;,
  -0.291935;0.908519;0.298943;,
  0.669054;0.285633;0.686135;,
  0.290879;0.908890;0.298844;;

  6;
  4;5,7,3,1;,
  4;6,13,10,2;,
  4;14,12,9,16;,
  4;11,4,0,8;,
  4;21,20,16,17;,
  4;15,14,18,19;;
 }
 MeshTextureCoords { 
 22;
 0.006849;0.452885;,
 0.015296;0.091583;,
 0.006823;0.136141;,
 0.004107;0.115923;,
 0.088600;0.453685;,
 0.081498;0.091480;,
 0.088574;0.135964;,
 0.092839;0.115522;,
 0.006823;0.136141;,
 0.015296;0.091583;,
 0.006849;0.452885;,
 0.088574;0.135964;,
 0.081498;0.091480;,
 0.088600;0.453685;,
 0.092839;0.115522;,
 0.081498;0.091480;,
 0.004107;0.115923;,
 0.015296;0.091583;,
 0.004107;0.115923;,
 0.015296;0.091583;,
 0.092839;0.115522;,
 0.081498;0.091480;;
 }
}
Frame frm-rbcrgatt {
  FrameTransformMatrix {
1.000000,0.000000,0.000000,0.000000,
0.000000,1.000000,0.000000,0.000000,
0.000000,0.000000,1.000000,0.000000,
0.000920,-0.041331,-0.005982,1.000000;;
 }
}
}
}
}
Frame frm-finzzz0 {
  FrameTransformMatrix {
1.000000,0.000000,0.000000,0.000000,
0.000000,1.000000,0.000000,0.000000,
0.000000,0.000000,1.000000,0.000000,
0.000000,0.000000,0.000000,1.000000;;
 }
Frame frm-finzzz1 {
  FrameTransformMatrix {
0.000000,0.000000,1.000000,0.000000,
0.000000,1.000000,0.000000,0.000000,
-1.000000,0.000000,0.000000,0.000000,
0.000042,1.093986,2.984450,1.000000;;
 }
Mesh finzzz1 {
 26;
 -0.217743;0.032582;0.000000;,
 -0.217743;0.032582;0.000000;,
 -0.217743;0.032582;0.000000;,
 -0.001520;0.001011;0.977794;,
 0.217746;-0.032584;0.000000;,
 0.217746;-0.032584;0.000000;,
 0.217746;-0.032584;0.000000;,
 0.218636;-0.031917;0.987636;,
 0.109697;-0.015644;-0.982682;,
 0.109697;-0.015644;-0.982682;,
 0.109697;-0.015644;-0.982682;,
 0.000790;0.000651;-0.978086;,
 0.108558;-0.015453;0.982715;,
 0.108558;-0.015453;0.982715;,
 0.108558;-0.015453;0.982715;,
 0.108558;-0.015453;0.982715;,
 0.218605;-0.031939;-0.987278;,
 0.218605;-0.031939;-0.987278;,
 0.000790;0.000651;-0.978086;,
 -0.003685;-0.024147;0.000000;,
 0.109697;-0.015644;-0.982682;,
 0.218636;-0.031917;0.987636;,
 0.217746;-0.032584;0.000000;,
 -0.001520;0.001011;0.977794;,
 0.003687;0.024145;-0.000000;,
 -0.217743;0.032582;0.000000;;

 8;
 4;19,2,11,10;,
 4;9,18,1,24;,
 4;14,3,0,19;,
 4;24,6,16,8;,
 4;20,17,5,19;,
 4;13,7,4,24;,
 4;24,25,23,12;,
 4;19,22,21,15;;

 MeshMaterialList {
  1;
  8;
  0,
  0,
  0,
  0,
  0,
  0,
  0,
  0;
Material {
 1.000000;1.000000;1.000000;1.000000;;
 0.000000;
 1.000000;1.000000;1.000000;;
 0.0; 0.0; 0.0;;
 TextureFilename {
  "fig01.ppm";
 }
 }
}
 MeshNormals {
  26;
  -0.988986;0.148004;-0.001141;,
  -0.988986;0.148004;-0.001141;,
  -0.988986;0.148004;-0.001141;,
  -0.937555;0.140554;0.318176;,
  0.988987;-0.148003;0.000380;,
  0.988987;-0.148003;0.000380;,
  0.988987;-0.148003;0.000380;,
  0.982805;-0.146980;0.111760;,
  -0.012962;0.002728;-0.999912;,
  -0.012962;0.002728;-0.999912;,
  -0.012962;0.002728;-0.999912;,
  -0.937217;0.140515;-0.319187;,
  -0.013885;0.002884;0.999899;,
  -0.013885;0.002884;0.999899;,
  -0.013885;0.002884;0.999899;,
  -0.013885;0.002884;0.999899;,
  0.220429;0.975375;-0.007423;,
  -0.074780;-0.997160;-0.008967;,
  -0.937217;0.140515;-0.319187;,
  -0.148228;-0.988953;-0.000019;,
  -0.012962;0.002728;-0.999912;,
  0.982805;-0.146980;0.111760;,
  0.988987;-0.148003;0.000380;,
  -0.937555;0.140554;0.318176;,
  0.147778;0.989021;-0.000038;,
  -0.988986;0.148004;-0.001141;;

  8;
  4;19,2,11,10;,
  4;9,18,1,24;,
  4;14,3,0,19;,
  4;24,6,16,8;,
  4;20,17,5,19;,
  4;13,7,4,24;,
  4;24,25,23,12;,
  4;19,22,21,15;;
 }
 MeshTextureCoords { 
 26;
 0.989009;0.607742;,
 0.846220;0.510290;,
 0.989009;0.607742;,
 0.846220;0.510290;,
 0.845812;0.698545;,
 0.990148;0.701928;,
 0.845812;0.698545;,
 0.990148;0.701928;,
 0.989579;0.654835;,
 0.989579;0.654835;,
 0.846013;0.606011;,
 0.846220;0.510290;,
 0.989579;0.654835;,
 0.989579;0.654835;,
 0.846013;0.606011;,
 0.846013;0.606011;,
 0.990148;0.701928;,
 0.845812;0.698545;,
 0.989009;0.607742;,
 0.989579;0.654835;,
 0.846013;0.606011;,
 0.845812;0.698545;,
 0.990148;0.701928;,
 0.989009;0.607742;,
 0.846013;0.606011;,
 0.846220;0.510290;;
 }
}
Frame frm-rfinzzz {
  FrameTransformMatrix {
1.000000,0.000000,0.000800,0.000000,
0.000174,0.976172,-0.217000,0.000000,
-0.000781,0.217000,0.976171,0.000000,
0.117598,0.005275,-0.994497,1.000000;;
 }
Mesh rfinzzz {
 22;
 -0.260964;-0.503165;0.034886;,
 -0.260964;-0.503165;0.034886;,
 -0.260964;-0.503165;0.034886;,
 -0.260964;-0.503165;0.034886;,
 -0.260725;-0.503811;-0.034753;,
 -0.260725;-0.503811;-0.034753;,
 -0.260725;-0.503811;-0.034753;,
 -0.260725;-0.503811;-0.034753;,
 -0.541097;-0.082240;-0.001741;,
 -0.541097;-0.082240;-0.001741;,
 0.362745;0.329426;-0.000409;,
 0.362745;0.329426;-0.000409;,
 -0.032156;0.515821;-0.000444;,
 -0.032156;0.515821;-0.000444;,
 0.218945;-0.452754;0.000694;,
 0.218945;-0.452754;0.000694;,
 0.218945;-0.452754;0.000694;,
 -0.032156;0.515821;-0.000444;,
 0.362745;0.329426;-0.000409;,
 -0.541097;-0.082240;-0.001741;,
 -0.260725;-0.503811;-0.034753;,
 -0.260964;-0.503165;0.034886;;

 8;
 3;9,7,3;,
 3;11,15,6;,
 3;13,10,5;,
 3;8,12,4;,
 3;2,14,18;,
 3;17,19,1;,
 3;16,0,20;,
 3;21,18,17;;

 MeshMaterialList {
  1;
  8;
  0,
  0,
  0,
  0,
  0,
  0,
  0,
  0;
Material {
 1.000000;1.000000;1.000000;1.000000;;
 0.000000;
 1.000000;1.000000;1.000000;;
 0.0; 0.0; 0.0;;
 TextureFilename {
  "fig01.ppm";
 }
 }
}
 MeshNormals {
  22;
  -0.204230;-0.432696;0.878103;,
  -0.204230;-0.432696;0.878103;,
  -0.204230;-0.432696;0.878103;,
  -0.204230;-0.432696;0.878103;,
  -0.202100;-0.437325;-0.876301;,
  -0.202100;-0.437325;-0.876301;,
  -0.202100;-0.437325;-0.876301;,
  -0.202100;-0.437325;-0.876301;,
  -0.897951;-0.440092;0.001605;,
  -0.897951;-0.440092;0.001605;,
  0.981368;0.192138;0.000466;,
  0.981368;0.192138;0.000466;,
  -0.458528;0.888678;-0.001818;,
  -0.458528;0.888678;-0.001818;,
  0.240162;-0.970688;0.009366;,
  0.240162;-0.970688;0.009366;,
  0.240162;-0.970688;0.009366;,
  -0.458528;0.888678;-0.001818;,
  0.981368;0.192138;0.000466;,
  -0.897951;-0.440092;0.001605;,
  -0.202100;-0.437325;-0.876301;,
  -0.204230;-0.432696;0.878103;;

  8;
  3;9,7,3;,
  3;11,15,6;,
  3;13,10,5;,
  3;8,12,4;,
  3;2,14,18;,
  3;17,19,1;,
  3;16,0,20;,
  3;21,18,17;;
 }
 MeshTextureCoords { 
 22;
 0.991350;0.299553;,
 0.992886;0.623006;,
 0.992886;0.623006;,
 0.975377;0.348118;,
 0.947382;0.426243;,
 0.947382;0.426243;,
 0.947382;0.426243;,
 0.991350;0.299553;,
 0.860422;0.340680;,
 0.947312;0.156782;,
 0.904994;0.012251;,
 0.904994;0.012251;,
 0.835892;0.013835;,
 0.835892;0.013835;,
 0.954475;0.561149;,
 0.991350;0.299553;,
 0.947312;0.156782;,
 0.849537;0.641214;,
 0.853986;0.581325;,
 0.958555;0.681827;,
 0.975377;0.348118;,
 0.992886;0.623006;;
 }
}
Frame frm-SSra {
  FrameTransformMatrix {
0.000900,-0.203858,0.979000,0.000000,
-0.982131,-0.184424,-0.037500,0.000000,
0.188196,-0.961473,-0.200382,0.000000,
-0.031021,0.512300,-0.003884,1.000000;;
 }
Mesh SSra {
 4;
 -0.000007;0.000009;0.000004;,
 0.000004;0.000009;0.000006;,
 -0.000001;-0.000006;0.000005;,
 0.000001;-0.000000;-0.000007;;

 4;
 3;3,1,2;,
 3;1,0,2;,
 3;0,3,2;,
 3;0,1,3;;

 MeshMaterialList {
  1;
  4;
  0,
  0,
  0,
  0;
Material {
 1.000000;1.000000;1.000000;1.000000;;
 50.000000;
 1.000000;1.000000;1.000000;;
 0.0; 0.0; 0.0;;
 }
}
 MeshNormals {
  4;
  -0.884512;0.461108;0.070832;,
  0.814830;0.421035;0.398474;,
  -0.084489;-0.707686;0.701457;,
  0.178503;0.140230;-0.973895;;

  4;
  3;3,1,2;,
  3;1,0,2;,
  3;0,3,2;,
  3;0,1,3;;
 }
 MeshTextureCoords { 
 4;
 0.000000;0.000000;,
 0.000000;0.000000;,
 0.000000;0.000000;,
 0.000000;0.000000;;
 }
}
}
}
Frame frm-lfinzzz {
  FrameTransformMatrix {
1.000000,0.000000,-0.000800,0.000000,
0.000174,0.976149,0.217100,0.000000,
0.000781,-0.217100,0.976149,0.000000,
0.117599,0.005353,0.994412,1.000000;;
 }
Mesh lfinzzz {
 22;
 -0.260965;-0.503165;-0.034886;,
 -0.260965;-0.503165;-0.034886;,
 -0.260965;-0.503165;-0.034886;,
 -0.260965;-0.503165;-0.034886;,
 -0.260726;-0.503811;0.034753;,
 -0.260726;-0.503811;0.034753;,
 -0.260726;-0.503811;0.034753;,
 -0.260726;-0.503811;0.034753;,
 -0.541097;-0.082240;0.001741;,
 -0.541097;-0.082240;0.001741;,
 0.362745;0.329426;0.000409;,
 0.362745;0.329426;0.000409;,
 -0.032156;0.515821;0.000444;,
 -0.032156;0.515821;0.000444;,
 0.218944;-0.452754;-0.000694;,
 0.218944;-0.452754;-0.000694;,
 0.218944;-0.452754;-0.000694;,
 -0.032156;0.515821;0.000444;,
 0.362745;0.329426;0.000409;,
 -0.541097;-0.082240;0.001741;,
 -0.260726;-0.503811;0.034753;,
 -0.260965;-0.503165;-0.034886;;

 8;
 3;3,7,9;,
 3;6,15,11;,
 3;5,10,13;,
 3;4,12,8;,
 3;18,14,2;,
 3;1,19,17;,
 3;20,0,16;,
 3;17,18,21;;

 MeshMaterialList {
  1;
  8;
  0,
  0,
  0,
  0,
  0,
  0,
  0,
  0;
Material {
 1.000000;1.000000;1.000000;1.000000;;
 0.000000;
 1.000000;1.000000;1.000000;;
 0.0; 0.0; 0.0;;
 TextureFilename {
  "fig01.ppm";
 }
 }
}
 MeshNormals {
  22;
  -0.204230;-0.432696;-0.878103;,
  -0.204230;-0.432696;-0.878103;,
  -0.204230;-0.432696;-0.878103;,
  -0.204230;-0.432696;-0.878103;,
  -0.202100;-0.437325;0.876301;,
  -0.202100;-0.437325;0.876301;,
  -0.202100;-0.437325;0.876301;,
  -0.202100;-0.437325;0.876301;,
  -0.897951;-0.440092;-0.001605;,
  -0.897951;-0.440092;-0.001605;,
  0.981368;0.192138;-0.000466;,
  0.981368;0.192138;-0.000466;,
  -0.458528;0.888678;0.001818;,
  -0.458528;0.888678;0.001818;,
  0.240162;-0.970688;-0.009366;,
  0.240162;-0.970688;-0.009366;,
  0.240162;-0.970688;-0.009366;,
  -0.458528;0.888678;0.001818;,
  0.981368;0.192138;-0.000466;,
  -0.897951;-0.440092;-0.001605;,
  -0.202100;-0.437325;0.876301;,
  -0.204230;-0.432696;-0.878103;;

  8;
  3;3,7,9;,
  3;6,15,11;,
  3;5,10,13;,
  3;4,12,8;,
  3;18,14,2;,
  3;1,19,17;,
  3;20,0,16;,
  3;17,18,21;;
 }
 MeshTextureCoords { 
 22;
 0.991350;0.299553;,
 0.992886;0.623006;,
 0.992886;0.623006;,
 0.975377;0.348118;,
 0.947382;0.426243;,
 0.947382;0.426243;,
 0.947382;0.426243;,
 0.991350;0.299553;,
 0.860422;0.340680;,
 0.947312;0.156782;,
 0.904994;0.012251;,
 0.904994;0.012251;,
 0.835892;0.013835;,
 0.835892;0.013835;,
 0.954475;0.561149;,
 0.991350;0.299553;,
 0.947312;0.156782;,
 0.849537;0.641214;,
 0.853986;0.581325;,
 0.958555;0.681827;,
 0.975377;0.348118;,
 0.992886;0.623006;;
 }
}
Frame frm-SSla {
  FrameTransformMatrix {
-0.000900,-0.196017,-0.980600,0.000000,
-0.982089,-0.184590,0.037800,0.000000,
-0.188418,0.963070,-0.192340,0.000000,
-0.031064,0.512716,-0.000128,1.000000;;
 }
Mesh SSla {
 4;
 -0.000007;0.000009;-0.000005;,
 0.000004;0.000009;-0.000007;,
 -0.000001;-0.000006;-0.000006;,
 0.000001;0.000000;0.000006;;

 4;
 3;2,1,3;,
 3;2,0,1;,
 3;2,3,0;,
 3;3,1,0;;

 MeshMaterialList {
  1;
  4;
  0,
  0,
  0,
  0;
Material {
 1.000000;1.000000;1.000000;1.000000;;
 50.000000;
 1.000000;1.000000;1.000000;;
 0.0; 0.0; 0.0;;
 }
}
 MeshNormals {
  4;
  -0.884512;0.461108;-0.070832;,
  0.814830;0.421035;-0.398474;,
  -0.084489;-0.707686;-0.701457;,
  0.178503;0.140230;0.973895;;

  4;
  3;2,1,3;,
  3;2,0,1;,
  3;2,3,0;,
  3;3,1,0;;
 }
 MeshTextureCoords { 
 4;
 0.000000;0.000000;,
 0.000000;0.000000;,
 0.000000;0.000000;,
 0.000000;0.000000;;
 }
}
}
}
}
}
}
AnimationSet {
 Animation anim-fig01 {
  {frm-fig01}
  AnimationKey {
  2;
  2;
  1; 3; 0.000000, 0.000000, -0.773609;;,
  91; 3; 0.000000, 0.000000, -0.773609;;;
  }
 }
 Animation anim-SSf {
  {frm-SSf}
  AnimationKey {
  2;
  2;
  1; 3; 0.000011, -0.280979, -1.481672;;,
  91; 3; 0.000011, -0.280979, -1.481672;;;
  }
 }
 Animation anim-tractr1 {
  {frm-tractr1}
  AnimationKey {
  2;
  2;
  1; 3; 0.000021, -0.148857, -1.808535;;,
  91; 3; 0.000021, -0.148857, -1.808535;;;
  }
 }
 Animation anim-tractr2 {
  {frm-tractr2}
  AnimationKey {
  2;
  2;
  1; 3; -0.000142, 0.005815, 0.140579;;,
  91; 3; -0.000142, 0.005815, 0.140579;;;
  }
 }
 Animation anim-fcrgatt {
  {frm-fcrgatt}
  AnimationKey {
  2;
  2;
  1; 3; 0.000000, 0.005275, -0.040896;;,
  91; 3; 0.000000, 0.005275, -0.040896;;;
  }
 }
 Animation anim-lights1 {
  {frm-lights1}
  AnimationKey {
  2;
  2;
  1; 3; 0.000041, 1.265425, 0.695558;;,
  91; 3; 0.000041, 1.265425, 0.695558;;;
  }
 }
 Animation anim-tlights4 {
  {frm-tlights4}
  AnimationKey {
  2;
  2;
  1; 3; 0.184413, 0.062871, -0.003843;;,
  91; 3; 0.184413, 0.062871, -0.003843;;;
  }
 }
 Animation anim-tlights3 {
  {frm-tlights3}
  AnimationKey {
  2;
  2;
  1; 3; 0.000241, -0.622454, -0.003846;;,
  91; 3; 0.000241, -0.622454, -0.003846;;;
  }
 }
 Animation anim-tlights1 {
  {frm-tlights1}
  AnimationKey {
  2;
  2;
  1; 3; 0.001097, -0.622454, -0.003846;;,
  91; 3; 0.001097, -0.622454, -0.003846;;;
  }
 }
 Animation anim-tlights2 {
  {frm-tlights2}
  AnimationKey {
  2;
  2;
  1; 3; -0.000439, -0.622454, -0.003846;;,
  91; 3; -0.000439, -0.622454, -0.003846;;;
  }
 }
 Animation anim-thrust0 {
  {frm-thrust0}
  AnimationKey {
  0;
  2;
  1; 4; 0.707106, 0.000849, -0.707106, -0.000849;;,
  91; 4; 0.707106, 0.000849, -0.707106, -0.000849;;;
  }
  AnimationKey {
  2;
  2;
  1; 3; -0.002000, -0.003045, 0.287560;;,
  91; 3; -0.002000, -0.003045, 0.287560;;;
  }
 }
 Animation anim-lengine {
  {frm-lengine}
  AnimationKey {
  2;
  2;
  1; 3; -0.000451, -0.001864, 0.992524;;,
  91; 3; -0.000451, -0.001864, 0.992524;;;
  }
 }
 Animation anim-rengine {
  {frm-rengine}
  AnimationKey {
  0;
  2;
  1; 4; 0.999997, -0.000900, 0.002400, -0.000002;;,
  91; 4; 0.999997, -0.000900, 0.002400, -0.000002;;;
  }
  AnimationKey {
  2;
  2;
  1; 3; -0.002261, 0.002922, -0.988518;;,
  91; 3; -0.002261, 0.002922, -0.988518;;;
  }
 }
 Animation anim-ltractr1 {
  {frm-ltractr1}
  AnimationKey {
  2;
  2;
  1; 3; 1.580886, 0.000064, 0.211678;;,
  91; 3; 1.580886, 0.000064, 0.211678;;;
  }
 }
 Animation anim-lttractr {
  {frm-lttractr}
  AnimationKey {
  2;
  2;
  1; 3; 0.139666, 0.081647, -0.006329;;,
  91; 3; 0.139666, 0.081647, -0.006329;;;
  }
 }
 Animation anim-ltcrgatt {
  {frm-ltcrgatt}
  AnimationKey {
  2;
  2;
  1; 3; 0.000921, 0.040612, 0.005982;;,
  91; 3; 0.000921, 0.040612, 0.005982;;;
  }
 }
 Animation anim-SSl {
  {frm-SSl}
  AnimationKey {
  2;
  2;
  1; 3; 0.281197, -0.007521, 0.001140;;,
  91; 3; 0.281197, -0.007521, 0.001140;;;
  }
 }
 Animation anim-lbtractr {
  {frm-lbtractr}
  AnimationKey {
  2;
  2;
  1; 3; 0.139666, -0.081776, -0.006329;;,
  91; 3; 0.139666, -0.081776, -0.006329;;;
  }
 }
 Animation anim-lbcrgatt {
  {frm-lbcrgatt}
  AnimationKey {
  2;
  2;
  1; 3; 0.000920, -0.041331, 0.005982;;,
  91; 3; 0.000920, -0.041331, 0.005982;;;
  }
 }
 Animation anim-rtractr {
  {frm-rtractr}
  AnimationKey {
  0;
  2;
  1; 4; 0.000000, 0.000000, 1.000000, -0.000000;;,
  91; 4; 0.000000, 0.000000, 1.000000, -0.000000;;;
  }
  AnimationKey {
  2;
  2;
  1; 3; -1.580886, 0.000064, 0.211678;;,
  91; 3; -1.580886, 0.000064, 0.211678;;;
  }
 }
 Animation anim-rttractr {
  {frm-rttractr}
  AnimationKey {
  2;
  2;
  1; 3; 0.139666, 0.081647, 0.006330;;,
  91; 3; 0.139666, 0.081647, 0.006330;;;
  }
 }
 Animation anim-rtcrgatt {
  {frm-rtcrgatt}
  AnimationKey {
  2;
  2;
  1; 3; 0.000921, 0.040612, -0.005982;;,
  91; 3; 0.000921, 0.040612, -0.005982;;;
  }
 }
 Animation anim-SSR {
  {frm-SSR}
  AnimationKey {
  2;
  2;
  1; 3; 0.281197, -0.007521, -0.001139;;,
  91; 3; 0.281197, -0.007521, -0.001139;;;
  }
 }
 Animation anim-rbtractr {
  {frm-rbtractr}
  AnimationKey {
  2;
  2;
  1; 3; 0.139666, -0.081776, 0.006329;;,
  91; 3; 0.139666, -0.081776, 0.006329;;;
  }
 }
 Animation anim-rbcrgatt {
  {frm-rbcrgatt}
  AnimationKey {
  2;
  2;
  1; 3; 0.000920, -0.041331, -0.005982;;,
  91; 3; 0.000920, -0.041331, -0.005982;;;
  }
 }
 Animation anim-finzzz1 {
  {frm-finzzz1}
  AnimationKey {
  0;
  2;
  1; 4; 0.707107, 0.000000, -0.707107, 0.000000;;,
  91; 4; 0.707107, 0.000000, -0.707107, 0.000000;;;
  }
  AnimationKey {
  2;
  2;
  1; 3; 0.000042, 1.093986, 2.984450;;,
  91; 3; 0.000042, 1.093986, 2.984450;;;
  }
 }
 Animation anim-rfinzzz {
  {frm-rfinzzz}
  AnimationKey {
  0;
  2;
  1; 4; 0.994025, -0.109152, -0.000398, 0.000044;;,
  91; 4; 0.994025, -0.109152, -0.000398, 0.000044;;;
  }
  AnimationKey {
  2;
  2;
  1; 3; 0.117598, 0.005275, -0.994497;;,
  91; 3; 0.117598, 0.005275, -0.994497;;;
  }
 }
 Animation anim-SSra {
  {frm-SSra}
  AnimationKey {
  0;
  2;
  1; 4; -0.392458, -0.588580, 0.503750, 0.495768;;,
  91; 4; -0.392458, -0.588580, 0.503750, 0.495768;;;
  }
  AnimationKey {
  2;
  2;
  1; 3; -0.031021, 0.512300, -0.003884;;,
  91; 3; -0.031021, 0.512300, -0.003884;;;
  }
 }
 Animation anim-lfinzzz {
  {frm-lfinzzz}
  AnimationKey {
  0;
  2;
  1; 4; 0.994019, 0.109203, 0.000398, 0.000044;;,
  91; 4; 0.994019, 0.109203, 0.000398, 0.000044;;;
  }
  AnimationKey {
  2;
  2;
  1; 3; 0.117599, 0.005353, 0.994412;;,
  91; 3; 0.117599, 0.005353, 0.994412;;;
  }
 }
 Animation anim-SSla {
  {frm-SSla}
  AnimationKey {
  0;
  2;
  1; 4; -0.394389, 0.586522, -0.502158, 0.498284;;,
  91; 4; -0.394389, 0.586522, -0.502158, 0.498284;;;
  }
  AnimationKey {
  2;
  2;
  1; 3; -0.031064, 0.512716, -0.000128;;,
  91; 3; -0.031064, 0.512716, -0.000128;;;
  }
 }
}
