xof 0302txt 0032
template Header {
 <3D82AB43-62DA-11cf-AB39-0020AF71E433>
 WORD major;
 WORD minor;
 DWORD flags;
}

template Vector {
 <3D82AB5E-62DA-11cf-AB39-0020AF71E433>
 FLOAT x;
 FLOAT y;
 FLOAT z;
}

template Coords2d {
 <F6F23F44-7686-11cf-8F52-0040333594A3>
 FLOAT u;
 FLOAT v;
}

template Matrix4x4 {
 <F6F23F45-7686-11cf-8F52-0040333594A3>
 array FLOAT matrix[16];
}

template ColorRGBA {
 <35FF44E0-6C7C-11cf-8F52-0040333594A3>
 FLOAT red;
 FLOAT green;
 FLOAT blue;
 FLOAT alpha;
}

template ColorRGB {
 <D3E16E81-7835-11cf-8F52-0040333594A3>
 FLOAT red;
 FLOAT green;
 FLOAT blue;
}

template TextureFilename {
 <A42790E1-7810-11cf-8F52-0040333594A3>
 STRING filename;
}

template Material {
 <3D82AB4D-62DA-11cf-AB39-0020AF71E433>
 ColorRGBA faceColor;
 FLOAT power;
 ColorRGB specularColor;
 ColorRGB emissiveColor;
 [...]
}

template MeshFace {
 <3D82AB5F-62DA-11cf-AB39-0020AF71E433>
 DWORD nFaceVertexIndices;
 array DWORD faceVertexIndices[nFaceVertexIndices];
}

template MeshTextureCoords {
 <F6F23F40-7686-11cf-8F52-0040333594A3>
 DWORD nTextureCoords;
 array Coords2d textureCoords[nTextureCoords];
}

template MeshMaterialList {
 <F6F23F42-7686-11cf-8F52-0040333594A3>
 DWORD nMaterials;
 DWORD nFaceIndexes;
 array DWORD faceIndexes[nFaceIndexes];
 [Material]
}

template MeshNormals {
 <F6F23F43-7686-11cf-8F52-0040333594A3>
 DWORD nNormals;
 array Vector normals[nNormals];
 DWORD nFaceNormals;
 array MeshFace faceNormals[nFaceNormals];
}

template Mesh {
 <3D82AB44-62DA-11cf-AB39-0020AF71E433>
 DWORD nVertices;
 array Vector vertices[nVertices];
 DWORD nFaces;
 array MeshFace faces[nFaces];
 [...]
}

template FrameTransformMatrix {
 <F6F23F41-7686-11cf-8F52-0040333594A3>
 Matrix4x4 frameMatrix;
}

template Frame {
 <3D82AB46-62DA-11cf-AB39-0020AF71E433>
 [...]
}
template FloatKeys {
 <10DD46A9-775B-11cf-8F52-0040333594A3>
 DWORD nValues;
 array FLOAT values[nValues];
}

template TimedFloatKeys {
 <F406B180-7B3B-11cf-8F52-0040333594A3>
 DWORD time;
 FloatKeys tfkeys;
}

template AnimationKey {
 <10DD46A8-775B-11cf-8F52-0040333594A3>
 DWORD keyType;
 DWORD nKeys;
 array TimedFloatKeys keys[nKeys];
}

template AnimationOptions {
 <E2BF56C0-840F-11cf-8F52-0040333594A3>
 DWORD openclosed;
 DWORD positionquality;
}

template Animation {
 <3D82AB4F-62DA-11cf-AB39-0020AF71E433>
 [...]
}

template AnimationSet {
 <3D82AB50-62DA-11cf-AB39-0020AF71E433>
 [Animation]
}

Header {
 1;
 0;
 1;
}

Frame frm-fuselg_1 {
  FrameTransformMatrix {
1.000000,0.000000,0.000000,0.000000,
0.000000,1.000000,0.000000,0.000000,
0.000000,0.000000,1.000000,0.000000,
0.000000,0.000000,0.000000,1.000000;;
 }
Mesh fuselg_1 {
 248;
 -0.702703;-0.226241;-0.991057;,
 -0.702703;-0.226241;-0.991057;,
 -0.702703;-0.226241;-0.991057;,
 -0.657593;-0.226241;-1.408430;,
 -0.657593;-0.226241;-1.408430;,
 -0.657593;-0.226241;-1.408430;,
 -0.641220;-0.226241;-0.573684;,
 -0.641220;-0.226241;-0.573684;,
 0.661415;-0.226241;-0.573684;,
 0.661415;-0.226241;-0.573684;,
 -0.620264;0.037735;-0.991057;,
 -0.620264;0.037735;-0.991057;,
 -0.536072;-0.053127;-1.407947;,
 -0.536072;-0.053127;-1.407947;,
 -0.621542;0.152106;-0.574167;,
 -0.621542;0.152106;-0.574167;,
 -0.621542;0.152106;-0.574167;,
 0.641379;0.152106;-0.574167;,
 0.641379;0.152106;-0.574167;,
 0.641379;0.152106;-0.574167;,
 -0.567490;-0.395248;-0.574167;,
 -0.567490;-0.395248;-0.574167;,
 -0.567490;-0.395248;-0.574167;,
 -0.567490;-0.395248;-0.574167;,
 0.587328;-0.395248;-0.574167;,
 0.587328;-0.395248;-0.574167;,
 0.587328;-0.395248;-0.574167;,
 0.587328;-0.395248;-0.574167;,
 0.011252;-0.636822;-0.570502;,
 0.011252;-0.636822;-0.570502;,
 0.011252;-0.636822;-0.570502;,
 -0.527665;-0.273462;2.203398;,
 -0.527665;-0.273462;2.203398;,
 -0.787051;-0.500530;-0.432940;,
 -0.787051;-0.500530;-0.432940;,
 -0.787051;-0.500530;-0.432940;,
 -0.787051;-0.500530;-0.432940;,
 -0.569685;0.138718;2.203398;,
 -0.569685;0.138718;2.203398;,
 -0.569685;0.138718;2.203398;,
 -0.849303;0.326296;-0.432940;,
 -0.849303;0.326296;-0.432940;,
 -0.849303;0.326296;-0.432940;,
 -0.849303;0.326296;-0.432940;,
 0.561391;-0.273462;2.203398;,
 0.561391;-0.273462;2.203398;,
 0.561391;-0.273462;2.203398;,
 0.803091;-0.500530;-0.432940;,
 0.803091;-0.500530;-0.432940;,
 0.803091;-0.500530;-0.432940;,
 0.803091;-0.500530;-0.432940;,
 0.604317;0.138718;2.203398;,
 0.604317;0.138718;2.203398;,
 0.604317;0.138718;2.203398;,
 0.864869;0.326296;-0.432940;,
 0.864869;0.326296;-0.432940;,
 0.864869;0.326296;-0.432940;,
 0.864869;0.326296;-0.432940;,
 0.864869;0.326296;-0.432940;,
 0.297198;-0.300929;2.203398;,
 -0.403089;-0.477588;-0.432940;,
 -0.403089;-0.477588;-0.432940;,
 -0.403089;-0.477588;-0.432940;,
 0.417339;-0.477588;-0.432940;,
 0.417339;-0.477588;-0.432940;,
 0.417339;-0.477588;-0.432940;,
 -0.264697;0.174220;2.203398;,
 -0.264697;-0.300929;2.203398;,
 0.297198;0.174220;2.203398;,
 0.006324;-0.640907;-0.432940;,
 0.006324;-0.640907;-0.432940;,
 0.006324;-0.640907;-0.432940;,
 0.015702;0.250276;2.203398;,
 0.015702;-0.320053;2.203398;,
 1.095243;-0.244564;-0.404904;,
 0.700281;-0.247979;2.124228;,
 0.700281;-0.247979;2.124228;,
 -1.095243;-0.244564;-0.404904;,
 -1.095243;-0.244564;-0.404904;,
 -0.679117;-0.247979;2.124228;,
 -0.679117;-0.247979;2.124228;,
 -1.054147;0.083953;-0.409946;,
 -1.054147;0.083953;-0.409946;,
 1.062372;0.083953;-0.409946;,
 0.667480;0.183528;1.993091;,
 0.667480;0.183528;1.993091;,
 0.667480;0.183528;1.993091;,
 0.774494;-0.227326;1.948572;,
 0.774494;-0.227326;1.948572;,
 0.774494;-0.227326;1.948572;,
 0.619983;-0.304674;1.993091;,
 0.619983;-0.304674;1.993091;,
 0.326322;-0.335353;1.993091;,
 0.326322;-0.335353;1.993091;,
 0.326322;0.220423;1.993091;,
 0.326322;0.220423;1.993091;,
 0.013429;-0.356393;1.993091;,
 0.013429;-0.356393;1.993091;,
 0.013429;0.299462;1.993091;,
 0.013429;0.299462;1.993091;,
 -0.298245;0.220423;1.993091;,
 -0.298245;0.220423;1.993091;,
 -0.590544;-0.304674;1.993091;,
 -0.590544;-0.304674;1.993091;,
 -0.590544;-0.304674;1.993091;,
 -0.298245;-0.335353;1.993091;,
 -0.298245;-0.335353;1.993091;,
 -0.637469;0.183528;1.993091;,
 -0.637469;0.183528;1.993091;,
 -0.758760;-0.227326;1.948572;,
 -0.758760;-0.227326;1.948572;,
 -0.758760;-0.227326;1.948572;,
 -0.758760;-0.227326;1.948572;,
 -0.637469;0.183528;1.993091;,
 -0.298245;-0.335353;1.993091;,
 -0.590544;-0.304674;1.993091;,
 -0.298245;0.220423;1.993091;,
 0.013429;0.299462;1.993091;,
 0.013429;-0.356393;1.993091;,
 0.326322;0.220423;1.993091;,
 0.326322;-0.335353;1.993091;,
 0.619983;-0.304674;1.993091;,
 0.774494;-0.227326;1.948572;,
 0.667480;0.183528;1.993091;,
 1.062372;0.083953;-0.409946;,
 -1.054147;0.083953;-0.409946;,
 -0.410023;0.206387;-0.982331;,
 -0.193207;0.446163;-0.986173;,
 0.220399;0.446163;-0.986173;,
 0.430929;0.206387;-0.982331;,
 -0.340076;0.102363;-1.407782;,
 -0.159238;0.292289;-1.407715;,
 0.186429;0.292289;-1.407715;,
 0.360982;0.102363;-1.407782;,
 -0.679117;-0.247979;2.124228;,
 -0.838403;-0.206674;1.772916;,
 -0.941023;-0.231721;1.038719;,
 -1.138207;-0.241021;0.305635;,
 -1.095243;-0.244564;-0.404904;,
 0.700281;-0.247979;2.124228;,
 0.848706;-0.206674;1.772916;,
 0.944327;-0.231721;1.038719;,
 1.138715;-0.241021;0.305635;,
 1.095243;-0.244564;-0.404904;,
 -0.653424;-0.335885;1.782784;,
 -0.781885;-0.496410;0.305635;,
 -0.734443;-0.442782;1.044209;,
 -0.400333;-0.564820;0.305635;,
 -0.331794;-0.369776;1.782784;,
 -0.375021;-0.495696;1.044209;,
 0.006837;-0.598101;0.305635;,
 0.011155;-0.392732;1.782784;,
 0.008226;-0.538264;1.044209;,
 0.355446;-0.369776;1.782784;,
 0.414946;-0.564820;0.305635;,
 0.392972;-0.495696;1.044209;,
 0.678575;-0.335885;1.782784;,
 0.798277;-0.496410;0.305635;,
 0.754070;-0.442782;1.044209;,
 0.859680;0.336565;0.305635;,
 0.812025;0.342208;1.044209;,
 0.414946;0.405871;0.305635;,
 0.355446;0.266626;1.782784;,
 0.392972;0.398061;1.044209;,
 0.011155;0.348648;1.782784;,
 0.730642;0.228338;1.782784;,
 0.006511;0.640907;0.305635;,
 0.008226;0.517711;1.044209;,
 -0.400333;0.405871;0.305635;,
 -0.331794;0.266626;1.782784;,
 -0.375021;0.398061;1.044209;,
 -0.843735;0.336565;0.305635;,
 -0.705253;0.228338;1.782784;,
 -0.792592;0.342208;1.044209;,
 0.015702;-0.320053;2.203398;,
 0.015702;0.250276;2.203398;,
 0.006324;-0.640907;-0.432940;,
 0.006324;0.587622;-0.633137;,
 0.297198;0.174220;2.203398;,
 -0.264697;-0.300929;2.203398;,
 -0.403089;0.408146;-0.432940;,
 -0.264697;0.174220;2.203398;,
 0.417339;-0.477588;-0.432940;,
 -0.403089;-0.477588;-0.432940;,
 0.417339;0.408146;-0.432940;,
 0.297198;-0.300929;2.203398;,
 0.864869;0.326296;-0.432940;,
 0.604317;0.138718;2.203398;,
 0.803091;-0.500530;-0.432940;,
 0.561391;-0.273462;2.203398;,
 -0.849303;0.326296;-0.432940;,
 -0.569685;0.138718;2.203398;,
 -0.787051;-0.500530;-0.432940;,
 -0.527665;-0.273462;2.203398;,
 -0.260061;0.206033;-1.407749;,
 0.280044;0.206033;-1.407749;,
 -0.313138;0.308550;-0.984252;,
 0.333121;0.308550;-0.984252;,
 0.311909;0.407126;-0.574993;,
 -0.291925;0.407126;-0.574993;,
 0.230868;-0.070364;-1.829741;,
 0.407540;-0.001307;-1.407815;,
 0.487696;0.104223;-0.980410;,
 0.455662;0.241456;-0.574717;,
 -0.435824;0.241456;-0.574717;,
 -0.467859;0.104223;-0.980410;,
 -0.387703;-0.001307;-1.407815;,
 -0.211030;-0.070364;-1.829741;,
 0.011252;-0.636822;-0.570502;,
 0.011252;-0.496941;-1.830331;,
 0.011252;-0.595048;-1.406676;,
 0.011252;-0.638081;-0.988229;,
 0.011252;0.074131;-1.829474;,
 0.011252;0.346346;-1.407682;,
 0.011252;-0.054549;-1.948548;,
 0.011252;0.519380;-0.988094;,
 0.587328;-0.395248;-0.574167;,
 0.509472;-0.422126;-1.407947;,
 0.586164;-0.411426;-0.991057;,
 -0.567490;-0.395248;-0.574167;,
 -0.489634;-0.422126;-1.407947;,
 -0.566327;-0.411426;-0.991057;,
 0.157294;-0.347952;-2.071566;,
 -0.136747;-0.347952;-2.071566;,
 0.011252;-0.308552;-2.145563;,
 0.555910;-0.053127;-1.407947;,
 0.641379;0.152106;-0.574167;,
 0.640102;0.037735;-0.991057;,
 -0.621542;0.152106;-0.574167;,
 -0.536072;-0.053127;-1.407947;,
 -0.620264;0.037735;-0.991057;,
 -0.145075;-0.165382;-2.060425;,
 0.164913;-0.165382;-2.060425;,
 0.677430;-0.226241;-1.408430;,
 0.661415;-0.226241;-0.573684;,
 0.722713;-0.226241;-0.991057;,
 -0.641220;-0.226241;-0.573684;,
 -0.657593;-0.226241;-1.408430;,
 -0.702703;-0.226241;-0.991057;,
 0.195290;-0.226241;-2.085992;,
 -0.175452;-0.226241;-2.085992;,
 0.011252;-0.226241;-2.203398;,
 0.437333;-0.226241;-1.828967;,
 -0.417495;-0.226241;-1.828967;,
 0.361200;-0.102170;-1.830009;,
 0.332107;-0.394450;-1.830009;,
 -0.341362;-0.102170;-1.830009;,
 -0.312269;-0.394450;-1.830009;;

 155;
 4;148,149,152,151;,
 4;240,243,246,231;,
 4;233,242,244,225;,
 4;140,156,158,141;,
 4;58,83,74,50;,
 4;144,146,149,148;,
 4;5,243,247,220;,
 4;239,242,245,222;,
 4;141,158,157,142;,
 4;27,218,235,9;,
 4;232,244,242,239;,
 4;223,247,243,240;,
 3;241,240,231;,
 4;240,241,224,223;,
 4;222,224,241,239;,
 10;32,67,73,59,46,53,68,72,66,39;,
 4;217,245,242,233;,
 4;218,217,233,235;,
 4;235,233,225,227;,
 4;8,235,227,19;,
 4;13,246,243,4;,
 3;234,57,49;,
 4;221,23,7,2;,
 4;1,6,16,11;,
 4;3,0,10,12;,
 4;220,221,238,237;,
 4;78,36,145,137;,
 3;209,247,223;,
 4;137,145,146,136;,
 3;207,212,214;,
 4;200,244,232,214;,
 3;131,213,212;,
 4;201,225,244,200;,
 4;127,215,213,131;,
 4;202,227,225,201;,
 4;152,150,154,155;,
 4;203,18,227,202;,
 4;136,146,144,135;,
 4;220,247,209,210;,
 4;210,209,245,217;,
 4;221,220,210,211;,
 4;211,210,217,218;,
 4;22,221,211,30;,
 4;29,211,218,26;,
 4;214,231,246,207;,
 4;207,246,229,206;,
 4;206,229,230,205;,
 4;205,230,15,204;,
 4;111,80,38,108;,
 4;142,157,48,143;,
 4;89,76,45,91;,
 4;155,154,157,158;,
 4;132,213,215,128;,
 3;212,213,132;,
 3;214,212,200;,
 4;153,155,158,156;,
 4;151,152,155,153;,
 4;141,160,165,140;,
 4;142,159,160,141;,
 3;124,56,159;,
 4;135,172,173,136;,
 4;136,173,171,137;,
 3;203,202,129;,
 4;129,202,201,133;,
 3;133,201,200;,
 3;207,206,130;,
 4;130,206,205,126;,
 3;126,205,204;,
 4;110,135,144,104;,
 3;232,239,241;,
 3;241,231,214;,
 3;241,214,232;,
 3;222,245,209;,
 3;209,224,222;,
 3;223,224,209;,
 3;171,43,82;,
 4;88,140,165,86;,
 3;37,79,31;,
 4;106,179,193,103;,
 4;95,178,52,85;,
 4;35,77,81,42;,
 4;146,145,147,149;,
 3;44,75,51;,
 3;236,34,41;,
 3;40,14,236;,
 4;149,147,150,152;,
 4;168,180,190,171;,
 4;166,177,180,168;,
 4;161,184,177,166;,
 4;154,65,47,157;,
 4;97,174,179,105;,
 4;93,185,174,96;,
 4;159,55,184,161;,
 4;99,175,178,94;,
 4;101,181,175,98;,
 4;107,191,181,100;,
 4;170,168,171,173;,
 4;167,166,168,170;,
 4;163,161,166,167;,
 4;160,159,161,163;,
 4;165,160,163,162;,
 4;162,163,167,164;,
 4;164,167,170,169;,
 4;169,170,173,172;,
 4;90,189,185,92;,
 4;150,71,64,154;,
 4;147,62,70,150;,
 4;145,33,61,147;,
 3;177,184,198;,
 3;199,180,177;,
 3;128,215,177;,
 4;127,196,199,177;,
 3;188,25,234;,
 3;203,198,184;,
 3;234,17,54;,
 4;63,69,28,24;,
 3;60,192,21;,
 4;20,208,176,183;,
 3;216,188,182;,
 3;204,228,190;,
 3;236,219,192;,
 3;180,199,204;,
 3;186,226,203;,
 3;190,180,204;,
 3;203,184,186;,
 3;177,215,127;,
 4;177,198,197,128;,
 4;128,197,195,132;,
 3;132,195,212;,
 3;212,194,131;,
 4;131,194,196,127;,
 3;212,195,133;,
 4;133,195,197,129;,
 4;129,197,198,203;,
 3;130,194,212;,
 4;126,196,194,130;,
 4;204,199,196,126;,
 3;130,212,207;,
 3;200,212,133;,
 3;142,143,124;,
 3;124,159,142;,
 3;125,138,137;,
 3;137,171,125;,
 4;84,165,162,119;,
 4;119,162,164,117;,
 4;117,164,169,116;,
 4;116,169,172,113;,
 4;113,172,135,109;,
 4;102,193,134,112;,
 4;115,144,148,114;,
 4;114,148,151,118;,
 4;118,151,153,120;,
 4;120,153,156,121;,
 4;121,156,140,87;,
 4;123,187,139,122;;

 MeshMaterialList {
  3;
  155;
  0,
  0,
  0,
  0,
  1,
  0,
  0,
  0,
  0,
  0,
  0,
  0,
  0,
  0,
  0,
  2,
  0,
  0,
  0,
  0,
  0,
  1,
  0,
  0,
  0,
  0,
  0,
  0,
  0,
  0,
  0,
  0,
  0,
  0,
  0,
  0,
  0,
  0,
  0,
  0,
  0,
  0,
  0,
  0,
  0,
  0,
  0,
  0,
  0,
  0,
  0,
  0,
  0,
  0,
  0,
  0,
  0,
  0,
  0,
  0,
  0,
  0,
  0,
  0,
  0,
  0,
  0,
  0,
  0,
  0,
  0,
  0,
  0,
  0,
  0,
  0,
  0,
  2,
  0,
  0,
  1,
  0,
  2,
  1,
  1,
  0,
  0,
  0,
  0,
  0,
  0,
  0,
  0,
  0,
  0,
  0,
  0,
  0,
  0,
  0,
  0,
  0,
  0,
  0,
  0,
  0,
  0,
  0,
  0,
  0,
  0,
  0,
  1,
  0,
  1,
  0,
  1,
  0,
  1,
  0,
  1,
  0,
  0,
  0,
  0,
  0,
  0,
  0,
  0,
  0,
  0,
  0,
  0,
  0,
  0,
  0,
  0,
  0,
  0,
  0,
  0,
  0,
  0,
  0,
  0,
  0,
  0,
  0,
  0,
  0,
  0,
  0,
  0,
  0,
  0;
Material {
 1.000000;1.000000;1.000000;1.000000;;
 0.000000;
 1.000000;1.000000;1.000000;;
 0.0; 0.0; 0.0;;
 TextureFilename {
  "fig16.ppm";
 }
 }
Material {
 1.000000;1.000000;1.000000;1.000000;;
 0.000000;
 1.000000;1.000000;1.000000;;
 0.0; 0.0; 0.0;;
 TextureFilename {
  "fig16.ppm";
 }
 }
Material {
 1.000000;1.000000;1.000000;1.000000;;
 0.000000;
 1.000000;1.000000;1.000000;;
 0.0; 0.0; 0.0;;
 TextureFilename {
  "fig16.ppm";
 }
 }
}
 MeshNormals {
  248;
  -0.986569;-0.156440;-0.046986;,
  -0.986569;-0.156440;-0.046986;,
  -0.986569;-0.156440;-0.046986;,
  -0.942436;-0.076385;-0.325546;,
  -0.942436;-0.076385;-0.325546;,
  -0.942436;-0.076385;-0.325546;,
  -0.818226;-0.135573;-0.558683;,
  -0.818226;-0.135573;-0.558683;,
  0.821353;-0.135928;-0.553989;,
  0.821353;-0.135928;-0.553989;,
  -0.731152;0.656549;-0.185364;,
  -0.731152;0.656549;-0.185364;,
  -0.607348;0.734501;-0.302714;,
  -0.607348;0.734501;-0.302714;,
  -0.652375;0.463223;-0.599860;,
  -0.652375;0.463223;-0.599860;,
  -0.652375;0.463223;-0.599860;,
  0.653979;0.463941;-0.597554;,
  0.653979;0.463941;-0.597554;,
  0.653979;0.463941;-0.597554;,
  -0.482857;-0.810374;-0.331879;,
  -0.482857;-0.810374;-0.331879;,
  -0.482857;-0.810374;-0.331879;,
  -0.482857;-0.810374;-0.331879;,
  0.484620;-0.811500;-0.326514;,
  0.484620;-0.811500;-0.326514;,
  0.484620;-0.811500;-0.326514;,
  0.484620;-0.811500;-0.326514;,
  0.000645;-0.999760;-0.021902;,
  0.000645;-0.999760;-0.021902;,
  0.000645;-0.999760;-0.021902;,
  -0.300268;-0.629833;0.716345;,
  -0.300268;-0.629833;0.716345;,
  -0.388191;-0.612530;-0.688560;,
  -0.388191;-0.612530;-0.688560;,
  -0.388191;-0.612530;-0.688560;,
  -0.388191;-0.612530;-0.688560;,
  -0.475885;0.360156;0.802385;,
  -0.475885;0.360156;0.802385;,
  -0.475885;0.360156;0.802385;,
  -0.448169;0.478928;-0.754833;,
  -0.448169;0.478928;-0.754833;,
  -0.448169;0.478928;-0.754833;,
  -0.448169;0.478928;-0.754833;,
  0.319781;-0.627672;0.709766;,
  0.319781;-0.627672;0.709766;,
  0.319781;-0.627672;0.709766;,
  0.396174;-0.609951;-0.686298;,
  0.396174;-0.609951;-0.686298;,
  0.396174;-0.609951;-0.686298;,
  0.396174;-0.609951;-0.686298;,
  0.494298;0.353644;0.794107;,
  0.494298;0.353644;0.794107;,
  0.494298;0.353644;0.794107;,
  0.454236;0.477419;-0.752157;,
  0.454236;0.477419;-0.752157;,
  0.454236;0.477419;-0.752157;,
  0.454236;0.477419;-0.752157;,
  0.454236;0.477419;-0.752157;,
  0.070673;-0.823068;0.563529;,
  -0.161611;-0.969893;-0.182178;,
  -0.161611;-0.969893;-0.182178;,
  -0.161611;-0.969893;-0.182178;,
  0.161798;-0.970786;-0.177187;,
  0.161798;-0.970786;-0.177187;,
  0.161798;-0.970786;-0.177187;,
  -0.145872;0.783548;0.603965;,
  -0.070912;-0.822270;0.564663;,
  0.145554;0.785346;0.601702;,
  0.000055;-0.998920;-0.046470;,
  0.000055;-0.998920;-0.046470;,
  0.000055;-0.998920;-0.046470;,
  -0.000251;0.789443;0.613823;,
  -0.000102;-0.826211;0.563361;,
  0.805533;-0.320082;-0.498663;,
  0.751286;-0.326318;0.573659;,
  0.751286;-0.326318;0.573659;,
  -0.802674;-0.318926;-0.503985;,
  -0.802674;-0.318926;-0.503985;,
  -0.731429;-0.324171;0.599938;,
  -0.731429;-0.324171;0.599938;,
  -0.870878;0.385893;-0.304399;,
  -0.870878;0.385893;-0.304399;,
  0.879040;0.367028;-0.304268;,
  0.614273;0.703869;0.356703;,
  0.614273;0.703869;0.356703;,
  0.614273;0.703869;0.356703;,
  0.850010;-0.407080;0.334319;,
  0.850010;-0.407080;0.334319;,
  0.850010;-0.407080;0.334319;,
  0.291008;-0.939032;0.183122;,
  0.291008;-0.939032;0.183122;,
  0.084234;-0.981501;0.171934;,
  0.084234;-0.981501;0.171934;,
  0.172133;0.957541;0.231268;,
  0.172133;0.957541;0.231268;,
  -0.000121;-0.985321;0.170715;,
  -0.000121;-0.985321;0.170715;,
  -0.000305;0.971123;0.238579;,
  -0.000305;0.971123;0.238579;,
  -0.172700;0.956574;0.234823;,
  -0.172700;0.956574;0.234823;,
  -0.274889;-0.943679;0.184136;,
  -0.274889;-0.943679;0.184136;,
  -0.274889;-0.943679;0.184136;,
  -0.084571;-0.981160;0.173704;,
  -0.084571;-0.981160;0.173704;,
  -0.599327;0.711071;0.367674;,
  -0.599327;0.711071;0.367674;,
  -0.839671;-0.410063;0.356092;,
  -0.839671;-0.410063;0.356092;,
  -0.839671;-0.410063;0.356092;,
  -0.839671;-0.410063;0.356092;,
  -0.599327;0.711071;0.367674;,
  -0.084571;-0.981160;0.173704;,
  -0.274889;-0.943679;0.184136;,
  -0.172700;0.956574;0.234823;,
  -0.000305;0.971123;0.238579;,
  -0.000121;-0.985321;0.170715;,
  0.172133;0.957541;0.231268;,
  0.084234;-0.981501;0.171934;,
  0.291008;-0.939032;0.183122;,
  0.850010;-0.407080;0.334319;,
  0.614273;0.703869;0.356703;,
  0.879040;0.367028;-0.304268;,
  -0.870878;0.385893;-0.304399;,
  -0.807757;0.560148;-0.183747;,
  -0.494990;0.838755;-0.226883;,
  0.499181;0.837669;-0.221649;,
  0.809226;0.558314;-0.182865;,
  -0.729966;0.553207;-0.401388;,
  -0.459746;0.772601;-0.437861;,
  0.469908;0.765299;-0.439891;,
  0.731440;0.551549;-0.400984;,
  -0.731429;-0.324171;0.599938;,
  -0.908998;-0.320841;0.266050;,
  -0.948300;-0.266083;0.172997;,
  -0.985266;-0.152368;0.077683;,
  -0.802674;-0.318926;-0.503985;,
  0.751286;-0.326318;0.573659;,
  0.915542;-0.315667;0.249272;,
  0.950802;-0.262118;0.165134;,
  0.984593;-0.157713;0.075515;,
  0.805533;-0.320082;-0.498663;,
  -0.361914;-0.914266;0.182032;,
  -0.382189;-0.923140;0.041767;,
  -0.408526;-0.901873;0.140471;,
  -0.137931;-0.990164;0.023460;,
  -0.095546;-0.980146;0.173738;,
  -0.117443;-0.984335;0.131501;,
  -0.000248;-0.999545;0.030171;,
  -0.000143;-0.984231;0.176885;,
  -0.000155;-0.990715;0.135956;,
  0.095157;-0.980412;0.172447;,
  0.137434;-0.990241;0.023112;,
  0.116971;-0.984483;0.130811;,
  0.380037;-0.907202;0.180435;,
  0.394156;-0.918105;0.041529;,
  0.424103;-0.894780;0.139663;,
  0.652689;0.755532;0.056280;,
  0.641062;0.755185;0.136881;,
  0.296842;0.954791;0.016069;,
  0.178136;0.961702;0.208321;,
  0.234165;0.965095;0.117299;,
  -0.000369;0.974969;0.222341;,
  0.631682;0.726568;0.270329;,
  -0.000732;0.999428;0.033800;,
  -0.000560;0.988270;0.152717;,
  -0.297777;0.954488;0.016784;,
  -0.178730;0.961058;0.210769;,
  -0.234940;0.964740;0.118662;,
  -0.642906;0.763842;0.056727;,
  -0.618548;0.734968;0.277885;,
  -0.630837;0.763267;0.139530;,
  -0.000102;-0.826211;0.563361;,
  -0.000251;0.789443;0.613823;,
  0.000055;-0.998920;-0.046470;,
  -0.002164;0.980243;-0.197784;,
  0.145554;0.785346;0.601702;,
  -0.070912;-0.822270;0.564663;,
  -0.416741;0.830482;-0.369630;,
  -0.145872;0.783548;0.603965;,
  0.161798;-0.970786;-0.177187;,
  -0.161611;-0.969893;-0.182178;,
  0.416209;0.835479;-0.358810;,
  0.070673;-0.823068;0.563529;,
  0.454236;0.477419;-0.752157;,
  0.494298;0.353644;0.794107;,
  0.396174;-0.609951;-0.686298;,
  0.319781;-0.627672;0.709766;,
  -0.448169;0.478928;-0.754833;,
  -0.475885;0.360156;0.802385;,
  -0.388191;-0.612530;-0.688560;,
  -0.300268;-0.629833;0.716345;,
  -0.663118;0.619155;-0.420620;,
  0.672813;0.609471;-0.419367;,
  -0.697255;0.693609;-0.180949;,
  0.702090;0.689734;-0.177025;,
  0.647297;0.712487;-0.270865;,
  -0.647919;0.706016;-0.285907;,
  0.478259;0.743505;-0.467406;,
  0.625723;0.710143;-0.322750;,
  0.658147;0.715423;-0.234545;,
  0.554554;0.683078;-0.475263;,
  -0.552017;0.681767;-0.480074;,
  -0.655086;0.718023;-0.235170;,
  -0.622831;0.712808;-0.322471;,
  -0.475231;0.745644;-0.467087;,
  0.000645;-0.999760;-0.021902;,
  0.000732;-0.925793;-0.378029;,
  0.000877;-0.989565;-0.144084;,
  0.000806;-0.999650;-0.026442;,
  0.002525;0.766273;-0.642510;,
  -0.003433;0.887713;-0.460384;,
  0.001619;0.812338;-0.583184;,
  -0.003411;0.959162;-0.282835;,
  0.484620;-0.811500;-0.326514;,
  0.570486;-0.796664;-0.199679;,
  0.618972;-0.785109;-0.021843;,
  -0.482857;-0.810374;-0.331879;,
  -0.569827;-0.797156;-0.199596;,
  -0.618605;-0.785401;-0.021727;,
  0.389266;-0.672613;-0.629336;,
  -0.386987;-0.673494;-0.629799;,
  0.001470;-0.677514;-0.735509;,
  0.607278;0.734544;-0.302752;,
  0.653979;0.463941;-0.597554;,
  0.730953;0.656738;-0.185479;,
  -0.652375;0.463223;-0.599860;,
  -0.607348;0.734501;-0.302714;,
  -0.731152;0.656549;-0.185364;,
  -0.398239;0.689812;-0.604619;,
  0.400554;0.689446;-0.603507;,
  0.942396;-0.076370;-0.325664;,
  0.821353;-0.135928;-0.553989;,
  0.986546;-0.156507;-0.047242;,
  -0.818226;-0.135573;-0.558683;,
  -0.942436;-0.076385;-0.325546;,
  -0.986569;-0.156440;-0.046986;,
  0.622091;0.065706;-0.780183;,
  -0.619576;0.064819;-0.782256;,
  0.002705;0.421432;-0.906856;,
  0.809525;0.007371;-0.587040;,
  -0.809391;0.007015;-0.587229;,
  0.511921;0.726317;-0.458696;,
  0.540238;-0.729037;-0.420295;,
  -0.511477;0.726627;-0.458699;,
  -0.539070;-0.729923;-0.420257;;

  155;
  4;148,149,152,151;,
  4;240,243,246,231;,
  4;233,242,244,225;,
  4;140,156,158,141;,
  4;58,83,74,50;,
  4;144,146,149,148;,
  4;5,243,247,220;,
  4;239,242,245,222;,
  4;141,158,157,142;,
  4;27,218,235,9;,
  4;232,244,242,239;,
  4;223,247,243,240;,
  3;241,240,231;,
  4;240,241,224,223;,
  4;222,224,241,239;,
  10;32,67,73,59,46,53,68,72,66,39;,
  4;217,245,242,233;,
  4;218,217,233,235;,
  4;235,233,225,227;,
  4;8,235,227,19;,
  4;13,246,243,4;,
  3;234,57,49;,
  4;221,23,7,2;,
  4;1,6,16,11;,
  4;3,0,10,12;,
  4;220,221,238,237;,
  4;78,36,145,137;,
  3;209,247,223;,
  4;137,145,146,136;,
  3;207,212,214;,
  4;200,244,232,214;,
  3;131,213,212;,
  4;201,225,244,200;,
  4;127,215,213,131;,
  4;202,227,225,201;,
  4;152,150,154,155;,
  4;203,18,227,202;,
  4;136,146,144,135;,
  4;220,247,209,210;,
  4;210,209,245,217;,
  4;221,220,210,211;,
  4;211,210,217,218;,
  4;22,221,211,30;,
  4;29,211,218,26;,
  4;214,231,246,207;,
  4;207,246,229,206;,
  4;206,229,230,205;,
  4;205,230,15,204;,
  4;111,80,38,108;,
  4;142,157,48,143;,
  4;89,76,45,91;,
  4;155,154,157,158;,
  4;132,213,215,128;,
  3;212,213,132;,
  3;214,212,200;,
  4;153,155,158,156;,
  4;151,152,155,153;,
  4;141,160,165,140;,
  4;142,159,160,141;,
  3;124,56,159;,
  4;135,172,173,136;,
  4;136,173,171,137;,
  3;203,202,129;,
  4;129,202,201,133;,
  3;133,201,200;,
  3;207,206,130;,
  4;130,206,205,126;,
  3;126,205,204;,
  4;110,135,144,104;,
  3;232,239,241;,
  3;241,231,214;,
  3;241,214,232;,
  3;222,245,209;,
  3;209,224,222;,
  3;223,224,209;,
  3;171,43,82;,
  4;88,140,165,86;,
  3;37,79,31;,
  4;106,179,193,103;,
  4;95,178,52,85;,
  4;35,77,81,42;,
  4;146,145,147,149;,
  3;44,75,51;,
  3;236,34,41;,
  3;40,14,236;,
  4;149,147,150,152;,
  4;168,180,190,171;,
  4;166,177,180,168;,
  4;161,184,177,166;,
  4;154,65,47,157;,
  4;97,174,179,105;,
  4;93,185,174,96;,
  4;159,55,184,161;,
  4;99,175,178,94;,
  4;101,181,175,98;,
  4;107,191,181,100;,
  4;170,168,171,173;,
  4;167,166,168,170;,
  4;163,161,166,167;,
  4;160,159,161,163;,
  4;165,160,163,162;,
  4;162,163,167,164;,
  4;164,167,170,169;,
  4;169,170,173,172;,
  4;90,189,185,92;,
  4;150,71,64,154;,
  4;147,62,70,150;,
  4;145,33,61,147;,
  3;177,184,198;,
  3;199,180,177;,
  3;128,215,177;,
  4;127,196,199,177;,
  3;188,25,234;,
  3;203,198,184;,
  3;234,17,54;,
  4;63,69,28,24;,
  3;60,192,21;,
  4;20,208,176,183;,
  3;216,188,182;,
  3;204,228,190;,
  3;236,219,192;,
  3;180,199,204;,
  3;186,226,203;,
  3;190,180,204;,
  3;203,184,186;,
  3;177,215,127;,
  4;177,198,197,128;,
  4;128,197,195,132;,
  3;132,195,212;,
  3;212,194,131;,
  4;131,194,196,127;,
  3;212,195,133;,
  4;133,195,197,129;,
  4;129,197,198,203;,
  3;130,194,212;,
  4;126,196,194,130;,
  4;204,199,196,126;,
  3;130,212,207;,
  3;200,212,133;,
  3;142,143,124;,
  3;124,159,142;,
  3;125,138,137;,
  3;137,171,125;,
  4;84,165,162,119;,
  4;119,162,164,117;,
  4;117,164,169,116;,
  4;116,169,172,113;,
  4;113,172,135,109;,
  4;102,193,134,112;,
  4;115,144,148,114;,
  4;114,148,151,118;,
  4;118,151,153,120;,
  4;120,153,156,121;,
  4;121,156,140,87;,
  4;123,187,139,122;;
 }
 MeshTextureCoords { 
 248;
 0.895909;0.128938;,
 0.725909;0.262271;,
 0.725909;0.262271;,
 0.986870;0.128938;,
 0.816870;0.262271;,
 0.816870;0.262271;,
 0.634947;0.262271;,
 0.634947;0.262271;,
 0.634947;0.262271;,
 0.634947;0.262271;,
 0.895909;0.056749;,
 0.725909;0.190082;,
 0.986765;0.081597;,
 0.816765;0.214930;,
 0.243811;0.472574;,
 0.635052;0.158806;,
 0.635052;0.158806;,
 0.243811;0.472574;,
 0.635052;0.158806;,
 0.635052;0.158806;,
 0.601667;0.331667;,
 0.231865;0.662268;,
 0.635052;0.308489;,
 0.635052;0.308489;,
 0.635052;0.308489;,
 0.231865;0.662268;,
 0.635052;0.308489;,
 0.635052;0.308489;,
 0.635000;0.365000;,
 0.635000;0.365000;,
 0.635000;0.365000;,
 0.306278;0.526156;,
 0.306278;0.526156;,
 0.595000;0.291667;,
 0.130734;0.709746;,
 0.130734;0.709746;,
 0.595000;0.291667;,
 0.297840;0.405191;,
 0.928006;0.431904;,
 0.297840;0.405191;,
 0.132746;0.414128;,
 0.132746;0.414128;,
 0.132746;0.414128;,
 0.575000;0.138333;,
 0.609766;0.526990;,
 0.998333;0.511667;,
 0.609766;0.526990;,
 0.595000;0.291667;,
 0.595000;0.291667;,
 0.130734;0.709746;,
 0.130734;0.709746;,
 0.613440;0.411024;,
 0.998333;0.511667;,
 0.613440;0.411024;,
 0.132746;0.414128;,
 0.575000;0.138333;,
 0.575000;0.138333;,
 0.132746;0.414128;,
 0.132746;0.414128;,
 0.533495;0.535217;,
 0.260512;0.686835;,
 0.601667;0.331667;,
 0.601667;0.331667;,
 0.601667;0.331667;,
 0.601667;0.331667;,
 0.601667;0.331667;,
 0.381397;0.401466;,
 0.387230;0.533551;,
 0.533495;0.403133;,
 0.608333;0.365000;,
 0.608333;0.365000;,
 0.608333;0.365000;,
 0.446053;0.383491;,
 0.447720;0.537866;,
 0.024105;0.621403;,
 0.648420;0.513462;,
 0.998333;0.538333;,
 0.024105;0.621403;,
 0.575000;0.238333;,
 0.266854;0.516796;,
 0.928333;0.511667;,
 0.046779;0.470606;,
 0.575000;0.178333;,
 0.046779;0.470606;,
 0.015000;0.138333;,
 0.928333;0.511667;,
 0.015000;0.138333;,
 0.015000;0.238333;,
 0.015000;0.238333;,
 0.948333;0.538333;,
 0.928333;0.511667;,
 0.928333;0.511667;,
 0.928333;0.471667;,
 0.928333;0.471667;,
 0.928333;0.471667;,
 0.928333;0.471667;,
 0.928333;0.431667;,
 0.928333;0.431667;,
 0.928333;0.431667;,
 0.928333;0.431667;,
 0.928333;0.391667;,
 0.928333;0.391667;,
 0.928333;0.351667;,
 0.928333;0.351667;,
 0.015000;0.291667;,
 0.928333;0.391667;,
 0.928333;0.391667;,
 0.928333;0.351667;,
 0.995000;0.431667;,
 0.015000;0.238333;,
 0.015000;0.238333;,
 0.998333;0.511667;,
 0.948333;0.331667;,
 0.015000;0.138333;,
 0.015000;0.331667;,
 0.015000;0.291667;,
 0.015000;0.051667;,
 0.015000;0.005000;,
 0.015000;0.365000;,
 0.015000;0.051667;,
 0.015000;0.331667;,
 0.015000;0.291667;,
 0.995000;0.431667;,
 0.998333;0.511667;,
 0.575000;0.178333;,
 0.575000;0.178333;,
 0.724007;0.143962;,
 0.724844;0.078390;,
 0.724844;0.078390;,
 0.724007;0.143962;,
 0.816729;0.172409;,
 0.816715;0.120470;,
 0.816715;0.120470;,
 0.816729;0.172409;,
 0.998333;0.331667;,
 0.121667;0.238333;,
 0.281667;0.238333;,
 0.448333;0.238333;,
 0.575000;0.238333;,
 0.928006;0.431904;,
 0.121667;0.238333;,
 0.281667;0.238333;,
 0.448333;0.238333;,
 0.575000;0.238333;,
 0.121667;0.291667;,
 0.448333;0.291667;,
 0.281667;0.291667;,
 0.448333;0.331667;,
 0.121667;0.331667;,
 0.281667;0.331667;,
 0.448333;0.365000;,
 0.121667;0.365000;,
 0.281667;0.365000;,
 0.121667;0.331667;,
 0.448333;0.331667;,
 0.281667;0.331667;,
 0.121667;0.291667;,
 0.448333;0.291667;,
 0.281667;0.291667;,
 0.448333;0.138333;,
 0.281667;0.138333;,
 0.448333;0.051667;,
 0.121667;0.051667;,
 0.281667;0.051667;,
 0.121667;0.005000;,
 0.121667;0.138333;,
 0.448333;0.006905;,
 0.281667;0.006905;,
 0.448333;0.051667;,
 0.121667;0.051667;,
 0.281667;0.051667;,
 0.448333;0.138333;,
 0.121667;0.138333;,
 0.281667;0.138333;,
 0.998333;0.431667;,
 0.998333;0.431667;,
 0.635000;0.365000;,
 0.635000;0.009286;,
 0.998333;0.471667;,
 0.998333;0.391667;,
 0.601667;0.051667;,
 0.998333;0.391667;,
 0.260512;0.686835;,
 0.635052;0.308489;,
 0.601667;0.051667;,
 0.998333;0.471667;,
 0.575000;0.138333;,
 0.928333;0.511667;,
 0.130734;0.709746;,
 0.998333;0.511667;,
 0.575000;0.138333;,
 0.998333;0.351667;,
 0.130734;0.709746;,
 0.998333;0.351667;,
 0.816722;0.144059;,
 0.816722;0.144059;,
 0.724426;0.116023;,
 0.724426;0.116023;,
 0.635232;0.089066;,
 0.635232;0.089066;,
 0.908690;0.219644;,
 0.816736;0.200759;,
 0.723588;0.171900;,
 0.635172;0.134371;,
 0.635172;0.134371;,
 0.723588;0.171900;,
 0.816736;0.200759;,
 0.908690;0.219644;,
 0.608333;0.365000;,
 0.908819;0.329632;,
 0.816488;0.356462;,
 0.728333;0.365000;,
 0.906251;0.182986;,
 0.816231;0.109973;,
 0.934583;0.215319;,
 0.725263;0.063130;,
 0.231865;0.662268;,
 0.816765;0.315840;,
 0.725909;0.312913;,
 0.231865;0.662268;,
 0.816765;0.315840;,
 0.725909;0.312913;,
 0.961393;0.295555;,
 0.961393;0.295555;,
 0.977520;0.284781;,
 0.816765;0.214930;,
 0.635052;0.158806;,
 0.725909;0.190082;,
 0.635052;0.158806;,
 0.816765;0.214930;,
 0.725909;0.190082;,
 0.958965;0.245628;,
 0.958965;0.245628;,
 0.816870;0.262271;,
 0.197905;0.637898;,
 0.725909;0.262271;,
 0.197905;0.637898;,
 0.816870;0.262271;,
 0.725909;0.262271;,
 0.964537;0.262271;,
 0.964537;0.262271;,
 0.990125;0.262271;,
 0.908522;0.262271;,
 0.908522;0.262271;,
 0.908749;0.228342;,
 0.908749;0.308271;,
 0.908749;0.228342;,
 0.908749;0.308271;;
 }
}
Frame frm-rwing {
  FrameTransformMatrix {
1.000000,0.000000,0.000000,0.000000,
0.000000,1.000000,0.000000,0.000000,
0.000000,0.000000,1.000000,0.000000,
0.011055,-0.071278,0.319215,1.000000;;
 }
Mesh rwing {
 15;
 -0.696689;-0.190621;1.639384;,
 -0.807521;-0.195772;0.501013;,
 -2.139336;0.071897;1.639384;,
 -2.139336;0.071897;1.290025;,
 -2.139336;0.071897;1.290025;,
 -1.173109;-0.129246;0.579915;,
 -1.173109;-0.129246;0.579915;,
 -1.173109;-0.129246;0.579915;,
 -1.157691;-0.044519;0.720730;,
 -2.021519;0.090112;1.430840;,
 -2.139336;0.071897;1.290025;,
 -2.139336;0.071897;1.639384;,
 -0.792103;-0.111045;0.641829;,
 -0.807521;-0.195772;0.501013;,
 -0.696689;-0.190621;1.639384;;

 5;
 4;8,12,1,6;,
 4;5,4,9,8;,
 5;2,3,7,13,0;,
 3;9,10,11;,
 5;11,14,12,8,9;;

 MeshMaterialList {
  2;
  5;
  0,
  0,
  1,
  0,
  0;
Material {
 1.000000;1.000000;1.000000;1.000000;;
 0.000000;
 1.000000;1.000000;1.000000;;
 0.0; 0.0; 0.0;;
 TextureFilename {
  "fig16.ppm";
 }
 }
Material {
 1.000000;1.000000;1.000000;1.000000;;
 0.000000;
 1.000000;1.000000;1.000000;;
 0.0; 0.0; 0.0;;
 TextureFilename {
  "fig16.ppm";
 }
 }
}
 MeshNormals {
  15;
  0.116983;-0.052173;0.991763;,
  -0.259294;-0.242116;-0.934958;,
  -0.136541;0.985910;0.096630;,
  -0.369727;0.888850;-0.270644;,
  -0.369727;0.888850;-0.270644;,
  -0.175349;0.701787;-0.690469;,
  -0.175349;0.701787;-0.690469;,
  -0.175349;0.701787;-0.690469;,
  0.058072;0.963535;-0.261206;,
  -0.009843;0.996720;-0.080331;,
  -0.369727;0.888850;-0.270644;,
  -0.136541;0.985910;0.096630;,
  0.124758;0.964748;-0.231728;,
  -0.259294;-0.242116;-0.934958;,
  0.116983;-0.052173;0.991763;;

  5;
  4;8,12,1,6;,
  4;5,4,9,8;,
  5;2,3,7,13,0;,
  3;9,10,11;,
  5;11,14,12,8,9;;
 }
 MeshTextureCoords { 
 15;
 0.281919;0.965284;,
 0.308357;0.696700;,
 0.018808;0.965284;,
 0.018807;0.883357;,
 0.615346;0.878903;,
 0.392031;0.713957;,
 0.392031;0.713957;,
 0.195029;0.716831;,
 0.389126;0.747525;,
 0.589101;0.912896;,
 0.615346;0.878903;,
 0.616677;0.952027;,
 0.305452;0.730268;,
 0.261705;0.698328;,
 0.297859;0.958940;;
 }
}
Frame frm-rwing_pod {
  FrameTransformMatrix {
1.000000,0.000000,0.000000,0.000000,
0.000000,1.000000,0.000000,0.000000,
0.000000,0.000000,1.000000,0.000000,
0.000000,0.000000,0.000000,1.000000;;
 }
Mesh rwing_pod {
 53;
 -2.162587;-0.000901;1.643253;,
 -2.162587;-0.000901;1.643253;,
 -2.162587;-0.000901;0.858838;,
 -2.162587;-0.000901;0.858838;,
 -2.138464;0.072162;1.629683;,
 -2.157491;0.049911;0.955562;,
 -2.157491;0.049911;0.955562;,
 -2.157491;0.049911;0.955562;,
 -2.145371;0.028918;0.858838;,
 -2.145371;0.028918;0.858838;,
 -2.104033;0.058648;1.629683;,
 -2.110940;0.028918;0.858838;,
 -2.093723;-0.000901;1.643253;,
 -2.093724;-0.000901;0.858838;,
 -2.110939;-0.030720;1.643253;,
 -2.110940;-0.030720;0.858838;,
 -2.145371;-0.030720;1.643253;,
 -2.145371;-0.030720;1.643253;,
 -2.145371;-0.030720;1.283199;,
 -2.145371;-0.030720;1.283199;,
 -2.157491;-0.051712;0.955562;,
 -2.157491;-0.051712;0.955562;,
 -2.145371;-0.030720;0.858838;,
 -2.145371;-0.030720;0.858838;,
 -2.151432;0.028794;1.267552;,
 -2.151432;0.028794;1.267552;,
 -2.151432;0.028794;1.267552;,
 -2.151432;0.028794;1.267552;,
 -2.104879;0.028794;1.267552;,
 -2.145371;-0.030720;0.858838;,
 -2.157491;-0.051712;0.955562;,
 -2.145371;-0.030720;1.283199;,
 -2.145371;-0.030720;1.643253;,
 -2.110940;-0.030720;0.858838;,
 -2.098819;-0.051712;0.955562;,
 -2.110939;-0.030720;1.283199;,
 -2.110939;-0.030720;1.643253;,
 -2.093724;-0.000901;0.858838;,
 -2.069483;-0.000901;0.955562;,
 -2.093723;-0.000901;1.283199;,
 -2.093723;-0.000901;1.643253;,
 -2.110940;0.028918;0.858838;,
 -2.098819;0.049911;0.955562;,
 -2.104033;0.058648;1.316155;,
 -2.104033;0.058648;1.629683;,
 -2.145371;0.028918;0.858838;,
 -2.157491;0.049911;0.955562;,
 -2.138464;0.072162;1.316155;,
 -2.138464;0.072162;1.629683;,
 -2.162587;-0.000901;0.858838;,
 -2.186827;-0.000901;0.955562;,
 -2.162587;-0.000901;1.283199;,
 -2.162587;-0.000901;1.643253;;

 23;
 6;4,1,17,14,12,10;,
 4;47,51,0,48;,
 3;51,47,26;,
 4;50,7,9,3;,
 6;13,15,23,2,8,11;,
 4;16,52,51,19;,
 4;48,44,43,47;,
 4;42,6,25,28;,
 4;5,42,41,45;,
 4;43,44,40,39;,
 3;28,43,39;,
 4;24,47,43,28;,
 4;39,35,34,38;,
 4;42,38,37,41;,
 4;51,27,46,50;,
 4;18,51,50,21;,
 4;40,36,35,39;,
 4;38,34,33,37;,
 4;20,50,49,22;,
 4;36,32,31,35;,
 4;35,31,30,34;,
 4;34,30,29,33;,
 4;39,38,42,28;;

 MeshMaterialList {
  1;
  23;
  0,
  0,
  0,
  0,
  0,
  0,
  0,
  0,
  0,
  0,
  0,
  0,
  0,
  0,
  0,
  0,
  0,
  0,
  0,
  0,
  0,
  0,
  0;
Material {
 1.000000;1.000000;1.000000;1.000000;;
 0.000000;
 1.000000;1.000000;1.000000;;
 0.0; 0.0; 0.0;;
 TextureFilename {
  "fig16.ppm";
 }
 }
}
 MeshNormals {
  53;
  -0.893213;-0.029840;0.448642;,
  -0.893213;-0.029840;0.448642;,
  -0.919477;0.000000;-0.393143;,
  -0.919477;0.000000;-0.393143;,
  -0.315813;0.771446;0.552389;,
  -0.553068;0.829614;-0.076527;,
  -0.553068;0.829614;-0.076527;,
  -0.553068;0.829614;-0.076527;,
  -0.459739;0.796291;-0.393143;,
  -0.459739;0.796291;-0.393143;,
  0.674408;0.603167;0.425868;,
  0.459739;0.796291;-0.393143;,
  0.890990;-0.095001;0.443973;,
  0.919477;-0.000000;-0.393143;,
  0.476959;-0.746542;0.463880;,
  0.459738;-0.796291;-0.393143;,
  -0.449822;-0.722296;0.525308;,
  -0.449822;-0.722296;0.525308;,
  -0.499673;-0.865458;0.036192;,
  -0.499673;-0.865458;0.036192;,
  -0.498159;-0.862836;-0.085746;,
  -0.498159;-0.862836;-0.085746;,
  -0.459739;-0.796291;-0.393143;,
  -0.459739;-0.796291;-0.393143;,
  -0.545064;0.821250;-0.168682;,
  -0.545064;0.821250;-0.168682;,
  -0.545064;0.821250;-0.168682;,
  -0.545064;0.821250;-0.168682;,
  0.723380;0.681714;-0.109487;,
  -0.459739;-0.796291;-0.393143;,
  -0.498159;-0.862836;-0.085746;,
  -0.499673;-0.865458;0.036192;,
  -0.449822;-0.722296;0.525308;,
  0.459738;-0.796291;-0.393143;,
  0.498158;-0.862836;-0.085746;,
  0.499672;-0.865458;0.036192;,
  0.476959;-0.746542;0.463880;,
  0.919477;-0.000000;-0.393143;,
  0.997807;-0.012494;-0.064998;,
  0.999280;-0.037596;-0.005122;,
  0.890990;-0.095001;0.443973;,
  0.459739;0.796291;-0.393143;,
  0.553068;0.829614;-0.076527;,
  0.798070;0.588441;-0.129695;,
  0.674408;0.603167;0.425868;,
  -0.459739;0.796291;-0.393143;,
  -0.553068;0.829614;-0.076527;,
  -0.495790;0.837065;-0.231334;,
  -0.315813;0.771446;0.552389;,
  -0.919477;0.000000;-0.393143;,
  -0.997807;-0.012494;-0.064997;,
  -0.999598;0.022961;0.016638;,
  -0.893213;-0.029840;0.448642;;

  23;
  6;4,1,17,14,12,10;,
  4;47,51,0,48;,
  3;51,47,26;,
  4;50,7,9,3;,
  6;13,15,23,2,8,11;,
  4;16,52,51,19;,
  4;48,44,43,47;,
  4;42,6,25,28;,
  4;5,42,41,45;,
  4;43,44,40,39;,
  3;28,43,39;,
  4;24,47,43,28;,
  4;39,35,34,38;,
  4;42,38,37,41;,
  4;51,27,46,50;,
  4;18,51,50,21;,
  4;40,36,35,39;,
  4;38,34,33,37;,
  4;20,50,49,22;,
  4;36,32,31,35;,
  4;35,31,30,34;,
  4;34,30,29,33;,
  4;39,38,42,28;;
 }
 MeshTextureCoords { 
 53;
 0.124043;0.083873;,
 0.115181;0.214636;,
 0.250494;0.555616;,
 0.122790;0.294266;,
 0.107106;0.214178;,
 0.159945;0.229727;,
 0.159945;0.229727;,
 0.142972;0.229667;,
 0.195332;0.473151;,
 0.141014;0.294320;,
 0.117179;0.213610;,
 0.115988;0.471544;,
 0.140858;0.213678;,
 0.059812;0.560322;,
 0.147716;0.214166;,
 0.099658;0.645745;,
 0.109400;0.083474;,
 0.141352;0.214760;,
 0.108740;0.182575;,
 0.108740;0.182575;,
 0.108872;0.229569;,
 0.108872;0.229569;,
 0.110689;0.292710;,
 0.211746;0.647740;,
 0.160755;0.187796;,
 0.160755;0.187796;,
 0.139232;0.186970;,
 0.139232;0.186970;,
 0.139232;0.186970;,
 0.101393;0.292862;,
 0.101746;0.229527;,
 0.100580;0.182538;,
 0.099573;0.083436;,
 0.110689;0.292710;,
 0.108872;0.229569;,
 0.108740;0.182575;,
 0.109400;0.083474;,
 0.122790;0.294266;,
 0.124430;0.229613;,
 0.123519;0.181667;,
 0.123621;0.083515;,
 0.141014;0.294320;,
 0.142972;0.229667;,
 0.146516;0.175835;,
 0.147091;0.087317;,
 0.159461;0.294761;,
 0.142972;0.229667;,
 0.157593;0.174259;,
 0.157222;0.084259;,
 0.122790;0.294266;,
 0.124430;0.229613;,
 0.123519;0.181667;,
 0.123621;0.083515;;
 }
}
}
}
Frame frm-lwing {
  FrameTransformMatrix {
-1.000000,0.000000,-0.000000,0.000000,
0.000000,1.000000,0.000000,0.000000,
0.000000,0.000000,-1.000000,0.000000,
0.011055,-0.071278,0.319215,1.000000;;
 }
Mesh lwing {
 15;
 -0.696689;-0.190621;-1.639384;,
 -0.807521;-0.195772;-0.501013;,
 -2.139336;0.071897;-1.639384;,
 -2.139336;0.071897;-1.290025;,
 -2.139336;0.071897;-1.290025;,
 -1.173109;-0.129246;-0.579915;,
 -1.173109;-0.129246;-0.579915;,
 -1.173109;-0.129246;-0.579915;,
 -1.157691;-0.044519;-0.720730;,
 -2.021519;0.090112;-1.430840;,
 -2.139336;0.071897;-1.290025;,
 -2.139336;0.071897;-1.639384;,
 -0.792103;-0.111045;-0.641829;,
 -0.807521;-0.195772;-0.501013;,
 -0.696689;-0.190621;-1.639384;;

 5;
 4;6,1,12,8;,
 4;8,9,4,5;,
 5;0,13,7,3,2;,
 3;11,10,9;,
 5;9,8,12,14,11;;

 MeshMaterialList {
  2;
  5;
  0,
  0,
  1,
  0,
  0;
Material {
 1.000000;1.000000;1.000000;1.000000;;
 0.000000;
 1.000000;1.000000;1.000000;;
 0.0; 0.0; 0.0;;
 TextureFilename {
  "fig16.ppm";
 }
 }
Material {
 1.000000;1.000000;1.000000;1.000000;;
 0.000000;
 1.000000;1.000000;1.000000;;
 0.0; 0.0; 0.0;;
 TextureFilename {
  "fig16.ppm";
 }
 }
}
 MeshNormals {
  15;
  0.116983;-0.052173;-0.991763;,
  -0.259294;-0.242116;0.934958;,
  -0.136541;0.985910;-0.096630;,
  -0.369727;0.888850;0.270644;,
  -0.369727;0.888850;0.270644;,
  -0.175349;0.701787;0.690469;,
  -0.175349;0.701787;0.690469;,
  -0.175349;0.701787;0.690469;,
  0.058072;0.963535;0.261206;,
  -0.009843;0.996720;0.080331;,
  -0.369727;0.888850;0.270644;,
  -0.136541;0.985910;-0.096630;,
  0.124758;0.964748;0.231728;,
  -0.259294;-0.242116;0.934958;,
  0.116983;-0.052173;-0.991763;;

  5;
  4;6,1,12,8;,
  4;8,9,4,5;,
  5;0,13,7,3,2;,
  3;11,10,9;,
  5;9,8,12,14,11;;
 }
 MeshTextureCoords { 
 15;
 0.281919;0.965284;,
 0.308357;0.696700;,
 0.018808;0.965284;,
 0.018807;0.883357;,
 0.615346;0.878903;,
 0.392031;0.713957;,
 0.392031;0.713957;,
 0.195029;0.716831;,
 0.389126;0.747525;,
 0.589101;0.912896;,
 0.615346;0.878903;,
 0.616677;0.952027;,
 0.305452;0.730268;,
 0.261705;0.698328;,
 0.297859;0.958940;;
 }
}
Frame frm-lwingpod {
  FrameTransformMatrix {
1.000000,0.000000,0.000000,0.000000,
0.000000,1.000000,0.000000,0.000000,
0.000000,0.000000,1.000000,0.000000,
0.000000,0.000000,0.000000,1.000000;;
 }
Mesh lwingpod {
 53;
 -2.162587;-0.000901;-1.643253;,
 -2.162587;-0.000901;-1.643253;,
 -2.162587;-0.000901;-0.858839;,
 -2.162587;-0.000901;-0.858839;,
 -2.138464;0.072162;-1.629684;,
 -2.157491;0.049911;-0.955563;,
 -2.157491;0.049911;-0.955563;,
 -2.157491;0.049911;-0.955563;,
 -2.145371;0.028918;-0.858839;,
 -2.145371;0.028918;-0.858839;,
 -2.104032;0.058648;-1.629684;,
 -2.110939;0.028918;-0.858839;,
 -2.093723;-0.000901;-1.643253;,
 -2.093723;-0.000901;-0.858839;,
 -2.110939;-0.030720;-1.643253;,
 -2.110939;-0.030720;-0.858839;,
 -2.145371;-0.030720;-1.643253;,
 -2.145371;-0.030720;-1.643253;,
 -2.145371;-0.030720;-1.283200;,
 -2.145371;-0.030720;-1.283200;,
 -2.157491;-0.051712;-0.955563;,
 -2.157491;-0.051712;-0.955563;,
 -2.145371;-0.030720;-0.858839;,
 -2.145371;-0.030720;-0.858839;,
 -2.151431;0.028794;-1.267552;,
 -2.151431;0.028794;-1.267552;,
 -2.151431;0.028794;-1.267552;,
 -2.151431;0.028794;-1.267552;,
 -2.104879;0.028794;-1.267552;,
 -2.145371;-0.030720;-0.858839;,
 -2.157491;-0.051712;-0.955563;,
 -2.145371;-0.030720;-1.283200;,
 -2.145371;-0.030720;-1.643253;,
 -2.110939;-0.030720;-0.858839;,
 -2.098819;-0.051712;-0.955563;,
 -2.110939;-0.030720;-1.283200;,
 -2.110939;-0.030720;-1.643253;,
 -2.093723;-0.000901;-0.858839;,
 -2.069483;-0.000901;-0.955563;,
 -2.093723;-0.000901;-1.283200;,
 -2.093723;-0.000901;-1.643253;,
 -2.110939;0.028918;-0.858839;,
 -2.098819;0.049911;-0.955563;,
 -2.104033;0.058648;-1.316155;,
 -2.104032;0.058648;-1.629684;,
 -2.145371;0.028918;-0.858839;,
 -2.157491;0.049911;-0.955563;,
 -2.138464;0.072162;-1.316155;,
 -2.138464;0.072162;-1.629684;,
 -2.162587;-0.000901;-0.858839;,
 -2.186827;-0.000901;-0.955563;,
 -2.162587;-0.000901;-1.283200;,
 -2.162587;-0.000901;-1.643253;;

 23;
 6;10,12,14,17,1,4;,
 4;48,0,51,47;,
 3;26,47,51;,
 4;3,9,7,50;,
 6;11,8,2,23,15,13;,
 4;19,51,52,16;,
 4;47,43,44,48;,
 4;28,25,6,42;,
 4;45,41,42,5;,
 4;39,40,44,43;,
 3;39,43,28;,
 4;28,43,47,24;,
 4;38,34,35,39;,
 4;41,37,38,42;,
 4;50,46,27,51;,
 4;21,50,51,18;,
 4;39,35,36,40;,
 4;37,33,34,38;,
 4;22,49,50,20;,
 4;35,31,32,36;,
 4;34,30,31,35;,
 4;33,29,30,34;,
 4;28,42,38,39;;

 MeshMaterialList {
  1;
  23;
  0,
  0,
  0,
  0,
  0,
  0,
  0,
  0,
  0,
  0,
  0,
  0,
  0,
  0,
  0,
  0,
  0,
  0,
  0,
  0,
  0,
  0,
  0;
Material {
 1.000000;1.000000;1.000000;1.000000;;
 0.000000;
 1.000000;1.000000;1.000000;;
 0.0; 0.0; 0.0;;
 TextureFilename {
  "fig16.ppm";
 }
 }
}
 MeshNormals {
  53;
  -0.893213;-0.029840;-0.448642;,
  -0.893213;-0.029840;-0.448642;,
  -0.919477;0.000000;0.393143;,
  -0.919477;0.000000;0.393143;,
  -0.315813;0.771446;-0.552389;,
  -0.553068;0.829614;0.076527;,
  -0.553068;0.829614;0.076527;,
  -0.553068;0.829614;0.076527;,
  -0.459739;0.796291;0.393143;,
  -0.459739;0.796291;0.393143;,
  0.674408;0.603167;-0.425868;,
  0.459739;0.796291;0.393143;,
  0.890990;-0.095001;-0.443973;,
  0.919477;-0.000000;0.393143;,
  0.476959;-0.746542;-0.463880;,
  0.459738;-0.796291;0.393143;,
  -0.449822;-0.722296;-0.525308;,
  -0.449822;-0.722296;-0.525308;,
  -0.499673;-0.865458;-0.036192;,
  -0.499673;-0.865458;-0.036192;,
  -0.498159;-0.862836;0.085746;,
  -0.498159;-0.862836;0.085746;,
  -0.459739;-0.796291;0.393143;,
  -0.459739;-0.796291;0.393143;,
  -0.545064;0.821250;0.168682;,
  -0.545064;0.821250;0.168682;,
  -0.545064;0.821250;0.168682;,
  -0.545064;0.821250;0.168682;,
  0.723380;0.681714;0.109487;,
  -0.459739;-0.796291;0.393143;,
  -0.498159;-0.862836;0.085746;,
  -0.499673;-0.865458;-0.036192;,
  -0.449822;-0.722296;-0.525308;,
  0.459738;-0.796291;0.393143;,
  0.498158;-0.862836;0.085746;,
  0.499672;-0.865458;-0.036192;,
  0.476959;-0.746542;-0.463880;,
  0.919477;-0.000000;0.393143;,
  0.997807;-0.012494;0.064998;,
  0.999280;-0.037596;0.005122;,
  0.890990;-0.095001;-0.443973;,
  0.459739;0.796291;0.393143;,
  0.553068;0.829614;0.076527;,
  0.798070;0.588441;0.129695;,
  0.674408;0.603167;-0.425868;,
  -0.459739;0.796291;0.393143;,
  -0.553068;0.829614;0.076527;,
  -0.495790;0.837065;0.231334;,
  -0.315813;0.771446;-0.552389;,
  -0.919477;0.000000;0.393143;,
  -0.997807;-0.012494;0.064997;,
  -0.999598;0.022961;-0.016638;,
  -0.893213;-0.029840;-0.448642;;

  23;
  6;10,12,14,17,1,4;,
  4;48,0,51,47;,
  3;26,47,51;,
  4;3,9,7,50;,
  6;11,8,2,23,15,13;,
  4;19,51,52,16;,
  4;47,43,44,48;,
  4;28,25,6,42;,
  4;45,41,42,5;,
  4;39,40,44,43;,
  3;39,43,28;,
  4;28,43,47,24;,
  4;38,34,35,39;,
  4;41,37,38,42;,
  4;50,46,27,51;,
  4;21,50,51,18;,
  4;39,35,36,40;,
  4;37,33,34,38;,
  4;22,49,50,20;,
  4;35,31,32,36;,
  4;34,30,31,35;,
  4;33,29,30,34;,
  4;28,42,38,39;;
 }
 MeshTextureCoords { 
 53;
 0.124043;0.083873;,
 0.115181;0.214636;,
 0.250494;0.555616;,
 0.122790;0.294266;,
 0.107106;0.214178;,
 0.159945;0.229727;,
 0.159945;0.229727;,
 0.142972;0.229667;,
 0.195332;0.473151;,
 0.141014;0.294320;,
 0.117179;0.213610;,
 0.115988;0.471544;,
 0.140858;0.213678;,
 0.059812;0.560322;,
 0.147716;0.214166;,
 0.099658;0.645745;,
 0.109400;0.083474;,
 0.141352;0.214760;,
 0.108740;0.182575;,
 0.108740;0.182575;,
 0.108872;0.229569;,
 0.108872;0.229569;,
 0.110689;0.292710;,
 0.211746;0.647740;,
 0.160755;0.187796;,
 0.160755;0.187796;,
 0.139232;0.186970;,
 0.139232;0.186970;,
 0.139232;0.186970;,
 0.101393;0.292862;,
 0.101746;0.229527;,
 0.100580;0.182538;,
 0.099573;0.083436;,
 0.110689;0.292710;,
 0.108872;0.229569;,
 0.108740;0.182575;,
 0.109400;0.083474;,
 0.122790;0.294266;,
 0.124430;0.229613;,
 0.123519;0.181667;,
 0.123621;0.083515;,
 0.141014;0.294320;,
 0.142972;0.229667;,
 0.146516;0.175835;,
 0.147091;0.087317;,
 0.159461;0.294761;,
 0.142972;0.229667;,
 0.157593;0.174259;,
 0.157222;0.084259;,
 0.122790;0.294266;,
 0.124430;0.229613;,
 0.123519;0.181667;,
 0.123621;0.083515;;
 }
}
}
}
Frame frm-rstablat {
  FrameTransformMatrix {
1.000000,0.000000,0.000000,0.000000,
0.000000,1.000000,0.000000,0.000000,
0.000000,0.000000,1.000000,0.000000,
0.011055,-0.071278,0.319215,1.000000;;
 }
Mesh rstablat {
 12;
 -0.329182;0.316223;1.507748;,
 -0.385296;0.483717;0.646928;,
 -0.640478;0.955398;1.507748;,
 -0.640478;0.955398;1.507748;,
 -0.649385;0.976466;1.059374;,
 -0.649385;0.976466;1.059374;,
 -0.651752;0.922287;1.160198;,
 -0.649385;0.976466;1.059374;,
 -0.640478;0.955398;1.507748;,
 -0.443398;0.464960;0.747752;,
 -0.385296;0.483717;0.646928;,
 -0.329182;0.316223;1.507748;;

 4;
 4;6,9,0,3;,
 4;6,5,1,9;,
 4;11,10,4,2;,
 3;8,7,6;;

 MeshMaterialList {
  2;
  4;
  0,
  0,
  1,
  0;
Material {
 1.000000;1.000000;1.000000;1.000000;;
 0.000000;
 1.000000;1.000000;1.000000;;
 0.0; 0.0; 0.0;;
 TextureFilename {
  "fig16.ppm";
 }
 }
Material {
 1.000000;1.000000;1.000000;1.000000;;
 0.000000;
 1.000000;1.000000;1.000000;;
 0.0; 0.0; 0.0;;
 TextureFilename {
  "fig16.ppm";
 }
 }
}
 MeshNormals {
  12;
  0.000603;0.037914;0.999281;,
  -0.075218;0.659182;-0.748212;,
  -0.992946;0.071450;0.094619;,
  -0.992946;0.071450;0.094619;,
  -0.915117;0.310897;-0.256717;,
  -0.915117;0.310897;-0.256717;,
  -0.979162;-0.181970;-0.090156;,
  -0.915117;0.310897;-0.256717;,
  -0.992946;0.071450;0.094619;,
  -0.937815;-0.314981;-0.145910;,
  -0.075218;0.659182;-0.748212;,
  0.000603;0.037914;0.999281;;

  4;
  4;6,9,0,3;,
  4;6,5,1,9;,
  4;11,10,4,2;,
  3;8,7,6;;
 }
 MeshTextureCoords { 
 12;
 0.666491;0.677534;,
 0.936276;0.605880;,
 0.646121;0.706928;,
 0.666491;0.386127;,
 0.779592;0.697633;,
 0.807014;0.376772;,
 0.775415;0.396156;,
 0.807014;0.376772;,
 0.666491;0.386127;,
 0.904678;0.601998;,
 0.902368;0.924976;,
 0.646121;0.996248;;
 }
}
}
Frame frm-lstablat {
  FrameTransformMatrix {
-1.000000,0.000000,-0.000000,0.000000,
0.000000,1.000000,0.000000,0.000000,
0.000000,0.000000,-1.000000,0.000000,
0.011055,-0.071278,0.319215,1.000000;;
 }
Mesh lstablat {
 12;
 -0.329182;0.316223;-1.507748;,
 -0.385296;0.483717;-0.646928;,
 -0.640478;0.955398;-1.507748;,
 -0.640478;0.955398;-1.507748;,
 -0.649385;0.976466;-1.059374;,
 -0.649385;0.976466;-1.059374;,
 -0.651752;0.922287;-1.160198;,
 -0.649385;0.976466;-1.059374;,
 -0.640478;0.955398;-1.507748;,
 -0.443398;0.464960;-0.747752;,
 -0.385296;0.483717;-0.646928;,
 -0.329182;0.316223;-1.507748;;

 4;
 4;3,0,9,6;,
 4;9,1,5,6;,
 4;2,4,10,11;,
 3;6,7,8;;

 MeshMaterialList {
  2;
  4;
  0,
  0,
  1,
  0;
Material {
 1.000000;1.000000;1.000000;1.000000;;
 0.000000;
 1.000000;1.000000;1.000000;;
 0.0; 0.0; 0.0;;
 TextureFilename {
  "fig16.ppm";
 }
 }
Material {
 1.000000;1.000000;1.000000;1.000000;;
 0.000000;
 1.000000;1.000000;1.000000;;
 0.0; 0.0; 0.0;;
 TextureFilename {
  "fig16.ppm";
 }
 }
}
 MeshNormals {
  12;
  0.000603;0.037914;-0.999281;,
  -0.075218;0.659182;0.748212;,
  -0.992946;0.071450;-0.094619;,
  -0.992946;0.071450;-0.094619;,
  -0.915117;0.310897;0.256717;,
  -0.915117;0.310897;0.256717;,
  -0.979162;-0.181970;0.090156;,
  -0.915117;0.310897;0.256717;,
  -0.992946;0.071450;-0.094619;,
  -0.937815;-0.314981;0.145910;,
  -0.075218;0.659182;0.748212;,
  0.000603;0.037914;-0.999281;;

  4;
  4;3,0,9,6;,
  4;9,1,5,6;,
  4;2,4,10,11;,
  3;6,7,8;;
 }
 MeshTextureCoords { 
 12;
 0.666491;0.677534;,
 0.936276;0.605880;,
 0.646121;0.706928;,
 0.666491;0.386127;,
 0.779592;0.697633;,
 0.807014;0.376772;,
 0.775415;0.396156;,
 0.807014;0.376772;,
 0.666491;0.386127;,
 0.904678;0.601998;,
 0.902368;0.924976;,
 0.646121;0.996248;;
 }
}
}
Frame frm-tur_pod {
  FrameTransformMatrix {
1.000000,0.000000,0.000000,0.000000,
0.000000,1.000000,0.000000,0.000000,
0.000000,0.000000,1.000000,0.000000,
0.011055,-0.397995,-1.614435,1.000000;;
 }
Mesh tur_pod {
 57;
 0.186858;-0.109459;-0.186858;,
 0.186858;-0.109459;-0.186858;,
 0.186858;-0.109459;-0.186858;,
 0.240474;-0.109459;-0.000000;,
 0.240474;-0.109459;-0.000000;,
 0.240474;-0.109459;-0.000000;,
 0.000000;-0.109459;-0.264257;,
 0.000000;-0.109459;-0.264257;,
 0.000000;-0.109459;-0.264257;,
 -0.186858;-0.109459;-0.186858;,
 -0.186858;-0.109459;-0.186858;,
 -0.186858;-0.109459;-0.186858;,
 -0.240474;-0.109459;-0.000000;,
 -0.240474;-0.109459;-0.000000;,
 -0.240474;-0.109459;-0.000000;,
 -0.186858;-0.109459;0.249062;,
 -0.186858;-0.109459;0.249062;,
 -0.186858;-0.109459;0.249062;,
 0.000000;-0.109459;0.326461;,
 0.000000;-0.109459;0.326461;,
 0.000000;-0.109459;0.326461;,
 0.186858;-0.109459;0.249062;,
 0.186858;-0.109459;0.249062;,
 0.186858;-0.109459;0.249062;,
 0.077399;-0.241637;0.139603;,
 0.143015;-0.172565;0.205219;,
 0.202254;0.000000;0.264458;,
 0.186858;-0.109459;0.249062;,
 0.000000;-0.241637;0.171663;,
 0.000000;-0.172565;0.264458;,
 0.000000;0.000000;0.348234;,
 0.000000;-0.109459;0.326461;,
 -0.077399;-0.241637;0.139603;,
 -0.143015;-0.172565;0.205219;,
 -0.202254;0.000000;0.264458;,
 -0.186858;-0.109459;0.249062;,
 -0.109459;-0.252947;-0.000000;,
 -0.202254;-0.202254;-0.000000;,
 -0.260287;0.000000;-0.000000;,
 -0.240474;-0.109459;-0.000000;,
 -0.077399;-0.252947;-0.077399;,
 -0.143015;-0.202254;-0.143015;,
 -0.163421;0.000000;-0.202254;,
 -0.186858;-0.109459;-0.186858;,
 0.000000;-0.252947;-0.109459;,
 0.000000;-0.202254;-0.202254;,
 0.000000;0.000000;-0.286030;,
 0.000000;-0.109459;-0.264257;,
 0.000000;-0.277547;-0.000000;,
 0.109459;-0.252947;-0.000000;,
 0.077399;-0.252947;-0.077399;,
 0.202254;-0.202254;-0.000000;,
 0.143015;-0.202254;-0.143015;,
 0.163421;0.000000;-0.202254;,
 0.260287;0.000000;-0.000000;,
 0.240474;-0.109459;-0.000000;,
 0.186858;-0.109459;-0.186858;;

 32;
 4;53,54,5,2;,
 4;1,4,51,52;,
 4;52,51,49,50;,
 3;48,50,49;,
 4;46,53,0,8;,
 4;7,56,52,45;,
 4;45,52,50,44;,
 3;48,44,50;,
 4;42,46,6,11;,
 4;10,47,45,41;,
 4;41,45,44,40;,
 3;48,40,44;,
 4;38,42,9,14;,
 4;13,43,41,37;,
 4;37,41,40,36;,
 3;48,36,40;,
 4;34,38,12,17;,
 4;16,39,37,33;,
 4;33,37,36,32;,
 3;48,32,36;,
 4;30,34,15,20;,
 4;19,35,33,29;,
 4;29,33,32,28;,
 3;48,28,32;,
 4;26,30,18,23;,
 4;22,31,29,25;,
 4;25,29,28,24;,
 3;48,24,28;,
 4;54,26,21,3;,
 4;55,27,25,51;,
 4;51,25,24,49;,
 3;48,49,24;;

 MeshMaterialList {
  1;
  32;
  0,
  0,
  0,
  0,
  0,
  0,
  0,
  0,
  0,
  0,
  0,
  0,
  0,
  0,
  0,
  0,
  0,
  0,
  0,
  0,
  0,
  0,
  0,
  0,
  0,
  0,
  0,
  0,
  0,
  0,
  0,
  0;
Material {
 1.000000;1.000000;1.000000;1.000000;;
 0.000000;
 1.000000;1.000000;1.000000;;
 0.0; 0.0; 0.0;;
 TextureFilename {
  "fig16.ppm";
 }
 }
}
 MeshNormals {
  57;
  0.698943;-0.301428;-0.648552;,
  0.698943;-0.301428;-0.648552;,
  0.698943;-0.301428;-0.648552;,
  0.952300;-0.300363;-0.053913;,
  0.952300;-0.300363;-0.053913;,
  0.952300;-0.300363;-0.053913;,
  0.000000;-0.351452;-0.936206;,
  0.000000;-0.351452;-0.936206;,
  0.000000;-0.351452;-0.936206;,
  -0.698943;-0.301428;-0.648552;,
  -0.698943;-0.301428;-0.648552;,
  -0.698943;-0.301428;-0.648552;,
  -0.952300;-0.300363;-0.053913;,
  -0.952300;-0.300363;-0.053913;,
  -0.952300;-0.300363;-0.053913;,
  -0.693367;-0.431561;0.577059;,
  -0.693367;-0.431561;0.577059;,
  -0.693367;-0.431561;0.577059;,
  -0.000000;-0.472055;0.881569;,
  -0.000000;-0.472055;0.881569;,
  -0.000000;-0.472055;0.881569;,
  0.693367;-0.431561;0.577059;,
  0.693367;-0.431561;0.577059;,
  0.693367;-0.431561;0.577059;,
  0.274851;-0.914653;0.296424;,
  0.497023;-0.735316;0.460736;,
  0.752666;-0.196879;0.628278;,
  0.693367;-0.431561;0.577059;,
  0.000000;-0.913019;0.407917;,
  -0.000000;-0.754059;0.656806;,
  -0.000000;-0.195090;0.980785;,
  -0.000000;-0.472055;0.881569;,
  -0.274851;-0.914653;0.296424;,
  -0.497023;-0.735316;0.460736;,
  -0.752666;-0.196879;0.628278;,
  -0.693367;-0.431561;0.577059;,
  -0.366943;-0.930023;0.020243;,
  -0.712713;-0.701451;-0.002696;,
  -0.992417;-0.093991;-0.079211;,
  -0.952300;-0.300363;-0.053913;,
  -0.248741;-0.936085;-0.248741;,
  -0.497651;-0.728165;-0.471295;,
  -0.728081;-0.064139;-0.682484;,
  -0.698943;-0.301428;-0.648552;,
  0.000000;-0.936085;-0.351773;,
  0.000000;-0.740915;-0.671599;,
  0.000000;-0.119655;-0.992815;,
  0.000000;-0.351452;-0.936206;,
  -0.000000;-0.999982;0.006053;,
  0.366943;-0.930023;0.020243;,
  0.248741;-0.936085;-0.248741;,
  0.712713;-0.701451;-0.002696;,
  0.497651;-0.728165;-0.471295;,
  0.728081;-0.064139;-0.682484;,
  0.992417;-0.093991;-0.079211;,
  0.952300;-0.300363;-0.053913;,
  0.698943;-0.301428;-0.648552;;

  32;
  4;53,54,5,2;,
  4;1,4,51,52;,
  4;52,51,49,50;,
  3;48,50,49;,
  4;46,53,0,8;,
  4;7,56,52,45;,
  4;45,52,50,44;,
  3;48,44,50;,
  4;42,46,6,11;,
  4;10,47,45,41;,
  4;41,45,44,40;,
  3;48,40,44;,
  4;38,42,9,14;,
  4;13,43,41,37;,
  4;37,41,40,36;,
  3;48,36,40;,
  4;34,38,12,17;,
  4;16,39,37,33;,
  4;33,37,36,32;,
  3;48,32,36;,
  4;30,34,15,20;,
  4;19,35,33,29;,
  4;29,33,32,28;,
  3;48,28,32;,
  4;26,30,18,23;,
  4;22,31,29,25;,
  4;25,29,28,24;,
  3;48,24,28;,
  4;54,26,21,3;,
  4;55,27,25,51;,
  4;51,25,24,49;,
  3;48,49,24;;
 }
 MeshTextureCoords { 
 57;
 0.579534;0.685027;,
 0.578675;0.686660;,
 0.579534;0.685027;,
 0.576567;0.685905;,
 0.526447;0.704152;,
 0.576567;0.685905;,
 0.580765;0.681958;,
 0.604412;0.635345;,
 0.580765;0.681958;,
 0.579540;0.678888;,
 0.578788;0.583166;,
 0.579540;0.678888;,
 0.576575;0.678005;,
 0.526593;0.564350;,
 0.576575;0.678005;,
 0.572621;0.678883;,
 0.454069;0.584747;,
 0.572621;0.678883;,
 0.571389;0.681951;,
 0.433749;0.635229;,
 0.571389;0.681951;,
 0.572615;0.685022;,
 0.445622;0.679074;,
 0.572615;0.685022;,
 0.484687;0.657563;,
 0.465016;0.676453;,
 0.572370;0.685275;,
 0.445622;0.679074;,
 0.475109;0.635259;,
 0.447318;0.635241;,
 0.571044;0.681951;,
 0.433749;0.635229;,
 0.484734;0.612968;,
 0.465103;0.594053;,
 0.572377;0.678630;,
 0.454069;0.584747;,
 0.526553;0.603760;,
 0.526581;0.577027;,
 0.576575;0.677679;,
 0.526593;0.564350;,
 0.549723;0.613011;,
 0.569394;0.594121;,
 0.579784;0.679273;,
 0.578788;0.583166;,
 0.559302;0.635314;,
 0.587093;0.635332;,
 0.581111;0.681958;,
 0.604412;0.635345;,
 0.526520;0.635293;,
 0.526487;0.666826;,
 0.549677;0.657605;,
 0.526459;0.693558;,
 0.569308;0.676521;,
 0.579779;0.684642;,
 0.576567;0.686231;,
 0.526447;0.704152;,
 0.578675;0.686660;;
 }
}
Frame frm-fgun {
  FrameTransformMatrix {
1.000000,0.000000,0.000000,0.000000,
0.000000,1.000000,0.000000,0.000000,
0.000000,0.000000,1.000000,0.000000,
-0.000000,-0.177248,-0.419162,1.000000;;
 }
Mesh fgun {
 57;
 0.012203;0.037558;0.300310;,
 0.012203;0.037558;0.300310;,
 0.039491;0.000000;0.300310;,
 0.039491;0.000000;0.300310;,
 0.039491;0.000000;0.300310;,
 0.007553;0.023247;-0.281956;,
 0.007553;0.023247;-0.281956;,
 0.024443;-0.000000;-0.281956;,
 0.024443;-0.000000;-0.281956;,
 -0.031949;0.023212;0.300310;,
 -0.031949;0.023212;0.300310;,
 -0.019775;0.014367;-0.281956;,
 -0.019775;0.014367;-0.281956;,
 -0.031949;-0.023212;0.300310;,
 -0.031949;-0.023212;0.300310;,
 -0.031949;-0.023212;0.300310;,
 -0.020393;-0.014817;-0.176257;,
 -0.020393;-0.014817;-0.176257;,
 -0.030899;-0.022450;-0.225227;,
 -0.030899;-0.022450;-0.225227;,
 -0.019775;-0.014367;-0.281956;,
 -0.019775;-0.014367;-0.281956;,
 0.012203;-0.037558;0.300310;,
 0.012203;-0.037558;0.300310;,
 0.012203;-0.037558;0.300310;,
 0.007790;-0.023974;-0.176257;,
 0.007790;-0.023974;-0.176257;,
 0.011802;-0.036324;-0.225227;,
 0.011802;-0.036324;-0.225227;,
 0.011802;-0.036324;-0.225227;,
 0.007553;-0.023247;-0.281956;,
 0.007553;-0.023247;-0.281956;,
 0.012203;0.037558;0.300310;,
 -0.031949;0.023212;0.300310;,
 -0.031949;-0.023212;0.300310;,
 0.012203;-0.037558;0.300310;,
 0.039491;0.000000;0.300310;,
 0.007553;-0.023247;-0.281956;,
 0.011802;-0.036324;-0.225227;,
 0.007790;-0.023974;-0.176257;,
 0.012203;-0.037558;0.300310;,
 -0.019775;-0.014367;-0.281956;,
 -0.030899;-0.022450;-0.225227;,
 -0.020393;-0.014817;-0.176257;,
 -0.031949;-0.023212;0.300310;,
 -0.019775;0.014367;-0.281956;,
 -0.030899;0.022450;-0.225227;,
 -0.020393;0.014817;-0.176257;,
 -0.031949;0.023212;0.300310;,
 0.024443;-0.000000;-0.281956;,
 0.007553;0.023247;-0.281956;,
 0.038193;0.000000;-0.225227;,
 0.011802;0.036324;-0.225227;,
 0.007790;0.023974;-0.176257;,
 0.025208;0.000000;-0.176257;,
 0.039491;0.000000;0.300310;,
 0.012203;0.037558;0.300310;;

 21;
 4;32,36,4,1;,
 4;33,32,0,10;,
 4;51,52,53,54;,
 4;56,3,54,53;,
 4;8,6,52,51;,
 4;29,51,54,26;,
 4;2,24,25,54;,
 4;34,33,9,15;,
 4;35,34,14,23;,
 4;52,46,47,53;,
 4;48,56,53,47;,
 4;5,12,46,52;,
 4;21,31,28,19;,
 4;22,13,17,39;,
 4;36,35,40,55;,
 4;18,27,39,16;,
 4;46,42,43,47;,
 4;44,48,47,43;,
 4;11,20,42,46;,
 4;30,7,51,38;,
 5;50,49,37,41,45;;

 MeshMaterialList {
  1;
  21;
  0,
  0,
  0,
  0,
  0,
  0,
  0,
  0,
  0,
  0,
  0,
  0,
  0,
  0,
  0,
  0,
  0,
  0,
  0,
  0,
  0;
Material {
 1.000000;1.000000;1.000000;1.000000;;
 0.000000;
 1.000000;1.000000;1.000000;;
 0.0; 0.0; 0.0;;
 TextureFilename {
  "fig16.ppm";
 }
 }
}
 MeshNormals {
  57;
  0.308878;0.950630;-0.029957;,
  0.308878;0.950630;-0.029957;,
  0.999551;0.000000;-0.029957;,
  0.999551;0.000000;-0.029957;,
  0.999551;0.000000;-0.029957;,
  0.232883;0.716740;-0.657304;,
  0.232883;0.716740;-0.657304;,
  0.753625;0.000000;-0.657304;,
  0.753625;0.000000;-0.657304;,
  -0.808654;0.587521;-0.029957;,
  -0.808654;0.587521;-0.029957;,
  -0.609696;0.442970;-0.657304;,
  -0.609696;0.442970;-0.657304;,
  -0.808654;-0.587522;-0.029957;,
  -0.808654;-0.587522;-0.029957;,
  -0.808654;-0.587522;-0.029957;,
  -0.803631;-0.583872;0.115194;,
  -0.803631;-0.583872;0.115194;,
  -0.808969;-0.587750;0.010936;,
  -0.808969;-0.587750;0.010936;,
  -0.609696;-0.442970;-0.657304;,
  -0.609696;-0.442970;-0.657304;,
  0.308878;-0.950630;-0.029957;,
  0.308878;-0.950630;-0.029957;,
  0.308878;-0.950630;-0.029957;,
  0.306960;-0.944725;0.115194;,
  0.306960;-0.944725;0.115194;,
  0.308999;-0.951000;0.010936;,
  0.308999;-0.951000;0.010936;,
  0.308999;-0.951000;0.010936;,
  0.232883;-0.716740;-0.657304;,
  0.232883;-0.716740;-0.657304;,
  0.000000;0.000000;0.000000;,
  0.000000;0.000000;0.000000;,
  0.000000;0.000000;0.000000;,
  0.000000;0.000000;0.000000;,
  0.000000;0.000000;0.000000;,
  0.232883;-0.716740;-0.657304;,
  0.308999;-0.951000;0.010936;,
  0.306960;-0.944725;0.115194;,
  0.308878;-0.950630;-0.029957;,
  -0.609696;-0.442970;-0.657304;,
  -0.808969;-0.587750;0.010936;,
  -0.803631;-0.583872;0.115194;,
  -0.808654;-0.587522;-0.029957;,
  -0.609696;0.442970;-0.657304;,
  -0.808969;0.587750;0.010935;,
  -0.803631;0.583872;0.115194;,
  -0.808654;0.587521;-0.029957;,
  0.753625;0.000000;-0.657304;,
  0.232883;0.716740;-0.657304;,
  0.999940;0.000000;0.010936;,
  0.308999;0.951000;0.010935;,
  0.306960;0.944725;0.115194;,
  0.993343;0.000000;0.115194;,
  0.999551;0.000000;-0.029957;,
  0.308878;0.950630;-0.029957;;

  21;
  4;32,36,4,1;,
  4;33,32,0,10;,
  4;51,52,53,54;,
  4;56,3,54,53;,
  4;8,6,52,51;,
  4;29,51,54,26;,
  4;2,24,25,54;,
  4;34,33,9,15;,
  4;35,34,14,23;,
  4;52,46,47,53;,
  4;48,56,53,47;,
  4;5,12,46,52;,
  4;21,31,28,19;,
  4;22,13,17,39;,
  4;36,35,40,55;,
  4;18,27,39,16;,
  4;46,42,43,47;,
  4;44,48,47,43;,
  4;11,20,42,46;,
  4;30,7,51,38;,
  5;50,49,37,41,45;;
 }
 MeshTextureCoords { 
 57;
 0.000000;0.000000;,
 0.000000;0.000000;,
 0.969728;0.999306;,
 0.969728;0.999306;,
 0.000000;0.500000;,
 0.986055;0.637233;,
 0.986055;0.637233;,
 0.969753;0.637226;,
 0.969753;0.637226;,
 0.000000;0.190983;,
 0.000000;0.190983;,
 0.969753;0.637226;,
 0.969753;0.637226;,
 0.934775;0.997515;,
 0.000000;0.809017;,
 0.000000;0.809017;,
 0.934113;0.703152;,
 0.934113;0.703152;,
 0.934717;0.672908;,
 0.934717;0.672908;,
 0.986055;0.637233;,
 0.934078;0.637865;,
 0.932941;0.997504;,
 0.000000;1.000000;,
 0.949399;0.999317;,
 0.939894;0.702962;,
 0.939894;0.702962;,
 0.932943;0.672897;,
 0.932943;0.672897;,
 0.948557;0.672514;,
 0.939389;0.637233;,
 0.932943;0.637858;,
 0.000000;0.000000;,
 0.000000;0.190983;,
 0.000000;0.809017;,
 0.000000;1.000000;,
 0.000000;0.500000;,
 0.894167;0.713333;,
 0.948557;0.672514;,
 0.932943;0.703144;,
 0.000000;1.000000;,
 0.845000;0.710833;,
 0.995223;0.672514;,
 0.986561;0.702962;,
 0.996066;0.999317;,
 0.836667;0.674167;,
 0.969751;0.672503;,
 0.969749;0.702954;,
 0.969728;0.999306;,
 0.905833;0.675000;,
 0.871667;0.643333;,
 0.969751;0.672503;,
 0.995223;0.672514;,
 0.986561;0.702962;,
 0.969749;0.702954;,
 0.000000;0.500000;,
 0.996066;0.999317;;
 }
}
}
}
}
AnimationSet {
 Animation anim-rwing {
  {frm-rwing}
  AnimationKey {
  2;
  2;
  1; 3; 0.011055, -0.071278, 0.319215;;,
  90; 3; 0.011055, -0.071278, 0.319215;;;
  }
 }
 Animation anim-lwing {
  {frm-lwing}
  AnimationKey {
  0;
  2;
  1; 4; 0.000000, 0.000000, 1.000000, -0.000000;;,
  90; 4; 0.000000, 0.000000, 1.000000, -0.000000;;;
  }
  AnimationKey {
  2;
  2;
  1; 3; 0.011055, -0.071278, 0.319215;;,
  90; 3; 0.011055, -0.071278, 0.319215;;;
  }
 }
 Animation anim-rstablat {
  {frm-rstablat}
  AnimationKey {
  2;
  2;
  1; 3; 0.011055, -0.071278, 0.319215;;,
  90; 3; 0.011055, -0.071278, 0.319215;;;
  }
 }
 Animation anim-lstablat {
  {frm-lstablat}
  AnimationKey {
  0;
  2;
  1; 4; 0.000000, 0.000000, 1.000000, -0.000000;;,
  90; 4; 0.000000, 0.000000, 1.000000, -0.000000;;;
  }
  AnimationKey {
  2;
  2;
  1; 3; 0.011055, -0.071278, 0.319215;;,
  90; 3; 0.011055, -0.071278, 0.319215;;;
  }
 }
 Animation anim-tur_pod {
  {frm-tur_pod}
  AnimationKey {
  2;
  2;
  1; 3; 0.011055, -0.397995, -1.614435;;,
  90; 3; 0.011055, -0.397995, -1.614435;;;
  }
 }
 Animation anim-fgun {
  {frm-fgun}
  AnimationKey {
  2;
  2;
  1; 3; -0.000000, -0.177248, -0.419162;;,
  90; 3; -0.000000, -0.177248, -0.419162;;;
  }
 }
}
