xof 0302txt 0032
template Header {
 <3D82AB43-62DA-11cf-AB39-0020AF71E433>
 WORD major;
 WORD minor;
 DWORD flags;
}

template Vector {
 <3D82AB5E-62DA-11cf-AB39-0020AF71E433>
 FLOAT x;
 FLOAT y;
 FLOAT z;
}

template Coords2d {
 <F6F23F44-7686-11cf-8F52-0040333594A3>
 FLOAT u;
 FLOAT v;
}

template Matrix4x4 {
 <F6F23F45-7686-11cf-8F52-0040333594A3>
 array FLOAT matrix[16];
}

template ColorRGBA {
 <35FF44E0-6C7C-11cf-8F52-0040333594A3>
 FLOAT red;
 FLOAT green;
 FLOAT blue;
 FLOAT alpha;
}

template ColorRGB {
 <D3E16E81-7835-11cf-8F52-0040333594A3>
 FLOAT red;
 FLOAT green;
 FLOAT blue;
}

template TextureFilename {
 <A42790E1-7810-11cf-8F52-0040333594A3>
 STRING filename;
}

template Material {
 <3D82AB4D-62DA-11cf-AB39-0020AF71E433>
 ColorRGBA faceColor;
 FLOAT power;
 ColorRGB specularColor;
 ColorRGB emissiveColor;
 [...]
}

template MeshFace {
 <3D82AB5F-62DA-11cf-AB39-0020AF71E433>
 DWORD nFaceVertexIndices;
 array DWORD faceVertexIndices[nFaceVertexIndices];
}

template MeshTextureCoords {
 <F6F23F40-7686-11cf-8F52-0040333594A3>
 DWORD nTextureCoords;
 array Coords2d textureCoords[nTextureCoords];
}

template MeshMaterialList {
 <F6F23F42-7686-11cf-8F52-0040333594A3>
 DWORD nMaterials;
 DWORD nFaceIndexes;
 array DWORD faceIndexes[nFaceIndexes];
 [Material]
}

template MeshNormals {
 <F6F23F43-7686-11cf-8F52-0040333594A3>
 DWORD nNormals;
 array Vector normals[nNormals];
 DWORD nFaceNormals;
 array MeshFace faceNormals[nFaceNormals];
}

template Mesh {
 <3D82AB44-62DA-11cf-AB39-0020AF71E433>
 DWORD nVertices;
 array Vector vertices[nVertices];
 DWORD nFaces;
 array MeshFace faces[nFaces];
 [...]
}

template FrameTransformMatrix {
 <F6F23F41-7686-11cf-8F52-0040333594A3>
 Matrix4x4 frameMatrix;
}

template Frame {
 <3D82AB46-62DA-11cf-AB39-0020AF71E433>
 [...]
}
template FloatKeys {
 <10DD46A9-775B-11cf-8F52-0040333594A3>
 DWORD nValues;
 array FLOAT values[nValues];
}

template TimedFloatKeys {
 <F406B180-7B3B-11cf-8F52-0040333594A3>
 DWORD time;
 FloatKeys tfkeys;
}

template AnimationKey {
 <10DD46A8-775B-11cf-8F52-0040333594A3>
 DWORD keyType;
 DWORD nKeys;
 array TimedFloatKeys keys[nKeys];
}

template AnimationOptions {
 <E2BF56C0-840F-11cf-8F52-0040333594A3>
 DWORD openclosed;
 DWORD positionquality;
}

template Animation {
 <3D82AB4F-62DA-11cf-AB39-0020AF71E433>
 [...]
}

template AnimationSet {
 <3D82AB50-62DA-11cf-AB39-0020AF71E433>
 [Animation]
}

Header {
 1;
 0;
 1;
}

Frame frm-canopy_1_1 {
  FrameTransformMatrix {
1.000000,0.000000,0.000000,0.000000,
0.000000,1.000000,0.000000,0.000000,
0.000000,0.000000,1.000000,0.000000,
0.000000,0.310433,-0.882877,1.000000;;
 }
Mesh canopy_1_1 {
 154;
 -0.157612;-0.311600;-1.312890;,
 -0.157612;-0.311600;-1.312890;,
 0.157612;-0.311600;-1.312890;,
 -0.805159;-0.076659;0.208692;,
 -0.805159;-0.076659;0.208692;,
 -0.805159;-0.076659;0.208692;,
 -0.233618;-0.320131;-1.213323;,
 -0.233618;-0.320131;-1.213323;,
 0.233618;-0.320131;-1.213323;,
 0.233618;-0.320131;-1.213323;,
 0.233618;-0.320131;-1.213323;,
 0.233618;-0.320131;-1.213323;,
 0.805159;-0.076659;0.208692;,
 0.805159;-0.076659;0.208692;,
 0.805159;-0.076659;0.208692;,
 0.667205;-0.135185;-0.016614;,
 0.667205;-0.135185;-0.016614;,
 0.667205;-0.135185;-0.016614;,
 -0.667205;-0.135185;-0.016614;,
 -0.667205;-0.135185;-0.016614;,
 -0.667205;-0.135185;-0.016614;,
 -1.016229;0.442860;1.557385;,
 -1.016229;0.442860;1.557385;,
 -1.016229;0.442860;1.557385;,
 -0.836151;-0.057796;0.622378;,
 -0.836151;-0.057796;0.622378;,
 -0.836151;-0.057796;0.622378;,
 -0.836151;-0.057796;0.622378;,
 0.836113;-0.057796;0.622378;,
 0.836113;-0.057796;0.622378;,
 0.836113;-0.057796;0.622378;,
 1.016204;0.442860;1.557385;,
 1.016204;0.442860;1.557385;,
 1.016204;0.442860;1.557385;,
 0.261198;-0.544380;1.347522;,
 0.261198;-0.544380;1.347522;,
 0.261198;-0.544380;1.347522;,
 0.261198;-0.544380;1.347522;,
 -0.261203;-0.544380;1.347523;,
 -0.261203;-0.544380;1.347523;,
 -0.261203;-0.544380;1.347523;,
 -0.261203;-0.544380;1.347523;,
 -0.170667;-0.370984;-1.434495;,
 -0.170667;-0.370984;-1.434495;,
 -0.170667;-0.370984;-1.434495;,
 -0.170667;-0.370984;-1.434495;,
 -0.170667;-0.370984;-1.434495;,
 0.170667;-0.370984;-1.434495;,
 0.170667;-0.370984;-1.434495;,
 0.170667;-0.370984;-1.434495;,
 0.170667;-0.370984;-1.434495;,
 0.170667;-0.370984;-1.434495;,
 -0.710665;1.143727;2.083370;,
 -1.269228;0.945195;2.083370;,
 -1.269228;0.945195;2.083370;,
 0.710621;1.143727;2.083370;,
 1.269189;0.945195;2.083370;,
 -1.271560;0.892650;1.915995;,
 -1.271560;0.892650;1.915995;,
 -1.271560;0.892650;1.915995;,
 -1.271560;0.892650;1.915995;,
 -1.271560;0.892650;1.915995;,
 -1.271560;0.892650;1.915995;,
 1.271487;0.892650;1.915995;,
 1.271487;0.892650;1.915995;,
 1.271487;0.892650;1.915995;,
 1.271487;0.892650;1.915995;,
 1.271487;0.892650;1.915995;,
 1.271487;0.892650;1.915995;,
 -0.599306;1.099566;1.987726;,
 -0.599306;1.099566;1.987726;,
 -0.599306;1.099566;1.987726;,
 -0.599306;1.099566;1.987726;,
 -0.599306;1.099566;1.987726;,
 -0.599306;1.099566;1.987726;,
 0.599245;1.099566;1.987726;,
 0.599245;1.099566;1.987726;,
 0.599245;1.099566;1.987726;,
 0.599245;1.099566;1.987726;,
 0.599245;1.099566;1.987726;,
 0.599245;1.099566;1.987726;,
 -0.284718;1.435134;2.598727;,
 -0.284718;1.435134;2.598727;,
 -0.284718;1.435134;2.598727;,
 0.284689;1.435134;2.598727;,
 0.284689;1.435134;2.598727;,
 0.284689;1.435134;2.598727;,
 -0.000013;-0.165899;1.682412;,
 0.154520;0.792750;1.978698;,
 0.600838;0.454053;2.029221;,
 -0.154534;0.792750;1.978698;,
 -0.600865;0.454053;2.029221;,
 0.284689;1.435134;2.598727;,
 -0.284718;1.435134;2.598727;,
 0.209085;1.372825;2.627009;,
 -0.209106;1.372825;2.627009;,
 0.599245;1.099566;1.987726;,
 -0.599306;1.099566;1.987726;,
 0.289837;0.501795;0.310790;,
 -0.289837;0.501795;0.310790;,
 -0.298984;1.295835;2.058579;,
 0.298954;1.295835;2.058579;,
 -0.480187;0.911640;1.966265;,
 1.018788;0.713108;1.966265;,
 -1.018825;0.713108;1.966265;,
 0.480150;0.911640;1.966265;,
 -0.212331;-0.391111;1.459574;,
 0.212323;-0.391111;1.459574;,
 1.271487;0.892650;1.915995;,
 -1.271560;0.892650;1.915995;,
 0.269560;0.383872;-0.107997;,
 -0.269560;0.383872;-0.107997;,
 0.747756;1.057490;2.179808;,
 1.147347;0.858959;2.179808;,
 -0.747802;1.057490;2.179808;,
 -1.147382;0.858959;2.179808;,
 1.269189;0.945195;2.083370;,
 0.710621;1.143727;2.083370;,
 -1.269228;0.945195;2.083370;,
 -0.710665;1.143727;2.083370;,
 0.170667;-0.370984;-1.434495;,
 -0.170667;-0.370984;-1.434495;,
 -0.261203;-0.544380;1.347523;,
 0.261198;-0.544380;1.347522;,
 1.016204;0.442860;1.557385;,
 0.836113;-0.057796;0.622378;,
 -0.836151;-0.057796;0.622378;,
 -1.016229;0.442860;1.557385;,
 -0.529291;-0.301922;-0.130015;,
 -0.667205;-0.135185;-0.016614;,
 0.529291;-0.301922;-0.130015;,
 0.667205;-0.135185;-0.016614;,
 0.282573;-0.143216;-0.966337;,
 0.186574;-0.016014;-1.025996;,
 -0.282573;-0.143216;-0.966337;,
 -0.186574;-0.016014;-1.025996;,
 -0.721897;-0.267026;0.541632;,
 0.805159;-0.076659;0.208692;,
 0.233618;-0.320131;-1.213323;,
 0.721897;-0.267026;0.541632;,
 0.433126;0.187933;-0.132025;,
 0.594159;0.360754;0.520228;,
 -0.594159;0.360754;0.520228;,
 -0.433126;0.187933;-0.132025;,
 -0.478789;-0.558878;0.916170;,
 -0.233618;-0.320131;-1.213323;,
 -0.805159;-0.076659;0.208692;,
 0.087995;-0.509607;-0.263434;,
 0.129000;-0.500040;0.549003;,
 -0.129000;-0.500040;0.549003;,
 -0.087995;-0.509607;-0.263434;,
 0.157612;-0.311600;-1.312890;,
 -0.157612;-0.311600;-1.312890;,
 0.478789;-0.558878;0.916170;;

 90;
 4;55,56,68,80;,
 4;99,98,110,111;,
 4;135,111,110,133;,
 4;147,148,149,150;,
 4;143,134,7,20;,
 4;17,11,132,140;,
 3;67,103,33;,
 3;139,14,30;,
 3;62,27,23;,
 3;26,5,136;,
 3;98,141,140;,
 3;99,111,143;,
 4;112,113,116,117;,
 4;135,1,6,134;,
 4;133,110,140,132;,
 3;66,29,141;,
 4;153,51,130,139;,
 4;46,144,136,128;,
 3;13,141,28;,
 3;105,112,117;,
 3;61,99,142;,
 3;79,65,98;,
 3;25,142,4;,
 3;113,103,116;,
 3;41,136,144;,
 4;125,32,37,139;,
 3;45,145,0;,
 3;50,2,10;,
 3;40,104,22;,
 3;36,31,103;,
 4;128,136,3,19;,
 4;144,44,150,149;,
 3;130,49,9;,
 4;48,153,148,147;,
 4;43,47,147,150;,
 4;120,42,152,151;,
 4;153,144,149,148;,
 3;91,87,89;,
 4;134,143,111,135;,
 4;133,151,152,135;,
 4;132,8,151,133;,
 4;16,12,139,130;,
 3;145,121,128;,
 4;136,39,21,24;,
 4;35,38,144,153;,
 3;34,153,139;,
 3;138,15,130;,
 3;128,18,145;,
 3;99,60,74;,
 3;127,104,59;,
 3;124,125,64;,
 3;141,98,63;,
 3;142,126,58;,
 4;101,98,99,100;,
 4;107,106,122,123;,
 3;103,107,123;,
 4;113,112,105,103;,
 3;106,104,122;,
 3;104,115,54;,
 3;108,116,103;,
 4;73,57,53,52;,
 4;78,72,102,105;,
 3;71,119,102;,
 4;114,115,104,102;,
 4;115,114,119,118;,
 3;118,109,104;,
 3;117,77,105;,
 3;114,102,119;,
 4;140,141,137,131;,
 4;129,146,142,143;,
 3;140,110,98;,
 3;143,142,99;,
 4;86,83,95,94;,
 3;100,99,70;,
 3;98,101,76;,
 4;82,85,101,100;,
 3;69,81,100;,
 3;84,75,101;,
 3;95,93,97;,
 3;92,94,96;,
 4;94,95,97,96;,
 4;91,90,102,104;,
 3;106,87,91;,
 3;87,106,107;,
 3;107,103,89;,
 4;88,89,103,105;,
 4;90,88,105,102;,
 4;89,88,90,91;,
 3;91,104,106;,
 3;89,87,107;;

 MeshMaterialList {
  3;
  90;
  0,
  0,
  0,
  1,
  0,
  0,
  2,
  1,
  1,
  1,
  0,
  0,
  2,
  0,
  0,
  0,
  1,
  1,
  0,
  2,
  0,
  0,
  0,
  2,
  1,
  1,
  1,
  1,
  2,
  2,
  1,
  1,
  1,
  1,
  1,
  0,
  1,
  2,
  0,
  0,
  0,
  1,
  1,
  1,
  1,
  1,
  1,
  1,
  0,
  2,
  1,
  0,
  0,
  0,
  2,
  2,
  2,
  2,
  2,
  2,
  0,
  2,
  2,
  2,
  2,
  2,
  2,
  2,
  0,
  0,
  0,
  0,
  2,
  0,
  0,
  0,
  0,
  0,
  2,
  2,
  2,
  2,
  2,
  2,
  2,
  2,
  2,
  2,
  2,
  2;
Material {
 1.000000;1.000000;1.000000;1.000000;;
 50.000000;
 1.000000;1.000000;1.000000;;
 0.0; 0.0; 0.0;;
 TextureFilename {
  "fig23.ppm";
 }
 }
Material {
 1.000000;1.000000;1.000000;1.000000;;
 50.000000;
 1.000000;1.000000;1.000000;;
 0.0; 0.0; 0.0;;
 TextureFilename {
  "fig23.ppm";
 }
 }
Material {
 1.000000;1.000000;1.000000;1.000000;;
 50.000000;
 1.000000;1.000000;1.000000;;
 0.0; 0.0; 0.0;;
 TextureFilename {
  "fig23.ppm";
 }
 }
}
 MeshNormals {
  154;
  -0.353421;0.765491;-0.537697;,
  -0.353421;0.765491;-0.537697;,
  0.353420;0.765491;-0.537697;,
  -0.974741;-0.015633;-0.222789;,
  -0.974741;-0.015633;-0.222789;,
  -0.974741;-0.015633;-0.222789;,
  -0.897498;0.234292;-0.373638;,
  -0.897498;0.234292;-0.373638;,
  0.897498;0.234292;-0.373638;,
  0.897498;0.234292;-0.373638;,
  0.897498;0.234292;-0.373638;,
  0.897498;0.234292;-0.373638;,
  0.974753;-0.015615;-0.222740;,
  0.974753;-0.015615;-0.222740;,
  0.974753;-0.015615;-0.222740;,
  0.936266;-0.058030;-0.346465;,
  0.936266;-0.058030;-0.346465;,
  0.936266;-0.058030;-0.346465;,
  -0.936266;-0.058030;-0.346465;,
  -0.936266;-0.058030;-0.346465;,
  -0.936266;-0.058030;-0.346465;,
  -0.716413;-0.627567;0.304813;,
  -0.716413;-0.627567;0.304813;,
  -0.716413;-0.627567;0.304813;,
  -0.977752;-0.198430;-0.068012;,
  -0.977752;-0.198430;-0.068012;,
  -0.977752;-0.198430;-0.068012;,
  -0.977752;-0.198430;-0.068012;,
  0.977763;-0.198387;-0.067984;,
  0.977763;-0.198387;-0.067984;,
  0.977763;-0.198387;-0.067984;,
  0.716457;-0.627526;0.304794;,
  0.716457;-0.627526;0.304794;,
  0.716457;-0.627526;0.304794;,
  0.499081;-0.684764;0.531052;,
  0.499081;-0.684764;0.531052;,
  0.499081;-0.684764;0.531052;,
  0.499081;-0.684764;0.531052;,
  -0.499076;-0.684773;0.531046;,
  -0.499076;-0.684773;0.531046;,
  -0.499076;-0.684773;0.531046;,
  -0.499076;-0.684773;0.531046;,
  -0.786593;-0.385526;-0.482330;,
  -0.786593;-0.385526;-0.482330;,
  -0.786593;-0.385526;-0.482330;,
  -0.786593;-0.385526;-0.482330;,
  -0.786593;-0.385526;-0.482330;,
  0.786593;-0.385526;-0.482330;,
  0.786593;-0.385526;-0.482330;,
  0.786593;-0.385526;-0.482330;,
  0.786593;-0.385526;-0.482330;,
  0.786593;-0.385526;-0.482330;,
  0.296990;0.793174;0.531668;,
  -0.936885;-0.002287;0.349631;,
  -0.936885;-0.002287;0.349631;,
  -0.296991;0.793145;0.531712;,
  0.936919;-0.002289;0.349540;,
  -0.949914;0.183864;-0.252699;,
  -0.949914;0.183864;-0.252699;,
  -0.949914;0.183864;-0.252699;,
  -0.949914;0.183864;-0.252699;,
  -0.949914;0.183864;-0.252699;,
  -0.949914;0.183864;-0.252699;,
  0.949905;0.183875;-0.252724;,
  0.949905;0.183875;-0.252724;,
  0.949905;0.183875;-0.252724;,
  0.949905;0.183875;-0.252724;,
  0.949905;0.183875;-0.252724;,
  0.949905;0.183875;-0.252724;,
  -0.457849;0.731388;0.505416;,
  -0.457849;0.731388;0.505416;,
  -0.457849;0.731388;0.505416;,
  -0.457849;0.731388;0.505416;,
  -0.457849;0.731388;0.505416;,
  -0.457849;0.731388;0.505416;,
  0.457927;0.731330;0.505430;,
  0.457927;0.731330;0.505430;,
  0.457927;0.731330;0.505430;,
  0.457927;0.731330;0.505430;,
  0.457927;0.731330;0.505430;,
  0.457927;0.731330;0.505430;,
  -0.485711;0.756339;0.438220;,
  -0.485711;0.756339;0.438220;,
  -0.485711;0.756339;0.438220;,
  0.485738;0.756331;0.438204;,
  0.485738;0.756331;0.438204;,
  0.485738;0.756331;0.438204;,
  -0.000001;-0.607505;0.794316;,
  0.009149;0.131668;0.991252;,
  0.151416;-0.316736;0.936350;,
  -0.009149;0.131667;0.991252;,
  -0.151415;-0.316739;0.936349;,
  0.485738;0.756331;0.438204;,
  -0.485711;0.756339;0.438220;,
  0.287948;-0.471923;0.833291;,
  -0.287928;-0.471926;0.833297;,
  0.457927;0.731330;0.505430;,
  -0.457849;0.731388;0.505416;,
  0.395987;0.837089;-0.377460;,
  -0.395981;0.837088;-0.377468;,
  -0.244900;0.914923;-0.320842;,
  0.244921;0.914919;-0.320838;,
  0.314083;0.043274;0.948409;,
  0.425746;-0.650042;0.629432;,
  -0.425724;-0.650045;0.629445;,
  -0.314071;0.043246;0.948414;,
  -0.177697;-0.624973;0.760153;,
  0.177699;-0.624971;0.760154;,
  0.949905;0.183875;-0.252724;,
  -0.949914;0.183864;-0.252699;,
  0.408949;0.848389;-0.336149;,
  -0.408949;0.848389;-0.336149;,
  -0.322570;0.176556;0.929934;,
  0.346846;-0.413274;0.841963;,
  0.322561;0.176557;0.929937;,
  -0.346842;-0.413271;0.841967;,
  0.936919;-0.002289;0.349540;,
  -0.296991;0.793145;0.531712;,
  -0.936885;-0.002287;0.349631;,
  0.296990;0.793174;0.531668;,
  0.786593;-0.385526;-0.482330;,
  -0.786593;-0.385526;-0.482330;,
  -0.499076;-0.684773;0.531046;,
  0.499081;-0.684764;0.531052;,
  0.716457;-0.627526;0.304794;,
  0.977763;-0.198387;-0.067984;,
  -0.977752;-0.198430;-0.068012;,
  -0.716413;-0.627567;0.304813;,
  -0.837150;-0.500999;-0.219498;,
  -0.936266;-0.058030;-0.346465;,
  0.837150;-0.500999;-0.219498;,
  0.936266;-0.058030;-0.346465;,
  0.794836;0.464904;-0.389999;,
  0.426061;0.725447;-0.540554;,
  -0.794836;0.464904;-0.389999;,
  -0.426061;0.725447;-0.540554;,
  -0.838126;-0.543107;0.050789;,
  0.974753;-0.015615;-0.222740;,
  0.897498;0.234292;-0.373638;,
  0.838144;-0.543078;0.050806;,
  0.740165;0.585484;-0.330703;,
  0.743109;0.549447;-0.381964;,
  -0.743090;0.549455;-0.381991;,
  -0.740165;0.585484;-0.330703;,
  -0.384311;-0.922807;0.027080;,
  -0.897498;0.234292;-0.373638;,
  -0.974741;-0.015633;-0.222789;,
  0.021991;-0.998160;-0.056503;,
  0.022014;-0.997293;-0.070160;,
  -0.022014;-0.997293;-0.070160;,
  -0.021991;-0.998160;-0.056503;,
  0.353420;0.765491;-0.537697;,
  -0.353421;0.765491;-0.537697;,
  0.384312;-0.922806;0.027082;;

  90;
  4;55,56,68,80;,
  4;99,98,110,111;,
  4;135,111,110,133;,
  4;147,148,149,150;,
  4;143,134,7,20;,
  4;17,11,132,140;,
  3;67,103,33;,
  3;139,14,30;,
  3;62,27,23;,
  3;26,5,136;,
  3;98,141,140;,
  3;99,111,143;,
  4;112,113,116,117;,
  4;135,1,6,134;,
  4;133,110,140,132;,
  3;66,29,141;,
  4;153,51,130,139;,
  4;46,144,136,128;,
  3;13,141,28;,
  3;105,112,117;,
  3;61,99,142;,
  3;79,65,98;,
  3;25,142,4;,
  3;113,103,116;,
  3;41,136,144;,
  4;125,32,37,139;,
  3;45,145,0;,
  3;50,2,10;,
  3;40,104,22;,
  3;36,31,103;,
  4;128,136,3,19;,
  4;144,44,150,149;,
  3;130,49,9;,
  4;48,153,148,147;,
  4;43,47,147,150;,
  4;120,42,152,151;,
  4;153,144,149,148;,
  3;91,87,89;,
  4;134,143,111,135;,
  4;133,151,152,135;,
  4;132,8,151,133;,
  4;16,12,139,130;,
  3;145,121,128;,
  4;136,39,21,24;,
  4;35,38,144,153;,
  3;34,153,139;,
  3;138,15,130;,
  3;128,18,145;,
  3;99,60,74;,
  3;127,104,59;,
  3;124,125,64;,
  3;141,98,63;,
  3;142,126,58;,
  4;101,98,99,100;,
  4;107,106,122,123;,
  3;103,107,123;,
  4;113,112,105,103;,
  3;106,104,122;,
  3;104,115,54;,
  3;108,116,103;,
  4;73,57,53,52;,
  4;78,72,102,105;,
  3;71,119,102;,
  4;114,115,104,102;,
  4;115,114,119,118;,
  3;118,109,104;,
  3;117,77,105;,
  3;114,102,119;,
  4;140,141,137,131;,
  4;129,146,142,143;,
  3;140,110,98;,
  3;143,142,99;,
  4;86,83,95,94;,
  3;100,99,70;,
  3;98,101,76;,
  4;82,85,101,100;,
  3;69,81,100;,
  3;84,75,101;,
  3;95,93,97;,
  3;92,94,96;,
  4;94,95,97,96;,
  4;91,90,102,104;,
  3;106,87,91;,
  3;87,106,107;,
  3;107,103,89;,
  4;88,89,103,105;,
  4;90,88,105,102;,
  4;89,88,90,91;,
  3;91,104,106;,
  3;89,87,107;;
 }
 MeshTextureCoords { 
 154;
 0.966128;0.176310;,
 0.801382;0.889241;,
 0.965862;0.211022;,
 0.796274;0.104042;,
 0.886201;0.673208;,
 0.796274;0.104042;,
 0.810972;0.860379;,
 0.810972;0.860379;,
 0.726926;0.870307;,
 0.954648;0.219329;,
 0.954648;0.219329;,
 0.726926;0.870307;,
 0.794915;0.281371;,
 0.652837;0.670604;,
 0.794915;0.281371;,
 0.820264;0.266321;,
 0.820264;0.266321;,
 0.673257;0.713825;,
 0.821390;0.119376;,
 0.821390;0.119376;,
 0.859921;0.711221;,
 0.645414;0.079949;,
 0.274667;0.869348;,
 0.645414;0.079949;,
 0.749972;0.100368;,
 0.888689;0.604913;,
 0.749972;0.100368;,
 0.749972;0.100368;,
 0.646448;0.610122;,
 0.646448;0.610122;,
 0.748561;0.284518;,
 0.522225;0.869348;,
 0.643698;0.303761;,
 0.522225;0.869348;,
 0.667838;0.220751;,
 0.667838;0.220751;,
 0.430262;0.987451;,
 0.667838;0.220751;,
 0.668279;0.163225;,
 0.668279;0.163225;,
 0.366632;0.987451;,
 0.668279;0.163225;,
 0.788767;0.913146;,
 0.979758;0.174949;,
 0.979758;0.174949;,
 0.979758;0.174949;,
 0.979758;0.174949;,
 0.979470;0.212536;,
 0.979470;0.212536;,
 0.979470;0.212536;,
 0.979470;0.212536;,
 0.979470;0.212536;,
 0.876566;0.388198;,
 0.952051;0.389468;,
 0.243851;0.809254;,
 0.659223;0.392104;,
 0.581133;0.390770;,
 0.951083;0.416343;,
 0.951083;0.416343;,
 0.243567;0.815540;,
 0.951083;0.416343;,
 0.951083;0.416343;,
 0.605469;0.051605;,
 0.580152;0.414390;,
 0.603323;0.331646;,
 0.580152;0.414390;,
 0.580152;0.414390;,
 0.553319;0.815540;,
 0.580152;0.414390;,
 0.856051;0.403318;,
 0.856051;0.403318;,
 0.325450;0.790786;,
 0.325450;0.790786;,
 0.856051;0.403318;,
 0.856051;0.403318;,
 0.675183;0.407224;,
 0.675183;0.407224;,
 0.471438;0.790786;,
 0.471438;0.790786;,
 0.675183;0.407224;,
 0.675183;0.407224;,
 0.805762;0.313820;,
 0.805762;0.313820;,
 0.363768;0.750643;,
 0.724816;0.313169;,
 0.724816;0.313169;,
 0.433124;0.750643;,
 0.398446;0.942173;,
 0.417268;0.827491;,
 0.471632;0.868009;,
 0.379625;0.827491;,
 0.325260;0.868009;,
 0.433124;0.750643;,
 0.363768;0.750643;,
 0.423915;0.758097;,
 0.372978;0.758097;,
 0.471438;0.790786;,
 0.325450;0.790786;,
 0.724079;0.656682;,
 0.805844;0.658635;,
 0.808457;0.380444;,
 0.722772;0.380444;,
 0.339959;0.813268;,
 0.522539;0.837018;,
 0.274351;0.837018;,
 0.456931;0.813268;,
 0.372585;0.969115;,
 0.424309;0.969115;,
 0.553319;0.815540;,
 0.243567;0.815540;,
 0.726984;0.704465;,
 0.804241;0.704465;,
 0.489527;0.795820;,
 0.538198;0.819570;,
 0.307363;0.795820;,
 0.258692;0.819570;,
 0.553039;0.809254;,
 0.485004;0.785503;,
 0.243851;0.809254;,
 0.311886;0.785503;,
 0.744411;0.913146;,
 0.979758;0.174949;,
 0.366632;0.987451;,
 0.430262;0.987451;,
 0.643698;0.303761;,
 0.748561;0.284518;,
 0.888689;0.604913;,
 0.274667;0.869348;,
 0.833973;0.134634;,
 0.859921;0.711221;,
 0.833080;0.251206;,
 0.673257;0.713825;,
 0.721213;0.842804;,
 0.738876;0.838324;,
 0.808058;0.841339;,
 0.792349;0.838324;,
 0.758918;0.113001;,
 0.652837;0.670604;,
 0.954648;0.219329;,
 0.757700;0.271992;,
 0.703545;0.715950;,
 0.683073;0.624026;,
 0.852709;0.622073;,
 0.827680;0.715950;,
 0.716769;0.139536;,
 0.955042;0.167877;,
 0.886201;0.673208;,
 0.848393;0.202694;,
 0.757375;0.206697;,
 0.757593;0.178286;,
 0.848542;0.183314;,
 0.736842;0.889403;,
 0.801382;0.889241;,
 0.715961;0.244985;;
 }
}
Frame frm-center-wing1 {
  FrameTransformMatrix {
1.000000,0.000000,0.000000,0.000000,
0.000000,1.000000,0.000000,0.000000,
0.000000,0.000000,1.000000,0.000000,
0.000000,-2.441485,-1.626076,1.000000;;
 }
Mesh center-wing1 {
 49;
 0.000000;0.932639;1.704274;,
 0.000000;0.932639;1.704274;,
 0.000000;0.932639;1.704274;,
 0.000000;0.932639;1.704274;,
 0.084882;0.979791;1.761678;,
 0.084882;0.979791;1.761678;,
 0.084882;0.979791;1.761678;,
 0.084882;0.979791;1.761678;,
 0.084882;0.979791;1.761678;,
 -0.084882;0.979791;1.761678;,
 -0.084882;0.979791;1.761678;,
 -0.084882;0.979791;1.761678;,
 -0.084882;0.979791;1.761678;,
 -0.089361;1.170106;1.744244;,
 -0.089361;1.170106;1.744244;,
 -0.089361;1.170106;1.744244;,
 -0.089361;1.170106;1.744244;,
 0.089361;1.170106;1.744244;,
 0.089361;1.170106;1.744244;,
 0.089361;1.170106;1.744244;,
 0.089361;1.170106;1.744244;,
 0.000000;1.244944;1.732791;,
 0.000000;1.244944;1.732791;,
 0.000000;1.244944;1.732791;,
 0.089361;1.170106;1.744244;,
 -0.089361;1.170106;1.744244;,
 -0.084882;0.979791;1.761678;,
 0.084882;0.979791;1.761678;,
 0.000000;1.083688;1.657878;,
 0.031326;0.816564;2.217215;,
 0.035366;1.129666;2.451483;,
 -0.035366;1.129666;2.451483;,
 -0.086691;1.906011;2.966368;,
 0.261198;1.885554;2.728895;,
 -0.261203;1.885554;2.728896;,
 0.000000;1.653901;1.459097;,
 0.000000;0.932639;1.704274;,
 0.000000;0.793899;1.433567;,
 0.478789;1.882607;2.542246;,
 -0.478789;1.882607;2.542246;,
 -0.108498;1.936662;1.691041;,
 0.108498;1.936662;1.691041;,
 0.086691;1.906011;2.966368;,
 0.031326;0.825815;1.711430;,
 0.000000;1.450216;1.693449;,
 0.087995;1.940432;1.200120;,
 -0.031326;0.825815;1.711430;,
 0.000000;1.940432;1.113919;,
 -0.087995;1.940432;1.200120;;

 38;
 3;44,31,34;,
 3;48,47,35;,
 3;33,30,44;,
 3;3,8,43;,
 3;46,37,43;,
 3;31,29,30;,
 3;32,34,31;,
 3;29,43,7;,
 3;16,44,22;,
 3;41,38,35;,
 3;12,46,29;,
 3;46,43,29;,
 3;30,33,42;,
 3;39,40,35;,
 3;40,48,35;,
 3;35,47,45;,
 3;20,6,28;,
 3;46,11,2;,
 3;15,10,31;,
 3;19,44,30;,
 3;9,29,31;,
 3;35,45,41;,
 4;30,42,32,31;,
 3;5,30,29;,
 3;43,37,1;,
 3;0,37,46;,
 3;30,4,18;,
 3;21,44,17;,
 3;28,26,14;,
 3;31,44,13;,
 3;44,35,38;,
 3;39,35,44;,
 3;44,38,33;,
 3;34,39,44;,
 3;24,28,23;,
 3;23,28,25;,
 3;28,27,36;,
 3;26,28,36;;

 MeshMaterialList {
  2;
  38;
  0,
  0,
  0,
  0,
  0,
  0,
  0,
  0,
  0,
  0,
  0,
  0,
  0,
  0,
  0,
  0,
  1,
  0,
  0,
  0,
  0,
  0,
  0,
  0,
  0,
  0,
  0,
  0,
  1,
  0,
  0,
  0,
  0,
  0,
  1,
  1,
  1,
  1;
Material {
 1.000000;1.000000;1.000000;1.000000;;
 50.000000;
 1.000000;1.000000;1.000000;;
 0.0; 0.0; 0.0;;
 TextureFilename {
  "fig23.ppm";
 }
 }
Material {
 1.000000;1.000000;1.000000;1.000000;;
 50.000000;
 1.000000;1.000000;1.000000;;
 0.0; 0.0; 0.0;;
 TextureFilename {
  "fig23.ppm";
 }
 }
}
 MeshNormals {
  49;
  0.000000;0.079381;-0.996844;,
  0.000000;0.079381;-0.996844;,
  0.000000;0.079381;-0.996844;,
  0.000000;0.079381;-0.996844;,
  0.909287;-0.119695;-0.398584;,
  0.909287;-0.119695;-0.398584;,
  0.909287;-0.119695;-0.398584;,
  0.909287;-0.119695;-0.398584;,
  0.909287;-0.119695;-0.398584;,
  -0.911439;-0.170189;-0.374586;,
  -0.911439;-0.170189;-0.374586;,
  -0.911439;-0.170189;-0.374586;,
  -0.911439;-0.170189;-0.374586;,
  -0.793412;0.107408;-0.599134;,
  -0.793412;0.107408;-0.599134;,
  -0.793412;0.107408;-0.599134;,
  -0.793412;0.107408;-0.599134;,
  0.793412;0.107408;-0.599134;,
  0.793412;0.107408;-0.599134;,
  0.793412;0.107408;-0.599134;,
  0.793412;0.107408;-0.599134;,
  0.000000;0.106618;-0.994300;,
  0.000000;0.106618;-0.994300;,
  0.000000;0.106618;-0.994300;,
  0.793412;0.107408;-0.599134;,
  -0.793412;0.107408;-0.599134;,
  -0.911439;-0.170189;-0.374586;,
  0.909287;-0.119695;-0.398584;,
  0.000000;0.032981;-0.999456;,
  0.028757;-0.923213;0.383211;,
  0.854979;-0.293698;0.427495;,
  -0.838582;-0.331917;0.431985;,
  -0.387335;-0.527211;0.756320;,
  0.756663;-0.590584;0.280486;,
  -0.756659;-0.590587;0.280487;,
  0.000000;-0.724710;-0.689054;,
  0.000000;0.079381;-0.996844;,
  0.000000;-0.941125;-0.338058;,
  0.836880;-0.522517;-0.163121;,
  -0.836880;-0.522516;-0.163121;,
  -0.956902;-0.180654;-0.227382;,
  0.956902;-0.180654;-0.227382;,
  0.387343;-0.527209;0.756317;,
  0.765097;-0.571113;-0.297415;,
  -0.000001;-0.798899;-0.601466;,
  0.790936;-0.525792;-0.312991;,
  -0.766156;-0.585201;-0.265603;,
  0.000000;-0.769444;-0.638714;,
  -0.790936;-0.525792;-0.312991;;

  38;
  3;44,31,34;,
  3;48,47,35;,
  3;33,30,44;,
  3;3,8,43;,
  3;46,37,43;,
  3;31,29,30;,
  3;32,34,31;,
  3;29,43,7;,
  3;16,44,22;,
  3;41,38,35;,
  3;12,46,29;,
  3;46,43,29;,
  3;30,33,42;,
  3;39,40,35;,
  3;40,48,35;,
  3;35,47,45;,
  3;20,6,28;,
  3;46,11,2;,
  3;15,10,31;,
  3;19,44,30;,
  3;9,29,31;,
  3;35,45,41;,
  4;30,42,32,31;,
  3;5,30,29;,
  3;43,37,1;,
  3;0,37,46;,
  3;30,4,18;,
  3;21,44,17;,
  3;28,26,14;,
  3;31,44,13;,
  3;44,35,38;,
  3;39,35,44;,
  3;44,38,33;,
  3;34,39,44;,
  3;24,28,23;,
  3;23,28,25;,
  3;28,27,36;,
  3;26,28,36;;
 }
 MeshTextureCoords { 
 49;
 0.221758;0.298802;,
 0.221758;0.298802;,
 0.221758;0.298802;,
 0.221758;0.298802;,
 0.241274;0.280929;,
 0.241274;0.280929;,
 0.533301;0.495962;,
 0.241274;0.280929;,
 0.241274;0.280929;,
 0.241274;0.280929;,
 0.241274;0.280929;,
 0.241274;0.280929;,
 0.241274;0.280929;,
 0.236534;0.228496;,
 0.400793;0.414696;,
 0.236534;0.228496;,
 0.236534;0.228496;,
 0.236534;0.228496;,
 0.236534;0.228496;,
 0.236534;0.228496;,
 0.536707;0.414696;,
 0.233419;0.207878;,
 0.233419;0.207878;,
 0.468750;0.382740;,
 0.536707;0.414696;,
 0.400793;0.414696;,
 0.404199;0.495962;,
 0.533301;0.495962;,
 0.468750;0.451597;,
 0.365153;0.325899;,
 0.428860;0.239637;,
 0.428860;0.239637;,
 0.568878;0.025750;,
 0.504299;0.031386;,
 0.504300;0.031386;,
 0.158014;0.100091;,
 0.468750;0.516096;,
 0.153024;0.337026;,
 0.453542;0.032198;,
 0.453542;0.032198;,
 0.222066;0.017306;,
 0.222066;0.017306;,
 0.568878;0.025750;,
 0.227610;0.323350;,
 0.219791;0.153277;,
 0.088564;0.016267;,
 0.227610;0.323350;,
 0.061217;0.016267;,
 0.088564;0.016267;;
 }
}
}
Frame frm-rt-wing1_2 {
  FrameTransformMatrix {
-0.879662,-0.475600,-0.000000,0.000000,
-0.475600,0.879662,0.000000,0.000000,
0.000000,0.000000,-1.000000,0.000000,
-0.415888,0.063758,-1.610859,1.000000;;
 }
Mesh rt-wing1_2 {
 23;
 -0.008935;-0.499052;-0.176364;,
 -0.008935;-0.499052;-0.176364;,
 -0.008935;-0.499052;-0.176364;,
 -0.008935;-0.499052;-0.176364;,
 0.042876;-0.594875;-0.176364;,
 0.042876;-0.594875;-0.176364;,
 -0.032187;-0.635462;-0.176364;,
 -0.032187;-0.635462;-0.176364;,
 -0.083999;-0.539639;-0.176364;,
 -0.083999;-0.539639;-0.176364;,
 0.017355;-0.552898;0.163180;,
 0.017355;-0.552898;0.163180;,
 0.040091;-0.585435;0.163729;,
 -0.010633;-0.539368;-0.469129;,
 0.036116;-0.501394;-0.470197;,
 0.040091;-0.585435;0.163729;,
 0.017355;-0.552898;0.163180;,
 -0.011271;-0.585559;0.117166;,
 -0.011422;-0.612129;0.085381;,
 -0.083999;-0.539639;-0.176364;,
 -0.032187;-0.635462;-0.176364;,
 0.042876;-0.594875;-0.176364;,
 -0.008935;-0.499052;-0.176364;;

 10;
 4;5,3,11,12;,
 4;7,4,15,18;,
 3;2,9,17;,
 4;8,6,18,17;,
 4;18,15,10,17;,
 3;1,21,14;,
 4;21,20,13,14;,
 3;20,19,13;,
 4;19,0,14,13;,
 3;17,16,22;;

 MeshMaterialList {
  1;
  10;
  0,
  0,
  0,
  0,
  0,
  0,
  0,
  0,
  0,
  0;
Material {
 1.000000;1.000000;1.000000;1.000000;;
 50.000000;
 1.000000;1.000000;1.000000;;
 0.0; 0.0; 0.0;;
 TextureFilename {
  "fig23.ppm";
 }
 }
}
 MeshNormals {
  23;
  -0.050557;0.990293;0.129474;,
  -0.050557;0.990293;0.129474;,
  -0.050557;0.990293;0.129474;,
  -0.050557;0.990293;0.129474;,
  0.963773;-0.265051;-0.029832;,
  0.963773;-0.265051;-0.029832;,
  -0.290575;-0.950641;-0.108849;,
  -0.290575;-0.950641;-0.108849;,
  -0.959395;0.281421;0.019054;,
  -0.959395;0.281421;0.019054;,
  -0.506527;0.457220;0.731013;,
  -0.506527;0.457220;0.731013;,
  0.550615;-0.681401;0.482199;,
  -0.768391;-0.390284;-0.507202;,
  0.844222;0.484749;-0.228710;,
  0.550615;-0.681401;0.482199;,
  -0.506527;0.457220;0.731013;,
  -0.914379;0.132950;0.382408;,
  -0.463436;-0.811946;0.354925;,
  -0.959395;0.281421;0.019054;,
  -0.290575;-0.950641;-0.108849;,
  0.963773;-0.265051;-0.029832;,
  -0.050557;0.990293;0.129474;;

  10;
  4;5,3,11,12;,
  4;7,4,15,18;,
  3;2,9,17;,
  4;8,6,18,17;,
  4;18,15,10,17;,
  3;1,21,14;,
  4;21,20,13,14;,
  3;20,19,13;,
  4;19,0,14,13;,
  3;17,16,22;;
 }
 MeshTextureCoords { 
 23;
 0.950904;0.794799;,
 0.950904;0.794799;,
 0.951391;0.666709;,
 0.951391;0.666709;,
 0.951097;0.662571;,
 0.957197;0.669567;,
 0.952312;0.626223;,
 0.952312;0.626223;,
 0.956974;0.626419;,
 0.956974;0.626419;,
 0.952233;0.775246;,
 0.951640;0.776528;,
 0.957179;0.741465;,
 0.950904;0.794799;,
 0.950904;0.794799;,
 0.951640;0.776528;,
 0.951640;0.776528;,
 0.957729;0.745410;,
 0.954892;0.736140;,
 0.950904;0.794799;,
 0.950904;0.794799;,
 0.950904;0.794799;,
 0.951391;0.666709;;
 }
}
}
Frame frm-rt-wing12 {
  FrameTransformMatrix {
-0.879662,-0.475600,-0.000000,0.000000,
-0.475600,0.879662,0.000000,0.000000,
0.000000,0.000000,-1.000000,0.000000,
-0.929713,-0.090467,-0.140188,1.000000;;
 }
Mesh rt-wing12 {
 24;
 -0.209646;-0.164191;-0.123574;,
 -0.069596;0.028339;-0.011772;,
 -0.503085;-0.533102;1.073135;,
 0.069596;-0.458562;-0.281712;,
 -0.069596;-0.430305;-0.026206;,
 0.069596;-0.200983;-0.070747;,
 0.013725;1.842326;-2.932781;,
 0.013725;1.892827;-2.903912;,
 -0.069596;-0.261659;-0.900394;,
 0.069596;-0.180034;-0.818768;,
 0.069596;-0.050821;-0.087887;,
 -0.069596;-0.599867;-0.416608;,
 0.069596;-0.527311;-0.407539;,
 -0.180417;-0.356225;-0.371298;,
 -0.116131;-0.047094;-0.348880;,
 -0.069596;-0.522048;-0.272643;,
 0.014539;1.347690;-2.731976;,
 0.091199;0.252184;-1.374270;,
 0.047152;0.462199;-0.519303;,
 0.047152;0.519914;-0.584258;,
 0.012910;1.347690;-2.831741;,
 -0.003104;0.206837;-1.483104;,
 -0.047152;0.498734;-0.382296;,
 -0.047152;0.556449;-0.447250;;

 28;
 3;15,8,11;,
 3;7,23,19;,
 4;23,22,18,19;,
 4;22,1,10,18;,
 3;0,2,1;,
 4;8,21,17,9;,
 4;21,20,16,17;,
 3;20,6,16;,
 3;0,14,13;,
 6;18,10,5,3,9,17;,
 3;17,19,18;,
 3;22,23,21;,
 5;17,16,6,7,19;,
 4;21,8,1,22;,
 4;3,15,11,12;,
 5;23,7,6,20,21;,
 3;1,8,14;,
 4;8,15,13,14;,
 4;15,4,0,13;,
 3;4,3,5;,
 3;5,10,1;,
 3;9,3,12;,
 3;4,15,3;,
 3;5,1,2;,
 3;14,0,1;,
 4;9,12,11,8;,
 3;4,2,0;,
 3;2,4,5;;

 MeshMaterialList {
  1;
  28;
  0,
  0,
  0,
  0,
  0,
  0,
  0,
  0,
  0,
  0,
  0,
  0,
  0,
  0,
  0,
  0,
  0,
  0,
  0,
  0,
  0,
  0,
  0,
  0,
  0,
  0,
  0,
  0;
Material {
 1.000000;1.000000;1.000000;1.000000;;
 50.000000;
 1.000000;1.000000;1.000000;;
 0.0; 0.0; 0.0;;
 TextureFilename {
  "fig23.ppm";
 }
 }
}
 MeshNormals {
  24;
  -0.988177;0.104913;-0.111799;,
  0.017975;0.875853;0.482242;,
  0.408653;-0.095907;0.907637;,
  0.833441;-0.470941;0.289122;,
  0.139469;-0.935483;0.324685;,
  0.877006;-0.083457;0.473176;,
  0.998660;0.030509;-0.041808;,
  0.744530;0.596234;0.300299;,
  -0.602623;-0.293374;-0.742144;,
  0.899964;-0.351418;-0.258013;,
  0.827622;0.206594;0.521881;,
  0.039404;-0.997971;-0.050017;,
  0.794166;-0.606939;-0.030419;,
  -0.986539;-0.121126;-0.109858;,
  -0.801777;0.525710;-0.284222;,
  -0.672051;-0.704633;0.227685;,
  0.987288;-0.110003;-0.114721;,
  0.972155;-0.182816;-0.146608;,
  0.927874;0.258081;0.269155;,
  0.928014;0.306381;0.211947;,
  0.861421;-0.367802;-0.350252;,
  -0.739987;-0.505729;-0.443460;,
  -0.360797;0.674456;0.644154;,
  -0.366272;0.766824;0.527092;;

  28;
  3;15,8,11;,
  3;7,23,19;,
  4;23,22,18,19;,
  4;22,1,10,18;,
  3;0,2,1;,
  4;8,21,17,9;,
  4;21,20,16,17;,
  3;20,6,16;,
  3;0,14,13;,
  6;18,10,5,3,9,17;,
  3;17,19,18;,
  3;22,23,21;,
  5;17,16,6,7,19;,
  4;21,8,1,22;,
  4;3,15,11,12;,
  5;23,7,6,20,21;,
  3;1,8,14;,
  4;8,15,13,14;,
  4;15,4,0,13;,
  3;4,3,5;,
  3;5,10,1;,
  3;9,3,12;,
  3;4,15,3;,
  3;5,1,2;,
  3;14,0,1;,
  4;9,12,11,8;,
  3;4,2,0;,
  3;2,4,5;;
 }
 MeshTextureCoords { 
 24;
 0.078898;0.749334;,
 0.038176;0.714478;,
 0.023577;0.914901;,
 0.124236;0.813779;,
 0.114152;0.825007;,
 0.079794;0.763513;,
 0.062061;0.167801;,
 0.052896;0.158756;,
 0.178540;0.725595;,
 0.151939;0.712784;,
 0.057982;0.727077;,
 0.161445;0.836325;,
 0.159223;0.822592;,
 0.132703;0.767810;,
 0.083927;0.711281;,
 0.144065;0.828563;,
 0.103634;0.240839;,
 0.154415;0.565134;,
 0.042434;0.569153;,
 0.040358;0.553358;,
 0.112368;0.235184;,
 0.171344;0.568535;,
 0.024076;0.569191;,
 0.022000;0.553397;;
 }
}
}
Frame frm-rt-wing16 {
  FrameTransformMatrix {
-1.000000,0.000000,-0.000000,0.000000,
0.000000,1.000000,0.000000,0.000000,
0.000000,0.000000,-1.000000,0.000000,
-1.366476,-0.914105,0.939426,1.000000;;
 }
Mesh rt-wing16 {
 21;
 -0.593646;0.387163;0.797901;,
 -0.384857;0.129987;1.039042;,
 -0.783294;0.329067;0.663005;,
 -0.702647;0.478222;1.053408;,
 0.810840;-0.297063;-0.219245;,
 0.818238;-0.316332;-0.192178;,
 -0.506441;0.219313;0.179219;,
 -0.223661;0.252891;0.252675;,
 -0.181821;0.185714;0.990660;,
 -0.182601;0.024901;1.065309;,
 -0.461172;0.632170;0.260845;,
 -0.524378;0.362128;0.971473;,
 -0.837185;0.612183;1.069441;,
 0.525266;-0.138966;-0.246660;,
 -0.008657;0.071653;0.046787;,
 0.083369;0.023750;0.732856;,
 0.157643;-0.013867;0.664704;,
 0.524042;-0.165101;-0.329933;,
 -0.021427;0.020794;-0.049604;,
 0.079101;-0.060144;0.843139;,
 0.153375;-0.097760;0.774987;;

 27;
 3;10,7,6;,
 3;16,20,5;,
 4;16,15,19,20;,
 4;15,8,9,19;,
 3;2,9,1;,
 4;7,14,18,6;,
 4;14,13,17,18;,
 3;13,4,17;,
 3;10,0,7;,
 6;14,7,0,11,8,15;,
 3;2,3,0;,
 3;15,16,14;,
 3;18,20,19;,
 3;6,2,10;,
 3;16,5,4;,
 3;18,17,4;,
 3;2,6,9;,
 4;1,3,12,2;,
 3;12,3,2;,
 3;10,2,0;,
 3;9,8,1;,
 4;19,9,6,18;,
 3;1,8,11;,
 3;3,1,11;,
 3;3,11,0;,
 4;4,13,14,16;,
 4;4,5,20,18;;

 MeshMaterialList {
  1;
  27;
  0,
  0,
  0,
  0,
  0,
  0,
  0,
  0,
  0,
  0,
  0,
  0,
  0,
  0,
  0,
  0,
  0,
  0,
  0,
  0,
  0,
  0,
  0,
  0,
  0,
  0,
  0;
Material {
 1.000000;1.000000;1.000000;1.000000;;
 50.000000;
 1.000000;1.000000;1.000000;;
 0.0; 0.0; 0.0;;
 TextureFilename {
  "fig23.ppm";
 }
 }
}
 MeshNormals {
  21;
  0.313976;0.947164;0.065571;,
  -0.093518;-0.071740;0.993030;,
  -0.923972;0.255857;-0.284277;,
  0.424824;0.904688;0.032606;,
  0.800670;0.589669;-0.105918;,
  0.841993;0.201262;0.500541;,
  -0.484347;-0.211534;-0.848918;,
  0.532898;0.765379;-0.360852;,
  0.417157;0.584607;0.695855;,
  -0.171029;-0.761801;0.624826;,
  -0.148598;0.894163;-0.422365;,
  0.512700;0.749761;0.418327;,
  -0.740886;0.664046;-0.100652;,
  0.354465;0.910326;-0.213683;,
  0.337638;0.922250;-0.188299;,
  0.631899;0.723571;0.277757;,
  0.629473;0.735604;0.250301;,
  0.203896;0.714576;-0.669184;,
  -0.522539;-0.715878;-0.463112;,
  0.406775;-0.603180;0.686082;,
  0.492598;-0.606294;0.624303;;

  27;
  3;10,7,6;,
  3;16,20,5;,
  4;16,15,19,20;,
  4;15,8,9,19;,
  3;2,9,1;,
  4;7,14,18,6;,
  4;14,13,17,18;,
  3;13,4,17;,
  3;10,0,7;,
  6;14,7,0,11,8,15;,
  3;2,3,0;,
  3;15,16,14;,
  3;18,20,19;,
  3;6,2,10;,
  3;16,5,4;,
  3;18,17,4;,
  3;2,6,9;,
  4;1,3,12,2;,
  3;12,3,2;,
  3;10,2,0;,
  3;9,8,1;,
  4;19,9,6,18;,
  3;1,8,11;,
  3;3,1,11;,
  3;3,11,0;,
  4;4,13,14,16;,
  4;4,5,20,18;;
 }
 MeshTextureCoords { 
 21;
 0.103992;0.781835;,
 0.042301;0.730610;,
 0.134248;0.798442;,
 0.083348;0.854207;,
 0.092106;0.227331;,
 0.086950;0.226590;,
 0.137609;0.654910;,
 0.149779;0.609210;,
 0.035209;0.685752;,
 0.017303;0.673268;,
 0.180243;0.711593;,
 0.074106;0.786081;,
 0.098729;0.905975;,
 0.126602;0.310984;,
 0.141034;0.502118;,
 0.040063;0.567486;,
 0.041272;0.536010;,
 0.136460;0.296260;,
 0.152326;0.484736;,
 0.021551;0.571532;,
 0.022759;0.540056;;
 }
}
}
Frame frm-rt-wing17 {
  FrameTransformMatrix {
1.000000,0.000000,0.000000,0.000000,
0.000000,1.000000,0.000000,0.000000,
0.000000,0.000000,1.000000,0.000000,
1.366476,-0.914105,0.939426,1.000000;;
 }
Mesh rt-wing17 {
 21;
 -0.593646;0.387163;-0.797901;,
 -0.384857;0.129987;-1.039042;,
 -0.783294;0.329067;-0.663005;,
 -0.702647;0.478222;-1.053408;,
 0.810840;-0.297063;0.219245;,
 0.818238;-0.316332;0.192178;,
 -0.506441;0.219313;-0.179219;,
 -0.223661;0.252891;-0.252675;,
 -0.181821;0.185714;-0.990660;,
 -0.182601;0.024901;-1.065309;,
 -0.461172;0.632170;-0.260845;,
 -0.524378;0.362128;-0.971473;,
 -0.837185;0.612183;-1.069441;,
 0.525266;-0.138966;0.246660;,
 -0.008657;0.071653;-0.046787;,
 0.083369;0.023750;-0.732856;,
 0.157643;-0.013867;-0.664704;,
 0.524042;-0.165101;0.329933;,
 -0.021427;0.020794;0.049604;,
 0.079101;-0.060144;-0.843139;,
 0.153375;-0.097760;-0.774987;;

 27;
 3;6,7,10;,
 3;5,20,16;,
 4;20,19,15,16;,
 4;19,9,8,15;,
 3;1,9,2;,
 4;6,18,14,7;,
 4;18,17,13,14;,
 3;17,4,13;,
 3;7,0,10;,
 6;15,8,11,0,7,14;,
 3;0,3,2;,
 3;14,16,15;,
 3;19,20,18;,
 3;10,2,6;,
 3;4,5,16;,
 3;4,17,18;,
 3;9,6,2;,
 4;2,12,3,1;,
 3;2,3,12;,
 3;0,2,10;,
 3;1,8,9;,
 4;18,6,9,19;,
 3;11,8,1;,
 3;11,1,3;,
 3;0,11,3;,
 4;16,14,13,4;,
 4;18,20,5,4;;

 MeshMaterialList {
  1;
  27;
  0,
  0,
  0,
  0,
  0,
  0,
  0,
  0,
  0,
  0,
  0,
  0,
  0,
  0,
  0,
  0,
  0,
  0,
  0,
  0,
  0,
  0,
  0,
  0,
  0,
  0,
  0;
Material {
 1.000000;1.000000;1.000000;1.000000;;
 50.000000;
 1.000000;1.000000;1.000000;;
 0.0; 0.0; 0.0;;
 TextureFilename {
  "fig23.ppm";
 }
 }
}
 MeshNormals {
  21;
  0.313976;0.947164;-0.065571;,
  -0.093518;-0.071740;-0.993030;,
  -0.923972;0.255857;0.284277;,
  0.424824;0.904688;-0.032606;,
  0.800670;0.589669;0.105918;,
  0.841993;0.201262;-0.500541;,
  -0.484347;-0.211534;0.848918;,
  0.532898;0.765379;0.360852;,
  0.417157;0.584607;-0.695855;,
  -0.171029;-0.761801;-0.624826;,
  -0.148598;0.894163;0.422365;,
  0.512700;0.749761;-0.418327;,
  -0.740886;0.664046;0.100652;,
  0.354465;0.910326;0.213683;,
  0.337638;0.922250;0.188299;,
  0.631899;0.723571;-0.277757;,
  0.629473;0.735604;-0.250301;,
  0.203896;0.714576;0.669184;,
  -0.522539;-0.715878;0.463112;,
  0.406775;-0.603180;-0.686082;,
  0.492598;-0.606294;-0.624303;;

  27;
  3;6,7,10;,
  3;5,20,16;,
  4;20,19,15,16;,
  4;19,9,8,15;,
  3;1,9,2;,
  4;6,18,14,7;,
  4;18,17,13,14;,
  3;17,4,13;,
  3;7,0,10;,
  6;15,8,11,0,7,14;,
  3;0,3,2;,
  3;14,16,15;,
  3;19,20,18;,
  3;10,2,6;,
  3;4,5,16;,
  3;4,17,18;,
  3;9,6,2;,
  4;2,12,3,1;,
  3;2,3,12;,
  3;0,2,10;,
  3;1,8,9;,
  4;18,6,9,19;,
  3;11,8,1;,
  3;11,1,3;,
  3;0,11,3;,
  4;16,14,13,4;,
  4;18,20,5,4;;
 }
 MeshTextureCoords { 
 21;
 0.103992;0.781835;,
 0.042301;0.730610;,
 0.134248;0.798442;,
 0.083348;0.854207;,
 0.092106;0.227331;,
 0.086950;0.226590;,
 0.137609;0.654910;,
 0.149779;0.609210;,
 0.035209;0.685752;,
 0.017303;0.673268;,
 0.180243;0.711593;,
 0.074106;0.786081;,
 0.098729;0.905975;,
 0.126602;0.310984;,
 0.141034;0.502118;,
 0.040063;0.567486;,
 0.041272;0.536010;,
 0.136460;0.296260;,
 0.152326;0.484736;,
 0.021551;0.571532;,
 0.022759;0.540056;;
 }
}
}
Frame frm-rt-wing18 {
  FrameTransformMatrix {
0.879662,-0.475600,0.000000,0.000000,
0.475600,0.879662,0.000000,0.000000,
0.000000,0.000000,1.000000,0.000000,
0.929713,-0.090467,-0.140188,1.000000;;
 }
Mesh rt-wing18 {
 24;
 -0.209646;-0.164191;0.123574;,
 -0.069596;0.028339;0.011772;,
 -0.503085;-0.533102;-1.073135;,
 0.069596;-0.458562;0.281712;,
 -0.069596;-0.430305;0.026206;,
 0.069596;-0.200983;0.070747;,
 0.013725;1.842326;2.932781;,
 0.013725;1.892827;2.903912;,
 -0.069596;-0.261659;0.900394;,
 0.069596;-0.180034;0.818768;,
 0.069596;-0.050821;0.087887;,
 -0.069596;-0.599867;0.416608;,
 0.069596;-0.527311;0.407539;,
 -0.180417;-0.356225;0.371298;,
 -0.116131;-0.047094;0.348880;,
 -0.069596;-0.522048;0.272643;,
 0.014539;1.347690;2.731976;,
 0.091199;0.252184;1.374270;,
 0.047152;0.462199;0.519303;,
 0.047152;0.519914;0.584258;,
 0.012910;1.347690;2.831741;,
 -0.003104;0.206837;1.483104;,
 -0.047152;0.498734;0.382296;,
 -0.047152;0.556449;0.447250;;

 28;
 3;11,8,15;,
 3;19,23,7;,
 4;19,18,22,23;,
 4;18,10,1,22;,
 3;1,2,0;,
 4;9,17,21,8;,
 4;17,16,20,21;,
 3;16,6,20;,
 3;13,14,0;,
 6;17,9,3,5,10,18;,
 3;18,19,17;,
 3;21,23,22;,
 5;19,7,6,16,17;,
 4;22,1,8,21;,
 4;12,11,15,3;,
 5;21,20,6,7,23;,
 3;14,8,1;,
 4;14,13,15,8;,
 4;13,0,4,15;,
 3;5,3,4;,
 3;1,10,5;,
 3;12,3,9;,
 3;3,15,4;,
 3;2,1,5;,
 3;1,0,14;,
 4;8,11,12,9;,
 3;0,2,4;,
 3;5,4,2;;

 MeshMaterialList {
  1;
  28;
  0,
  0,
  0,
  0,
  0,
  0,
  0,
  0,
  0,
  0,
  0,
  0,
  0,
  0,
  0,
  0,
  0,
  0,
  0,
  0,
  0,
  0,
  0,
  0,
  0,
  0,
  0,
  0;
Material {
 1.000000;1.000000;1.000000;1.000000;;
 50.000000;
 1.000000;1.000000;1.000000;;
 0.0; 0.0; 0.0;;
 TextureFilename {
  "fig23.ppm";
 }
 }
}
 MeshNormals {
  24;
  -0.988177;0.104913;0.111799;,
  0.017975;0.875853;-0.482242;,
  0.408653;-0.095907;-0.907637;,
  0.833441;-0.470941;-0.289122;,
  0.139469;-0.935483;-0.324685;,
  0.877006;-0.083457;-0.473176;,
  0.998660;0.030509;0.041808;,
  0.744530;0.596234;-0.300299;,
  -0.602623;-0.293374;0.742144;,
  0.899964;-0.351418;0.258013;,
  0.827622;0.206594;-0.521881;,
  0.039404;-0.997971;0.050017;,
  0.794166;-0.606939;0.030419;,
  -0.986539;-0.121126;0.109858;,
  -0.801777;0.525710;0.284222;,
  -0.672051;-0.704633;-0.227685;,
  0.987288;-0.110003;0.114721;,
  0.972155;-0.182816;0.146608;,
  0.927874;0.258081;-0.269155;,
  0.928014;0.306381;-0.211947;,
  0.861421;-0.367802;0.350252;,
  -0.739987;-0.505729;0.443460;,
  -0.360797;0.674456;-0.644154;,
  -0.366272;0.766824;-0.527092;;

  28;
  3;11,8,15;,
  3;19,23,7;,
  4;19,18,22,23;,
  4;18,10,1,22;,
  3;1,2,0;,
  4;9,17,21,8;,
  4;17,16,20,21;,
  3;16,6,20;,
  3;13,14,0;,
  6;17,9,3,5,10,18;,
  3;18,19,17;,
  3;21,23,22;,
  5;19,7,6,16,17;,
  4;22,1,8,21;,
  4;12,11,15,3;,
  5;21,20,6,7,23;,
  3;14,8,1;,
  4;14,13,15,8;,
  4;13,0,4,15;,
  3;5,3,4;,
  3;1,10,5;,
  3;12,3,9;,
  3;3,15,4;,
  3;2,1,5;,
  3;1,0,14;,
  4;8,11,12,9;,
  3;0,2,4;,
  3;5,4,2;;
 }
 MeshTextureCoords { 
 24;
 0.078898;0.749334;,
 0.038176;0.714478;,
 0.023577;0.914901;,
 0.124236;0.813779;,
 0.114152;0.825007;,
 0.079794;0.763513;,
 0.062061;0.167801;,
 0.052896;0.158756;,
 0.178540;0.725595;,
 0.151939;0.712784;,
 0.057982;0.727077;,
 0.161445;0.836325;,
 0.159223;0.822592;,
 0.132703;0.767810;,
 0.083927;0.711281;,
 0.144065;0.828563;,
 0.103634;0.240839;,
 0.154415;0.565134;,
 0.042434;0.569153;,
 0.040358;0.553358;,
 0.112368;0.235184;,
 0.171344;0.568535;,
 0.024076;0.569191;,
 0.022000;0.553397;;
 }
}
}
Frame frm-rt-wing1_3 {
  FrameTransformMatrix {
0.879662,-0.475600,0.000000,0.000000,
0.475600,0.879662,0.000000,0.000000,
0.000000,0.000000,1.000000,0.000000,
0.415888,0.063758,-1.610859,1.000000;;
 }
Mesh rt-wing1_3 {
 23;
 -0.008935;-0.499052;0.176364;,
 -0.008935;-0.499052;0.176364;,
 -0.008935;-0.499052;0.176364;,
 -0.008935;-0.499052;0.176364;,
 0.042876;-0.594875;0.176364;,
 0.042876;-0.594875;0.176364;,
 -0.032187;-0.635462;0.176364;,
 -0.032187;-0.635462;0.176364;,
 -0.083999;-0.539639;0.176364;,
 -0.083999;-0.539639;0.176364;,
 0.017355;-0.552898;-0.163180;,
 0.017355;-0.552898;-0.163180;,
 0.040091;-0.585435;-0.163729;,
 -0.010633;-0.539368;0.469129;,
 0.036116;-0.501394;0.470197;,
 0.040091;-0.585435;-0.163729;,
 0.017355;-0.552898;-0.163180;,
 -0.011271;-0.585559;-0.117166;,
 -0.011422;-0.612129;-0.085381;,
 -0.083999;-0.539639;0.176364;,
 -0.032187;-0.635462;0.176364;,
 0.042876;-0.594875;0.176364;,
 -0.008935;-0.499052;0.176364;;

 10;
 4;12,11,3,5;,
 4;18,15,4,7;,
 3;17,9,2;,
 4;17,18,6,8;,
 4;17,10,15,18;,
 3;14,21,1;,
 4;14,13,20,21;,
 3;13,19,20;,
 4;13,14,0,19;,
 3;22,16,17;;

 MeshMaterialList {
  1;
  10;
  0,
  0,
  0,
  0,
  0,
  0,
  0,
  0,
  0,
  0;
Material {
 1.000000;1.000000;1.000000;1.000000;;
 50.000000;
 1.000000;1.000000;1.000000;;
 0.0; 0.0; 0.0;;
 TextureFilename {
  "fig23.ppm";
 }
 }
}
 MeshNormals {
  23;
  -0.050557;0.990293;-0.129474;,
  -0.050557;0.990293;-0.129474;,
  -0.050557;0.990293;-0.129474;,
  -0.050557;0.990293;-0.129474;,
  0.963773;-0.265051;0.029832;,
  0.963773;-0.265051;0.029832;,
  -0.290575;-0.950641;0.108849;,
  -0.290575;-0.950641;0.108849;,
  -0.959395;0.281421;-0.019054;,
  -0.959395;0.281421;-0.019054;,
  -0.506527;0.457220;-0.731013;,
  -0.506527;0.457220;-0.731013;,
  0.550615;-0.681401;-0.482199;,
  -0.768391;-0.390284;0.507202;,
  0.844222;0.484749;0.228710;,
  0.550615;-0.681401;-0.482199;,
  -0.506527;0.457220;-0.731013;,
  -0.914379;0.132950;-0.382408;,
  -0.463436;-0.811946;-0.354925;,
  -0.959395;0.281421;-0.019054;,
  -0.290575;-0.950641;0.108849;,
  0.963773;-0.265051;0.029832;,
  -0.050557;0.990293;-0.129474;;

  10;
  4;12,11,3,5;,
  4;18,15,4,7;,
  3;17,9,2;,
  4;17,18,6,8;,
  4;17,10,15,18;,
  3;14,21,1;,
  4;14,13,20,21;,
  3;13,19,20;,
  4;13,14,0,19;,
  3;22,16,17;;
 }
 MeshTextureCoords { 
 23;
 0.950904;0.794799;,
 0.950904;0.794799;,
 0.951391;0.666709;,
 0.951391;0.666709;,
 0.951097;0.662571;,
 0.957197;0.669567;,
 0.952312;0.626223;,
 0.952312;0.626223;,
 0.956974;0.626419;,
 0.956974;0.626419;,
 0.952233;0.775246;,
 0.951640;0.776528;,
 0.957179;0.741465;,
 0.950904;0.794799;,
 0.950904;0.794799;,
 0.951640;0.776528;,
 0.951640;0.776528;,
 0.957729;0.745410;,
 0.954892;0.736140;,
 0.950904;0.794799;,
 0.950904;0.794799;,
 0.950904;0.794799;,
 0.951391;0.666709;;
 }
}
}
}
AnimationSet {
 Animation anim-canopy_1_1 {
  {frm-canopy_1_1}
  AnimationKey {
  2;
  2;
  1; 3; 0.000000, 0.310433, -0.882877;;,
  100; 3; 0.000000, 0.310433, -0.882877;;;
  }
 }
 Animation anim-center-wing1 {
  {frm-center-wing1}
  AnimationKey {
  2;
  2;
  1; 3; 0.000000, -2.441485, -1.626076;;,
  100; 3; 0.000000, -2.441485, -1.626076;;;
  }
 }
 Animation anim-rt-wing1_2 {
  {frm-rt-wing1_2}
  AnimationKey {
  0;
  2;
  1; 4; 0.000000, -0.245294, 0.969449, -0.000000;;,
  100; 4; 0.000000, -0.245294, 0.969449, -0.000000;;;
  }
  AnimationKey {
  2;
  2;
  1; 3; -0.415888, 0.063758, -1.610859;;,
  100; 3; -0.415888, 0.063758, -1.610859;;;
  }
 }
 Animation anim-rt-wing12 {
  {frm-rt-wing12}
  AnimationKey {
  0;
  2;
  1; 4; 0.000000, -0.245294, 0.969449, -0.000000;;,
  100; 4; 0.000000, -0.245294, 0.969449, -0.000000;;;
  }
  AnimationKey {
  2;
  2;
  1; 3; -0.929713, -0.090467, -0.140188;;,
  100; 3; -0.929713, -0.090467, -0.140188;;;
  }
 }
 Animation anim-rt-wing16 {
  {frm-rt-wing16}
  AnimationKey {
  0;
  2;
  1; 4; 0.000000, 0.000000, 1.000000, -0.000000;;,
  100; 4; 0.000000, 0.000000, 1.000000, -0.000000;;;
  }
  AnimationKey {
  2;
  2;
  1; 3; -1.366476, -0.914105, 0.939426;;,
  100; 3; -1.366476, -0.914105, 0.939426;;;
  }
 }
 Animation anim-rt-wing17 {
  {frm-rt-wing17}
  AnimationKey {
  2;
  2;
  1; 3; 1.366476, -0.914105, 0.939426;;,
  100; 3; 1.366476, -0.914105, 0.939426;;;
  }
 }
 Animation anim-rt-wing18 {
  {frm-rt-wing18}
  AnimationKey {
  0;
  2;
  1; 4; 0.969449, 0.000000, 0.000000, 0.245294;;,
  100; 4; 0.969449, 0.000000, 0.000000, 0.245294;;;
  }
  AnimationKey {
  2;
  2;
  1; 3; 0.929713, -0.090467, -0.140188;;,
  100; 3; 0.929713, -0.090467, -0.140188;;;
  }
 }
 Animation anim-rt-wing1_3 {
  {frm-rt-wing1_3}
  AnimationKey {
  0;
  2;
  1; 4; 0.969449, 0.000000, 0.000000, 0.245294;;,
  100; 4; 0.969449, 0.000000, 0.000000, 0.245294;;;
  }
  AnimationKey {
  2;
  2;
  1; 3; 0.415888, 0.063758, -1.610859;;,
  100; 3; 0.415888, 0.063758, -1.610859;;;
  }
 }
}
