xof 0302txt 0032
template Header {
 <3D82AB43-62DA-11cf-AB39-0020AF71E433>
 WORD major;
 WORD minor;
 DWORD flags;
}

template Vector {
 <3D82AB5E-62DA-11cf-AB39-0020AF71E433>
 FLOAT x;
 FLOAT y;
 FLOAT z;
}

template Coords2d {
 <F6F23F44-7686-11cf-8F52-0040333594A3>
 FLOAT u;
 FLOAT v;
}

template Matrix4x4 {
 <F6F23F45-7686-11cf-8F52-0040333594A3>
 array FLOAT matrix[16];
}

template ColorRGBA {
 <35FF44E0-6C7C-11cf-8F52-0040333594A3>
 FLOAT red;
 FLOAT green;
 FLOAT blue;
 FLOAT alpha;
}

template ColorRGB {
 <D3E16E81-7835-11cf-8F52-0040333594A3>
 FLOAT red;
 FLOAT green;
 FLOAT blue;
}

template TextureFilename {
 <A42790E1-7810-11cf-8F52-0040333594A3>
 STRING filename;
}

template Material {
 <3D82AB4D-62DA-11cf-AB39-0020AF71E433>
 ColorRGBA faceColor;
 FLOAT power;
 ColorRGB specularColor;
 ColorRGB emissiveColor;
 [...]
}

template MeshFace {
 <3D82AB5F-62DA-11cf-AB39-0020AF71E433>
 DWORD nFaceVertexIndices;
 array DWORD faceVertexIndices[nFaceVertexIndices];
}

template MeshTextureCoords {
 <F6F23F40-7686-11cf-8F52-0040333594A3>
 DWORD nTextureCoords;
 array Coords2d textureCoords[nTextureCoords];
}

template MeshMaterialList {
 <F6F23F42-7686-11cf-8F52-0040333594A3>
 DWORD nMaterials;
 DWORD nFaceIndexes;
 array DWORD faceIndexes[nFaceIndexes];
 [Material]
}

template MeshNormals {
 <F6F23F43-7686-11cf-8F52-0040333594A3>
 DWORD nNormals;
 array Vector normals[nNormals];
 DWORD nFaceNormals;
 array MeshFace faceNormals[nFaceNormals];
}

template Mesh {
 <3D82AB44-62DA-11cf-AB39-0020AF71E433>
 DWORD nVertices;
 array Vector vertices[nVertices];
 DWORD nFaces;
 array MeshFace faces[nFaces];
 [...]
}

template FrameTransformMatrix {
 <F6F23F41-7686-11cf-8F52-0040333594A3>
 Matrix4x4 frameMatrix;
}

template Frame {
 <3D82AB46-62DA-11cf-AB39-0020AF71E433>
 [...]
}
template FloatKeys {
 <10DD46A9-775B-11cf-8F52-0040333594A3>
 DWORD nValues;
 array FLOAT values[nValues];
}

template TimedFloatKeys {
 <F406B180-7B3B-11cf-8F52-0040333594A3>
 DWORD time;
 FloatKeys tfkeys;
}

template AnimationKey {
 <10DD46A8-775B-11cf-8F52-0040333594A3>
 DWORD keyType;
 DWORD nKeys;
 array TimedFloatKeys keys[nKeys];
}

template AnimationOptions {
 <E2BF56C0-840F-11cf-8F52-0040333594A3>
 DWORD openclosed;
 DWORD positionquality;
}

template Animation {
 <3D82AB4F-62DA-11cf-AB39-0020AF71E433>
 [...]
}

template AnimationSet {
 <3D82AB50-62DA-11cf-AB39-0020AF71E433>
 [Animation]
}

Header {
 1;
 0;
 1;
}

Frame frm-dodeca1 {
  FrameTransformMatrix {
17.150000,0.000000,0.000000,0.000000,
0.000000,17.150000,0.000000,0.000000,
0.000000,0.000000,17.150000,0.000000,
0.000000,0.000000,0.000000,1.000000;;
 }
Mesh dodeca1 {
 133;
 0.000000;-9.267113;-7.079437;,
 0.000000;-9.267113;-7.079437;,
 0.000000;-9.267113;-7.079437;,
 0.000000;-9.267113;-7.079437;,
 0.000000;-2.187673;-11.454778;,
 0.000000;-2.187673;-11.454778;,
 0.000000;-2.187673;-11.454778;,
 0.000000;-2.187673;-11.454778;,
 0.000000;-2.187673;-11.454778;,
 0.000000;2.187673;11.454778;,
 0.000000;2.187673;11.454778;,
 0.000000;2.187673;11.454778;,
 0.000000;2.187673;11.454778;,
 0.000000;9.267113;7.079437;,
 0.000000;9.267113;7.079437;,
 0.000000;9.267113;7.079437;,
 0.000000;9.267113;7.079437;,
 0.000000;9.267113;7.079437;,
 -4.161191;9.267106;-5.727393;,
 -4.161191;9.267106;-5.727393;,
 -4.161191;9.267106;-5.727393;,
 -4.161191;9.267106;-5.727393;,
 -4.161191;9.267106;-5.727393;,
 4.161191;-9.267106;5.727393;,
 4.161191;-9.267106;5.727393;,
 4.161191;-9.267106;5.727393;,
 4.161191;-9.267106;5.727393;,
 10.894141;-2.187669;-3.539720;,
 10.894141;-2.187669;-3.539720;,
 10.894141;-2.187669;-3.539720;,
 10.894141;2.187669;3.539720;,
 10.894141;2.187669;3.539720;,
 10.894141;2.187669;3.539720;,
 10.894141;2.187669;3.539720;,
 10.894141;2.187669;3.539720;,
 -10.894141;-2.187669;-3.539720;,
 -10.894141;-2.187669;-3.539720;,
 -10.894141;-2.187669;-3.539720;,
 -10.894141;-2.187669;-3.539720;,
 -11.130278;2.251500;2.800354;,
 -11.130278;2.251500;2.800354;,
 -11.130278;2.251500;2.800354;,
 6.732950;2.187663;-9.267109;,
 6.732950;2.187663;-9.267109;,
 6.732950;2.187663;-9.267109;,
 6.732950;2.187663;-9.267109;,
 6.732950;2.187663;-9.267109;,
 -6.732950;2.187663;-9.267109;,
 -6.732950;2.187663;-9.267109;,
 -6.732950;2.187663;-9.267109;,
 6.732950;-2.187663;9.267109;,
 6.732950;-2.187663;9.267109;,
 6.732950;-2.187663;9.267109;,
 -6.732950;-2.187663;9.267109;,
 -6.732950;-2.187663;9.267109;,
 -6.732950;-2.187663;9.267109;,
 -6.732950;-2.187663;9.267109;,
 -6.732950;-2.187663;9.267109;,
 -0.017151;11.654806;0.041868;,
 -0.017151;11.654806;0.041868;,
 -0.017151;11.654806;0.041868;,
 -0.017151;11.654806;0.041868;,
 -7.237495;4.913536;6.829689;,
 -7.237495;4.913536;6.829689;,
 -7.237495;4.913536;6.829689;,
 -9.735909;5.727387;-3.161142;,
 -9.735909;5.727387;-3.161142;,
 -9.735909;5.727387;-3.161142;,
 -9.735909;5.727387;-3.161142;,
 0.017152;5.727385;-10.271469;,
 0.017152;5.727385;-10.271469;,
 0.017152;5.727385;-10.271469;,
 0.017152;5.727385;-10.271469;,
 0.000000;-11.593111;0.020386;,
 0.000000;-11.593111;0.020386;,
 0.000000;-11.593111;0.020386;,
 -5.582232;-4.604254;-8.436467;,
 -5.582232;-4.604254;-8.436467;,
 -5.582232;-4.604254;-8.436467;,
 -5.582232;-4.604254;-8.436467;,
 -10.196707;-4.509423;2.757802;,
 -10.196707;-4.509423;2.757802;,
 -10.196707;-4.509423;2.757802;,
 -10.196707;-4.509423;2.757802;,
 -0.690747;-4.537643;10.381561;,
 -0.690747;-4.537643;10.381561;,
 -0.690747;-4.537643;10.381561;,
 -0.690747;-4.537643;10.381561;,
 9.591923;-4.689484;3.847711;,
 9.591923;-4.689484;3.847711;,
 9.591923;-4.689484;3.847711;,
 9.591923;-4.689484;3.847711;,
 6.222425;-5.198991;-8.280349;,
 6.222425;-5.198991;-8.280349;,
 6.222425;-5.198991;-8.280349;,
 10.350492;5.000992;-2.772868;,
 10.350492;5.000992;-2.772868;,
 10.350492;5.000992;-2.772868;,
 5.692849;4.973337;9.198760;,
 5.692849;4.973337;9.198760;,
 5.692849;4.973337;9.198760;,
 5.692849;4.973337;9.198760;,
 10.350492;5.000992;-2.772868;,
 6.222425;-5.198991;-8.280349;,
 9.591923;-4.689484;3.847711;,
 -0.690747;-4.537643;10.381561;,
 -10.196707;-4.509423;2.757802;,
 -5.582232;-4.604254;-8.436467;,
 0.000000;-11.593111;0.020386;,
 0.017152;5.727385;-10.271469;,
 -9.735909;5.727387;-3.161142;,
 -7.237495;4.913536;6.829689;,
 -0.017151;11.654806;0.041868;,
 -6.732950;-2.187663;9.267109;,
 6.732950;-2.187663;9.267109;,
 -6.732950;9.267109;2.187663;,
 6.732950;9.267109;2.187663;,
 -6.732950;-9.267109;-2.187663;,
 6.732950;-9.267109;-2.187663;,
 -6.732950;2.187663;-9.267109;,
 6.732950;2.187663;-9.267109;,
 -11.130278;2.251500;2.800354;,
 -10.894141;-2.187669;-3.539720;,
 10.894141;2.187669;3.539720;,
 10.894141;-2.187669;-3.539720;,
 -4.161191;-9.267106;5.727393;,
 4.161191;-9.267106;5.727393;,
 -4.161191;9.267106;-5.727393;,
 4.161191;9.267106;-5.727393;,
 0.000000;9.267113;7.079437;,
 0.000000;2.187673;11.454778;,
 0.000000;-2.187673;-11.454778;,
 0.000000;-9.267113;-7.079437;;

 60;
 3;94,118,29;,
 3;79,8,49;,
 3;72,22,48;,
 3;75,118,3;,
 3;91,34,28;,
 3;97,33,116;,
 3;83,117,38;,
 3;68,115,41;,
 3;100,12,17;,
 3;61,115,21;,
 3;64,57,40;,
 3;87,11,52;,
 3;60,128,116;,
 3;20,128,59;,
 3;16,115,58;,
 3;116,15,112;,
 3;63,115,14;,
 3;10,56,62;,
 3;13,9,111;,
 3;39,115,111;,
 3;67,47,19;,
 3;37,119,66;,
 3;65,121,36;,
 3;18,115,110;,
 3;71,46,128;,
 3;7,45,70;,
 3;119,6,69;,
 3;128,127,109;,
 3;74,117,125;,
 3;26,118,73;,
 3;2,117,108;,
 3;108,125,25;,
 3;78,35,117;,
 3;119,122,77;,
 3;1,5,76;,
 3;107,117,0;,
 3;82,121,55;,
 3;125,117,81;,
 3;122,121,80;,
 3;106,54,125;,
 3;86,125,53;,
 3;113,130,85;,
 3;24,125,84;,
 3;105,51,23;,
 3;90,126,50;,
 3;118,126,89;,
 3;114,32,88;,
 3;104,27,118;,
 3;93,44,4;,
 3;124,43,92;,
 3;132,118,103;,
 3;103,131,132;,
 3;96,128,42;,
 3;116,128,95;,
 3;124,31,102;,
 3;102,120,124;,
 3;99,116,30;,
 3;129,116,98;,
 3;114,130,101;,
 3;101,123,114;;

 MeshMaterialList {
  5;
  60;
  0,
  1,
  2,
  0,
  1,
  3,
  4,
  2,
  2,
  2,
  1,
  1,
  3,
  3,
  2,
  3,
  2,
  1,
  2,
  2,
  2,
  1,
  1,
  2,
  3,
  1,
  1,
  3,
  4,
  0,
  4,
  4,
  4,
  1,
  4,
  4,
  1,
  4,
  1,
  4,
  4,
  1,
  4,
  0,
  0,
  0,
  1,
  0,
  1,
  1,
  0,
  0,
  3,
  3,
  1,
  1,
  3,
  3,
  1,
  1;
Material {
 1.000000;1.000000;0.000000;1.000000;;
 50.000000;
 1.000000;1.000000;1.000000;;
 0.0; 0.0; 0.0;;
 TextureFilename {
  "environtest.ppm";
 }
 }
Material {
 1.000000;1.000000;1.000000;1.000000;;
 50.000000;
 1.000000;1.000000;1.000000;;
 0.0; 0.0; 0.0;;
 TextureFilename {
  "map2.ppm";
 }
 }
Material {
 1.000000;0.000000;0.000000;1.000000;;
 50.000000;
 1.000000;1.000000;1.000000;;
 0.0; 0.0; 0.0;;
 TextureFilename {
  "environtest.ppm";
 }
 }
Material {
 0.000000;1.000000;1.000000;1.000000;;
 50.000000;
 1.000000;1.000000;1.000000;;
 0.0; 0.0; 0.0;;
 TextureFilename {
  "environtest.ppm";
 }
 }
Material {
 0.000000;1.000000;0.000000;1.000000;;
 50.000000;
 1.000000;1.000000;1.000000;;
 0.0; 0.0; 0.0;;
 TextureFilename {
  "environtest.ppm";
 }
 }
}
 MeshNormals {
  133;
  0.016387;0.785910;0.618123;,
  0.016387;0.785910;0.618123;,
  0.016387;0.785910;0.618123;,
  0.016387;0.785910;0.618123;,
  0.011730;0.194018;0.980928;,
  0.011730;0.194018;0.980928;,
  0.011730;0.194018;0.980928;,
  0.011730;0.194018;0.980928;,
  0.011730;0.194018;0.980928;,
  0.069417;-0.188945;-0.979531;,
  0.069417;-0.188945;-0.979531;,
  0.069417;-0.188945;-0.979531;,
  0.069417;-0.188945;-0.979531;,
  0.054200;-0.784496;-0.617761;,
  0.054200;-0.784496;-0.617761;,
  0.054200;-0.784496;-0.617761;,
  0.054200;-0.784496;-0.617761;,
  0.054200;-0.784496;-0.617761;,
  0.350586;-0.803876;0.480492;,
  0.350586;-0.803876;0.480492;,
  0.350586;-0.803876;0.480492;,
  0.350586;-0.803876;0.480492;,
  0.350586;-0.803876;0.480492;,
  -0.355176;0.781762;-0.512541;,
  -0.355176;0.781762;-0.512541;,
  -0.355176;0.781762;-0.512541;,
  -0.355176;0.781762;-0.512541;,
  -0.937535;0.207789;0.279021;,
  -0.937535;0.207789;0.279021;,
  -0.937535;0.207789;0.279021;,
  -0.931046;-0.165916;-0.325000;,
  -0.931046;-0.165916;-0.325000;,
  -0.931046;-0.165916;-0.325000;,
  -0.931046;-0.165916;-0.325000;,
  -0.931046;-0.165916;-0.325000;,
  0.921100;0.193388;0.337899;,
  0.921100;0.193388;0.337899;,
  0.921100;0.193388;0.337899;,
  0.921100;0.193388;0.337899;,
  0.938461;-0.199094;-0.282229;,
  0.938461;-0.199094;-0.282229;,
  0.938461;-0.199094;-0.282229;,
  -0.582704;-0.183516;0.791693;,
  -0.582704;-0.183516;0.791693;,
  -0.582704;-0.183516;0.791693;,
  -0.582704;-0.183516;0.791693;,
  -0.582704;-0.183516;0.791693;,
  0.577327;-0.172985;0.797979;,
  0.577327;-0.172985;0.797979;,
  0.577327;-0.172985;0.797979;,
  -0.555753;0.210791;-0.804180;,
  -0.555753;0.210791;-0.804180;,
  -0.555753;0.210791;-0.804180;,
  0.605051;0.156890;-0.780576;,
  0.605051;0.156890;-0.780576;,
  0.605051;0.156890;-0.780576;,
  0.605051;0.156890;-0.780576;,
  0.605051;0.156890;-0.780576;,
  0.000532;-0.999999;-0.001298;,
  0.000532;-0.999999;-0.001298;,
  0.000532;-0.999999;-0.001298;,
  0.000532;-0.999999;-0.001298;,
  0.573122;-0.444152;-0.688665;,
  0.573122;-0.444152;-0.688665;,
  0.573122;-0.444152;-0.688665;,
  0.837832;-0.464577;0.286716;,
  0.837832;-0.464577;0.286716;,
  0.837832;-0.464577;0.286716;,
  0.837832;-0.464577;0.286716;,
  -0.000548;-0.462282;0.886733;,
  -0.000548;-0.462282;0.886733;,
  -0.000548;-0.462282;0.886733;,
  -0.000548;-0.462282;0.886733;,
  -0.000000;1.000000;-0.000621;,
  -0.000000;1.000000;-0.000621;,
  -0.000000;1.000000;-0.000621;,
  0.519233;0.438008;0.733857;,
  0.519233;0.438008;0.733857;,
  0.519233;0.438008;0.733857;,
  0.519233;0.438008;0.733857;,
  0.864765;0.428982;-0.261066;,
  0.864765;0.428982;-0.261066;,
  0.864765;0.428982;-0.261066;,
  0.864765;0.428982;-0.261066;,
  0.019375;0.432408;-0.901470;,
  0.019375;0.432408;-0.901470;,
  0.019375;0.432408;-0.901470;,
  0.019375;0.432408;-0.901470;,
  -0.849382;0.436641;-0.296472;,
  -0.849382;0.436641;-0.296472;,
  -0.849382;0.436641;-0.296472;,
  -0.849382;0.436641;-0.296472;,
  -0.529682;0.447714;0.720409;,
  -0.529682;0.447714;0.720409;,
  -0.529682;0.447714;0.720409;,
  -0.860435;-0.438019;0.260366;,
  -0.860435;-0.438019;0.260366;,
  -0.860435;-0.438019;0.260366;,
  -0.507234;-0.435824;-0.743486;,
  -0.507234;-0.435824;-0.743486;,
  -0.507234;-0.435824;-0.743486;,
  -0.507234;-0.435824;-0.743486;,
  -0.860435;-0.438019;0.260366;,
  -0.529682;0.447714;0.720409;,
  -0.849382;0.436641;-0.296472;,
  0.019375;0.432408;-0.901470;,
  0.864765;0.428982;-0.261066;,
  0.519233;0.438008;0.733857;,
  -0.000000;1.000000;-0.000621;,
  -0.000548;-0.462282;0.886733;,
  0.837832;-0.464577;0.286716;,
  0.573122;-0.444152;-0.688665;,
  0.000532;-0.999999;-0.001298;,
  0.605051;0.156890;-0.780576;,
  -0.555753;0.210791;-0.804180;,
  0.580843;-0.788881;-0.200720;,
  -0.572099;-0.795608;-0.199274;,
  0.588268;0.780280;0.212378;,
  -0.590562;0.788957;0.169658;,
  0.577327;-0.172985;0.797979;,
  -0.582704;-0.183516;0.791693;,
  0.938461;-0.199094;-0.282229;,
  0.921100;0.193388;0.337899;,
  -0.931046;-0.165916;-0.325000;,
  -0.937535;0.207789;0.279021;,
  0.371633;0.782237;-0.499994;,
  -0.355176;0.781762;-0.512541;,
  0.350586;-0.803876;0.480492;,
  -0.361569;-0.800092;0.478665;,
  0.054200;-0.784496;-0.617761;,
  0.069417;-0.188945;-0.979531;,
  0.011730;0.194018;0.980928;,
  0.016387;0.785910;0.618123;;

  60;
  3;94,118,29;,
  3;79,8,49;,
  3;72,22,48;,
  3;75,118,3;,
  3;91,34,28;,
  3;97,33,116;,
  3;83,117,38;,
  3;68,115,41;,
  3;100,12,17;,
  3;61,115,21;,
  3;64,57,40;,
  3;87,11,52;,
  3;60,128,116;,
  3;20,128,59;,
  3;16,115,58;,
  3;116,15,112;,
  3;63,115,14;,
  3;10,56,62;,
  3;13,9,111;,
  3;39,115,111;,
  3;67,47,19;,
  3;37,119,66;,
  3;65,121,36;,
  3;18,115,110;,
  3;71,46,128;,
  3;7,45,70;,
  3;119,6,69;,
  3;128,127,109;,
  3;74,117,125;,
  3;26,118,73;,
  3;2,117,108;,
  3;108,125,25;,
  3;78,35,117;,
  3;119,122,77;,
  3;1,5,76;,
  3;107,117,0;,
  3;82,121,55;,
  3;125,117,81;,
  3;122,121,80;,
  3;106,54,125;,
  3;86,125,53;,
  3;113,130,85;,
  3;24,125,84;,
  3;105,51,23;,
  3;90,126,50;,
  3;118,126,89;,
  3;114,32,88;,
  3;104,27,118;,
  3;93,44,4;,
  3;124,43,92;,
  3;132,118,103;,
  3;103,131,132;,
  3;96,128,42;,
  3;116,128,95;,
  3;124,31,102;,
  3;102,120,124;,
  3;99,116,30;,
  3;129,116,98;,
  3;114,130,101;,
  3;101,123,114;;
 }
 MeshTextureCoords { 
 133;
 0.887814;0.050385;,
 0.968260;0.147496;,
 0.887814;0.050385;,
 0.978723;0.295535;,
 12.414168;0.805980;,
 0.972166;0.043127;,
 12.414168;0.805980;,
 12.414168;0.805980;,
 12.414168;0.805980;,
 0.026145;0.887010;,
 7.430640;0.238379;,
 7.430640;0.238379;,
 0.026145;0.887010;,
 0.202956;0.184637;,
 0.202956;0.184637;,
 0.024116;0.983151;,
 0.202956;0.184637;,
 0.202956;0.184637;,
 0.936633;0.056783;,
 0.936633;0.056783;,
 0.014072;0.035022;,
 0.936633;0.056783;,
 0.936633;0.056783;,
 0.121253;0.063005;,
 0.972777;0.972120;,
 0.972777;0.972120;,
 0.184915;0.035730;,
 0.285433;0.971392;,
 14.383310;0.803267;,
 0.285433;0.971392;,
 0.965365;0.979913;,
 15.363575;0.241022;,
 5.461497;0.241022;,
 0.965365;0.979913;,
 15.363575;0.241022;,
 0.032245;0.013302;,
 10.422578;0.808771;,
 10.422578;0.808771;,
 0.032245;0.013302;,
 0.521311;1.097572;,
 9.529961;0.228003;,
 0.521311;1.097572;,
 0.985198;0.012496;,
 13.401194;0.240022;,
 13.401194;0.240022;,
 13.401194;0.240022;,
 0.985198;0.012496;,
 0.957704;0.512900;,
 0.957704;0.512900;,
 11.420938;0.236709;,
 0.034449;0.191973;,
 0.026919;0.088427;,
 6.443613;0.804293;,
 0.000021;0.984217;,
 0.000021;0.984217;,
 8.423870;0.807695;,
 8.423870;0.807695;,
 8.423870;0.807695;,
 0.493741;0.007920;,
 0.027307;0.579818;,
 0.027307;0.579818;,
 0.493741;0.007920;,
 8.717374;-0.172917;,
 0.198530;0.903245;,
 8.717374;-0.172917;,
 10.422856;-0.252552;,
 10.422856;-0.252552;,
 0.830408;0.954230;,
 0.830408;0.954230;,
 12.418669;-0.243237;,
 12.418669;-0.243237;,
 0.489919;0.017780;,
 0.975266;0.176621;,
 0.829209;0.017726;,
 0.973752;0.442777;,
 0.829209;0.017726;,
 0.919547;0.078257;,
 11.492145;1.168109;,
 0.518782;0.017261;,
 11.492145;1.168109;,
 9.501477;1.134752;,
 0.021947;0.713671;,
 9.501477;1.134752;,
 0.021947;0.713671;,
 0.643336;0.995362;,
 7.533731;1.140913;,
 0.643336;0.995362;,
 7.533731;1.140913;,
 5.565946;1.156662;,
 0.028022;0.541379;,
 0.028022;0.541379;,
 15.468025;1.156662;,
 13.427801;1.217351;,
 13.427801;1.217351;,
 0.860349;0.978249;,
 0.968746;0.454337;,
 0.968746;0.454337;,
 0.968746;0.454337;,
 0.412782;0.984891;,
 0.412782;0.984891;,
 0.040400;0.050277;,
 6.558974;-0.123004;,
 14.465379;-0.128837;,
 0.860349;0.978249;,
 0.028022;0.541379;,
 0.080190;0.021389;,
 0.021947;0.713671;,
 0.518782;0.017261;,
 0.973752;0.442777;,
 0.489919;0.017780;,
 0.830408;0.954230;,
 0.198530;0.903245;,
 0.027307;0.579818;,
 8.423870;0.807695;,
 6.443613;0.804293;,
 0.520137;0.580729;,
 0.439696;0.637743;,
 0.323587;0.222302;,
 0.457975;0.638314;,
 11.420938;0.236709;,
 13.401194;0.240022;,
 9.529961;0.228003;,
 10.422578;0.808771;,
 5.461497;0.241022;,
 14.383310;0.803267;,
 0.463008;0.620557;,
 0.184915;0.035730;,
 0.014072;0.035022;,
 0.389629;0.249866;,
 0.024116;0.983151;,
 7.430640;0.238379;,
 1.060718;0.877690;,
 0.978723;0.295535;;
 }
}
}
AnimationSet {
 Animation anim-dodeca1 {
  {frm-dodeca1}
  AnimationKey {
  1;
  2;
  1; 3; 17.150000, 17.150000, 17.150000;;,
  200; 3; 17.150000, 17.150000, 17.150000;;;
  }
 }
}
