xof 0302txt 0032
template Header {
 <3D82AB43-62DA-11cf-AB39-0020AF71E433>
 WORD major;
 WORD minor;
 DWORD flags;
}

template Vector {
 <3D82AB5E-62DA-11cf-AB39-0020AF71E433>
 FLOAT x;
 FLOAT y;
 FLOAT z;
}

template Coords2d {
 <F6F23F44-7686-11cf-8F52-0040333594A3>
 FLOAT u;
 FLOAT v;
}

template Matrix4x4 {
 <F6F23F45-7686-11cf-8F52-0040333594A3>
 array FLOAT matrix[16];
}

template ColorRGBA {
 <35FF44E0-6C7C-11cf-8F52-0040333594A3>
 FLOAT red;
 FLOAT green;
 FLOAT blue;
 FLOAT alpha;
}

template ColorRGB {
 <D3E16E81-7835-11cf-8F52-0040333594A3>
 FLOAT red;
 FLOAT green;
 FLOAT blue;
}

template TextureFilename {
 <A42790E1-7810-11cf-8F52-0040333594A3>
 STRING filename;
}

template Material {
 <3D82AB4D-62DA-11cf-AB39-0020AF71E433>
 ColorRGBA faceColor;
 FLOAT power;
 ColorRGB specularColor;
 ColorRGB emissiveColor;
 [...]
}

template MeshFace {
 <3D82AB5F-62DA-11cf-AB39-0020AF71E433>
 DWORD nFaceVertexIndices;
 array DWORD faceVertexIndices[nFaceVertexIndices];
}

template MeshTextureCoords {
 <F6F23F40-7686-11cf-8F52-0040333594A3>
 DWORD nTextureCoords;
 array Coords2d textureCoords[nTextureCoords];
}

template MeshMaterialList {
 <F6F23F42-7686-11cf-8F52-0040333594A3>
 DWORD nMaterials;
 DWORD nFaceIndexes;
 array DWORD faceIndexes[nFaceIndexes];
 [Material]
}

template MeshNormals {
 <F6F23F43-7686-11cf-8F52-0040333594A3>
 DWORD nNormals;
 array Vector normals[nNormals];
 DWORD nFaceNormals;
 array MeshFace faceNormals[nFaceNormals];
}

template Mesh {
 <3D82AB44-62DA-11cf-AB39-0020AF71E433>
 DWORD nVertices;
 array Vector vertices[nVertices];
 DWORD nFaces;
 array MeshFace faces[nFaces];
 [...]
}

template FrameTransformMatrix {
 <F6F23F41-7686-11cf-8F52-0040333594A3>
 Matrix4x4 frameMatrix;
}

template Frame {
 <3D82AB46-62DA-11cf-AB39-0020AF71E433>
 [...]
}
template FloatKeys {
 <10DD46A9-775B-11cf-8F52-0040333594A3>
 DWORD nValues;
 array FLOAT values[nValues];
}

template TimedFloatKeys {
 <F406B180-7B3B-11cf-8F52-0040333594A3>
 DWORD time;
 FloatKeys tfkeys;
}

template AnimationKey {
 <10DD46A8-775B-11cf-8F52-0040333594A3>
 DWORD keyType;
 DWORD nKeys;
 array TimedFloatKeys keys[nKeys];
}

template AnimationOptions {
 <E2BF56C0-840F-11cf-8F52-0040333594A3>
 DWORD openclosed;
 DWORD positionquality;
}

template Animation {
 <3D82AB4F-62DA-11cf-AB39-0020AF71E433>
 [...]
}

template AnimationSet {
 <3D82AB50-62DA-11cf-AB39-0020AF71E433>
 [Animation]
}

Header {
 1;
 0;
 1;
}

Frame frm-dummyRoot {
  FrameTransformMatrix {
1.000000,0.000000,0.000000,0.000000,
0.000000,1.000000,0.000000,0.000000,
0.000000,0.000000,1.000000,0.000000,
0.000000,0.000000,0.000000,1.000000;;
 }
Frame frm-cockpt {
  FrameTransformMatrix {
1.000000,0.000000,0.000000,0.000000,
0.000000,1.000000,0.000000,0.000000,
0.000000,0.000000,1.000000,0.000000,
0.000000,0.285174,-0.589360,1.000000;;
 }
Mesh cockpt {
 8;
 0.000500;0.000500;-0.000500;,
 0.000500;0.000500;0.000500;,
 0.000500;-0.000500;-0.000500;,
 0.000500;-0.000500;0.000500;,
 -0.000500;0.000500;-0.000500;,
 -0.000500;0.000500;0.000500;,
 -0.000500;-0.000500;-0.000500;,
 -0.000500;-0.000500;0.000500;;

 6;
 4;5,4,6,7;,
 4;4,0,2,6;,
 4;0,1,3,2;,
 4;1,5,7,3;,
 4;7,6,2,3;,
 4;1,0,4,5;;

 MeshNormals {
  8;
  0.577350;0.577350;-0.577350;,
  0.577350;0.577350;0.577350;,
  0.577350;-0.577350;-0.577350;,
  0.577350;-0.577350;0.577350;,
  -0.577350;0.577350;-0.577350;,
  -0.577350;0.577350;0.577350;,
  -0.577350;-0.577350;-0.577350;,
  -0.577350;-0.577350;0.577350;;

  6;
  4;5,4,6,7;,
  4;4,0,2,6;,
  4;0,1,3,2;,
  4;1,5,7,3;,
  4;7,6,2,3;,
  4;1,0,4,5;;
 }
}
}
Frame frm-trail {
  FrameTransformMatrix {
1.000000,0.000000,0.000000,0.000000,
0.000000,1.000000,0.000000,0.000000,
0.000000,0.000000,1.000000,0.000000,
0.000000,0.609943,1.017704,1.000000;;
 }
Mesh trail {
 8;
 0.000500;0.000500;-0.000500;,
 0.000500;0.000500;0.000500;,
 0.000500;-0.000500;-0.000500;,
 0.000500;-0.000500;0.000500;,
 -0.000500;0.000500;-0.000500;,
 -0.000500;0.000500;0.000500;,
 -0.000500;-0.000500;-0.000500;,
 -0.000500;-0.000500;0.000500;;

 6;
 4;5,4,6,7;,
 4;4,0,2,6;,
 4;0,1,3,2;,
 4;1,5,7,3;,
 4;7,6,2,3;,
 4;1,0,4,5;;

 MeshNormals {
  8;
  0.577350;0.577350;-0.577350;,
  0.577350;0.577350;0.577350;,
  0.577350;-0.577350;-0.577350;,
  0.577350;-0.577350;0.577350;,
  -0.577350;0.577350;-0.577350;,
  -0.577350;0.577350;0.577350;,
  -0.577350;-0.577350;-0.577350;,
  -0.577350;-0.577350;0.577350;;

  6;
  4;5,4,6,7;,
  4;4,0,2,6;,
  4;0,1,3,2;,
  4;1,5,7,3;,
  4;7,6,2,3;,
  4;1,0,4,5;;
 }
}
}
Frame frm-lengine1 {
  FrameTransformMatrix {
0.891561,0.452900,0.000000,0.000000,
-0.452900,0.891561,0.000000,0.000000,
0.000000,0.000000,1.000000,0.000000,
-0.211166,0.552456,0.345858,1.000000;;
 }
Mesh lengine1 {
 46;
 -0.260235;0.010120;0.673151;,
 -0.260235;0.010120;0.673151;,
 -0.086195;-0.013936;-0.217261;,
 -0.086195;-0.013936;-0.217261;,
 -0.328177;0.013981;-0.029028;,
 -0.328177;0.013981;-0.029028;,
 -0.328177;0.013981;-0.029028;,
 -0.328547;0.236186;-0.209101;,
 -0.328547;0.236186;-0.209101;,
 -0.288391;0.193151;0.676984;,
 -0.288391;0.193151;0.676984;,
 -0.280920;0.047056;-0.213328;,
 -0.280920;0.047056;-0.213328;,
 -0.181452;0.364324;-0.208808;,
 -0.181452;0.364324;-0.208808;,
 -0.160767;0.327388;0.677671;,
 -0.160767;0.327388;0.677671;,
 0.060901;0.114201;-0.216967;,
 0.060901;0.114201;-0.216967;,
 -0.104456;-0.038674;0.670004;,
 -0.104456;-0.038674;0.670004;,
 0.013272;0.303331;-0.212741;,
 0.013272;0.303331;-0.212741;,
 0.013272;0.303331;-0.212741;,
 -0.004988;0.278594;0.674524;,
 -0.004988;0.278594;0.674524;,
 0.023168;0.095563;0.670691;,
 0.023168;0.095563;0.670691;,
 0.023168;0.095563;0.670691;,
 0.113442;0.078227;-0.034152;,
 -0.004988;0.278594;0.674524;,
 0.043342;0.302756;-0.028940;,
 0.013272;0.303331;-0.212741;,
 -0.104456;-0.038674;0.670004;,
 0.060901;0.114201;-0.216967;,
 -0.160767;0.327388;0.677671;,
 -0.212517;0.382898;-0.023772;,
 -0.181452;0.364324;-0.208808;,
 -0.280920;0.047056;-0.213328;,
 -0.072318;-0.066160;-0.034196;,
 -0.288391;0.193151;0.676984;,
 -0.398276;0.238510;-0.023816;,
 -0.328547;0.236186;-0.209101;,
 -0.328177;0.013981;-0.029028;,
 -0.086195;-0.013936;-0.217261;,
 -0.260235;0.010120;0.673151;;

 20;
 4;41,6,1,10;,
 4;41,36,14,8;,
 4;41,9,16,36;,
 4;39,20,0,5;,
 4;31,25,27,29;,
 4;29,39,3,18;,
 4;4,41,7,12;,
 4;36,31,23,13;,
 4;15,24,31,36;,
 4;39,43,11,2;,
 4;29,26,19,39;,
 3;44,38,42;,
 3;44,42,37;,
 3;44,37,22;,
 3;44,21,17;,
 3;35,40,45;,
 3;33,28,30;,
 3;35,45,33;,
 3;33,30,35;,
 4;29,34,32,31;;

 MeshMaterialList {
  3;
  20;
  0,
  0,
  0,
  0,
  0,
  0,
  0,
  0,
  0,
  0,
  0,
  1,
  1,
  1,
  1,
  2,
  2,
  2,
  2,
  0;
Material {
 1.000000;1.000000;1.000000;1.000000;;
 0.000000;
 1.000000;1.000000;1.000000;;
 0.0; 0.0; 0.0;;
 TextureFilename {
  "fig13.ppm";
 }
 }
Material {
 1.000000;1.000000;1.000000;1.000000;;
 0.000000;
 1.000000;1.000000;1.000000;;
 0.0; 0.0; 0.0;;
 TextureFilename {
  "fig13.ppm";
 }
 }
Material {
 1.000000;1.000000;1.000000;1.000000;;
 0.000000;
 1.000000;1.000000;1.000000;;
 0.0; 0.0; 0.0;;
 TextureFilename {
  "fig13.ppm";
 }
 }
}
 MeshNormals {
  46;
  -0.453670;-0.416423;0.787893;,
  -0.453670;-0.416423;0.787893;,
  0.056175;-0.368928;-0.927759;,
  0.056175;-0.368928;-0.927759;,
  -0.725925;-0.677141;-0.120469;,
  -0.725925;-0.677141;-0.120469;,
  -0.725925;-0.677141;-0.120469;,
  -0.512162;0.180535;-0.839701;,
  -0.512162;0.180535;-0.839701;,
  -0.748911;0.291674;0.595028;,
  -0.748911;0.291674;0.595028;,
  -0.539370;-0.527257;-0.656567;,
  -0.539370;-0.527257;-0.656567;,
  -0.123450;0.657034;-0.743685;,
  -0.123450;0.657034;-0.743685;,
  -0.082706;0.512014;0.854986;,
  -0.082706;0.512014;0.854986;,
  0.707102;-0.218485;-0.672511;,
  0.707102;-0.218485;-0.672511;,
  0.106989;-0.544216;0.832095;,
  0.106989;-0.544216;0.832095;,
  0.458777;0.474955;-0.750960;,
  0.458777;0.474955;-0.750960;,
  0.458777;0.474955;-0.750960;,
  0.504313;0.449203;0.737486;,
  0.504313;0.449203;0.737486;,
  0.777449;-0.280588;0.562888;,
  0.777449;-0.280588;0.562888;,
  0.777449;-0.280588;0.562888;,
  0.944013;-0.317761;-0.088702;,
  0.504313;0.449203;0.737486;,
  0.720991;0.692548;-0.023428;,
  0.458777;0.474955;-0.750960;,
  0.106989;-0.544216;0.832095;,
  0.707102;-0.218485;-0.672511;,
  -0.082706;0.512014;0.854986;,
  -0.175051;0.984388;-0.018343;,
  -0.123450;0.657034;-0.743685;,
  -0.539370;-0.527257;-0.656567;,
  0.174435;-0.977318;-0.120095;,
  -0.748911;0.291674;0.595028;,
  -0.938134;0.336794;-0.080461;,
  -0.512162;0.180535;-0.839701;,
  -0.725925;-0.677141;-0.120469;,
  0.056175;-0.368928;-0.927759;,
  -0.453670;-0.416423;0.787893;;

  20;
  4;41,6,1,10;,
  4;41,36,14,8;,
  4;41,9,16,36;,
  4;39,20,0,5;,
  4;31,25,27,29;,
  4;29,39,3,18;,
  4;4,41,7,12;,
  4;36,31,23,13;,
  4;15,24,31,36;,
  4;39,43,11,2;,
  4;29,26,19,39;,
  3;44,38,42;,
  3;44,42,37;,
  3;44,37,22;,
  3;44,21,17;,
  3;35,40,45;,
  3;33,28,30;,
  3;35,45,33;,
  3;33,30,35;,
  4;29,34,32,31;;
 }
 MeshTextureCoords { 
 46;
 0.598570;0.811638;,
 0.598570;0.536018;,
 0.442417;0.765701;,
 0.442417;0.765701;,
 0.473647;0.508564;,
 0.473647;0.839092;,
 0.473647;0.508564;,
 0.442417;0.581955;,
 0.442417;0.581955;,
 0.598570;0.581955;,
 0.598570;0.581955;,
 0.442417;0.811638;,
 0.442417;0.536018;,
 0.442417;0.627892;,
 0.442417;0.627892;,
 0.598570;0.627892;,
 0.598570;0.627892;,
 0.011786;0.033968;,
 0.442417;0.719765;,
 0.598570;0.765701;,
 0.598570;0.765701;,
 0.046745;0.006401;,
 0.046745;0.006401;,
 0.442417;0.673828;,
 0.598570;0.673828;,
 0.598570;0.673828;,
 0.598570;0.719765;,
 0.598570;0.719765;,
 0.938926;0.778954;,
 0.473647;0.777537;,
 0.912350;0.692957;,
 0.473647;0.673828;,
 0.442417;0.673828;,
 0.976160;0.778222;,
 0.442417;0.719765;,
 0.937170;0.620877;,
 0.473647;0.570120;,
 0.076876;0.037752;,
 0.045958;0.147265;,
 0.473647;0.821364;,
 0.975869;0.621122;,
 0.473647;0.526293;,
 0.075214;0.115860;,
 0.473647;0.839092;,
 0.011392;0.117193;,
 1.000980;0.692471;;
 }
}
Frame frm-rwingzz {
  FrameTransformMatrix {
-0.589800,0.807549,-0.000000,0.000000,
0.807549,0.589800,0.000000,0.000000,
0.000000,-0.000000,-1.000000,0.000000,
0.036472,-0.023853,-0.009144,1.000000;;
 }
Mesh rwingzz {
 6;
 0.705495;-0.397617;-0.385881;,
 0.389682;-0.185765;-0.061598;,
 0.389682;-0.185765;-0.061598;,
 0.371984;-0.153590;-0.385506;,
 0.642445;-0.370237;-0.060038;,
 0.705495;-0.397617;-0.385881;;

 2;
 3;0,4,1;,
 3;3,5,2;;

 MeshMaterialList {
  1;
  2;
  0,
  0;
Material {
 0.700000;0.700000;0.700000;1.000000;;
 0.000000;
 1.000000;1.000000;1.000000;;
 0.0; 0.0; 0.0;;
 TextureFilename {
  "fig13.ppm";
 }
 }
}
 MeshNormals {
  6;
  -0.589282;-0.806561;-0.046971;,
  -0.589282;-0.806561;-0.046971;,
  -0.589282;-0.806561;-0.046971;,
  -0.589860;-0.806087;-0.047843;,
  -0.588704;-0.807033;-0.046099;,
  -0.589282;-0.806561;-0.046971;;

  2;
  3;0,4,1;,
  3;3,5,2;;
 }
 MeshTextureCoords { 
 6;
 0.181641;0.863281;,
 0.009639;0.999345;,
 0.009639;0.999345;,
 0.000000;0.863439;,
 0.147302;1.000000;,
 0.181641;0.863281;;
 }
}
Frame frm-bool10 {
  FrameTransformMatrix {
1.000000,0.000000,0.000000,0.000000,
0.000000,1.000000,0.000000,0.000000,
0.000000,0.000000,1.000000,0.000000,
0.000000,0.000000,0.000000,1.000000;;
 }
Mesh bool10 {
 6;
 0.705495;-0.397617;-0.385881;,
 0.389682;-0.185765;-0.061598;,
 0.389682;-0.185765;-0.061598;,
 0.371984;-0.153590;-0.385506;,
 0.642445;-0.370237;-0.060038;,
 0.705495;-0.397617;-0.385881;;

 2;
 3;1,4,0;,
 3;2,5,3;;

 MeshMaterialList {
  1;
  2;
  0,
  0;
Material {
 0.700000;0.700000;0.700000;1.000000;;
 0.000000;
 1.000000;1.000000;1.000000;;
 0.0; 0.0; 0.0;;
 TextureFilename {
  "fig13.ppm";
 }
 }
}
 MeshNormals {
  6;
  0.589360;0.806497;0.047088;,
  0.589360;0.806497;0.047088;,
  0.589360;0.806497;0.047088;,
  0.589360;0.806497;0.047088;,
  0.589360;0.806497;0.047088;,
  0.589360;0.806497;0.047088;;

  2;
  3;1,4,0;,
  3;2,5,3;;
 }
 MeshTextureCoords { 
 6;
 0.181641;1.000000;,
 0.009639;0.881308;,
 0.009639;0.881308;,
 0.000000;0.863281;,
 0.147302;0.984660;,
 0.181641;1.000000;;
 }
}
}
Frame frm-Lfinzzz1 {
  FrameTransformMatrix {
0.085253,0.333471,-0.145252,0.000000,
0.202422,0.080454,0.303516,0.000000,
0.302203,-0.147964,-0.162325,0.000000,
0.727911,-0.278970,-0.281988,1.000000;;
 }
Mesh Lfinzzz1 {
 18;
 -0.697299;-0.039208;-0.010663;,
 -0.697299;-0.039208;-0.010663;,
 0.697265;0.821432;0.225983;,
 0.697265;0.821432;0.225983;,
 0.012855;0.850326;0.233994;,
 0.012855;0.850326;0.233994;,
 0.030049;-0.858953;-0.237558;,
 0.030049;-0.858953;-0.237558;,
 0.030253;-0.862072;-0.270559;,
 0.030253;-0.862072;-0.270559;,
 -0.697232;-0.039876;-0.026879;,
 -0.697232;-0.039876;-0.026879;,
 -0.697232;-0.039876;-0.026879;,
 0.030253;-0.862072;-0.270559;,
 0.030049;-0.858953;-0.237558;,
 0.012855;0.850326;0.233994;,
 0.697265;0.821432;0.225983;,
 -0.697299;-0.039208;-0.010663;;

 5;
 4;1,11,9,7;,
 4;5,3,8,10;,
 3;2,6,13;,
 4;4,0,14,16;,
 3;12,17,15;;

 MeshMaterialList {
  1;
  5;
  0,
  0,
  0,
  0,
  0;
Material {
 1.000000;1.000000;1.000000;1.000000;;
 0.000000;
 1.000000;1.000000;1.000000;;
 0.0; 0.0; 0.0;;
 TextureFilename {
  "fig13.ppm";
 }
 }
}
 MeshNormals {
  18;
  -0.827580;-0.167657;0.535726;,
  -0.827580;-0.167657;0.535726;,
  0.930195;-0.364105;0.046538;,
  0.930195;-0.364105;0.046538;,
  -0.769254;0.638490;-0.024070;,
  -0.769254;0.638490;-0.024070;,
  0.108802;-0.775853;0.621462;,
  0.108802;-0.775853;0.621462;,
  0.156063;-0.652595;-0.741460;,
  0.156063;-0.652595;-0.741460;,
  -0.842452;0.133758;-0.521903;,
  -0.842452;0.133758;-0.521903;,
  -0.842452;0.133758;-0.521903;,
  0.156063;-0.652595;-0.741460;,
  0.108802;-0.775853;0.621462;,
  -0.769254;0.638490;-0.024070;,
  0.930195;-0.364105;0.046538;,
  -0.827580;-0.167657;0.535726;;

  5;
  4;1,11,9,7;,
  4;5,3,8,10;,
  3;2,6,13;,
  4;4,0,14,16;,
  3;12,17,15;;
 }
 MeshTextureCoords { 
 18;
 0.172488;0.351040;,
 0.173828;0.341092;,
 0.173828;0.341092;,
 0.356692;0.029139;,
 0.231592;0.133960;,
 0.387842;0.153491;,
 0.169996;0.341929;,
 0.171322;0.342257;,
 0.215963;0.310287;,
 0.170143;0.343750;,
 0.328738;0.370571;,
 0.169996;0.341929;,
 0.173828;0.341092;,
 0.170143;0.343750;,
 0.059713;0.290756;,
 0.170143;0.343750;,
 0.200442;0.009608;,
 0.169996;0.341929;;
 }
}
Frame frm-SSar {
  FrameTransformMatrix {
-0.000450,0.000877,0.002039,0.000000,
-0.001248,0.001620,-0.000973,0.000000,
-0.001835,-0.001317,0.000161,0.000000,
0.321956,0.751862,0.232312,1.000000;;
 }
Mesh SSar {
 4;
 -0.028183;0.037922;0.020252;,
 0.017681;0.036674;0.026770;,
 -0.005251;-0.025491;0.023609;,
 0.005368;-0.000715;-0.028115;;

 4;
 3;3,1,2;,
 3;1,0,2;,
 3;0,3,2;,
 3;0,1,3;;

 MeshMaterialList {
  1;
  4;
  0,
  0,
  0,
  0;
Material {
 0.000000;1.000000;0.000000;0.500000;;
 0.000000;
 0.000000;1.000000;0.000000;;
 0.0; 0.0; 0.0;;
 }
}
 MeshNormals {
  4;
  -0.884512;0.461108;0.070832;,
  0.814830;0.421035;0.398474;,
  -0.084489;-0.707686;0.701457;,
  0.178503;0.140230;-0.973895;;

  4;
  3;3,1,2;,
  3;1,0,2;,
  3;0,3,2;,
  3;0,1,3;;
 }
 MeshTextureCoords { 
 4;
 0.000000;0.000000;,
 0.000000;0.000000;,
 0.000000;0.000000;,
 0.000000;0.000000;;
 }
}
}
Frame frm-SSar1_1_8 {
  FrameTransformMatrix {
0.001317,0.000000,0.000000,0.000000,
0.000000,-0.001242,0.000437,0.000000,
0.000000,-0.000437,-0.001242,0.000000,
0.551473,-1.544273,1.580283,1.000000;;
 }
Mesh SSar1_1_8 {
 4;
 164.616638;1.395314;-4.659282;,
 164.616623;1.395306;-4.659288;,
 164.616623;1.395314;-4.659273;,
 164.616623;1.395299;-4.659277;;

 4;
 3;2,1,3;,
 3;2,0,1;,
 3;2,3,0;,
 3;3,1,0;;

 MeshMaterialList {
  1;
  4;
  0,
  0,
  0,
  0;
Material {
 0.000000;1.000000;0.000000;0.500000;;
 0.000000;
 0.000000;1.000000;0.000000;;
 0.0; 0.0; 0.0;;
 }
}
 MeshNormals {
  4;
  0.816880;0.503551;-0.281325;,
  -0.736214;-0.162415;-0.656971;,
  -0.497443;0.695605;0.518348;,
  0.390821;-0.917922;0.068400;;

  4;
  3;2,1,3;,
  3;2,0,1;,
  3;2,3,0;,
  3;3,1,0;;
 }
 MeshTextureCoords { 
 4;
 0.000000;0.000000;,
 0.000000;0.000000;,
 0.000000;0.000000;,
 0.000000;0.000000;;
 }
}
}
}
}
Frame frm-rthrust {
  FrameTransformMatrix {
0.891561,-0.452900,0.000000,0.000000,
0.452900,0.891561,0.000000,0.000000,
0.000000,0.000000,1.000000,0.000000,
-0.161725,0.171480,0.668050,1.000000;;
 }
Mesh rthrust {
 8;
 0.000500;0.000500;-0.000500;,
 0.000500;0.000500;0.000500;,
 0.000500;-0.000500;-0.000500;,
 0.000500;-0.000500;0.000500;,
 -0.000500;0.000500;-0.000500;,
 -0.000500;0.000500;0.000500;,
 -0.000500;-0.000500;-0.000500;,
 -0.000500;-0.000500;0.000500;;

 6;
 4;5,4,6,7;,
 4;4,0,2,6;,
 4;0,1,3,2;,
 4;1,5,7,3;,
 4;7,6,2,3;,
 4;1,0,4,5;;

 MeshMaterialList {
  1;
  6;
  0,
  0,
  0,
  0,
  0,
  0;
Material {
 1.000000;1.000000;1.000000;1.000000;;
 0.000000;
 1.000000;1.000000;1.000000;;
 0.000000;0.000000;0.000000;;
 TextureFilename {
  "fig13.ppm";
 }
 }
}
 MeshNormals {
  8;
  0.577350;0.577350;-0.577350;,
  0.577350;0.577350;0.577350;,
  0.577350;-0.577350;-0.577350;,
  0.577350;-0.577350;0.577350;,
  -0.577350;0.577350;-0.577350;,
  -0.577350;0.577350;0.577350;,
  -0.577350;-0.577350;-0.577350;,
  -0.577350;-0.577350;0.577350;;

  6;
  4;5,4,6,7;,
  4;4,0,2,6;,
  4;0,1,3,2;,
  4;1,5,7,3;,
  4;7,6,2,3;,
  4;1,0,4,5;;
 }
 MeshTextureCoords { 
 8;
 0.000000;1.000000;,
 0.000000;1.000000;,
 0.000000;1.000000;,
 0.000000;1.000000;,
 0.000000;1.000000;,
 0.000000;1.000000;,
 0.000000;1.000000;,
 0.000000;1.000000;;
 }
}
}
}
Frame frm-ffuselg {
  FrameTransformMatrix {
1.000000,0.000000,0.000000,0.000000,
0.000000,1.000000,0.000000,0.000000,
0.000000,0.000000,1.000000,0.000000,
0.000000,0.000000,0.000000,1.000000;;
 }
Mesh ffuselg {
 247;
 -0.152426;-0.252927;-1.055096;,
 -0.152426;-0.252927;-1.055096;,
 -0.152426;-0.252927;-1.055096;,
 -0.152426;-0.252927;-1.055096;,
 -0.152426;-0.252927;-1.055096;,
 -0.155826;-0.417508;-0.886502;,
 -0.155826;-0.417508;-0.886502;,
 -0.155826;-0.417508;-0.886502;,
 -0.155826;-0.417508;-0.886502;,
 -0.315585;0.350477;0.382866;,
 -0.315585;0.350477;0.382866;,
 -0.315585;0.350477;0.382866;,
 -0.535230;0.239182;0.051610;,
 -0.535230;0.239182;0.051610;,
 -0.535230;0.239182;0.051610;,
 -0.535230;0.239182;0.051610;,
 -0.535230;0.239182;0.051610;,
 -0.535230;0.239182;0.051610;,
 0.498417;-0.124551;-0.491954;,
 0.498417;-0.124551;-0.491954;,
 0.498417;-0.124551;-0.491954;,
 0.498417;-0.124551;-0.491954;,
 0.498417;-0.124551;-0.491954;,
 -0.221900;0.439000;-0.303766;,
 -0.221900;0.439000;-0.303766;,
 -0.221900;0.439000;-0.303766;,
 -0.221900;0.439000;-0.303766;,
 -0.221900;0.439000;-0.303766;,
 -0.248353;0.117090;-0.578504;,
 -0.248353;0.117090;-0.578504;,
 -0.248353;0.117090;-0.578504;,
 -0.248353;0.117090;-0.578504;,
 -0.248353;0.117090;-0.578504;,
 -0.295908;-0.204810;-0.801203;,
 -0.295908;-0.204810;-0.801203;,
 -0.295908;-0.204810;-0.801203;,
 -0.295908;-0.204810;-0.801203;,
 -0.295908;-0.204810;-0.801203;,
 -0.295908;-0.204810;-0.801203;,
 -0.682524;-0.023050;-0.208348;,
 -0.682524;-0.023050;-0.208348;,
 -0.682524;-0.023050;-0.208348;,
 -0.682524;-0.023050;-0.208348;,
 -0.682524;-0.023050;-0.208348;,
 -0.682524;-0.023050;-0.208348;,
 -0.405922;-0.490890;-0.473675;,
 -0.405922;-0.490890;-0.473675;,
 -0.405922;-0.490890;-0.473675;,
 -0.405922;-0.490890;-0.473675;,
 -0.405922;-0.490890;-0.473675;,
 -0.405922;-0.490890;-0.473675;,
 -0.496027;0.303291;-0.158939;,
 -0.496027;0.303291;-0.158939;,
 -0.496027;0.303291;-0.158939;,
 -0.496027;0.303291;-0.158939;,
 -0.496027;0.303291;-0.158939;,
 -0.266269;0.434556;0.261028;,
 -0.266269;0.434556;0.261028;,
 -0.266269;0.434556;0.261028;,
 -0.266269;0.434556;0.261028;,
 -0.266269;0.434556;0.261028;,
 -0.493219;-0.122272;-0.495437;,
 -0.493219;-0.122272;-0.495437;,
 -0.493219;-0.122272;-0.495437;,
 -0.493219;-0.122272;-0.495437;,
 0.164385;-0.253656;-1.053982;,
 0.164385;-0.253656;-1.053982;,
 0.164385;-0.253656;-1.053982;,
 0.164385;-0.253656;-1.053982;,
 0.160985;-0.418236;-0.885389;,
 0.160985;-0.418236;-0.885389;,
 0.160985;-0.418236;-0.885389;,
 0.160985;-0.418236;-0.885389;,
 0.160985;-0.418236;-0.885389;,
 0.160985;-0.418236;-0.885389;,
 0.312783;0.349033;0.385073;,
 0.312783;0.349033;0.385073;,
 0.312783;0.349033;0.385073;,
 0.312783;0.349033;0.385073;,
 0.312783;0.349033;0.385073;,
 0.268264;0.433327;0.262906;,
 0.268264;0.433327;0.262906;,
 0.268264;0.433327;0.262906;,
 0.268264;0.433327;0.262906;,
 0.268264;0.433327;0.262906;,
 0.227445;0.437967;-0.302188;,
 0.227445;0.437967;-0.302188;,
 0.227445;0.437967;-0.302188;,
 0.227445;0.437967;-0.302188;,
 0.227445;0.437967;-0.302188;,
 0.227445;0.437967;-0.302188;,
 0.253673;0.115936;-0.576741;,
 0.253673;0.115936;-0.576741;,
 0.253673;0.115936;-0.576741;,
 0.253673;0.115936;-0.576741;,
 0.253673;0.115936;-0.576741;,
 0.300259;-0.206180;-0.799109;,
 0.300259;-0.206180;-0.799109;,
 0.300259;-0.206180;-0.799109;,
 0.300259;-0.206180;-0.799109;,
 0.300259;-0.206180;-0.799109;,
 0.300259;-0.206180;-0.799109;,
 0.690097;-0.026205;-0.203527;,
 0.690097;-0.026205;-0.203527;,
 0.690097;-0.026205;-0.203527;,
 0.690097;-0.026205;-0.203527;,
 0.690097;-0.026205;-0.203527;,
 0.411602;-0.492769;-0.470804;,
 0.411602;-0.492769;-0.470804;,
 0.411602;-0.492769;-0.470804;,
 0.411602;-0.492769;-0.470804;,
 0.411602;-0.492769;-0.470804;,
 0.499451;0.301003;-0.155442;,
 0.499451;0.301003;-0.155442;,
 0.499451;0.301003;-0.155442;,
 0.499451;0.301003;-0.155442;,
 0.499451;0.301003;-0.155442;,
 0.245666;-0.440306;-0.766398;,
 0.245666;-0.440306;-0.766398;,
 0.245666;-0.440306;-0.766398;,
 0.245666;-0.440306;-0.766398;,
 0.225829;0.320540;-0.606222;,
 0.225829;0.320540;-0.606222;,
 0.225829;0.320540;-0.606222;,
 0.225829;0.320540;-0.606222;,
 -0.216965;0.321558;-0.607777;,
 -0.216965;0.321558;-0.607777;,
 -0.216965;0.321558;-0.607777;,
 -0.216965;0.321558;-0.607777;,
 0.173737;0.556330;-0.231110;,
 0.173737;0.556330;-0.231110;,
 -0.073156;-0.194297;-1.110714;,
 -0.073156;-0.194297;-1.110714;,
 -0.073156;-0.194297;-1.110714;,
 -0.073156;-0.194297;-1.110714;,
 0.085249;-0.194661;-1.110158;,
 0.085249;-0.194661;-1.110158;,
 0.085249;-0.194661;-1.110158;,
 0.109778;0.040974;-1.029890;,
 0.109778;0.040974;-1.029890;,
 0.109778;0.040974;-1.029890;,
 0.109778;0.040974;-1.029890;,
 0.109778;0.040974;-1.029890;,
 0.109778;0.040974;-1.029890;,
 -0.098413;0.041452;-1.030622;,
 -0.098413;0.041452;-1.030622;,
 -0.098413;0.041452;-1.030622;,
 -0.098413;0.041452;-1.030622;,
 -0.098413;0.041452;-1.030622;,
 -0.151852;0.514031;-0.364692;,
 -0.151852;0.514031;-0.364692;,
 -0.151852;0.514031;-0.364692;,
 -0.151852;0.514031;-0.364692;,
 -0.151852;0.514031;-0.364692;,
 0.161343;0.513312;-0.363591;,
 0.161343;0.513312;-0.363591;,
 0.161343;0.513312;-0.363591;,
 0.161343;0.513312;-0.363591;,
 0.161343;0.513312;-0.363591;,
 -0.151045;0.656561;0.288989;,
 -0.151045;0.656561;0.288989;,
 -0.151045;0.656561;0.288989;,
 -0.167957;0.557101;-0.232311;,
 -0.167957;0.557101;-0.232311;,
 -0.167957;0.557101;-0.232311;,
 -0.239950;-0.439190;-0.768103;,
 -0.239950;-0.439190;-0.768103;,
 -0.239950;-0.439190;-0.768103;,
 0.156755;0.655854;0.290070;,
 0.156755;0.655854;0.290070;,
 0.156755;0.655854;0.290070;,
 0.156755;0.655854;0.290070;,
 0.156755;0.655854;0.290070;,
 -0.202698;0.026670;-0.902186;,
 -0.202698;0.026670;-0.902186;,
 -0.202698;0.026670;-0.902186;,
 -0.202698;0.026670;-0.902186;,
 -0.202698;0.026670;-0.902186;,
 0.213684;0.025713;-0.900724;,
 0.213684;0.025713;-0.900724;,
 0.213684;0.025713;-0.900724;,
 0.213684;0.025713;-0.900724;,
 -0.500332;-0.474939;-0.223941;,
 -0.500332;-0.474939;-0.223941;,
 -0.500332;-0.474939;-0.223941;,
 0.537301;0.236717;0.055378;,
 0.537301;0.236717;0.055378;,
 0.537301;0.236717;0.055378;,
 0.537301;0.236717;0.055378;,
 0.507039;-0.477220;-0.220399;,
 0.507039;-0.477220;-0.220399;,
 0.507039;-0.477220;-0.220399;,
 0.507039;-0.477220;-0.220399;,
 0.507039;-0.477220;-0.220399;,
 0.154967;0.612031;0.987622;,
 0.154967;0.612031;0.987622;,
 0.154967;0.612031;0.987622;,
 -0.153871;0.612740;0.986320;,
 -0.153871;0.612740;0.986320;,
 -0.153871;0.612740;0.986320;,
 -0.153871;0.612740;0.986320;,
 -0.153871;0.612740;0.986320;,
 0.154967;0.612031;0.987622;,
 0.507039;-0.477220;-0.220399;,
 0.537301;0.236717;0.055378;,
 -0.500332;-0.474939;-0.223941;,
 0.213684;0.025713;-0.900724;,
 -0.202698;0.026670;-0.902186;,
 0.156755;0.655854;0.290070;,
 -0.239950;-0.439190;-0.768103;,
 -0.167957;0.557101;-0.232311;,
 -0.151045;0.656561;0.288989;,
 -0.297026;-0.518807;-0.314581;,
 0.320235;-0.520226;-0.312413;,
 0.161343;0.513312;-0.363591;,
 -0.151852;0.514031;-0.364692;,
 -0.098413;0.041452;-1.030622;,
 0.109778;0.040974;-1.029890;,
 0.085249;-0.194661;-1.110158;,
 -0.073156;-0.194297;-1.110714;,
 0.173737;0.556330;-0.231110;,
 -0.216965;0.321558;-0.607777;,
 0.225829;0.320540;-0.606222;,
 0.245666;-0.440306;-0.766398;,
 0.499451;0.301003;-0.155442;,
 0.411602;-0.492769;-0.470804;,
 0.690097;-0.026205;-0.203527;,
 0.300259;-0.206180;-0.799109;,
 0.253673;0.115936;-0.576741;,
 0.227445;0.437967;-0.302188;,
 0.268264;0.433327;0.262906;,
 0.312783;0.349033;0.385073;,
 0.160985;-0.418236;-0.885389;,
 0.164385;-0.253656;-1.053982;,
 -0.493219;-0.122272;-0.495437;,
 -0.266269;0.434556;0.261028;,
 -0.496027;0.303291;-0.158939;,
 -0.405922;-0.490890;-0.473675;,
 -0.682524;-0.023050;-0.208348;,
 -0.295908;-0.204810;-0.801203;,
 -0.248353;0.117090;-0.578504;,
 -0.221900;0.439000;-0.303766;,
 0.498417;-0.124551;-0.491954;,
 -0.535230;0.239182;0.051610;,
 -0.315585;0.350477;0.382866;,
 -0.155826;-0.417508;-0.886502;,
 -0.152426;-0.252927;-1.055096;;

 86;
 3;181,124,95;,
 3;68,180,101;,
 3;60,161,27;,
 3;44,64,50;,
 3;184,43,49;,
 3;48,212,183;,
 3;32,26,128;,
 3;193,106,42;,
 3;182,192,41;,
 4;47,167,120,111;,
 3;63,31,38;,
 3;30,62,55;,
 3;25,54,59;,
 3;84,116,90;,
 3;172,89,130;,
 3;53,24,29;,
 3;100,119,74;,
 3;67,99,73;,
 3;137,66,72;,
 3;134,136,71;,
 3;4,133,70;,
 3;8,3,69;,
 3;2,177,148;,
 3;191,213,110;,
 3;37,176,1;,
 3;164,23,160;,
 3;159,58,200;,
 3;199,11,79;,
 3;196,198,78;,
 3;163,153,127;,
 3;241,162,126;,
 3;7,232,118;,
 3;166,6,117;,
 3;10,197,57;,
 3;115,22,94;,
 3;21,109,98;,
 3;40,52,61;,
 3;83,195,77;,
 3;76,9,17;,
 3;188,75,16;,
 3;105,187,15;,
 3;39,104,14;,
 3;20,114,103;,
 3;190,108,19;,
 3;102,189,18;,
 3;165,46,36;,
 3;28,125,175;,
 3;35,240,174;,
 3;5,209,34;,
 3;0,245,33;,
 3;201,194,171;,
 3;211,201,170;,
 3;93,97,179;,
 3;132,246,147;,
 3;239,45,234;,
 3;143,178,65;,
 3;88,123,158;,
 3;129,87,157;,
 3;202,82,169;,
 3;122,86,92;,
 3;173,221,152;,
 3;146,207,151;,
 3;233,135,142;,
 3;131,145,141;,
 3;218,219,140;,
 3;96,91,242;,
 3;228,85,113;,
 3;229,168,81;,
 3;13,244,56;,
 3;12,235,51;,
 3;121,206,139;,
 3;156,222,138;,
 3;112,80,186;,
 3;231,185,230;,
 3;150,210,220;,
 3;155,149,220;,
 3;227,107,223;,
 3;144,215,154;,
 3;217,216,214;,
 3;210,211,208;,
 3;220,210,208;,
 3;213,203,205;,
 3;212,213,205;,
 3;236,238,243;,
 3;204,226,224;,
 4;225,213,212,237;;

 MeshMaterialList {
  4;
  86;
  0,
  0,
  0,
  0,
  0,
  1,
  0,
  2,
  2,
  1,
  0,
  0,
  0,
  0,
  0,
  0,
  0,
  0,
  0,
  0,
  0,
  0,
  0,
  1,
  0,
  0,
  0,
  2,
  2,
  0,
  0,
  1,
  1,
  0,
  0,
  0,
  0,
  0,
  2,
  2,
  2,
  2,
  0,
  0,
  0,
  0,
  0,
  0,
  0,
  0,
  3,
  3,
  0,
  0,
  0,
  0,
  0,
  0,
  0,
  0,
  0,
  0,
  0,
  0,
  0,
  0,
  0,
  0,
  0,
  0,
  0,
  0,
  0,
  0,
  3,
  3,
  0,
  0,
  0,
  3,
  3,
  1,
  1,
  0,
  0,
  1;
Material {
 1.000000;1.000000;1.000000;1.000000;;
 0.000000;
 1.000000;1.000000;1.000000;;
 0.0; 0.0; 0.0;;
 TextureFilename {
  "fig13.ppm";
 }
 }
Material {
 1.000000;1.000000;1.000000;1.000000;;
 0.000000;
 1.000000;1.000000;1.000000;;
 0.0; 0.0; 0.0;;
 TextureFilename {
  "fig13.ppm";
 }
 }
Material {
 1.000000;1.000000;1.000000;1.000000;;
 0.000000;
 1.000000;1.000000;1.000000;;
 0.0; 0.0; 0.0;;
 TextureFilename {
  "fig13.ppm";
 }
 }
Material {
 1.000000;1.000000;1.000000;1.000000;;
 0.000000;
 1.000000;1.000000;1.000000;;
 0.0; 0.0; 0.0;;
 TextureFilename {
  "fig13.ppm";
 }
 }
}
 MeshNormals {
  247;
  -0.622716;-0.263641;-0.736694;,
  -0.622716;-0.263641;-0.736694;,
  -0.622716;-0.263641;-0.736694;,
  -0.622716;-0.263641;-0.736694;,
  -0.622716;-0.263641;-0.736694;,
  -0.377616;-0.789205;-0.484316;,
  -0.377616;-0.789205;-0.484316;,
  -0.377616;-0.789205;-0.484316;,
  -0.377616;-0.789205;-0.484316;,
  -0.809566;-0.326320;0.487973;,
  -0.809566;-0.326320;0.487973;,
  -0.809566;-0.326320;0.487973;,
  -0.622056;-0.389257;0.679356;,
  -0.622056;-0.389257;0.679356;,
  -0.622056;-0.389257;0.679356;,
  -0.622056;-0.389257;0.679356;,
  -0.622056;-0.389257;0.679356;,
  -0.622056;-0.389257;0.679356;,
  0.830185;0.114897;-0.545520;,
  0.830185;0.114897;-0.545520;,
  0.830185;0.114897;-0.545520;,
  0.830185;0.114897;-0.545520;,
  0.830185;0.114897;-0.545520;,
  -0.825765;0.533901;-0.181827;,
  -0.825765;0.533901;-0.181827;,
  -0.825765;0.533901;-0.181827;,
  -0.825765;0.533901;-0.181827;,
  -0.825765;0.533901;-0.181827;,
  -0.847367;0.362435;-0.388086;,
  -0.847367;0.362435;-0.388086;,
  -0.847367;0.362435;-0.388086;,
  -0.847367;0.362435;-0.388086;,
  -0.847367;0.362435;-0.388086;,
  -0.868056;-0.038711;-0.494955;,
  -0.868056;-0.038711;-0.494955;,
  -0.868056;-0.038711;-0.494955;,
  -0.868056;-0.038711;-0.494955;,
  -0.868056;-0.038711;-0.494955;,
  -0.868056;-0.038711;-0.494955;,
  -0.936395;-0.099481;0.336553;,
  -0.936395;-0.099481;0.336553;,
  -0.936395;-0.099481;0.336553;,
  -0.936395;-0.099481;0.336553;,
  -0.936395;-0.099481;0.336553;,
  -0.936395;-0.099481;0.336553;,
  -0.621986;-0.690317;-0.369589;,
  -0.621986;-0.690317;-0.369589;,
  -0.621986;-0.690317;-0.369589;,
  -0.621986;-0.690317;-0.369589;,
  -0.621986;-0.690317;-0.369589;,
  -0.621986;-0.690317;-0.369589;,
  -0.693574;0.652011;-0.306327;,
  -0.693574;0.652011;-0.306327;,
  -0.693574;0.652011;-0.306327;,
  -0.693574;0.652011;-0.306327;,
  -0.693574;0.652011;-0.306327;,
  -0.756834;0.652050;0.045086;,
  -0.756834;0.652050;0.045086;,
  -0.756834;0.652050;0.045086;,
  -0.756834;0.652050;0.045086;,
  -0.756834;0.652050;0.045086;,
  -0.787095;0.205872;-0.581462;,
  -0.787095;0.205872;-0.581462;,
  -0.787095;0.205872;-0.581462;,
  -0.787095;0.205872;-0.581462;,
  0.723747;-0.146389;-0.674360;,
  0.723747;-0.146389;-0.674360;,
  0.723747;-0.146389;-0.674360;,
  0.723747;-0.146389;-0.674360;,
  0.255570;-0.724433;-0.640219;,
  0.255570;-0.724433;-0.640219;,
  0.255570;-0.724433;-0.640219;,
  0.255570;-0.724433;-0.640219;,
  0.255570;-0.724433;-0.640219;,
  0.255570;-0.724433;-0.640219;,
  0.457716;-0.739562;0.493502;,
  0.457716;-0.739562;0.493502;,
  0.457716;-0.739562;0.493502;,
  0.457716;-0.739562;0.493502;,
  0.457716;-0.739562;0.493502;,
  0.765698;0.641047;0.052596;,
  0.765698;0.641047;0.052596;,
  0.765698;0.641047;0.052596;,
  0.765698;0.641047;0.052596;,
  0.765698;0.641047;0.052596;,
  0.826013;0.531485;-0.187689;,
  0.826013;0.531485;-0.187689;,
  0.826013;0.531485;-0.187689;,
  0.826013;0.531485;-0.187689;,
  0.826013;0.531485;-0.187689;,
  0.826013;0.531485;-0.187689;,
  0.855477;0.354430;-0.377542;,
  0.855477;0.354430;-0.377542;,
  0.855477;0.354430;-0.377542;,
  0.855477;0.354430;-0.377542;,
  0.855477;0.354430;-0.377542;,
  0.873467;-0.043041;-0.484977;,
  0.873467;-0.043041;-0.484977;,
  0.873467;-0.043041;-0.484977;,
  0.873467;-0.043041;-0.484977;,
  0.873467;-0.043041;-0.484977;,
  0.873467;-0.043041;-0.484977;,
  0.853916;-0.258089;0.451904;,
  0.853916;-0.258089;0.451904;,
  0.853916;-0.258089;0.451904;,
  0.853916;-0.258089;0.451904;,
  0.853916;-0.258089;0.451904;,
  0.570377;-0.745343;-0.345158;,
  0.570377;-0.745343;-0.345158;,
  0.570377;-0.745343;-0.345158;,
  0.570377;-0.745343;-0.345158;,
  0.570377;-0.745343;-0.345158;,
  0.695696;0.651679;-0.302195;,
  0.695696;0.651679;-0.302195;,
  0.695696;0.651679;-0.302195;,
  0.695696;0.651679;-0.302195;,
  0.695696;0.651679;-0.302195;,
  0.380634;-0.836603;-0.393971;,
  0.380634;-0.836603;-0.393971;,
  0.380634;-0.836603;-0.393971;,
  0.380634;-0.836603;-0.393971;,
  0.822883;0.457892;-0.336450;,
  0.822883;0.457892;-0.336450;,
  0.822883;0.457892;-0.336450;,
  0.822883;0.457892;-0.336450;,
  -0.789235;0.510195;-0.341774;,
  -0.789235;0.510195;-0.341774;,
  -0.789235;0.510195;-0.341774;,
  -0.789235;0.510195;-0.341774;,
  0.396087;0.882427;-0.253847;,
  0.396087;0.882427;-0.253847;,
  -0.154519;-0.124640;-0.980096;,
  -0.154519;-0.124640;-0.980096;,
  -0.154519;-0.124640;-0.980096;,
  -0.154519;-0.124640;-0.980096;,
  0.197386;-0.261887;-0.944698;,
  0.197386;-0.261887;-0.944698;,
  0.197386;-0.261887;-0.944698;,
  0.375477;0.496934;-0.782352;,
  0.375477;0.496934;-0.782352;,
  0.375477;0.496934;-0.782352;,
  0.375477;0.496934;-0.782352;,
  0.375477;0.496934;-0.782352;,
  0.375477;0.496934;-0.782352;,
  -0.390903;0.549351;-0.738518;,
  -0.390903;0.549351;-0.738518;,
  -0.390903;0.549351;-0.738518;,
  -0.390903;0.549351;-0.738518;,
  -0.390903;0.549351;-0.738518;,
  -0.187941;0.856581;-0.480569;,
  -0.187941;0.856581;-0.480569;,
  -0.187941;0.856581;-0.480569;,
  -0.187941;0.856581;-0.480569;,
  -0.187941;0.856581;-0.480569;,
  0.340189;0.819022;-0.462033;,
  0.340189;0.819022;-0.462033;,
  0.340189;0.819022;-0.462033;,
  0.340189;0.819022;-0.462033;,
  0.340189;0.819022;-0.462033;,
  -0.619923;0.782965;-0.051596;,
  -0.619923;0.782965;-0.051596;,
  -0.619923;0.782965;-0.051596;,
  -0.467185;0.852200;-0.235570;,
  -0.467185;0.852200;-0.235570;,
  -0.467185;0.852200;-0.235570;,
  -0.480648;-0.758000;-0.440924;,
  -0.480648;-0.758000;-0.440924;,
  -0.480648;-0.758000;-0.440924;,
  0.450235;0.891135;-0.056275;,
  0.450235;0.891135;-0.056275;,
  0.450235;0.891135;-0.056275;,
  0.450235;0.891135;-0.056275;,
  0.450235;0.891135;-0.056275;,
  -0.761949;0.389648;-0.517309;,
  -0.761949;0.389648;-0.517309;,
  -0.761949;0.389648;-0.517309;,
  -0.761949;0.389648;-0.517309;,
  -0.761949;0.389648;-0.517309;,
  0.883693;0.241403;-0.401013;,
  0.883693;0.241403;-0.401013;,
  0.883693;0.241403;-0.401013;,
  0.883693;0.241403;-0.401013;,
  -0.308221;-0.873235;0.377439;,
  -0.308221;-0.873235;0.377439;,
  -0.308221;-0.873235;0.377439;,
  0.838824;0.109064;0.533366;,
  0.838824;0.109064;0.533366;,
  0.838824;0.109064;0.533366;,
  0.838824;0.109064;0.533366;,
  0.547122;-0.706973;0.448160;,
  0.547122;-0.706973;0.448160;,
  0.547122;-0.706973;0.448160;,
  0.547122;-0.706973;0.448160;,
  0.547122;-0.706973;0.448160;,
  0.841928;0.482073;0.242408;,
  0.841928;0.482073;0.242408;,
  0.841928;0.482073;0.242408;,
  -0.762967;0.494275;0.416621;,
  -0.762967;0.494275;0.416621;,
  -0.762967;0.494275;0.416621;,
  -0.762967;0.494275;0.416621;,
  -0.762967;0.494275;0.416621;,
  0.841928;0.482073;0.242408;,
  0.547122;-0.706973;0.448160;,
  0.838824;0.109064;0.533366;,
  -0.308221;-0.873235;0.377439;,
  0.883693;0.241403;-0.401013;,
  -0.761949;0.389648;-0.517309;,
  0.450235;0.891135;-0.056275;,
  -0.480648;-0.758000;-0.440924;,
  -0.467185;0.852200;-0.235570;,
  -0.619923;0.782965;-0.051596;,
  -0.078048;-0.993564;0.082092;,
  0.060055;-0.983355;0.171481;,
  0.340189;0.819022;-0.462033;,
  -0.187941;0.856581;-0.480569;,
  -0.390903;0.549351;-0.738518;,
  0.375477;0.496934;-0.782352;,
  0.197386;-0.261887;-0.944698;,
  -0.154519;-0.124640;-0.980096;,
  0.396087;0.882427;-0.253847;,
  -0.789235;0.510195;-0.341774;,
  0.822883;0.457892;-0.336450;,
  0.380634;-0.836603;-0.393971;,
  0.695696;0.651679;-0.302195;,
  0.570377;-0.745343;-0.345158;,
  0.853916;-0.258089;0.451904;,
  0.873467;-0.043041;-0.484977;,
  0.855477;0.354430;-0.377542;,
  0.826013;0.531485;-0.187689;,
  0.765698;0.641047;0.052596;,
  0.457716;-0.739562;0.493502;,
  0.255570;-0.724433;-0.640219;,
  0.723747;-0.146389;-0.674360;,
  -0.787095;0.205872;-0.581462;,
  -0.756834;0.652050;0.045086;,
  -0.693574;0.652011;-0.306327;,
  -0.621986;-0.690317;-0.369589;,
  -0.936395;-0.099481;0.336553;,
  -0.868056;-0.038711;-0.494955;,
  -0.847367;0.362435;-0.388086;,
  -0.825765;0.533901;-0.181827;,
  0.830185;0.114897;-0.545520;,
  -0.622056;-0.389257;0.679356;,
  -0.809566;-0.326320;0.487973;,
  -0.377616;-0.789205;-0.484316;,
  -0.622716;-0.263641;-0.736694;;

  86;
  3;181,124,95;,
  3;68,180,101;,
  3;60,161,27;,
  3;44,64,50;,
  3;184,43,49;,
  3;48,212,183;,
  3;32,26,128;,
  3;193,106,42;,
  3;182,192,41;,
  4;47,167,120,111;,
  3;63,31,38;,
  3;30,62,55;,
  3;25,54,59;,
  3;84,116,90;,
  3;172,89,130;,
  3;53,24,29;,
  3;100,119,74;,
  3;67,99,73;,
  3;137,66,72;,
  3;134,136,71;,
  3;4,133,70;,
  3;8,3,69;,
  3;2,177,148;,
  3;191,213,110;,
  3;37,176,1;,
  3;164,23,160;,
  3;159,58,200;,
  3;199,11,79;,
  3;196,198,78;,
  3;163,153,127;,
  3;241,162,126;,
  3;7,232,118;,
  3;166,6,117;,
  3;10,197,57;,
  3;115,22,94;,
  3;21,109,98;,
  3;40,52,61;,
  3;83,195,77;,
  3;76,9,17;,
  3;188,75,16;,
  3;105,187,15;,
  3;39,104,14;,
  3;20,114,103;,
  3;190,108,19;,
  3;102,189,18;,
  3;165,46,36;,
  3;28,125,175;,
  3;35,240,174;,
  3;5,209,34;,
  3;0,245,33;,
  3;201,194,171;,
  3;211,201,170;,
  3;93,97,179;,
  3;132,246,147;,
  3;239,45,234;,
  3;143,178,65;,
  3;88,123,158;,
  3;129,87,157;,
  3;202,82,169;,
  3;122,86,92;,
  3;173,221,152;,
  3;146,207,151;,
  3;233,135,142;,
  3;131,145,141;,
  3;218,219,140;,
  3;96,91,242;,
  3;228,85,113;,
  3;229,168,81;,
  3;13,244,56;,
  3;12,235,51;,
  3;121,206,139;,
  3;156,222,138;,
  3;112,80,186;,
  3;231,185,230;,
  3;150,210,220;,
  3;155,149,220;,
  3;227,107,223;,
  3;144,215,154;,
  3;217,216,214;,
  3;210,211,208;,
  3;220,210,208;,
  3;213,203,205;,
  3;212,213,205;,
  3;236,238,243;,
  3;204,226,224;,
  4;225,213,212,237;;
 }
 MeshTextureCoords { 
 247;
 0.954858;0.526228;,
 0.954858;0.526228;,
 0.954858;0.526228;,
 0.954858;0.526228;,
 0.954858;0.526228;,
 0.918856;0.589512;,
 0.828972;0.700336;,
 0.828972;0.700336;,
 0.918856;0.589512;,
 0.544679;0.204540;,
 0.648712;0.292467;,
 0.544679;0.204540;,
 0.719058;0.335864;,
 0.719058;0.335864;,
 0.574720;0.253581;,
 0.574720;0.253581;,
 0.574720;0.253581;,
 0.574720;0.253581;,
 0.835448;0.475652;,
 0.835448;0.475652;,
 0.835448;0.475652;,
 0.835448;0.475652;,
 0.835448;0.475652;,
 0.795101;0.258896;,
 0.795101;0.258896;,
 0.795101;0.258896;,
 0.795101;0.258896;,
 0.795101;0.258896;,
 0.853445;0.383252;,
 0.853445;0.383252;,
 0.853445;0.383252;,
 0.853445;0.383252;,
 0.853445;0.383252;,
 0.900688;0.507574;,
 0.900688;0.507574;,
 0.900688;0.507574;,
 0.900688;0.507574;,
 0.900688;0.507574;,
 0.900688;0.507574;,
 0.589549;0.360426;,
 0.774193;0.437310;,
 0.589549;0.360426;,
 0.589549;0.360426;,
 0.774193;0.437310;,
 0.774193;0.437310;,
 0.835444;0.599648;,
 0.835444;0.599648;,
 0.735265;0.638623;,
 0.735265;0.638623;,
 0.835444;0.599648;,
 0.835444;0.599648;,
 0.763973;0.311313;,
 0.763973;0.311313;,
 0.763973;0.311313;,
 0.763973;0.311313;,
 0.763973;0.311313;,
 0.674747;0.260128;,
 0.674747;0.260128;,
 0.674747;0.260128;,
 0.674747;0.260128;,
 0.674747;0.260128;,
 0.835444;0.475652;,
 0.835444;0.475652;,
 0.835444;0.475652;,
 0.835444;0.475652;,
 0.954859;0.526228;,
 0.954859;0.526228;,
 0.954859;0.526228;,
 0.954859;0.526228;,
 0.918858;0.589512;,
 0.918858;0.589512;,
 0.918858;0.589512;,
 0.918858;0.589512;,
 0.918858;0.589512;,
 0.918858;0.589512;,
 0.480999;0.203972;,
 0.480999;0.203972;,
 0.648715;0.292467;,
 0.480999;0.203972;,
 0.480999;0.203972;,
 0.674750;0.260128;,
 0.674750;0.260128;,
 0.674750;0.260128;,
 0.674750;0.260128;,
 0.674750;0.260128;,
 0.795103;0.258896;,
 0.795103;0.258896;,
 0.795103;0.258896;,
 0.795103;0.258896;,
 0.795103;0.258896;,
 0.795103;0.258896;,
 0.853448;0.383252;,
 0.853448;0.383252;,
 0.853448;0.383252;,
 0.853448;0.383252;,
 0.853448;0.383252;,
 0.900690;0.507574;,
 0.900690;0.507574;,
 0.900690;0.507574;,
 0.900690;0.507574;,
 0.900690;0.507574;,
 0.900690;0.507574;,
 0.774198;0.437310;,
 0.774198;0.437310;,
 0.442635;0.359183;,
 0.442635;0.359183;,
 0.442635;0.359183;,
 0.835444;0.599648;,
 0.835444;0.599648;,
 0.835444;0.599648;,
 0.734978;0.840636;,
 0.734978;0.840636;,
 0.763977;0.311313;,
 0.763977;0.311313;,
 0.763977;0.311313;,
 0.763977;0.311313;,
 0.763977;0.311313;,
 0.801921;0.799571;,
 0.801921;0.799571;,
 0.893562;0.597834;,
 0.801921;0.799571;,
 0.859811;0.304439;,
 0.859811;0.304439;,
 0.859811;0.304439;,
 0.859811;0.304439;,
 0.859809;0.304439;,
 0.859809;0.304439;,
 0.859809;0.304439;,
 0.859809;0.304439;,
 0.779981;0.213256;,
 0.779981;0.213256;,
 0.965824;0.502634;,
 0.965824;0.502634;,
 0.965824;0.502634;,
 0.965824;0.502634;,
 0.965824;0.502634;,
 0.965824;0.502634;,
 0.965824;0.502634;,
 0.949836;0.412690;,
 0.949836;0.412690;,
 0.949836;0.412690;,
 0.949836;0.412690;,
 0.949836;0.412690;,
 0.949836;0.412690;,
 0.949835;0.412690;,
 0.949835;0.412690;,
 0.949835;0.412690;,
 0.949835;0.412690;,
 0.949835;0.412690;,
 0.812332;0.891815;,
 0.812332;0.891815;,
 0.808171;0.229970;,
 0.808171;0.229970;,
 0.808171;0.229970;,
 0.808172;0.229970;,
 0.812332;0.979884;,
 0.808172;0.229970;,
 0.808172;0.229970;,
 0.808172;0.229970;,
 0.668990;0.174429;,
 0.668990;0.174429;,
 0.668990;0.174429;,
 0.779980;0.213261;,
 0.779980;0.213261;,
 0.779980;0.213261;,
 0.893560;0.597834;,
 0.802091;0.679574;,
 0.802091;0.679574;,
 0.668992;0.174429;,
 0.668992;0.174429;,
 0.539300;0.980287;,
 0.539300;0.980287;,
 0.668992;0.174429;,
 0.922388;0.418361;,
 0.922388;0.418361;,
 0.922388;0.418361;,
 0.922388;0.418361;,
 0.922388;0.418361;,
 0.922390;0.418361;,
 0.922390;0.418361;,
 0.922390;0.418361;,
 0.922390;0.418361;,
 0.570895;0.461941;,
 0.678603;0.615346;,
 0.779011;0.599648;,
 0.719062;0.335864;,
 0.719062;0.335864;,
 0.458217;0.252611;,
 0.458217;0.252611;,
 0.779011;0.599648;,
 0.779011;0.599648;,
 0.678249;0.864271;,
 0.460995;0.461023;,
 0.460995;0.461023;,
 0.435534;0.981790;,
 0.520368;0.190679;,
 0.497072;0.041084;,
 0.520413;0.190680;,
 0.528370;0.041407;,
 0.528370;0.041407;,
 0.520413;0.190680;,
 0.435534;0.891173;,
 0.520368;0.190679;,
 0.678249;0.864271;,
 0.719062;0.335864;,
 0.678603;0.615346;,
 0.922390;0.418361;,
 0.922388;0.418361;,
 0.539300;0.980287;,
 0.893560;0.597834;,
 0.717194;0.891909;,
 0.538837;0.890740;,
 0.699244;0.665564;,
 0.699027;0.818092;,
 0.808172;0.229970;,
 0.808171;0.229970;,
 0.949835;0.412690;,
 0.949836;0.412690;,
 0.965824;0.502634;,
 0.965824;0.502634;,
 0.717658;0.980871;,
 0.859809;0.304439;,
 0.859811;0.304439;,
 0.893562;0.597834;,
 0.763977;0.311313;,
 0.734978;0.840636;,
 0.774198;0.437310;,
 0.900690;0.507574;,
 0.853448;0.383252;,
 0.795103;0.258896;,
 0.674750;0.260128;,
 0.648715;0.292467;,
 0.828860;0.778621;,
 0.954859;0.526228;,
 0.835444;0.475652;,
 0.674747;0.260128;,
 0.763973;0.311313;,
 0.735265;0.638623;,
 0.774193;0.437310;,
 0.900688;0.507574;,
 0.853445;0.383252;,
 0.795101;0.258896;,
 0.835448;0.475652;,
 0.719058;0.335864;,
 0.648712;0.292467;,
 0.918856;0.589512;,
 0.954858;0.526228;;
 }
}
Frame frm-SSf {
  FrameTransformMatrix {
0.002265,-0.000006,0.000002,0.000000,
0.000006,0.002264,0.000059,0.000000,
-0.000002,-0.000059,0.002264,0.000000,
-0.003780,-0.188066,-1.104283,1.000000;;
 }
Mesh SSf {
 4;
 -0.045497;0.044146;0.000176;,
 0.045497;0.044146;0.000176;,
 0.000000;-0.000001;-0.044479;,
 0.000000;-0.031506;0.000358;;

 4;
 3;2,1,3;,
 3;2,0,1;,
 3;2,3,0;,
 3;3,1,0;;

 MeshMaterialList {
  1;
  4;
  0,
  0,
  0,
  0;
Material {
 1.000000;1.000000;1.000000;0.500000;;
 0.000000;
 1.000000;1.000000;1.000000;;
 0.0; 0.0; 0.0;;
 }
}
 MeshNormals {
  4;
  -0.960719;0.272530;-0.052403;,
  0.960719;0.272530;-0.052403;,
  0.000000;-0.183897;-0.982946;,
  -0.000000;-0.949956;0.312384;;

  4;
  3;2,1,3;,
  3;2,0,1;,
  3;2,3,0;,
  3;3,1,0;;
 }
 MeshTextureCoords { 
 4;
 0.000000;0.000000;,
 0.000000;0.000000;,
 0.000000;0.000000;,
 0.000000;0.000000;;
 }
}
}
Frame frm-afuselg {
  FrameTransformMatrix {
1.000000,0.000000,0.000000,0.000000,
0.000000,1.000000,0.000000,0.000000,
0.000000,0.000000,1.000000,0.000000,
-0.003060,-0.521123,-0.250555,1.000000;;
 }
Mesh afuselg {
 237;
 0.226999;0.777984;0.935840;,
 0.226999;0.777984;0.935840;,
 0.226999;0.777984;0.935840;,
 0.226999;0.777984;0.935840;,
 0.226999;0.777984;0.935840;,
 0.226999;0.777984;0.935840;,
 0.264425;0.501011;0.043808;,
 0.264425;0.501011;0.043808;,
 0.346532;0.617425;0.163202;,
 0.346532;0.617425;0.163202;,
 0.352486;0.506039;0.042161;,
 0.352486;0.506039;0.042161;,
 0.373552;0.181885;0.032438;,
 0.373552;0.181885;0.032438;,
 0.260005;0.617586;0.164769;,
 0.260005;0.617586;0.164769;,
 0.280201;0.180268;0.035279;,
 0.280201;0.180268;0.035279;,
 0.303067;0.045480;0.025285;,
 0.000071;0.045229;0.024871;,
 0.000071;0.045229;0.024871;,
 -0.169271;1.087034;1.132854;,
 -0.147123;1.004772;0.933054;,
 -0.147123;1.004772;0.933054;,
 -0.183624;1.003540;0.929011;,
 -0.281348;0.857190;0.546212;,
 -0.281348;0.857190;0.546212;,
 -0.281348;0.857190;0.546212;,
 -0.253765;0.848450;0.561076;,
 -0.257234;0.764616;0.323075;,
 -0.257234;0.764616;0.323075;,
 -0.342960;0.768761;0.311942;,
 -0.342960;0.768761;0.311942;,
 -0.345316;0.619044;0.160720;,
 -0.345316;0.619044;0.160720;,
 -0.259033;0.618800;0.162907;,
 -0.259033;0.618800;0.162907;,
 -0.263232;0.502245;0.041915;,
 -0.263232;0.502245;0.041915;,
 -0.350920;0.507684;0.039638;,
 -0.350920;0.507684;0.039638;,
 -0.371875;0.183628;0.029764;,
 -0.371875;0.183628;0.029764;,
 -0.278943;0.181576;0.033273;,
 -0.278943;0.181576;0.033273;,
 -0.301598;0.046895;0.023116;,
 -0.301598;0.046895;0.023116;,
 -0.211331;0.768155;1.019027;,
 -0.211331;0.768155;1.019027;,
 -0.211331;0.768155;1.019027;,
 -0.211331;0.768155;1.019027;,
 -0.210750;0.695159;0.793430;,
 -0.210750;0.695159;0.793430;,
 -0.210750;0.695159;0.793430;,
 -0.210750;0.695159;0.793430;,
 -0.157904;0.724477;0.748993;,
 -0.157904;0.724477;0.748993;,
 -0.157904;0.724477;0.748993;,
 -0.157904;0.724477;0.748993;,
 -0.157904;0.724477;0.748993;,
 -0.157904;0.724477;0.748993;,
 -0.160243;0.636036;0.517977;,
 -0.160243;0.636036;0.517977;,
 -0.160243;0.636036;0.517977;,
 -0.160243;0.636036;0.517977;,
 -0.160243;0.636036;0.517977;,
 -0.213883;0.606720;0.562411;,
 -0.213883;0.606720;0.562411;,
 -0.213883;0.606720;0.562411;,
 -0.213883;0.606720;0.562411;,
 -0.213883;0.606720;0.562411;,
 -0.215491;0.453810;0.412995;,
 -0.215491;0.453810;0.412995;,
 -0.215491;0.453810;0.412995;,
 -0.215491;0.453810;0.412995;,
 -0.215491;0.453810;0.412995;,
 -0.215491;0.453810;0.412995;,
 -0.161464;0.473726;0.384228;,
 -0.161464;0.473726;0.384228;,
 -0.161464;0.473726;0.384228;,
 -0.161464;0.473726;0.384228;,
 -0.164054;0.341592;0.285432;,
 -0.164054;0.341592;0.285432;,
 -0.164054;0.341592;0.285432;,
 -0.164054;0.341592;0.285432;,
 -0.164054;0.341592;0.285432;,
 -0.164054;0.341592;0.285432;,
 -0.218866;0.312279;0.329862;,
 -0.218866;0.312279;0.329862;,
 -0.218866;0.312279;0.329862;,
 -0.218866;0.312279;0.329862;,
 -0.231387;0.059914;0.178419;,
 -0.231387;0.059914;0.178419;,
 -0.231387;0.059914;0.178419;,
 -0.231387;0.059914;0.178419;,
 -0.231387;0.059914;0.178419;,
 -0.173498;0.089220;0.134000;,
 -0.173498;0.089220;0.134000;,
 -0.173498;0.089220;0.134000;,
 -0.173498;0.089220;0.134000;,
 -0.173498;0.089220;0.134000;,
 -0.187517;0.046520;0.022172;,
 -0.187517;0.046520;0.022172;,
 -0.187517;0.046520;0.022172;,
 -0.187517;0.046520;0.022172;,
 0.209012;0.766886;1.020314;,
 0.209012;0.766886;1.020314;,
 0.209012;0.766886;1.020314;,
 0.209553;0.694176;0.794938;,
 0.209553;0.694176;0.794938;,
 0.209553;0.694176;0.794938;,
 0.209553;0.694176;0.794938;,
 0.209553;0.694176;0.794938;,
 0.209553;0.694176;0.794938;,
 0.157164;0.723740;0.750123;,
 0.157164;0.723740;0.750123;,
 0.157164;0.723740;0.750123;,
 0.157164;0.723740;0.750123;,
 0.159325;0.635289;0.519123;,
 0.159325;0.635289;0.519123;,
 0.159325;0.635289;0.519123;,
 0.159325;0.635289;0.519123;,
 0.159325;0.635289;0.519123;,
 0.159325;0.635289;0.519123;,
 0.212510;0.605723;0.563941;,
 0.212510;0.605723;0.563941;,
 0.212510;0.605723;0.563941;,
 0.212510;0.605723;0.563941;,
 0.213911;0.452805;0.414536;,
 0.213911;0.452805;0.414536;,
 0.213911;0.452805;0.414536;,
 0.213911;0.452805;0.414536;,
 0.160340;0.472973;0.385382;,
 0.160340;0.472973;0.385382;,
 0.160340;0.472973;0.385382;,
 0.160340;0.472973;0.385382;,
 0.160340;0.472973;0.385382;,
 0.160340;0.472973;0.385382;,
 0.162758;0.340827;0.286605;,
 0.162758;0.340827;0.286605;,
 0.162758;0.340827;0.286605;,
 0.162758;0.340827;0.286605;,
 0.217114;0.311259;0.331426;,
 0.217114;0.311259;0.331426;,
 0.217114;0.311259;0.331426;,
 0.217114;0.311259;0.331426;,
 0.217114;0.311259;0.331426;,
 0.217114;0.311259;0.331426;,
 0.229727;0.058835;0.180073;,
 0.229727;0.058835;0.180073;,
 0.229727;0.058835;0.180073;,
 0.229727;0.058835;0.180073;,
 0.229727;0.058835;0.180073;,
 0.172296;0.088411;0.135241;,
 0.172296;0.088411;0.135241;,
 0.172296;0.088411;0.135241;,
 0.172296;0.088411;0.135241;,
 0.172296;0.088411;0.135241;,
 0.186464;0.045645;0.023514;,
 0.186464;0.045645;0.023514;,
 0.186464;0.045645;0.023514;,
 0.186464;0.045645;0.023514;,
 0.167826;1.086018;1.133889;,
 0.167826;1.086018;1.133889;,
 0.167826;1.086018;1.133889;,
 0.147811;1.003882;0.933957;,
 0.282595;0.855870;0.548235;,
 0.254942;0.847260;0.562900;,
 0.254942;0.847260;0.562900;,
 0.254942;0.847260;0.562900;,
 0.258303;0.763411;0.324924;,
 -0.187954;0.785358;0.941416;,
 -0.187954;0.785358;0.941416;,
 -0.187954;0.785358;0.941416;,
 -0.187954;0.785358;0.941416;,
 -0.187954;0.785358;0.941416;,
 -0.187954;0.785358;0.941416;,
 0.344235;0.767153;0.314407;,
 0.344235;0.767153;0.314407;,
 0.184301;1.002430;0.930138;,
 0.184301;1.002430;0.930138;,
 0.344235;0.767153;0.314407;,
 -0.187954;0.785358;0.941416;,
 0.258303;0.763411;0.324924;,
 0.254942;0.847260;0.562900;,
 0.282595;0.855870;0.548235;,
 0.184301;1.002430;0.930138;,
 0.147811;1.003882;0.933957;,
 0.167826;1.086018;1.133889;,
 0.186464;0.045645;0.023514;,
 0.172296;0.088411;0.135241;,
 0.229727;0.058835;0.180073;,
 0.217114;0.311259;0.331426;,
 0.162758;0.340827;0.286605;,
 0.160340;0.472973;0.385382;,
 0.213911;0.452805;0.414536;,
 0.212510;0.605723;0.563941;,
 0.159325;0.635289;0.519123;,
 0.157164;0.723740;0.750123;,
 0.209553;0.694176;0.794938;,
 0.209012;0.766886;1.020314;,
 -0.187517;0.046520;0.022172;,
 -0.173498;0.089220;0.134000;,
 -0.231387;0.059914;0.178419;,
 -0.218866;0.312279;0.329862;,
 -0.164054;0.341592;0.285432;,
 -0.161464;0.473726;0.384228;,
 -0.215491;0.453810;0.412995;,
 -0.213883;0.606720;0.562411;,
 -0.160243;0.636036;0.517977;,
 -0.157904;0.724477;0.748993;,
 -0.210750;0.695159;0.793430;,
 -0.211331;0.768155;1.019027;,
 -0.301598;0.046895;0.023116;,
 -0.278943;0.181576;0.033273;,
 -0.371875;0.183628;0.029764;,
 -0.350920;0.507684;0.039638;,
 -0.263232;0.502245;0.041915;,
 -0.259033;0.618800;0.162907;,
 -0.345316;0.619044;0.160720;,
 -0.342960;0.768761;0.311942;,
 -0.257234;0.764616;0.323075;,
 -0.253765;0.848450;0.561076;,
 -0.281348;0.857190;0.546212;,
 -0.183624;1.003540;0.929011;,
 -0.147123;1.004772;0.933054;,
 -0.169271;1.087034;1.132854;,
 0.000071;0.045229;0.024871;,
 0.303067;0.045480;0.025285;,
 0.280201;0.180268;0.035279;,
 0.260005;0.617586;0.164769;,
 0.373552;0.181885;0.032438;,
 0.352486;0.506039;0.042161;,
 0.346532;0.617425;0.163202;,
 0.264425;0.501011;0.043808;,
 0.344235;0.767153;0.314407;,
 0.226999;0.777984;0.935840;;

 79;
 3;7,141,147;,
 3;11,6,146;,
 3;27,28,60;,
 3;54,26,59;,
 3;113,53,58;,
 3;169,166,112;,
 3;117,168,111;,
 3;57,116,110;,
 3;10,145,152;,
 3;13,232,151;,
 3;9,131,137;,
 3;15,8,136;,
 3;185,186,109;,
 3;17,157,161;,
 3;18,16,160;,
 3;12,150,156;,
 3;229,231,155;,
 3;14,135,140;,
 3;234,230,139;,
 3;228,159,20;,
 3;164,21,50;,
 3;107,163,49;,
 3;48,226,23;,
 3;176,47,22;,
 3;175,225,24;,
 3;233,235,130;,
 3;174,224,25;,
 3;52,173,223;,
 3;144,90,95;,
 3;149,143,94;,
 3;179,5,108;,
 3;56,222,30;,
 3;65,55,29;,
 3;64,221,32;,
 3;178,170,123;,
 3;127,177,122;,
 3;70,126,121;,
 3;63,31,69;,
 3;120,62,68;,
 3;180,165,4;,
 3;67,220,34;,
 3;76,66,33;,
 3;75,219,36;,
 3;134,129,74;,
 3;80,133,73;,
 3;35,79,72;,
 3;162,106,3;,
 3;78,218,38;,
 3;86,77,37;,
 3;85,217,40;,
 3;142,138,84;,
 3;89,192,83;,
 3;39,88,82;,
 3;154,100,104;,
 3;158,153,103;,
 3;87,216,42;,
 3;93,204,41;,
 3;92,215,44;,
 3;99,91,43;,
 3;98,214,46;,
 3;102,97,45;,
 3;101,213,19;,
 3;105,212,172;,
 3;2,200,171;,
 3;181,125,128;,
 3;124,208,71;,
 3;195,196,207;,
 3;148,203,96;,
 3;190,191,202;,
 3;183,167,119;,
 3;1,182,51;,
 3;199,0,211;,
 3;184,115,118;,
 3;132,206,81;,
 3;193,194,205;,
 3;114,210,61;,
 3;197,198,209;,
 3;189,201,227;,
 3;187,188,236;;

 MeshMaterialList {
  3;
  79;
  0,
  0,
  0,
  0,
  0,
  0,
  0,
  0,
  0,
  0,
  0,
  0,
  0,
  0,
  0,
  0,
  0,
  0,
  0,
  0,
  1,
  1,
  0,
  0,
  0,
  0,
  0,
  0,
  0,
  0,
  0,
  0,
  0,
  0,
  0,
  0,
  0,
  0,
  0,
  0,
  0,
  0,
  0,
  0,
  0,
  0,
  0,
  0,
  0,
  0,
  0,
  0,
  0,
  0,
  0,
  0,
  0,
  0,
  0,
  0,
  0,
  0,
  2,
  2,
  0,
  0,
  0,
  0,
  0,
  0,
  0,
  0,
  0,
  0,
  0,
  0,
  0,
  0,
  0;
Material {
 1.000000;1.000000;1.000000;1.000000;;
 0.000000;
 1.000000;1.000000;1.000000;;
 0.0; 0.0; 0.0;;
 TextureFilename {
  "fig13.ppm";
 }
 }
Material {
 1.000000;1.000000;0.971631;1.000000;;
 0.000000;
 1.000000;1.000000;1.000000;;
 0.0; 0.0; 0.0;;
 TextureFilename {
  "fig13.ppm";
 }
 }
Material {
 1.000000;1.000000;1.000000;1.000000;;
 0.000000;
 1.000000;1.000000;1.000000;;
 0.0; 0.0; 0.0;;
 TextureFilename {
  "fig13.ppm";
 }
 }
}
 MeshNormals {
  237;
  0.727591;-0.545469;0.416023;,
  0.727591;-0.545469;0.416023;,
  0.727591;-0.545469;0.416023;,
  0.727591;-0.545469;0.416023;,
  0.727591;-0.545469;0.416023;,
  0.727591;-0.545469;0.416023;,
  0.416175;0.666587;0.618433;,
  0.416175;0.666587;0.618433;,
  0.387400;-0.851585;-0.353164;,
  0.387400;-0.851585;-0.353164;,
  0.688466;0.289652;0.664918;,
  0.688466;0.289652;0.664918;,
  0.425825;-0.844543;-0.324685;,
  0.425825;-0.844543;-0.324685;,
  0.829645;-0.558265;-0.005428;,
  0.829645;-0.558265;-0.005428;,
  0.442499;-0.815238;0.373608;,
  0.442499;-0.815238;0.373608;,
  -0.011060;0.618325;0.785845;,
  0.001432;0.971629;0.236505;,
  0.001432;0.971629;0.236505;,
  -0.782822;-0.115035;0.611520;,
  -0.945850;0.195919;0.258811;,
  -0.945850;0.195919;0.258811;,
  -0.660637;0.055678;0.748638;,
  -0.716258;-0.651080;-0.251136;,
  -0.716258;-0.651080;-0.251136;,
  -0.716258;-0.651080;-0.251136;,
  -0.537894;-0.803335;-0.255583;,
  -0.896225;-0.012167;0.443433;,
  -0.896225;-0.012167;0.443433;,
  -0.436232;0.633401;0.639144;,
  -0.436232;0.633401;0.639144;,
  -0.794998;-0.606469;0.013166;,
  -0.794998;-0.606469;0.013166;,
  -0.401276;-0.837034;-0.371957;,
  -0.401276;-0.837034;-0.371957;,
  -0.849455;0.195758;0.490005;,
  -0.849455;0.195758;0.490005;,
  -0.347276;0.699225;0.624887;,
  -0.347276;0.699225;0.624887;,
  -0.853706;-0.493386;0.166603;,
  -0.853706;-0.493386;0.166603;,
  -0.425385;-0.853852;-0.299975;,
  -0.425385;-0.853852;-0.299975;,
  -0.462527;0.076330;0.883313;,
  -0.462527;0.076330;0.883313;,
  -0.734834;-0.490060;0.468892;,
  -0.734834;-0.490060;0.468892;,
  -0.734834;-0.490060;0.468892;,
  -0.734834;-0.490060;0.468892;,
  -0.270959;-0.961759;0.040005;,
  -0.270959;-0.961759;0.040005;,
  -0.270959;-0.961759;0.040005;,
  -0.270959;-0.961759;0.040005;,
  -0.352302;-0.901767;-0.250401;,
  -0.352302;-0.901767;-0.250401;,
  -0.352302;-0.901767;-0.250401;,
  -0.352302;-0.901767;-0.250401;,
  -0.352302;-0.901767;-0.250401;,
  -0.352302;-0.901767;-0.250401;,
  -0.411610;-0.027238;0.910953;,
  -0.411610;-0.027238;0.910953;,
  -0.411610;-0.027238;0.910953;,
  -0.411610;-0.027238;0.910953;,
  -0.411610;-0.027238;0.910953;,
  -0.498799;0.339696;0.797375;,
  -0.498799;0.339696;0.797375;,
  -0.498799;0.339696;0.797375;,
  -0.498799;0.339696;0.797375;,
  -0.498799;0.339696;0.797375;,
  -0.176649;-0.978947;-0.102263;,
  -0.176649;-0.978947;-0.102263;,
  -0.176649;-0.978947;-0.102263;,
  -0.176649;-0.978947;-0.102263;,
  -0.176649;-0.978947;-0.102263;,
  -0.176649;-0.978947;-0.102263;,
  -0.573560;-0.816757;0.062736;,
  -0.573560;-0.816757;0.062736;,
  -0.573560;-0.816757;0.062736;,
  -0.573560;-0.816757;0.062736;,
  -0.197680;0.426355;0.882691;,
  -0.197680;0.426355;0.882691;,
  -0.197680;0.426355;0.882691;,
  -0.197680;0.426355;0.882691;,
  -0.197680;0.426355;0.882691;,
  -0.197680;0.426355;0.882691;,
  -0.529802;0.224385;0.817900;,
  -0.529802;0.224385;0.817900;,
  -0.529802;0.224385;0.817900;,
  -0.529802;0.224385;0.817900;,
  -0.263961;-0.951540;0.157787;,
  -0.263961;-0.951540;0.157787;,
  -0.263961;-0.951540;0.157787;,
  -0.263961;-0.951540;0.157787;,
  -0.263961;-0.951540;0.157787;,
  -0.156281;-0.984395;-0.080885;,
  -0.156281;-0.984395;-0.080885;,
  -0.156281;-0.984395;-0.080885;,
  -0.156281;-0.984395;-0.080885;,
  -0.156281;-0.984395;-0.080885;,
  -0.000926;-0.477032;0.878885;,
  -0.000926;-0.477032;0.878885;,
  -0.000926;-0.477032;0.878885;,
  -0.000926;-0.477032;0.878885;,
  0.368812;-0.875448;0.312360;,
  0.368812;-0.875448;0.312360;,
  0.368812;-0.875448;0.312360;,
  0.395042;-0.850318;-0.347707;,
  0.395042;-0.850318;-0.347707;,
  0.395042;-0.850318;-0.347707;,
  0.395042;-0.850318;-0.347707;,
  0.395042;-0.850318;-0.347707;,
  0.395042;-0.850318;-0.347707;,
  0.247548;-0.967919;-0.043040;,
  0.247548;-0.967919;-0.043040;,
  0.247548;-0.967919;-0.043040;,
  0.247548;-0.967919;-0.043040;,
  0.549877;0.344641;0.760827;,
  0.549877;0.344641;0.760827;,
  0.549877;0.344641;0.760827;,
  0.549877;0.344641;0.760827;,
  0.549877;0.344641;0.760827;,
  0.549877;0.344641;0.760827;,
  0.306448;-0.002645;0.951884;,
  0.306448;-0.002645;0.951884;,
  0.306448;-0.002645;0.951884;,
  0.306448;-0.002645;0.951884;,
  0.525177;-0.849258;0.054312;,
  0.525177;-0.849258;0.054312;,
  0.525177;-0.849258;0.054312;,
  0.525177;-0.849258;0.054312;,
  0.187712;-0.979527;-0.072739;,
  0.187712;-0.979527;-0.072739;,
  0.187712;-0.979527;-0.072739;,
  0.187712;-0.979527;-0.072739;,
  0.187712;-0.979527;-0.072739;,
  0.187712;-0.979527;-0.072739;,
  0.595872;0.205987;0.776213;,
  0.595872;0.205987;0.776213;,
  0.595872;0.205987;0.776213;,
  0.595872;0.205987;0.776213;,
  0.182533;0.445775;0.876337;,
  0.182533;0.445775;0.876337;,
  0.182533;0.445775;0.876337;,
  0.182533;0.445775;0.876337;,
  0.182533;0.445775;0.876337;,
  0.182533;0.445775;0.876337;,
  0.488489;-0.870689;0.057271;,
  0.488489;-0.870689;0.057271;,
  0.488489;-0.870689;0.057271;,
  0.488489;-0.870689;0.057271;,
  0.488489;-0.870689;0.057271;,
  0.181853;-0.971237;-0.153716;,
  0.181853;-0.971237;-0.153716;,
  0.181853;-0.971237;-0.153716;,
  0.181853;-0.971237;-0.153716;,
  0.181853;-0.971237;-0.153716;,
  0.357748;0.087996;0.929663;,
  0.357748;0.087996;0.929663;,
  0.357748;0.087996;0.929663;,
  0.357748;0.087996;0.929663;,
  0.716728;-0.107012;0.689093;,
  0.716728;-0.107012;0.689093;,
  0.716728;-0.107012;0.689093;,
  0.769311;0.274489;0.576902;,
  0.712299;-0.664875;-0.224881;,
  0.547811;-0.800815;-0.242072;,
  0.547811;-0.800815;-0.242072;,
  0.547811;-0.800815;-0.242072;,
  0.743333;0.317869;0.588571;,
  -0.695022;-0.647394;0.312771;,
  -0.695022;-0.647394;0.312771;,
  -0.695022;-0.647394;0.312771;,
  -0.695022;-0.647394;0.312771;,
  -0.695022;-0.647394;0.312771;,
  -0.695022;-0.647394;0.312771;,
  0.434383;0.631420;0.642355;,
  0.434383;0.631420;0.642355;,
  0.798995;0.166676;0.577777;,
  0.798995;0.166676;0.577777;,
  0.434383;0.631420;0.642355;,
  -0.695022;-0.647394;0.312771;,
  0.743333;0.317869;0.588571;,
  0.547811;-0.800815;-0.242072;,
  0.712299;-0.664875;-0.224881;,
  0.964400;-0.035909;0.261997;,
  0.769311;0.274489;0.576902;,
  0.716728;-0.107012;0.689093;,
  0.357748;0.087996;0.929663;,
  0.181853;-0.971237;-0.153716;,
  0.488489;-0.870689;0.057271;,
  0.182533;0.445775;0.876337;,
  0.595872;0.205987;0.776213;,
  0.187712;-0.979527;-0.072739;,
  0.525177;-0.849258;0.054312;,
  0.306448;-0.002645;0.951884;,
  0.549877;0.344641;0.760827;,
  0.247548;-0.967919;-0.043040;,
  0.395042;-0.850318;-0.347707;,
  0.368812;-0.875448;0.312360;,
  -0.000926;-0.477032;0.878885;,
  -0.156281;-0.984395;-0.080885;,
  -0.263961;-0.951540;0.157787;,
  -0.529802;0.224385;0.817900;,
  -0.197680;0.426355;0.882691;,
  -0.573560;-0.816757;0.062736;,
  -0.176649;-0.978947;-0.102263;,
  -0.498799;0.339696;0.797375;,
  -0.411610;-0.027238;0.910953;,
  -0.352302;-0.901767;-0.250401;,
  -0.270959;-0.961759;0.040005;,
  -0.734834;-0.490060;0.468892;,
  -0.462527;0.076330;0.883313;,
  -0.425385;-0.853852;-0.299975;,
  -0.853706;-0.493386;0.166603;,
  -0.347276;0.699225;0.624887;,
  -0.849455;0.195758;0.490005;,
  -0.401276;-0.837034;-0.371957;,
  -0.794998;-0.606469;0.013166;,
  -0.436232;0.633401;0.639144;,
  -0.896225;-0.012167;0.443433;,
  -0.537894;-0.803335;-0.255583;,
  -0.716258;-0.651080;-0.251136;,
  -0.660637;0.055678;0.748638;,
  -0.945850;0.195919;0.258811;,
  -0.782822;-0.115035;0.611520;,
  0.001432;0.971629;0.236505;,
  -0.011060;0.618325;0.785845;,
  0.442499;-0.815238;0.373608;,
  0.829645;-0.558265;-0.005428;,
  0.425825;-0.844543;-0.324685;,
  0.688466;0.289652;0.664918;,
  0.387400;-0.851585;-0.353164;,
  0.416175;0.666587;0.618433;,
  0.912197;-0.284145;0.295226;,
  0.727591;-0.545469;0.416023;;

  79;
  3;7,141,147;,
  3;11,6,146;,
  3;27,28,60;,
  3;54,26,59;,
  3;113,53,58;,
  3;169,166,112;,
  3;117,168,111;,
  3;57,116,110;,
  3;10,145,152;,
  3;13,232,151;,
  3;9,131,137;,
  3;15,8,136;,
  3;185,186,109;,
  3;17,157,161;,
  3;18,16,160;,
  3;12,150,156;,
  3;229,231,155;,
  3;14,135,140;,
  3;234,230,139;,
  3;228,159,20;,
  3;164,21,50;,
  3;107,163,49;,
  3;48,226,23;,
  3;176,47,22;,
  3;175,225,24;,
  3;233,235,130;,
  3;174,224,25;,
  3;52,173,223;,
  3;144,90,95;,
  3;149,143,94;,
  3;179,5,108;,
  3;56,222,30;,
  3;65,55,29;,
  3;64,221,32;,
  3;178,170,123;,
  3;127,177,122;,
  3;70,126,121;,
  3;63,31,69;,
  3;120,62,68;,
  3;180,165,4;,
  3;67,220,34;,
  3;76,66,33;,
  3;75,219,36;,
  3;134,129,74;,
  3;80,133,73;,
  3;35,79,72;,
  3;162,106,3;,
  3;78,218,38;,
  3;86,77,37;,
  3;85,217,40;,
  3;142,138,84;,
  3;89,192,83;,
  3;39,88,82;,
  3;154,100,104;,
  3;158,153,103;,
  3;87,216,42;,
  3;93,204,41;,
  3;92,215,44;,
  3;99,91,43;,
  3;98,214,46;,
  3;102,97,45;,
  3;101,213,19;,
  3;105,212,172;,
  3;2,200,171;,
  3;181,125,128;,
  3;124,208,71;,
  3;195,196,207;,
  3;148,203,96;,
  3;190,191,202;,
  3;183,167,119;,
  3;1,182,51;,
  3;199,0,211;,
  3;184,115,118;,
  3;132,206,81;,
  3;193,194,205;,
  3;114,210,61;,
  3;197,198,209;,
  3;189,201,227;,
  3;187,188,236;;
 }
 MeshTextureCoords { 
 237;
 0.123880;0.604282;,
 0.123880;0.604282;,
 0.182067;0.561594;,
 0.123880;0.569711;,
 0.123880;0.569711;,
 0.123880;0.604282;,
 0.325498;0.408809;,
 0.325498;0.408809;,
 0.276803;0.397586;,
 0.276803;0.397586;,
 0.325109;0.395227;,
 0.325109;0.395227;,
 0.378905;0.395050;,
 0.378905;0.395050;,
 0.276803;0.426796;,
 0.276803;0.426796;,
 0.378516;0.406569;,
 0.378516;0.406569;,
 0.419533;0.400819;,
 0.419922;0.489646;,
 0.419922;0.489646;,
 0.919084;0.625183;,
 0.123701;0.424805;,
 0.123701;0.424805;,
 0.123772;0.396823;,
 0.176500;0.396816;,
 0.176500;0.396816;,
 0.176500;0.396816;,
 0.176111;0.417215;,
 0.224295;0.417741;,
 0.224295;0.417741;,
 0.223906;0.396752;,
 0.223906;0.396752;,
 0.276803;0.397586;,
 0.276803;0.397586;,
 0.276803;0.426796;,
 0.276803;0.426796;,
 0.325498;0.408809;,
 0.325498;0.408809;,
 0.325109;0.395227;,
 0.325109;0.395227;,
 0.378905;0.395050;,
 0.378905;0.395050;,
 0.378516;0.406569;,
 0.378516;0.406569;,
 0.419533;0.400819;,
 0.419533;0.400819;,
 0.029190;0.569451;,
 0.029190;0.569451;,
 0.909943;0.773779;,
 0.909943;0.773779;,
 0.176654;0.604282;,
 0.176654;0.604282;,
 0.176654;0.604282;,
 0.176654;0.604282;,
 0.176500;0.567983;,
 0.176500;0.567983;,
 0.176500;0.567983;,
 0.176500;0.567983;,
 0.176500;0.567983;,
 0.176500;0.567983;,
 0.223907;0.567983;,
 0.223907;0.567983;,
 0.223907;0.567983;,
 0.223907;0.567983;,
 0.223907;0.567983;,
 0.224060;0.604282;,
 0.224060;0.604282;,
 0.224060;0.604282;,
 0.224060;0.604282;,
 0.224060;0.604282;,
 0.277345;0.604282;,
 0.277345;0.604282;,
 0.277345;0.604282;,
 0.277345;0.604282;,
 0.277345;0.604282;,
 0.277345;0.604282;,
 0.277191;0.567983;,
 0.277191;0.567983;,
 0.277191;0.567983;,
 0.277191;0.567983;,
 0.325109;0.568243;,
 0.308240;0.567724;,
 0.308240;0.567724;,
 0.308240;0.567724;,
 0.308240;0.567724;,
 0.325109;0.568243;,
 0.325262;0.604541;,
 0.325262;0.604541;,
 0.325262;0.604541;,
 0.325262;0.604541;,
 0.379058;0.604541;,
 0.379058;0.604541;,
 0.379058;0.604541;,
 0.379058;0.604541;,
 0.379058;0.604541;,
 0.378905;0.568243;,
 0.378905;0.568243;,
 0.378905;0.568243;,
 0.378905;0.568243;,
 0.378905;0.568243;,
 0.419922;0.567724;,
 0.419922;0.567724;,
 0.419922;0.567724;,
 0.419922;0.567724;,
 0.166142;0.550958;,
 0.029190;0.569451;,
 1.001298;0.774115;,
 0.176653;0.604282;,
 0.176653;0.604282;,
 0.176653;0.604282;,
 0.176653;0.604282;,
 0.176653;0.604282;,
 0.176653;0.604282;,
 0.176500;0.567983;,
 0.176500;0.567983;,
 0.140718;0.567724;,
 0.140718;0.567724;,
 0.223907;0.567983;,
 0.223907;0.567983;,
 0.223907;0.567983;,
 0.223907;0.567983;,
 0.223907;0.567983;,
 0.223907;0.567983;,
 0.224060;0.604282;,
 0.224060;0.604282;,
 0.196559;0.593750;,
 0.196559;0.593750;,
 0.277345;0.604282;,
 0.277345;0.604282;,
 0.277345;0.604282;,
 0.277345;0.604282;,
 0.277191;0.567983;,
 0.277191;0.567983;,
 0.277191;0.567983;,
 0.277191;0.567983;,
 0.277191;0.567983;,
 0.277191;0.567983;,
 0.325109;0.568243;,
 0.325109;0.568243;,
 0.325109;0.568243;,
 0.325109;0.568243;,
 0.325262;0.604541;,
 0.325262;0.604541;,
 0.325262;0.604541;,
 0.325262;0.604541;,
 0.325262;0.604541;,
 0.325262;0.604541;,
 0.379058;0.604541;,
 0.379058;0.604541;,
 0.379058;0.604541;,
 0.379058;0.604541;,
 0.379058;0.604541;,
 0.378905;0.568243;,
 0.378905;0.568243;,
 0.378905;0.568243;,
 0.378905;0.568243;,
 0.378905;0.568243;,
 0.419922;0.567724;,
 0.419922;0.567724;,
 0.419922;0.567724;,
 0.419922;0.567724;,
 0.029000;0.425617;,
 0.992347;0.625452;,
 0.992347;0.625452;,
 0.123701;0.424805;,
 0.176500;0.396816;,
 0.176111;0.417215;,
 0.176111;0.417215;,
 0.176111;0.417215;,
 0.224295;0.417741;,
 0.178117;0.311660;,
 0.178117;0.311660;,
 0.123880;0.604282;,
 0.123880;0.604282;,
 0.123880;0.569711;,
 0.123880;0.569711;,
 0.223907;0.396752;,
 0.223907;0.396752;,
 0.123773;0.396823;,
 0.123773;0.396823;,
 0.223907;0.396752;,
 0.123880;0.604282;,
 0.224295;0.417741;,
 0.176111;0.417215;,
 0.176500;0.396816;,
 0.123773;0.396823;,
 0.123701;0.424805;,
 0.029000;0.425617;,
 0.419922;0.567724;,
 0.378905;0.568243;,
 0.379058;0.604541;,
 0.325262;0.604541;,
 0.325109;0.568243;,
 0.277191;0.567983;,
 0.277345;0.604282;,
 0.224060;0.604282;,
 0.223907;0.567983;,
 0.176500;0.567983;,
 0.176653;0.604282;,
 0.166142;0.550958;,
 0.419922;0.567724;,
 0.378905;0.568243;,
 0.379058;0.604541;,
 0.325262;0.604541;,
 0.325109;0.568243;,
 0.277191;0.567983;,
 0.277345;0.604282;,
 0.224060;0.604282;,
 0.223907;0.567983;,
 0.176500;0.567983;,
 0.176654;0.604282;,
 0.165988;0.297772;,
 0.419533;0.400819;,
 0.378516;0.406569;,
 0.378905;0.395050;,
 0.325109;0.395227;,
 0.325498;0.408809;,
 0.276803;0.426796;,
 0.276803;0.397586;,
 0.223906;0.396752;,
 0.224295;0.417741;,
 0.176111;0.417215;,
 0.176500;0.396816;,
 0.123772;0.396823;,
 0.123701;0.424805;,
 0.029000;0.425617;,
 0.419922;0.489646;,
 0.419533;0.400819;,
 0.378516;0.406569;,
 0.276803;0.426796;,
 0.378905;0.395050;,
 0.325109;0.395227;,
 0.276803;0.397586;,
 0.325498;0.408809;,
 0.223907;0.396752;,
 0.123880;0.569711;;
 }
}
}
Frame frm-l-gun {
  FrameTransformMatrix {
1.000000,0.000000,0.000000,0.000000,
0.000000,1.000000,0.000000,0.000000,
0.000000,0.000000,1.000000,0.000000,
-0.000802,-0.514978,-0.676620,1.000000;;
 }
Mesh l-gun {
 122;
 -0.027949;-0.008779;-0.479423;,
 -0.027949;-0.008779;-0.479423;,
 0.000166;-0.029126;-0.479214;,
 0.000166;-0.029126;-0.479214;,
 -0.034075;-0.010804;-0.450519;,
 -0.034075;-0.010804;-0.450519;,
 -0.034075;-0.010804;-0.450519;,
 0.000226;-0.035628;-0.450265;,
 0.000226;-0.035628;-0.450265;,
 0.000226;-0.035628;-0.450265;,
 -0.017514;-0.005443;-0.379567;,
 -0.017514;-0.005443;-0.379567;,
 -0.017514;-0.005443;-0.379567;,
 0.000312;-0.018343;-0.379435;,
 0.000312;-0.018343;-0.379435;,
 0.000312;-0.018343;-0.379435;,
 -0.017284;0.024249;-0.479583;,
 -0.017284;0.024249;-0.479583;,
 -0.021064;0.029490;-0.450715;,
 -0.021064;0.029490;-0.450715;,
 -0.021064;0.029490;-0.450715;,
 -0.010752;0.015497;-0.379668;,
 -0.010752;0.015497;-0.379668;,
 -0.010752;0.015497;-0.379668;,
 0.017423;0.024314;-0.479474;,
 0.017423;0.024314;-0.479474;,
 0.021279;0.029569;-0.450581;,
 0.021279;0.029569;-0.450581;,
 0.021279;0.029569;-0.450581;,
 0.011252;0.015538;-0.379599;,
 0.011252;0.015538;-0.379599;,
 0.011252;0.015538;-0.379599;,
 0.028208;-0.008674;-0.479246;,
 0.028208;-0.008674;-0.479246;,
 0.034436;-0.010676;-0.450303;,
 0.034436;-0.010676;-0.450303;,
 0.034436;-0.010676;-0.450303;,
 0.018090;-0.005376;-0.379455;,
 0.018090;-0.005376;-0.379455;,
 0.018090;-0.005376;-0.379455;,
 0.000862;-0.018418;-0.046054;,
 0.000862;-0.018418;-0.046054;,
 0.000862;-0.018418;-0.046054;,
 -0.016963;-0.005517;-0.046185;,
 -0.016963;-0.005517;-0.046185;,
 -0.016963;-0.005517;-0.046185;,
 -0.021532;-0.007221;0.229149;,
 -0.021532;-0.007221;0.229149;,
 0.001326;-0.023764;0.229318;,
 0.001326;-0.023764;0.229318;,
 -0.010201;0.015422;-0.046287;,
 -0.010201;0.015422;-0.046287;,
 -0.010201;0.015422;-0.046287;,
 -0.012861;0.019631;0.229018;,
 -0.012861;0.019631;0.229018;,
 0.011803;0.015463;-0.046218;,
 0.011803;0.015463;-0.046218;,
 0.011803;0.015463;-0.046218;,
 0.015356;0.019683;0.229107;,
 0.015356;0.019683;0.229107;,
 0.018640;-0.005451;-0.046073;,
 0.018640;-0.005451;-0.046073;,
 0.018640;-0.005451;-0.046073;,
 0.024124;-0.007136;0.229292;,
 0.024124;-0.007136;0.229292;,
 0.023819;-0.007116;-0.023293;,
 0.023819;-0.007116;-0.023293;,
 0.023819;-0.007116;-0.023293;,
 0.015008;0.019835;-0.023479;,
 0.015008;0.019835;-0.023479;,
 0.015008;0.019835;-0.023479;,
 -0.013347;0.019782;-0.023568;,
 -0.013347;0.019782;-0.023568;,
 -0.013347;0.019782;-0.023568;,
 0.000909;-0.023825;-0.023267;,
 0.000909;-0.023825;-0.023267;,
 0.000909;-0.023825;-0.023267;,
 -0.022061;-0.007201;-0.023437;,
 -0.022061;-0.007201;-0.023437;,
 -0.022061;-0.007201;-0.023437;,
 0.015127;0.050297;0.102635;,
 0.015127;0.050297;0.102635;,
 -0.013159;0.050245;0.102546;,
 -0.013159;0.050245;0.102546;,
 0.015040;0.050335;0.039488;,
 0.015040;0.050335;0.039488;,
 -0.013281;0.050283;0.039399;,
 -0.013281;0.050283;0.039399;,
 -0.013281;0.050283;0.039399;,
 0.015040;0.050335;0.039488;,
 -0.013159;0.050245;0.102546;,
 0.015127;0.050297;0.102635;,
 -0.022061;-0.007201;-0.023437;,
 0.000909;-0.023825;-0.023267;,
 -0.013347;0.019782;-0.023568;,
 0.015008;0.019835;-0.023479;,
 0.023819;-0.007116;-0.023293;,
 0.024124;-0.007136;0.229292;,
 0.018640;-0.005451;-0.046073;,
 0.015356;0.019683;0.229107;,
 0.011803;0.015463;-0.046218;,
 -0.012861;0.019631;0.229018;,
 -0.010201;0.015422;-0.046287;,
 0.001326;-0.023764;0.229318;,
 -0.021532;-0.007221;0.229149;,
 -0.016963;-0.005517;-0.046185;,
 0.000862;-0.018418;-0.046054;,
 0.018090;-0.005376;-0.379455;,
 0.034436;-0.010676;-0.450303;,
 0.028208;-0.008674;-0.479246;,
 0.011252;0.015538;-0.379599;,
 0.021279;0.029569;-0.450581;,
 0.017423;0.024314;-0.479474;,
 -0.010752;0.015497;-0.379668;,
 -0.021064;0.029490;-0.450715;,
 -0.017284;0.024249;-0.479583;,
 0.000312;-0.018343;-0.379435;,
 -0.017514;-0.005443;-0.379567;,
 0.000226;-0.035628;-0.450265;,
 -0.034075;-0.010804;-0.450519;,
 0.000166;-0.029126;-0.479214;,
 -0.027949;-0.008779;-0.479423;;

 29;
 5;1,17,25,33,3;,
 4;9,6,0,2;,
 4;5,8,15,12;,
 4;4,20,16,121;,
 4;19,119,11,23;,
 4;18,28,24,115;,
 4;27,114,22,31;,
 4;26,36,32,112;,
 4;35,111,30,39;,
 4;34,7,120,109;,
 4;118,108,38,14;,
 4;49,47,79,76;,
 4;10,13,42,45;,
 6;46,54,83,87,73,78;,
 4;21,117,44,52;,
 5;48,64,59,53,104;,
 4;82,101,58,81;,
 4;29,113,51,57;,
 6;85,80,99,63,67,70;,
 4;37,110,56,62;,
 4;97,103,75,66;,
 4;116,107,61,41;,
 4;77,43,40,74;,
 4;93,106,60,65;,
 4;96,98,55,69;,
 4;68,100,50,72;,
 4;71,102,105,92;,
 4;84,95,94,86;,
 4;88,90,91,89;;

 MeshMaterialList {
  1;
  29;
  0,
  0,
  0,
  0,
  0,
  0,
  0,
  0,
  0,
  0,
  0,
  0,
  0,
  0,
  0,
  0,
  0,
  0,
  0,
  0,
  0,
  0,
  0,
  0,
  0,
  0,
  0,
  0,
  0;
Material {
 1.000000;1.000000;1.000000;1.000000;;
 0.000000;
 1.000000;1.000000;1.000000;;
 0.0; 0.0; 0.0;;
 TextureFilename {
  "fig13.ppm";
 }
 }
}
 MeshNormals {
  122;
  -0.883801;-0.291475;-0.365977;,
  -0.883801;-0.291475;-0.365977;,
  0.002887;-0.930423;-0.366475;,
  0.002887;-0.930423;-0.366475;,
  -0.950460;-0.310669;0.010483;,
  -0.950460;-0.310669;0.010483;,
  -0.950460;-0.310669;0.010483;,
  0.001832;-0.999956;0.009214;,
  0.001832;-0.999956;0.009214;,
  0.001832;-0.999956;0.009214;,
  -0.945622;-0.308446;0.103249;,
  -0.945622;-0.308446;0.103249;,
  -0.945622;-0.308446;0.103249;,
  0.001532;-0.994822;0.101619;,
  0.001532;-0.994822;0.101619;,
  0.001532;-0.994822;0.101619;,
  -0.548438;0.751389;-0.366921;,
  -0.548438;0.751389;-0.366921;,
  -0.589233;0.807903;0.009871;,
  -0.589233;0.807903;0.009871;,
  -0.589233;0.807903;0.009871;,
  -0.586069;0.803707;0.102847;,
  -0.586069;0.803707;0.102847;,
  -0.586069;0.803707;0.102847;,
  0.546922;0.751948;-0.368036;,
  0.546922;0.751948;-0.368036;,
  0.586224;0.810107;0.008225;,
  0.586224;0.810107;0.008225;,
  0.586224;0.810107;0.008225;,
  0.582796;0.806320;0.100980;,
  0.582796;0.806320;0.100980;,
  0.582796;0.806320;0.100980;,
  0.884410;-0.287375;-0.367743;,
  0.884410;-0.287375;-0.367743;,
  0.951597;-0.307249;0.007818;,
  0.951597;-0.307249;0.007818;,
  0.951597;-0.307249;0.007818;,
  0.946966;-0.305306;0.100215;,
  0.946966;-0.305306;0.100215;,
  0.946966;-0.305306;0.100215;,
  0.002167;-0.994986;-0.099995;,
  0.002167;-0.994986;-0.099995;,
  0.002167;-0.994986;-0.099995;,
  -0.945681;-0.309858;-0.098367;,
  -0.945681;-0.309858;-0.098367;,
  -0.945681;-0.309858;-0.098367;,
  -0.800060;-0.315137;0.510483;,
  -0.800060;-0.315137;0.510483;,
  -0.000096;-0.849708;0.527254;,
  -0.000096;-0.849708;0.527254;,
  -0.586461;0.803935;-0.098757;,
  -0.586461;0.803935;-0.098757;,
  -0.586461;0.803935;-0.098757;,
  -0.415656;0.811473;0.410781;,
  -0.415656;0.811473;0.410781;,
  0.583797;0.805638;-0.100638;,
  0.583797;0.805638;-0.100638;,
  0.583797;0.805638;-0.100638;,
  0.410740;0.814317;0.410098;,
  0.410740;0.814317;0.410098;,
  0.946566;-0.306155;-0.101397;,
  0.946566;-0.306155;-0.101397;,
  0.946566;-0.306155;-0.101397;,
  0.801138;-0.313451;0.509831;,
  0.801138;-0.313451;0.509831;,
  0.934808;-0.341149;-0.098745;,
  0.934808;-0.341149;-0.098745;,
  0.934808;-0.341149;-0.098745;,
  0.721670;0.661644;-0.203519;,
  0.721670;0.661644;-0.203519;,
  0.721670;0.661644;-0.203519;,
  -0.723830;0.659929;-0.201405;,
  -0.723830;0.659929;-0.201405;,
  -0.723830;0.659929;-0.201405;,
  0.002167;-0.995012;-0.099730;,
  0.002167;-0.995012;-0.099730;,
  0.002167;-0.995012;-0.099730;,
  -0.933768;-0.344831;-0.095748;,
  -0.933768;-0.344831;-0.095748;,
  -0.933768;-0.344831;-0.095748;,
  0.408053;0.909537;0.078968;,
  0.408053;0.909537;0.078968;,
  -0.411784;0.907737;0.080294;,
  -0.411784;0.907737;0.080294;,
  0.417357;0.889516;-0.185942;,
  0.417357;0.889516;-0.185942;,
  -0.419786;0.888633;-0.184691;,
  -0.419786;0.888633;-0.184691;,
  -0.419786;0.888633;-0.184691;,
  0.417357;0.889516;-0.185942;,
  -0.411784;0.907737;0.080294;,
  0.408053;0.909537;0.078968;,
  -0.933768;-0.344831;-0.095748;,
  0.002167;-0.995012;-0.099730;,
  -0.723830;0.659929;-0.201405;,
  0.721670;0.661644;-0.203519;,
  0.934808;-0.341149;-0.098745;,
  0.801138;-0.313451;0.509831;,
  0.946566;-0.306155;-0.101397;,
  0.410740;0.814317;0.410098;,
  0.583797;0.805638;-0.100638;,
  -0.415656;0.811473;0.410781;,
  -0.586461;0.803935;-0.098757;,
  -0.000096;-0.849708;0.527254;,
  -0.800060;-0.315137;0.510483;,
  -0.945681;-0.309858;-0.098367;,
  0.002167;-0.994986;-0.099995;,
  0.946966;-0.305306;0.100215;,
  0.951597;-0.307249;0.007818;,
  0.884410;-0.287375;-0.367743;,
  0.582796;0.806320;0.100980;,
  0.586224;0.810107;0.008225;,
  0.546922;0.751948;-0.368036;,
  -0.586069;0.803707;0.102847;,
  -0.589233;0.807903;0.009871;,
  -0.548438;0.751389;-0.366921;,
  0.001532;-0.994822;0.101619;,
  -0.945622;-0.308446;0.103249;,
  0.001832;-0.999956;0.009214;,
  -0.950460;-0.310669;0.010483;,
  0.002887;-0.930423;-0.366475;,
  -0.883801;-0.291475;-0.365977;;

  29;
  5;1,17,25,33,3;,
  4;9,6,0,2;,
  4;5,8,15,12;,
  4;4,20,16,121;,
  4;19,119,11,23;,
  4;18,28,24,115;,
  4;27,114,22,31;,
  4;26,36,32,112;,
  4;35,111,30,39;,
  4;34,7,120,109;,
  4;118,108,38,14;,
  4;49,47,79,76;,
  4;10,13,42,45;,
  6;46,54,83,87,73,78;,
  4;21,117,44,52;,
  5;48,64,59,53,104;,
  4;82,101,58,81;,
  4;29,113,51,57;,
  6;85,80,99,63,67,70;,
  4;37,110,56,62;,
  4;97,103,75,66;,
  4;116,107,61,41;,
  4;77,43,40,74;,
  4;93,106,60,65;,
  4;96,98,55,69;,
  4;68,100,50,72;,
  4;71,102,105,92;,
  4;84,95,94,86;,
  4;88,90,91,89;;
 }
 MeshTextureCoords { 
 122;
 0.867872;0.355430;,
 0.969954;0.771894;,
 0.842476;0.317439;,
 0.997363;0.697628;,
 0.936916;0.261259;,
 0.377445;0.472236;,
 0.956252;0.287551;,
 0.956252;0.287551;,
 0.326027;0.473901;,
 0.936916;0.261259;,
 0.031530;0.994915;,
 0.336771;0.603826;,
 0.368449;0.603357;,
 0.031530;0.899616;,
 0.368449;0.603357;,
 0.336771;0.603826;,
 0.867872;0.355430;,
 0.928223;0.748633;,
 0.936916;0.261259;,
 0.377445;0.472236;,
 0.956252;0.287551;,
 0.031530;0.994915;,
 0.336771;0.603826;,
 0.368449;0.603357;,
 0.867872;0.355430;,
 0.924577;0.653237;,
 0.936916;0.261259;,
 0.377445;0.472236;,
 0.956252;0.287551;,
 0.031530;0.994915;,
 0.336771;0.603826;,
 0.368449;0.603357;,
 0.867872;0.355430;,
 0.971861;0.623298;,
 0.936916;0.261259;,
 0.377445;0.472236;,
 0.956252;0.287551;,
 0.031530;0.994915;,
 0.336771;0.603826;,
 0.368449;0.603357;,
 0.910421;0.374905;,
 0.407923;0.994915;,
 0.407923;0.899616;,
 0.910421;0.269626;,
 0.407923;0.899616;,
 0.407923;0.994915;,
 0.601563;0.547603;,
 0.601563;0.807866;,
 0.687051;0.738196;,
 0.601563;0.742916;,
 0.910421;0.374905;,
 0.407923;0.899616;,
 0.407923;0.994915;,
 0.635603;0.778893;,
 0.601563;0.612553;,
 0.910421;0.374905;,
 0.407923;0.899616;,
 0.407923;0.994915;,
 0.601563;0.723384;,
 0.635354;0.716033;,
 0.910421;0.374905;,
 0.407923;0.899616;,
 0.407923;0.994915;,
 0.601563;0.547603;,
 0.664829;0.685929;,
 0.888407;0.389696;,
 0.447266;0.807866;,
 0.447266;0.547603;,
 0.888407;0.254835;,
 0.888407;0.389696;,
 0.447266;0.612553;,
 0.888407;0.254835;,
 0.888407;0.389696;,
 0.447266;0.612553;,
 0.888407;0.389696;,
 0.447266;0.742916;,
 0.447266;0.742916;,
 0.888407;0.254835;,
 0.447266;0.547603;,
 0.447266;0.807866;,
 0.524740;0.611979;,
 0.523438;0.723384;,
 0.523438;0.788334;,
 0.524740;0.611979;,
 0.656576;0.406978;,
 0.524414;0.580078;,
 0.655924;0.472579;,
 0.524414;0.580078;,
 0.537415;0.437012;,
 0.537740;0.370714;,
 0.581645;0.436361;,
 0.581970;0.370714;,
 0.888407;0.389696;,
 0.888407;0.254835;,
 0.624023;0.472579;,
 0.624023;0.406978;,
 0.888407;0.254835;,
 0.601563;0.807866;,
 0.910421;0.269626;,
 0.601563;0.612553;,
 0.910421;0.269626;,
 0.601563;0.788334;,
 0.910421;0.269626;,
 0.601563;0.742916;,
 0.671501;0.790259;,
 0.910421;0.374905;,
 0.910421;0.269626;,
 0.031530;0.899616;,
 0.326027;0.473901;,
 0.842476;0.317439;,
 0.031530;0.899616;,
 0.326027;0.473901;,
 0.842476;0.317439;,
 0.031530;0.899616;,
 0.326027;0.473901;,
 0.842476;0.317439;,
 0.031530;0.994915;,
 0.031530;0.899616;,
 0.377445;0.472236;,
 0.326027;0.473901;,
 0.867872;0.355430;,
 0.842476;0.317439;;
 }
}
Frame frm-wepemt {
  FrameTransformMatrix {
1.000000,0.000000,0.000000,0.000000,
0.000000,1.000000,0.000000,0.000000,
0.000000,0.000000,1.000000,0.000000,
0.000802,-0.000125,-0.468370,1.000000;;
 }
Mesh wepemt {
 8;
 0.000500;0.000500;-0.000500;,
 0.000500;0.000500;0.000500;,
 0.000500;-0.000500;-0.000500;,
 0.000500;-0.000500;0.000500;,
 -0.000500;0.000500;-0.000500;,
 -0.000500;0.000500;0.000500;,
 -0.000500;-0.000500;-0.000500;,
 -0.000500;-0.000500;0.000500;;

 6;
 4;5,4,6,7;,
 4;4,0,2,6;,
 4;0,1,3,2;,
 4;1,5,7,3;,
 4;7,6,2,3;,
 4;1,0,4,5;;

 MeshMaterialList {
  1;
  6;
  0,
  0,
  0,
  0,
  0,
  0;
Material {
 1.000000;1.000000;1.000000;1.000000;;
 0.000000;
 1.000000;1.000000;1.000000;;
 0.000000;0.000000;0.000000;;
 TextureFilename {
  "fig13.ppm";
 }
 }
}
 MeshNormals {
  8;
  0.577350;0.577350;-0.577350;,
  0.577350;0.577350;0.577350;,
  0.577350;-0.577350;-0.577350;,
  0.577350;-0.577350;0.577350;,
  -0.577350;0.577350;-0.577350;,
  -0.577350;0.577350;0.577350;,
  -0.577350;-0.577350;-0.577350;,
  -0.577350;-0.577350;0.577350;;

  6;
  4;5,4,6,7;,
  4;4,0,2,6;,
  4;0,1,3,2;,
  4;1,5,7,3;,
  4;7,6,2,3;,
  4;1,0,4,5;;
 }
 MeshTextureCoords { 
 8;
 0.000000;1.000000;,
 0.000000;1.000000;,
 0.000000;1.000000;,
 0.000000;1.000000;,
 0.000000;1.000000;,
 0.000000;1.000000;,
 0.000000;1.000000;,
 0.000000;1.000000;;
 }
}
}
}
}
Frame frm-lengine {
  FrameTransformMatrix {
0.891561,0.452900,0.000000,0.000000,
-0.452900,0.891561,0.000000,0.000000,
0.000000,0.000000,1.000000,0.000000,
0.203901,0.552883,0.344688,1.000000;;
 }
Mesh lengine {
 46;
 0.178305;-0.217557;0.664706;,
 0.178305;-0.217557;0.664706;,
 0.035738;-0.072428;-0.219779;,
 0.035738;-0.072428;-0.219779;,
 0.206941;-0.253718;-0.039253;,
 0.206941;-0.253718;-0.039253;,
 0.206941;-0.253718;-0.039253;,
 0.381260;-0.116890;-0.220064;,
 0.381260;-0.116890;-0.220064;,
 0.341831;-0.130599;0.666993;,
 0.341831;-0.130599;0.666993;,
 0.201189;-0.191900;-0.222117;,
 0.201189;-0.191900;-0.222117;,
 0.395882;0.077593;-0.215673;,
 0.395882;0.077593;-0.215673;,
 0.372997;0.051937;0.671150;,
 0.372997;0.051937;0.671150;,
 0.050358;0.122055;-0.215388;,
 0.050358;0.122055;-0.215388;,
 0.045945;-0.121979;0.666575;,
 0.045945;-0.121979;0.666575;,
 0.230430;0.197065;-0.213335;,
 0.230430;0.197065;-0.213335;,
 0.230430;0.197065;-0.213335;,
 0.240637;0.147514;0.673020;,
 0.240637;0.147514;0.673020;,
 0.077110;0.060557;0.670733;,
 0.077110;0.060557;0.670733;,
 0.077110;0.060557;0.670733;,
 -0.005959;0.138436;-0.030899;,
 0.240637;0.147514;0.673020;,
 0.215933;0.216627;-0.028688;,
 0.230430;0.197065;-0.213335;,
 0.045945;-0.121979;0.666575;,
 0.050358;0.122055;-0.215388;,
 0.372997;0.051937;0.671150;,
 0.433328;0.059646;-0.031760;,
 0.395882;0.077593;-0.215673;,
 0.201189;-0.191900;-0.222117;,
 -0.010454;-0.096737;-0.036182;,
 0.341831;-0.130599;0.666993;,
 0.428832;-0.175526;-0.037042;,
 0.381260;-0.116890;-0.220064;,
 0.206941;-0.253718;-0.039253;,
 0.035738;-0.072428;-0.219779;,
 0.178305;-0.217557;0.664706;;

 20;
 4;10,1,6,41;,
 4;8,14,36,41;,
 4;36,16,9,41;,
 4;5,0,20,39;,
 4;29,27,25,31;,
 4;18,3,39,29;,
 4;12,7,41,4;,
 4;13,23,31,36;,
 4;36,31,24,15;,
 4;2,11,43,39;,
 4;39,19,26,29;,
 3;42,38,44;,
 3;37,42,44;,
 3;22,37,44;,
 3;17,21,44;,
 3;45,40,35;,
 3;30,28,33;,
 3;33,45,35;,
 3;35,30,33;,
 4;31,32,34,29;;

 MeshMaterialList {
  3;
  20;
  0,
  0,
  0,
  0,
  0,
  0,
  0,
  0,
  0,
  0,
  0,
  1,
  1,
  1,
  1,
  2,
  2,
  2,
  2,
  0;
Material {
 1.000000;1.000000;1.000000;1.000000;;
 0.000000;
 1.000000;1.000000;1.000000;;
 0.0; 0.0; 0.0;;
 TextureFilename {
  "fig13.ppm";
 }
 }
Material {
 1.000000;1.000000;1.000000;1.000000;;
 0.000000;
 1.000000;1.000000;1.000000;;
 0.0; 0.0; 0.0;;
 TextureFilename {
  "fig13.ppm";
 }
 }
Material {
 1.000000;1.000000;1.000000;1.000000;;
 0.000000;
 1.000000;1.000000;1.000000;;
 0.0; 0.0; 0.0;;
 TextureFilename {
  "fig13.ppm";
 }
 }
}
 MeshNormals {
  46;
  -0.045118;-0.630414;0.774947;,
  -0.045118;-0.630414;0.774947;,
  -0.349066;-0.154877;-0.924211;,
  -0.349066;-0.154877;-0.924211;,
  -0.110578;-0.983891;-0.140469;,
  -0.110578;-0.983891;-0.140469;,
  -0.110578;-0.983891;-0.140469;,
  0.432985;-0.282917;-0.855852;,
  0.432985;-0.282917;-0.855852;,
  0.694535;-0.438456;0.570418;,
  0.694535;-0.438456;0.570418;,
  -0.113694;-0.732632;-0.671062;,
  -0.113694;-0.732632;-0.671062;,
  0.584109;0.311415;-0.749559;,
  0.584109;0.311415;-0.749559;,
  0.477979;0.220956;0.850126;,
  0.477979;0.220956;0.850126;,
  -0.612565;0.450561;-0.649430;,
  -0.612565;0.450561;-0.649430;,
  -0.481996;-0.259052;0.837002;,
  -0.481996;-0.259052;0.837002;,
  0.089738;0.668710;-0.738088;,
  0.089738;0.668710;-0.738088;,
  0.089738;0.668710;-0.738088;,
  0.073894;0.655996;0.751138;,
  0.073894;0.655996;0.751138;,
  -0.677814;0.441685;0.587777;,
  -0.677814;0.441685;0.587777;,
  -0.677814;0.441685;0.587777;,
  -0.821274;0.567559;-0.058187;,
  0.073894;0.655996;0.751138;,
  0.122774;0.992428;-0.003567;,
  0.089738;0.668710;-0.738088;,
  -0.481996;-0.259052;0.837002;,
  -0.612565;0.450561;-0.649430;,
  0.477979;0.220956;0.850126;,
  0.892784;0.449652;-0.027372;,
  0.584109;0.311415;-0.749559;,
  -0.113694;-0.732632;-0.671062;,
  -0.889731;-0.442773;-0.111043;,
  0.694535;-0.438456;0.570418;,
  0.829361;-0.547621;-0.110780;,
  0.432985;-0.282917;-0.855852;,
  -0.110578;-0.983891;-0.140469;,
  -0.349066;-0.154877;-0.924211;,
  -0.045118;-0.630414;0.774947;;

  20;
  4;10,1,6,41;,
  4;8,14,36,41;,
  4;36,16,9,41;,
  4;5,0,20,39;,
  4;29,27,25,31;,
  4;18,3,39,29;,
  4;12,7,41,4;,
  4;13,23,31,36;,
  4;36,31,24,15;,
  4;2,11,43,39;,
  4;39,19,26,29;,
  3;42,38,44;,
  3;37,42,44;,
  3;22,37,44;,
  3;17,21,44;,
  3;45,40,35;,
  3;30,28,33;,
  3;33,45,35;,
  3;35,30,33;,
  4;31,32,34,29;;
 }
 MeshTextureCoords { 
 46;
 0.598570;0.811638;,
 0.598570;0.536018;,
 0.442417;0.765701;,
 0.442417;0.765701;,
 0.473257;0.501533;,
 0.473647;0.839092;,
 0.473257;0.501533;,
 0.442417;0.581955;,
 0.442417;0.581955;,
 0.598570;0.581955;,
 0.598570;0.581955;,
 0.442417;0.811638;,
 0.442417;0.536018;,
 0.442417;0.627892;,
 0.442417;0.627892;,
 0.598570;0.627892;,
 0.598570;0.627892;,
 0.011786;0.033968;,
 0.442417;0.719765;,
 0.598570;0.765701;,
 0.598570;0.765701;,
 0.046745;0.006401;,
 0.046745;0.006401;,
 0.442417;0.673828;,
 0.598570;0.673828;,
 0.598570;0.673828;,
 0.598570;0.719765;,
 0.598570;0.719765;,
 0.938926;0.778954;,
 0.473647;0.777537;,
 0.912350;0.692957;,
 0.473647;0.673828;,
 0.442417;0.673828;,
 0.976160;0.778222;,
 0.442417;0.719765;,
 0.937170;0.620877;,
 0.473647;0.577151;,
 0.076876;0.037752;,
 0.045958;0.147265;,
 0.473647;0.821364;,
 0.975869;0.621122;,
 0.473647;0.536449;,
 0.075214;0.115860;,
 0.473647;0.839092;,
 0.011392;0.117193;,
 1.000980;0.692471;;
 }
}
Frame frm-lwingzz {
  FrameTransformMatrix {
1.000000,0.000000,0.000000,0.000000,
0.000000,1.000000,0.000000,0.000000,
0.000000,0.000000,1.000000,0.000000,
0.003293,0.004235,0.012835,1.000000;;
 }
Mesh lwingzz {
 6;
 0.642445;-0.370237;0.060038;,
 0.371984;-0.153590;0.385506;,
 0.389682;-0.185765;0.061598;,
 0.371984;-0.153590;0.385506;,
 0.642445;-0.370237;0.060038;,
 0.705495;-0.397617;0.385881;;

 2;
 3;0,5,1;,
 3;2,4,3;;

 MeshMaterialList {
  1;
  2;
  0,
  0;
Material {
 0.700000;0.700000;0.700000;1.000000;;
 0.000000;
 1.000000;1.000000;1.000000;;
 0.0; 0.0; 0.0;;
 TextureFilename {
  "fig13.ppm";
 }
 }
}
 MeshNormals {
  6;
  -0.589272;-0.806555;0.047201;,
  -0.589272;-0.806555;0.047201;,
  -0.588644;-0.806967;0.047997;,
  -0.589272;-0.806555;0.047201;,
  -0.589272;-0.806555;0.047201;,
  -0.589899;-0.806143;0.046405;;

  2;
  3;0,5,1;,
  3;2,4,3;;
 }
 MeshTextureCoords { 
 6;
 0.147302;0.863281;,
 0.000000;0.999843;,
 0.009639;0.863936;,
 0.000000;0.999843;,
 0.147302;0.863281;,
 0.181641;1.000000;;
 }
}
Frame frm-bool11 {
  FrameTransformMatrix {
1.000000,0.000000,0.000000,0.000000,
0.000000,1.000000,0.000000,0.000000,
0.000000,0.000000,1.000000,0.000000,
0.000000,0.000000,0.000000,1.000000;;
 }
Mesh bool11 {
 6;
 0.642445;-0.370237;0.060038;,
 0.371984;-0.153590;0.385506;,
 0.389682;-0.185765;0.061598;,
 0.371984;-0.153590;0.385506;,
 0.642445;-0.370237;0.060038;,
 0.705495;-0.397617;0.385881;;

 2;
 3;1,5,0;,
 3;3,4,2;;

 MeshMaterialList {
  1;
  2;
  0,
  0;
Material {
 0.700000;0.700000;0.700000;1.000000;;
 0.000000;
 1.000000;1.000000;1.000000;;
 0.0; 0.0; 0.0;;
 TextureFilename {
  "fig13.ppm";
 }
 }
}
 MeshNormals {
  6;
  0.589360;0.806497;-0.047088;,
  0.589360;0.806497;-0.047088;,
  0.589360;0.806497;-0.047088;,
  0.589360;0.806497;-0.047088;,
  0.589360;0.806497;-0.047088;,
  0.589360;0.806497;-0.047088;;

  2;
  3;1,5,0;,
  3;3,4,2;;
 }
 MeshTextureCoords { 
 6;
 0.147302;0.984660;,
 0.000000;0.863281;,
 0.009639;0.881308;,
 0.000000;0.863281;,
 0.147302;0.984660;,
 0.181641;1.000000;;
 }
}
}
Frame frm-Lfinzzz {
  FrameTransformMatrix {
0.085253,0.333471,0.145252,0.000000,
0.202422,0.080454,-0.303516,0.000000,
-0.302203,0.147964,-0.162325,0.000000,
0.729532,-0.291506,0.261180,1.000000;;
 }
Mesh Lfinzzz {
 18;
 -0.697299;-0.039208;0.010663;,
 -0.697299;-0.039208;0.010663;,
 0.697265;0.821432;-0.225983;,
 0.697265;0.821432;-0.225983;,
 0.012855;0.850326;-0.233994;,
 0.012855;0.850326;-0.233994;,
 0.030049;-0.858953;0.237558;,
 0.030049;-0.858953;0.237558;,
 0.030253;-0.862072;0.270559;,
 0.030253;-0.862072;0.270559;,
 -0.697232;-0.039876;0.026879;,
 -0.697232;-0.039876;0.026879;,
 -0.697232;-0.039876;0.026879;,
 0.030253;-0.862072;0.270559;,
 0.030049;-0.858953;0.237558;,
 0.012855;0.850326;-0.233994;,
 0.697265;0.821432;-0.225983;,
 -0.697299;-0.039208;0.010663;;

 5;
 4;7,9,11,1;,
 4;10,8,3,5;,
 3;13,6,2;,
 4;16,14,0,4;,
 3;15,17,12;;

 MeshMaterialList {
  1;
  5;
  0,
  0,
  0,
  0,
  0;
Material {
 1.000000;1.000000;1.000000;1.000000;;
 0.000000;
 1.000000;1.000000;1.000000;;
 0.0; 0.0; 0.0;;
 TextureFilename {
  "fig13.ppm";
 }
 }
}
 MeshNormals {
  18;
  -0.827580;-0.167657;-0.535726;,
  -0.827580;-0.167657;-0.535726;,
  0.930195;-0.364105;-0.046538;,
  0.930195;-0.364105;-0.046538;,
  -0.769254;0.638490;0.024070;,
  -0.769254;0.638490;0.024070;,
  0.108802;-0.775853;-0.621462;,
  0.108802;-0.775853;-0.621462;,
  0.156063;-0.652595;0.741460;,
  0.156063;-0.652595;0.741460;,
  -0.842452;0.133758;0.521903;,
  -0.842452;0.133758;0.521903;,
  -0.842452;0.133758;0.521903;,
  0.156063;-0.652595;0.741460;,
  0.108802;-0.775853;-0.621462;,
  -0.769254;0.638490;0.024070;,
  0.930195;-0.364105;-0.046538;,
  -0.827580;-0.167657;-0.535726;;

  5;
  4;7,9,11,1;,
  4;10,8,3,5;,
  3;13,6,2;,
  4;16,14,0,4;,
  3;15,17,12;;
 }
 MeshTextureCoords { 
 18;
 0.172488;0.351040;,
 0.173828;0.341092;,
 0.173828;0.341092;,
 0.356692;0.029139;,
 0.231592;0.133960;,
 0.387842;0.153491;,
 0.169996;0.341929;,
 0.171322;0.342257;,
 0.215963;0.310287;,
 0.170143;0.343750;,
 0.328738;0.370571;,
 0.169996;0.341929;,
 0.173828;0.341092;,
 0.170143;0.343750;,
 0.059713;0.290756;,
 0.170143;0.343750;,
 0.200442;0.009608;,
 0.169996;0.341929;;
 }
}
Frame frm-SSar1_1_3 {
  FrameTransformMatrix {
0.001317,0.000000,0.000000,0.000000,
0.000000,-0.001242,0.000437,0.000000,
0.000000,-0.000437,-0.001242,0.000000,
0.290339,-1.525193,-1.501961,1.000000;;
 }
Mesh SSar1_1_3 {
 4;
 164.616638;1.395314;4.659282;,
 164.616623;1.395306;4.659288;,
 164.616623;1.395314;4.659273;,
 164.616623;1.395299;4.659277;;

 4;
 3;3,1,2;,
 3;1,0,2;,
 3;0,3,2;,
 3;0,1,3;;

 MeshMaterialList {
  1;
  4;
  0,
  0,
  0,
  0;
Material {
 0.000000;1.000000;0.000000;0.500000;;
 0.000000;
 0.000000;1.000000;0.000000;;
 0.0; 0.0; 0.0;;
 }
}
 MeshNormals {
  4;
  0.816880;0.503551;0.281325;,
  -0.736214;-0.162415;0.656971;,
  -0.497443;0.695605;-0.518348;,
  0.390821;-0.917922;-0.068400;;

  4;
  3;3,1,2;,
  3;1,0,2;,
  3;0,3,2;,
  3;0,1,3;;
 }
 MeshTextureCoords { 
 4;
 0.000000;0.000000;,
 0.000000;0.000000;,
 0.000000;0.000000;,
 0.000000;0.000000;;
 }
}
}
Frame frm-SSal {
  FrameTransformMatrix {
-0.000450,0.000877,-0.002039,0.000000,
-0.001246,0.001621,0.000973,0.000000,
0.001837,0.001316,0.000160,0.000000,
0.702630,0.838988,-0.236168,1.000000;;
 }
Mesh SSal {
 4;
 -0.027344;0.035411;-0.018300;,
 0.018494;0.034160;-0.024831;,
 -0.004456;-0.028005;-0.021657;,
 0.006165;-0.003224;0.030070;;

 4;
 3;2,1,3;,
 3;2,0,1;,
 3;2,3,0;,
 3;3,1,0;;

 MeshMaterialList {
  1;
  4;
  0,
  0,
  0,
  0;
Material {
 1.000000;0.000000;0.000000;0.500000;;
 0.000000;
 1.000000;0.000000;0.000000;;
 0.0; 0.0; 0.0;;
 }
}
 MeshNormals {
  4;
  -0.884514;0.461106;-0.070826;,
  0.814832;0.421033;-0.398472;,
  -0.084487;-0.707687;-0.701456;,
  0.178503;0.140227;0.973896;;

  4;
  3;2,1,3;,
  3;2,0,1;,
  3;2,3,0;,
  3;3,1,0;;
 }
 MeshTextureCoords { 
 4;
 0.000000;0.000000;,
 0.000000;0.000000;,
 0.000000;0.000000;,
 0.000000;0.000000;;
 }
}
}
}
}
Frame frm-lthrust {
  FrameTransformMatrix {
0.891561,-0.452900,0.000000,0.000000,
0.452900,0.891561,0.000000,0.000000,
0.000000,0.000000,1.000000,0.000000,
0.240871,-0.031713,0.668477,1.000000;;
 }
Mesh lthrust {
 8;
 0.000500;0.000500;-0.000500;,
 0.000500;0.000500;0.000500;,
 0.000500;-0.000500;-0.000500;,
 0.000500;-0.000500;0.000500;,
 -0.000500;0.000500;-0.000500;,
 -0.000500;0.000500;0.000500;,
 -0.000500;-0.000500;-0.000500;,
 -0.000500;-0.000500;0.000500;;

 6;
 4;5,4,6,7;,
 4;4,0,2,6;,
 4;0,1,3,2;,
 4;1,5,7,3;,
 4;7,6,2,3;,
 4;1,0,4,5;;

 MeshMaterialList {
  1;
  6;
  0,
  0,
  0,
  0,
  0,
  0;
Material {
 1.000000;1.000000;1.000000;1.000000;;
 0.000000;
 1.000000;1.000000;1.000000;;
 0.000000;0.000000;0.000000;;
 TextureFilename {
  "fig13.ppm";
 }
 }
}
 MeshNormals {
  8;
  0.577350;0.577350;-0.577350;,
  0.577350;0.577350;0.577350;,
  0.577350;-0.577350;-0.577350;,
  0.577350;-0.577350;0.577350;,
  -0.577350;0.577350;-0.577350;,
  -0.577350;0.577350;0.577350;,
  -0.577350;-0.577350;-0.577350;,
  -0.577350;-0.577350;0.577350;;

  6;
  4;5,4,6,7;,
  4;4,0,2,6;,
  4;0,1,3,2;,
  4;1,5,7,3;,
  4;7,6,2,3;,
  4;1,0,4,5;;
 }
 MeshTextureCoords { 
 8;
 0.000000;1.000000;,
 0.000000;1.000000;,
 0.000000;1.000000;,
 0.000000;1.000000;,
 0.000000;1.000000;,
 0.000000;1.000000;,
 0.000000;1.000000;,
 0.000000;1.000000;;
 }
}
}
}
}
AnimationSet {
 Animation anim-cockpt {
  {frm-cockpt}
  AnimationKey {
  2;
  2;
  1; 3; 0.000000, 0.285174, -0.589360;;,
  91; 3; 0.000000, 0.285174, -0.589360;;;
  }
 }
 Animation anim-trail {
  {frm-trail}
  AnimationKey {
  2;
  2;
  1; 3; 0.000000, 0.609943, 1.017704;;,
  91; 3; 0.000000, 0.609943, 1.017704;;;
  }
 }
 Animation anim-lengine1 {
  {frm-lengine1}
  AnimationKey {
  0;
  2;
  1; 4; 0.972513, 0.000000, 0.000000, -0.232850;;,
  91; 4; 0.972513, 0.000000, 0.000000, -0.232850;;;
  }
  AnimationKey {
  2;
  2;
  1; 3; -0.211166, 0.552456, 0.345858;;,
  91; 3; -0.211166, 0.552456, 0.345858;;;
  }
 }
 Animation anim-rwingzz {
  {frm-rwingzz}
  AnimationKey {
  0;
  2;
  1; 4; -0.000000, -0.452880, -0.891572, -0.000000;;,
  91; 4; -0.000000, -0.452880, -0.891572, -0.000000;;;
  }
  AnimationKey {
  2;
  2;
  1; 3; 0.036472, -0.023853, -0.009144;;,
  91; 3; 0.036472, -0.023853, -0.009144;;;
  }
 }
 Animation anim-Lfinzzz1 {
  {frm-Lfinzzz1}
  AnimationKey {
  0;
  2;
  1; 4; 0.502258, 0.601528, 0.596166, -0.174604;;,
  91; 4; 0.502258, 0.601528, 0.596166, -0.174604;;;
  }
  AnimationKey {
  1;
  2;
  1; 3; 0.373590, 0.373590, 0.373590;;,
  91; 3; 0.373590, 0.373590, 0.373590;;;
  }
  AnimationKey {
  2;
  2;
  1; 3; 0.727911, -0.278970, -0.281988;;,
  91; 3; 0.727911, -0.278970, -0.281988;;;
  }
 }
 Animation anim-SSar {
  {frm-SSar}
  AnimationKey {
  0;
  2;
  1; 4; 0.630013, 0.060281, -0.678798, -0.372403;;,
  91; 4; 0.630013, 0.060281, -0.678798, -0.372403;;;
  }
  AnimationKey {
  1;
  2;
  1; 3; 0.002265, 0.002265, 0.002265;;,
  91; 3; 0.002265, 0.002265, 0.002265;;;
  }
  AnimationKey {
  2;
  2;
  1; 3; 0.321956, 0.751862, 0.232312;;,
  91; 3; 0.321956, 0.751862, 0.232312;;;
  }
 }
 Animation anim-SSar1_1_8 {
  {frm-SSar1_1_8}
  AnimationKey {
  0;
  2;
  1; 4; 0.168405, 0.985718, 0.000000, 0.000000;;,
  91; 4; 0.168405, 0.985718, 0.000000, 0.000000;;;
  }
  AnimationKey {
  1;
  2;
  1; 3; 0.001317, 0.001317, 0.001317;;,
  91; 3; 0.001317, 0.001317, 0.001317;;;
  }
  AnimationKey {
  2;
  2;
  1; 3; 0.551473, -1.544273, 1.580283;;,
  91; 3; 0.551473, -1.544273, 1.580283;;;
  }
 }
 Animation anim-rthrust {
  {frm-rthrust}
  AnimationKey {
  0;
  2;
  1; 4; 0.972513, 0.000000, 0.000000, 0.232850;;,
  91; 4; 0.972513, 0.000000, 0.000000, 0.232850;;;
  }
  AnimationKey {
  2;
  2;
  1; 3; -0.161725, 0.171480, 0.668050;;,
  91; 3; -0.161725, 0.171480, 0.668050;;;
  }
 }
 Animation anim-SSf {
  {frm-SSf}
  AnimationKey {
  0;
  2;
  1; 4; 0.999913, 0.013101, -0.000466, 0.001244;;,
  91; 4; 0.999913, 0.013101, -0.000466, 0.001244;;;
  }
  AnimationKey {
  1;
  2;
  1; 3; 0.002265, 0.002265, 0.002265;;,
  91; 3; 0.002265, 0.002265, 0.002265;;;
  }
  AnimationKey {
  2;
  2;
  1; 3; -0.003780, -0.188066, -1.104283;;,
  91; 3; -0.003780, -0.188066, -1.104283;;;
  }
 }
 Animation anim-afuselg {
  {frm-afuselg}
  AnimationKey {
  2;
  2;
  1; 3; -0.003060, -0.521123, -0.250555;;,
  91; 3; -0.003060, -0.521123, -0.250555;;;
  }
 }
 Animation anim-l-gun {
  {frm-l-gun}
  AnimationKey {
  2;
  2;
  1; 3; -0.000802, -0.514978, -0.676620;;,
  91; 3; -0.000802, -0.514978, -0.676620;;;
  }
 }
 Animation anim-wepemt {
  {frm-wepemt}
  AnimationKey {
  2;
  2;
  1; 3; 0.000802, -0.000125, -0.468370;;,
  91; 3; 0.000802, -0.000125, -0.468370;;;
  }
 }
 Animation anim-lengine {
  {frm-lengine}
  AnimationKey {
  0;
  2;
  1; 4; 0.972513, 0.000000, 0.000000, -0.232850;;,
  91; 4; 0.972513, 0.000000, 0.000000, -0.232850;;;
  }
  AnimationKey {
  2;
  2;
  1; 3; 0.203901, 0.552883, 0.344688;;,
  91; 3; 0.203901, 0.552883, 0.344688;;;
  }
 }
 Animation anim-lwingzz {
  {frm-lwingzz}
  AnimationKey {
  2;
  2;
  1; 3; 0.003293, 0.004235, 0.012835;;,
  91; 3; 0.003293, 0.004235, 0.012835;;;
  }
 }
 Animation anim-Lfinzzz {
  {frm-Lfinzzz}
  AnimationKey {
  0;
  2;
  1; 4; 0.502258, -0.601528, -0.596166, -0.174604;;,
  91; 4; 0.502258, -0.601528, -0.596166, -0.174604;;;
  }
  AnimationKey {
  1;
  2;
  1; 3; 0.373590, 0.373590, 0.373590;;,
  91; 3; 0.373590, 0.373590, 0.373590;;;
  }
  AnimationKey {
  2;
  2;
  1; 3; 0.729532, -0.291506, 0.261180;;,
  91; 3; 0.729532, -0.291506, 0.261180;;;
  }
 }
 Animation anim-SSar1_1_3 {
  {frm-SSar1_1_3}
  AnimationKey {
  0;
  2;
  1; 4; 0.168405, 0.985718, 0.000000, 0.000000;;,
  91; 4; 0.168405, 0.985718, 0.000000, 0.000000;;;
  }
  AnimationKey {
  1;
  2;
  1; 3; 0.001317, 0.001317, 0.001317;;,
  91; 3; 0.001317, 0.001317, 0.001317;;;
  }
  AnimationKey {
  2;
  2;
  1; 3; 0.290339, -1.525193, -1.501961;;,
  91; 3; 0.290339, -1.525193, -1.501961;;;
  }
 }
 Animation anim-SSal {
  {frm-SSal}
  AnimationKey {
  0;
  2;
  1; 4; 0.630041, -0.059987, 0.678971, -0.372087;;,
  91; 4; 0.630041, -0.059987, 0.678971, -0.372087;;;
  }
  AnimationKey {
  1;
  2;
  1; 3; 0.002265, 0.002265, 0.002265;;,
  91; 3; 0.002265, 0.002265, 0.002265;;;
  }
  AnimationKey {
  2;
  2;
  1; 3; 0.702630, 0.838988, -0.236168;;,
  91; 3; 0.702630, 0.838988, -0.236168;;;
  }
 }
 Animation anim-lthrust {
  {frm-lthrust}
  AnimationKey {
  0;
  2;
  1; 4; 0.972513, 0.000000, 0.000000, 0.232850;;,
  91; 4; 0.972513, 0.000000, 0.000000, 0.232850;;;
  }
  AnimationKey {
  2;
  2;
  1; 3; 0.240871, -0.031713, 0.668477;;,
  91; 3; 0.240871, -0.031713, 0.668477;;;
  }
 }
}
