xof 0302txt 0032
template Header {
 <3D82AB43-62DA-11cf-AB39-0020AF71E433>
 WORD major;
 WORD minor;
 DWORD flags;
}

template Vector {
 <3D82AB5E-62DA-11cf-AB39-0020AF71E433>
 FLOAT x;
 FLOAT y;
 FLOAT z;
}

template Coords2d {
 <F6F23F44-7686-11cf-8F52-0040333594A3>
 FLOAT u;
 FLOAT v;
}

template Matrix4x4 {
 <F6F23F45-7686-11cf-8F52-0040333594A3>
 array FLOAT matrix[16];
}

template ColorRGBA {
 <35FF44E0-6C7C-11cf-8F52-0040333594A3>
 FLOAT red;
 FLOAT green;
 FLOAT blue;
 FLOAT alpha;
}

template ColorRGB {
 <D3E16E81-7835-11cf-8F52-0040333594A3>
 FLOAT red;
 FLOAT green;
 FLOAT blue;
}

template TextureFilename {
 <A42790E1-7810-11cf-8F52-0040333594A3>
 STRING filename;
}

template Material {
 <3D82AB4D-62DA-11cf-AB39-0020AF71E433>
 ColorRGBA faceColor;
 FLOAT power;
 ColorRGB specularColor;
 ColorRGB emissiveColor;
 [...]
}

template MeshFace {
 <3D82AB5F-62DA-11cf-AB39-0020AF71E433>
 DWORD nFaceVertexIndices;
 array DWORD faceVertexIndices[nFaceVertexIndices];
}

template MeshTextureCoords {
 <F6F23F40-7686-11cf-8F52-0040333594A3>
 DWORD nTextureCoords;
 array Coords2d textureCoords[nTextureCoords];
}

template MeshMaterialList {
 <F6F23F42-7686-11cf-8F52-0040333594A3>
 DWORD nMaterials;
 DWORD nFaceIndexes;
 array DWORD faceIndexes[nFaceIndexes];
 [Material]
}

template MeshNormals {
 <F6F23F43-7686-11cf-8F52-0040333594A3>
 DWORD nNormals;
 array Vector normals[nNormals];
 DWORD nFaceNormals;
 array MeshFace faceNormals[nFaceNormals];
}

template Mesh {
 <3D82AB44-62DA-11cf-AB39-0020AF71E433>
 DWORD nVertices;
 array Vector vertices[nVertices];
 DWORD nFaces;
 array MeshFace faces[nFaces];
 [...]
}

template FrameTransformMatrix {
 <F6F23F41-7686-11cf-8F52-0040333594A3>
 Matrix4x4 frameMatrix;
}

template Frame {
 <3D82AB46-62DA-11cf-AB39-0020AF71E433>
 [...]
}
template FloatKeys {
 <10DD46A9-775B-11cf-8F52-0040333594A3>
 DWORD nValues;
 array FLOAT values[nValues];
}

template TimedFloatKeys {
 <F406B180-7B3B-11cf-8F52-0040333594A3>
 DWORD time;
 FloatKeys tfkeys;
}

template AnimationKey {
 <10DD46A8-775B-11cf-8F52-0040333594A3>
 DWORD keyType;
 DWORD nKeys;
 array TimedFloatKeys keys[nKeys];
}

template AnimationOptions {
 <E2BF56C0-840F-11cf-8F52-0040333594A3>
 DWORD openclosed;
 DWORD positionquality;
}

template Animation {
 <3D82AB4F-62DA-11cf-AB39-0020AF71E433>
 [...]
}

template AnimationSet {
 <3D82AB50-62DA-11cf-AB39-0020AF71E433>
 [Animation]
}

Header {
 1;
 0;
 1;
}

Frame frm-fuselg {
  FrameTransformMatrix {
1.000000,0.000000,0.000000,0.000000,
0.000000,1.000000,0.000000,0.000000,
0.000000,0.000000,1.000000,0.000000,
-0.035106,0.226345,-1.013678,1.000000;;
 }
Mesh fuselg {
 248;
 -2.231459;-0.718437;-3.147138;,
 -2.231459;-0.718437;-3.147138;,
 -2.231459;-0.718437;-3.147138;,
 -2.088210;-0.718437;-4.472522;,
 -2.088210;-0.718437;-4.472522;,
 -2.088210;-0.718437;-4.472522;,
 -2.036217;-0.718437;-1.821755;,
 -2.036217;-0.718437;-1.821755;,
 2.100348;-0.718437;-1.821755;,
 2.100348;-0.718437;-1.821755;,
 -1.969672;0.119829;-3.147138;,
 -1.969672;0.119829;-3.147138;,
 -1.702317;-0.168705;-4.470989;,
 -1.702317;-0.168705;-4.470989;,
 -1.973728;0.483018;-1.823288;,
 -1.973728;0.483018;-1.823288;,
 -1.973728;0.483018;-1.823288;,
 2.036723;0.483018;-1.823288;,
 2.036723;0.483018;-1.823288;,
 2.036723;0.483018;-1.823288;,
 -1.802086;-1.255123;-1.823288;,
 -1.802086;-1.255123;-1.823288;,
 -1.802086;-1.255123;-1.823288;,
 -1.802086;-1.255123;-1.823288;,
 1.865081;-1.255123;-1.823288;,
 1.865081;-1.255123;-1.823288;,
 1.865081;-1.255123;-1.823288;,
 1.865081;-1.255123;-1.823288;,
 0.035730;-2.022253;-1.811652;,
 0.035730;-2.022253;-1.811652;,
 0.035730;-2.022253;-1.811652;,
 -1.675619;-0.868390;6.996974;,
 -1.675619;-0.868390;6.996974;,
 -2.499310;-1.589450;-1.374817;,
 -2.499310;-1.589450;-1.374817;,
 -2.499310;-1.589450;-1.374817;,
 -2.499310;-1.589450;-1.374817;,
 -1.809055;0.440505;6.996974;,
 -1.809055;0.440505;6.996974;,
 -1.809055;0.440505;6.996974;,
 -2.696995;1.036166;-1.374817;,
 -2.696995;1.036166;-1.374817;,
 -2.696995;1.036166;-1.374817;,
 -2.696995;1.036166;-1.374817;,
 1.782719;-0.868390;6.996974;,
 1.782719;-0.868390;6.996974;,
 1.782719;-0.868390;6.996974;,
 2.550244;-1.589450;-1.374817;,
 2.550244;-1.589450;-1.374817;,
 2.550244;-1.589450;-1.374817;,
 2.550244;-1.589450;-1.374817;,
 1.919033;0.440505;6.996974;,
 1.919033;0.440505;6.996974;,
 1.919033;0.440505;6.996974;,
 2.746425;1.036166;-1.374817;,
 2.746425;1.036166;-1.374817;,
 2.746425;1.036166;-1.374817;,
 2.746425;1.036166;-1.374817;,
 2.746425;1.036166;-1.374817;,
 0.943762;-0.955613;6.996974;,
 -1.280025;-1.516597;-1.374817;,
 -1.280025;-1.516597;-1.374817;,
 -1.280025;-1.516597;-1.374817;,
 1.325275;-1.516597;-1.374817;,
 1.325275;-1.516597;-1.374817;,
 1.325275;-1.516597;-1.374817;,
 -0.840555;0.553243;6.996974;,
 -0.840555;-0.955613;6.996974;,
 0.943762;0.553243;6.996974;,
 0.020083;-2.035225;-1.374817;,
 0.020083;-2.035225;-1.374817;,
 0.020083;-2.035225;-1.374817;,
 0.049863;0.794759;6.996974;,
 0.049863;-1.016342;6.996974;,
 3.477984;-0.776623;-1.285789;,
 2.223768;-0.787466;6.745565;,
 2.223768;-0.787466;6.745565;,
 -3.477984;-0.776623;-1.285789;,
 -3.477984;-0.776623;-1.285789;,
 -2.156563;-0.787466;6.745565;,
 -2.156563;-0.787466;6.745565;,
 -3.347482;0.266595;-1.301798;,
 -3.347482;0.266595;-1.301798;,
 3.373601;0.266595;-1.301798;,
 2.119606;0.582801;6.329135;,
 2.119606;0.582801;6.329135;,
 2.119606;0.582801;6.329135;,
 2.459433;-0.721884;6.187763;,
 2.459433;-0.721884;6.187763;,
 2.459433;-0.721884;6.187763;,
 1.968780;-0.967503;6.329135;,
 1.968780;-0.967503;6.329135;,
 1.036247;-1.064925;6.329135;,
 1.036247;-1.064925;6.329135;,
 1.036247;0.699962;6.329135;,
 1.036247;0.699962;6.329135;,
 0.042644;-1.131738;6.329135;,
 0.042644;-1.131738;6.329135;,
 0.042644;0.950952;6.329135;,
 0.042644;0.950952;6.329135;,
 -0.947090;0.699962;6.329135;,
 -0.947090;0.699962;6.329135;,
 -1.875295;-0.967503;6.329135;,
 -1.875295;-0.967503;6.329135;,
 -1.875295;-0.967503;6.329135;,
 -0.947090;-1.064925;6.329135;,
 -0.947090;-1.064925;6.329135;,
 -2.024306;0.582801;6.329135;,
 -2.024306;0.582801;6.329135;,
 -2.409472;-0.721884;6.187763;,
 -2.409472;-0.721884;6.187763;,
 -2.409472;-0.721884;6.187763;,
 -2.409472;-0.721884;6.187763;,
 -2.024306;0.582801;6.329135;,
 -0.947090;-1.064925;6.329135;,
 -1.875295;-0.967503;6.329135;,
 -0.947090;0.699962;6.329135;,
 0.042644;0.950952;6.329135;,
 0.042644;-1.131738;6.329135;,
 1.036247;0.699962;6.329135;,
 1.036247;-1.064925;6.329135;,
 1.968780;-0.967503;6.329135;,
 2.459433;-0.721884;6.187763;,
 2.119606;0.582801;6.329135;,
 3.373601;0.266595;-1.301798;,
 -3.347482;0.266595;-1.301798;,
 -1.302044;0.655388;-3.119429;,
 -0.613536;1.416808;-3.131629;,
 0.699884;1.416808;-3.131629;,
 1.368431;0.655388;-3.119429;,
 -1.079923;0.325056;-4.470463;,
 -0.505665;0.928173;-4.470253;,
 0.592013;0.928173;-4.470253;,
 1.146311;0.325056;-4.470463;,
 -2.156563;-0.787466;6.745565;,
 -2.662381;-0.656301;5.629960;,
 -2.988254;-0.735837;3.298490;,
 -3.614419;-0.765370;0.970555;,
 -3.477984;-0.776623;-1.285789;,
 2.223768;-0.787466;6.745565;,
 2.695098;-0.656301;5.629960;,
 2.998746;-0.735837;3.298490;,
 3.616031;-0.765370;0.970555;,
 3.477984;-0.776623;-1.285789;,
 -2.074972;-1.066616;5.661297;,
 -2.482906;-1.576370;0.970555;,
 -2.332251;-1.406070;3.315926;,
 -1.271272;-1.793606;0.970555;,
 -1.053624;-1.174238;5.661297;,
 -1.190893;-1.574100;3.315926;,
 0.021710;-1.899293;0.970555;,
 0.035425;-1.247134;5.661297;,
 0.026123;-1.709277;3.315926;,
 1.128732;-1.174238;5.661297;,
 1.317676;-1.793606;0.970555;,
 1.247897;-1.574100;3.315926;,
 2.154841;-1.066616;5.661297;,
 2.534958;-1.576370;0.970555;,
 2.394577;-1.406070;3.315926;,
 2.729946;1.068776;0.970555;,
 2.578615;1.086695;3.315926;,
 1.317676;1.288858;0.970555;,
 1.128732;0.846681;5.661297;,
 1.247897;1.264057;3.315926;,
 0.035425;1.107145;5.661297;,
 2.320180;0.725097;5.661297;,
 0.020676;2.035225;0.970555;,
 0.026123;1.644012;3.315926;,
 -1.271272;1.288858;0.970555;,
 -1.053624;0.846681;5.661297;,
 -1.190893;1.264057;3.315926;,
 -2.679310;1.068776;0.970555;,
 -2.239558;0.725097;5.661297;,
 -2.516905;1.086695;3.315926;,
 0.049863;-1.016342;6.996974;,
 0.049863;0.794759;6.996974;,
 0.020083;-2.035225;-1.374817;,
 0.020083;1.866016;-2.010550;,
 0.943762;0.553243;6.996974;,
 -0.840555;-0.955613;6.996974;,
 -1.280025;1.296083;-1.374817;,
 -0.840555;0.553243;6.996974;,
 1.325275;-1.516597;-1.374817;,
 -1.280025;-1.516597;-1.374817;,
 1.325275;1.296083;-1.374817;,
 0.943762;-0.955613;6.996974;,
 2.746425;1.036166;-1.374817;,
 1.919033;0.440505;6.996974;,
 2.550244;-1.589450;-1.374817;,
 1.782719;-0.868390;6.996974;,
 -2.696995;1.036166;-1.374817;,
 -1.809055;0.440505;6.996974;,
 -2.499310;-1.589450;-1.374817;,
 -1.675619;-0.868390;6.996974;,
 -0.825832;0.654264;-4.470358;,
 0.889289;0.654264;-4.470358;,
 -0.994381;0.979813;-3.125529;,
 1.057838;0.979813;-3.125529;,
 0.990477;1.292844;-1.825910;,
 -0.927020;1.292844;-1.825910;,
 0.733129;-0.223444;-5.810412;,
 1.294160;-0.004152;-4.470569;,
 1.548698;0.330964;-3.113329;,
 1.446971;0.766752;-1.825036;,
 -1.383976;0.766752;-1.825036;,
 -1.485703;0.330964;-3.113329;,
 -1.231164;-0.004152;-4.470569;,
 -0.670134;-0.223444;-5.810412;,
 0.035730;-2.022253;-1.811652;,
 0.035730;-1.578055;-5.812284;,
 0.035730;-1.889598;-4.466952;,
 0.035730;-2.026249;-3.138158;,
 0.035730;0.235407;-5.809562;,
 0.035730;1.099835;-4.470148;,
 0.035730;-0.173224;-6.187686;,
 0.035730;1.649311;-3.137729;,
 1.865081;-1.255123;-1.823288;,
 1.617847;-1.340478;-4.470989;,
 1.861387;-1.306497;-3.147138;,
 -1.802086;-1.255123;-1.823288;,
 -1.554851;-1.340478;-4.470989;,
 -1.798392;-1.306497;-3.147138;,
 0.499493;-1.104933;-6.578336;,
 -0.434245;-1.104933;-6.578336;,
 0.035730;-0.979818;-6.813315;,
 1.765312;-0.168705;-4.470989;,
 2.036723;0.483018;-1.823288;,
 2.032667;0.119829;-3.147138;,
 -1.973728;0.483018;-1.823288;,
 -1.702317;-0.168705;-4.470989;,
 -1.969672;0.119829;-3.147138;,
 -0.460691;-0.525175;-6.542955;,
 0.523686;-0.525175;-6.542955;,
 2.151205;-0.718437;-4.472522;,
 2.100348;-0.718437;-1.821755;,
 2.295003;-0.718437;-3.147138;,
 -2.036217;-0.718437;-1.821755;,
 -2.088210;-0.718437;-4.472522;,
 -2.231459;-0.718437;-3.147138;,
 0.620150;-0.718437;-6.624146;,
 -0.557154;-0.718437;-6.624146;,
 0.035730;-0.718437;-6.996974;,
 1.388766;-0.718437;-5.807954;,
 -1.325771;-0.718437;-5.807954;,
 1.147005;-0.324444;-5.811262;,
 1.054618;-1.252591;-5.811262;,
 -1.084009;-0.324444;-5.811262;,
 -0.991622;-1.252591;-5.811262;;

 155;
 4;148,149,152,151;,
 4;240,243,246,231;,
 4;233,242,244,225;,
 4;140,156,158,141;,
 4;58,83,74,50;,
 4;144,146,149,148;,
 4;5,243,247,220;,
 4;239,242,245,222;,
 4;141,158,157,142;,
 4;27,218,235,9;,
 4;232,244,242,239;,
 4;223,247,243,240;,
 3;241,240,231;,
 4;240,241,224,223;,
 4;222,224,241,239;,
 10;32,67,73,59,46,53,68,72,66,39;,
 4;217,245,242,233;,
 4;218,217,233,235;,
 4;235,233,225,227;,
 4;8,235,227,19;,
 4;13,246,243,4;,
 3;234,57,49;,
 4;221,23,7,2;,
 4;1,6,16,11;,
 4;3,0,10,12;,
 4;220,221,238,237;,
 4;78,36,145,137;,
 3;209,247,223;,
 4;137,145,146,136;,
 3;207,212,214;,
 4;200,244,232,214;,
 3;131,213,212;,
 4;201,225,244,200;,
 4;127,215,213,131;,
 4;202,227,225,201;,
 4;152,150,154,155;,
 4;203,18,227,202;,
 4;136,146,144,135;,
 4;220,247,209,210;,
 4;210,209,245,217;,
 4;221,220,210,211;,
 4;211,210,217,218;,
 4;22,221,211,30;,
 4;29,211,218,26;,
 4;214,231,246,207;,
 4;207,246,229,206;,
 4;206,229,230,205;,
 4;205,230,15,204;,
 4;111,80,38,108;,
 4;142,157,48,143;,
 4;89,76,45,91;,
 4;155,154,157,158;,
 4;132,213,215,128;,
 3;212,213,132;,
 3;214,212,200;,
 4;153,155,158,156;,
 4;151,152,155,153;,
 4;141,160,165,140;,
 4;142,159,160,141;,
 3;124,56,159;,
 4;135,172,173,136;,
 4;136,173,171,137;,
 3;203,202,129;,
 4;129,202,201,133;,
 3;133,201,200;,
 3;207,206,130;,
 4;130,206,205,126;,
 3;126,205,204;,
 4;110,135,144,104;,
 3;232,239,241;,
 3;241,231,214;,
 3;241,214,232;,
 3;222,245,209;,
 3;209,224,222;,
 3;223,224,209;,
 3;171,43,82;,
 4;88,140,165,86;,
 3;37,79,31;,
 4;106,179,193,103;,
 4;95,178,52,85;,
 4;35,77,81,42;,
 4;146,145,147,149;,
 3;44,75,51;,
 3;236,34,41;,
 3;40,14,236;,
 4;149,147,150,152;,
 4;168,180,190,171;,
 4;166,177,180,168;,
 4;161,184,177,166;,
 4;154,65,47,157;,
 4;97,174,179,105;,
 4;93,185,174,96;,
 4;159,55,184,161;,
 4;99,175,178,94;,
 4;101,181,175,98;,
 4;107,191,181,100;,
 4;170,168,171,173;,
 4;167,166,168,170;,
 4;163,161,166,167;,
 4;160,159,161,163;,
 4;165,160,163,162;,
 4;162,163,167,164;,
 4;164,167,170,169;,
 4;169,170,173,172;,
 4;90,189,185,92;,
 4;150,71,64,154;,
 4;147,62,70,150;,
 4;145,33,61,147;,
 3;177,184,198;,
 3;199,180,177;,
 3;128,215,177;,
 4;127,196,199,177;,
 3;188,25,234;,
 3;203,198,184;,
 3;234,17,54;,
 4;63,69,28,24;,
 3;60,192,21;,
 4;20,208,176,183;,
 3;216,188,182;,
 3;204,228,190;,
 3;236,219,192;,
 3;180,199,204;,
 3;186,226,203;,
 3;190,180,204;,
 3;203,184,186;,
 3;177,215,127;,
 4;177,198,197,128;,
 4;128,197,195,132;,
 3;132,195,212;,
 3;212,194,131;,
 4;131,194,196,127;,
 3;212,195,133;,
 4;133,195,197,129;,
 4;129,197,198,203;,
 3;130,194,212;,
 4;126,196,194,130;,
 4;204,199,196,126;,
 3;130,212,207;,
 3;200,212,133;,
 3;142,143,124;,
 3;124,159,142;,
 3;125,138,137;,
 3;137,171,125;,
 4;84,165,162,119;,
 4;119,162,164,117;,
 4;117,164,169,116;,
 4;116,169,172,113;,
 4;113,172,135,109;,
 4;102,193,134,112;,
 4;115,144,148,114;,
 4;114,148,151,118;,
 4;118,151,153,120;,
 4;120,153,156,121;,
 4;121,156,140,87;,
 4;123,187,139,122;;

 MeshMaterialList {
  3;
  155;
  0,
  0,
  0,
  0,
  1,
  0,
  0,
  0,
  0,
  0,
  0,
  0,
  0,
  0,
  0,
  2,
  0,
  0,
  0,
  0,
  0,
  1,
  0,
  0,
  0,
  0,
  0,
  0,
  0,
  0,
  0,
  0,
  0,
  0,
  0,
  0,
  0,
  0,
  0,
  0,
  0,
  0,
  0,
  0,
  0,
  0,
  0,
  0,
  0,
  0,
  0,
  0,
  0,
  0,
  0,
  0,
  0,
  0,
  0,
  0,
  0,
  0,
  0,
  0,
  0,
  0,
  0,
  0,
  0,
  0,
  0,
  0,
  0,
  0,
  0,
  0,
  0,
  2,
  0,
  0,
  1,
  0,
  2,
  1,
  1,
  0,
  0,
  0,
  0,
  0,
  0,
  0,
  0,
  0,
  0,
  0,
  0,
  0,
  0,
  0,
  0,
  0,
  0,
  0,
  0,
  0,
  0,
  0,
  0,
  0,
  0,
  0,
  1,
  0,
  1,
  0,
  1,
  0,
  1,
  0,
  1,
  0,
  0,
  0,
  0,
  0,
  0,
  0,
  0,
  0,
  0,
  0,
  0,
  0,
  0,
  0,
  0,
  0,
  0,
  0,
  0,
  0,
  0,
  0,
  0,
  0,
  0,
  0,
  0,
  0,
  0,
  0,
  0,
  0,
  0;
Material {
 1.000000;1.000000;1.000000;1.000000;;
 0.000000;
 1.000000;1.000000;1.000000;;
 0.0; 0.0; 0.0;;
 TextureFilename {
  "fig16.ppm";
 }
 }
Material {
 1.000000;1.000000;1.000000;1.000000;;
 0.000000;
 1.000000;1.000000;1.000000;;
 0.0; 0.0; 0.0;;
 TextureFilename {
  "fig16.ppm";
 }
 }
Material {
 1.000000;1.000000;1.000000;1.000000;;
 0.000000;
 1.000000;1.000000;1.000000;;
 0.0; 0.0; 0.0;;
 TextureFilename {
  "fig16.ppm";
 }
 }
}
 MeshNormals {
  248;
  -0.986569;-0.156440;-0.046986;,
  -0.986569;-0.156440;-0.046986;,
  -0.986569;-0.156440;-0.046986;,
  -0.942436;-0.076385;-0.325546;,
  -0.942436;-0.076385;-0.325546;,
  -0.942436;-0.076385;-0.325546;,
  -0.818226;-0.135573;-0.558683;,
  -0.818226;-0.135573;-0.558683;,
  0.821353;-0.135928;-0.553989;,
  0.821353;-0.135928;-0.553989;,
  -0.731152;0.656549;-0.185364;,
  -0.731152;0.656549;-0.185364;,
  -0.607348;0.734501;-0.302714;,
  -0.607348;0.734501;-0.302714;,
  -0.652375;0.463223;-0.599860;,
  -0.652375;0.463223;-0.599860;,
  -0.652375;0.463223;-0.599860;,
  0.653979;0.463941;-0.597554;,
  0.653979;0.463941;-0.597554;,
  0.653979;0.463941;-0.597554;,
  -0.482857;-0.810374;-0.331879;,
  -0.482857;-0.810374;-0.331879;,
  -0.482857;-0.810374;-0.331879;,
  -0.482857;-0.810374;-0.331879;,
  0.484620;-0.811500;-0.326514;,
  0.484620;-0.811500;-0.326514;,
  0.484620;-0.811500;-0.326514;,
  0.484620;-0.811500;-0.326514;,
  0.000645;-0.999760;-0.021902;,
  0.000645;-0.999760;-0.021902;,
  0.000645;-0.999760;-0.021902;,
  -0.300268;-0.629833;0.716345;,
  -0.300268;-0.629833;0.716345;,
  -0.388191;-0.612530;-0.688560;,
  -0.388191;-0.612530;-0.688560;,
  -0.388191;-0.612530;-0.688560;,
  -0.388191;-0.612530;-0.688560;,
  -0.475885;0.360156;0.802385;,
  -0.475885;0.360156;0.802385;,
  -0.475885;0.360156;0.802385;,
  -0.448169;0.478928;-0.754833;,
  -0.448169;0.478928;-0.754833;,
  -0.448169;0.478928;-0.754833;,
  -0.448169;0.478928;-0.754833;,
  0.319781;-0.627672;0.709766;,
  0.319781;-0.627672;0.709766;,
  0.319781;-0.627672;0.709766;,
  0.396174;-0.609951;-0.686298;,
  0.396174;-0.609951;-0.686298;,
  0.396174;-0.609951;-0.686298;,
  0.396174;-0.609951;-0.686298;,
  0.494298;0.353645;0.794107;,
  0.494298;0.353645;0.794107;,
  0.494298;0.353645;0.794107;,
  0.454236;0.477419;-0.752157;,
  0.454236;0.477419;-0.752157;,
  0.454236;0.477419;-0.752157;,
  0.454236;0.477419;-0.752157;,
  0.454236;0.477419;-0.752157;,
  0.070673;-0.823068;0.563529;,
  -0.161611;-0.969893;-0.182178;,
  -0.161611;-0.969893;-0.182178;,
  -0.161611;-0.969893;-0.182178;,
  0.161798;-0.970786;-0.177187;,
  0.161798;-0.970786;-0.177187;,
  0.161798;-0.970786;-0.177187;,
  -0.145872;0.783548;0.603965;,
  -0.070912;-0.822270;0.564663;,
  0.145554;0.785346;0.601702;,
  0.000055;-0.998920;-0.046470;,
  0.000055;-0.998920;-0.046470;,
  0.000055;-0.998920;-0.046470;,
  -0.000251;0.789443;0.613823;,
  -0.000102;-0.826211;0.563361;,
  0.805533;-0.320082;-0.498663;,
  0.751286;-0.326318;0.573659;,
  0.751286;-0.326318;0.573659;,
  -0.802674;-0.318926;-0.503985;,
  -0.802674;-0.318926;-0.503985;,
  -0.731429;-0.324171;0.599938;,
  -0.731429;-0.324171;0.599938;,
  -0.870878;0.385893;-0.304399;,
  -0.870878;0.385893;-0.304399;,
  0.879040;0.367028;-0.304268;,
  0.614273;0.703869;0.356703;,
  0.614273;0.703869;0.356703;,
  0.614273;0.703869;0.356703;,
  0.850010;-0.407079;0.334319;,
  0.850010;-0.407079;0.334319;,
  0.850010;-0.407079;0.334319;,
  0.291008;-0.939032;0.183122;,
  0.291008;-0.939032;0.183122;,
  0.084234;-0.981501;0.171934;,
  0.084234;-0.981501;0.171934;,
  0.172133;0.957541;0.231268;,
  0.172133;0.957541;0.231268;,
  -0.000121;-0.985321;0.170715;,
  -0.000121;-0.985321;0.170715;,
  -0.000305;0.971123;0.238579;,
  -0.000305;0.971123;0.238579;,
  -0.172700;0.956574;0.234823;,
  -0.172700;0.956574;0.234823;,
  -0.274889;-0.943679;0.184136;,
  -0.274889;-0.943679;0.184136;,
  -0.274889;-0.943679;0.184136;,
  -0.084571;-0.981160;0.173704;,
  -0.084571;-0.981160;0.173704;,
  -0.599327;0.711071;0.367674;,
  -0.599327;0.711071;0.367674;,
  -0.839671;-0.410063;0.356092;,
  -0.839671;-0.410063;0.356092;,
  -0.839671;-0.410063;0.356092;,
  -0.839671;-0.410063;0.356092;,
  -0.599327;0.711071;0.367674;,
  -0.084571;-0.981160;0.173704;,
  -0.274889;-0.943679;0.184136;,
  -0.172700;0.956574;0.234823;,
  -0.000305;0.971123;0.238579;,
  -0.000121;-0.985321;0.170715;,
  0.172133;0.957541;0.231268;,
  0.084234;-0.981501;0.171934;,
  0.291008;-0.939032;0.183122;,
  0.850010;-0.407079;0.334319;,
  0.614273;0.703869;0.356703;,
  0.879040;0.367028;-0.304268;,
  -0.870878;0.385893;-0.304399;,
  -0.807757;0.560148;-0.183747;,
  -0.494990;0.838755;-0.226883;,
  0.499181;0.837669;-0.221649;,
  0.809226;0.558314;-0.182865;,
  -0.729966;0.553207;-0.401388;,
  -0.459746;0.772601;-0.437861;,
  0.469908;0.765299;-0.439891;,
  0.731440;0.551549;-0.400984;,
  -0.731429;-0.324171;0.599938;,
  -0.908998;-0.320841;0.266050;,
  -0.948300;-0.266083;0.172997;,
  -0.985266;-0.152368;0.077683;,
  -0.802674;-0.318926;-0.503985;,
  0.751286;-0.326318;0.573659;,
  0.915542;-0.315667;0.249272;,
  0.950802;-0.262118;0.165134;,
  0.984593;-0.157713;0.075515;,
  0.805533;-0.320082;-0.498663;,
  -0.361914;-0.914266;0.182032;,
  -0.382189;-0.923140;0.041767;,
  -0.408526;-0.901873;0.140471;,
  -0.137931;-0.990164;0.023460;,
  -0.095546;-0.980146;0.173738;,
  -0.117443;-0.984335;0.131501;,
  -0.000248;-0.999545;0.030171;,
  -0.000143;-0.984231;0.176885;,
  -0.000155;-0.990715;0.135956;,
  0.095157;-0.980412;0.172447;,
  0.137434;-0.990241;0.023112;,
  0.116971;-0.984483;0.130811;,
  0.380037;-0.907202;0.180435;,
  0.394156;-0.918105;0.041529;,
  0.424103;-0.894780;0.139663;,
  0.652689;0.755532;0.056280;,
  0.641061;0.755185;0.136881;,
  0.296842;0.954791;0.016069;,
  0.178136;0.961702;0.208321;,
  0.234165;0.965095;0.117299;,
  -0.000369;0.974969;0.222341;,
  0.631682;0.726567;0.270329;,
  -0.000732;0.999428;0.033800;,
  -0.000560;0.988270;0.152717;,
  -0.297777;0.954488;0.016784;,
  -0.178730;0.961058;0.210769;,
  -0.234940;0.964740;0.118662;,
  -0.642906;0.763842;0.056727;,
  -0.618548;0.734968;0.277885;,
  -0.630837;0.763267;0.139530;,
  -0.000102;-0.826211;0.563361;,
  -0.000251;0.789443;0.613823;,
  0.000055;-0.998920;-0.046470;,
  -0.002164;0.980243;-0.197784;,
  0.145554;0.785346;0.601702;,
  -0.070912;-0.822270;0.564663;,
  -0.416742;0.830482;-0.369630;,
  -0.145872;0.783548;0.603965;,
  0.161798;-0.970786;-0.177187;,
  -0.161611;-0.969893;-0.182178;,
  0.416209;0.835479;-0.358810;,
  0.070673;-0.823068;0.563529;,
  0.454236;0.477419;-0.752157;,
  0.494298;0.353645;0.794107;,
  0.396174;-0.609951;-0.686298;,
  0.319781;-0.627672;0.709766;,
  -0.448169;0.478928;-0.754833;,
  -0.475885;0.360156;0.802385;,
  -0.388191;-0.612530;-0.688560;,
  -0.300268;-0.629833;0.716345;,
  -0.663118;0.619155;-0.420620;,
  0.672813;0.609471;-0.419367;,
  -0.697255;0.693609;-0.180949;,
  0.702090;0.689734;-0.177025;,
  0.647297;0.712487;-0.270865;,
  -0.647919;0.706016;-0.285907;,
  0.478259;0.743505;-0.467406;,
  0.625723;0.710143;-0.322750;,
  0.658147;0.715423;-0.234545;,
  0.554554;0.683078;-0.475263;,
  -0.552017;0.681767;-0.480074;,
  -0.655086;0.718023;-0.235170;,
  -0.622831;0.712808;-0.322471;,
  -0.475231;0.745644;-0.467087;,
  0.000645;-0.999760;-0.021902;,
  0.000732;-0.925793;-0.378029;,
  0.000877;-0.989565;-0.144084;,
  0.000806;-0.999650;-0.026442;,
  0.002525;0.766273;-0.642510;,
  -0.003433;0.887713;-0.460384;,
  0.001619;0.812338;-0.583184;,
  -0.003411;0.959162;-0.282835;,
  0.484620;-0.811500;-0.326514;,
  0.570486;-0.796664;-0.199679;,
  0.618972;-0.785109;-0.021843;,
  -0.482857;-0.810374;-0.331879;,
  -0.569827;-0.797156;-0.199596;,
  -0.618605;-0.785401;-0.021727;,
  0.389266;-0.672613;-0.629336;,
  -0.386987;-0.673494;-0.629799;,
  0.001470;-0.677514;-0.735509;,
  0.607278;0.734544;-0.302752;,
  0.653979;0.463941;-0.597554;,
  0.730953;0.656738;-0.185479;,
  -0.652375;0.463223;-0.599860;,
  -0.607348;0.734501;-0.302714;,
  -0.731152;0.656549;-0.185364;,
  -0.398239;0.689812;-0.604619;,
  0.400554;0.689446;-0.603507;,
  0.942396;-0.076370;-0.325664;,
  0.821353;-0.135928;-0.553989;,
  0.986546;-0.156507;-0.047242;,
  -0.818226;-0.135573;-0.558683;,
  -0.942436;-0.076385;-0.325546;,
  -0.986569;-0.156440;-0.046986;,
  0.622091;0.065706;-0.780183;,
  -0.619576;0.064819;-0.782256;,
  0.002705;0.421432;-0.906856;,
  0.809525;0.007371;-0.587040;,
  -0.809391;0.007015;-0.587229;,
  0.511921;0.726317;-0.458696;,
  0.540238;-0.729037;-0.420295;,
  -0.511477;0.726627;-0.458699;,
  -0.539070;-0.729923;-0.420257;;

  155;
  4;148,149,152,151;,
  4;240,243,246,231;,
  4;233,242,244,225;,
  4;140,156,158,141;,
  4;58,83,74,50;,
  4;144,146,149,148;,
  4;5,243,247,220;,
  4;239,242,245,222;,
  4;141,158,157,142;,
  4;27,218,235,9;,
  4;232,244,242,239;,
  4;223,247,243,240;,
  3;241,240,231;,
  4;240,241,224,223;,
  4;222,224,241,239;,
  10;32,67,73,59,46,53,68,72,66,39;,
  4;217,245,242,233;,
  4;218,217,233,235;,
  4;235,233,225,227;,
  4;8,235,227,19;,
  4;13,246,243,4;,
  3;234,57,49;,
  4;221,23,7,2;,
  4;1,6,16,11;,
  4;3,0,10,12;,
  4;220,221,238,237;,
  4;78,36,145,137;,
  3;209,247,223;,
  4;137,145,146,136;,
  3;207,212,214;,
  4;200,244,232,214;,
  3;131,213,212;,
  4;201,225,244,200;,
  4;127,215,213,131;,
  4;202,227,225,201;,
  4;152,150,154,155;,
  4;203,18,227,202;,
  4;136,146,144,135;,
  4;220,247,209,210;,
  4;210,209,245,217;,
  4;221,220,210,211;,
  4;211,210,217,218;,
  4;22,221,211,30;,
  4;29,211,218,26;,
  4;214,231,246,207;,
  4;207,246,229,206;,
  4;206,229,230,205;,
  4;205,230,15,204;,
  4;111,80,38,108;,
  4;142,157,48,143;,
  4;89,76,45,91;,
  4;155,154,157,158;,
  4;132,213,215,128;,
  3;212,213,132;,
  3;214,212,200;,
  4;153,155,158,156;,
  4;151,152,155,153;,
  4;141,160,165,140;,
  4;142,159,160,141;,
  3;124,56,159;,
  4;135,172,173,136;,
  4;136,173,171,137;,
  3;203,202,129;,
  4;129,202,201,133;,
  3;133,201,200;,
  3;207,206,130;,
  4;130,206,205,126;,
  3;126,205,204;,
  4;110,135,144,104;,
  3;232,239,241;,
  3;241,231,214;,
  3;241,214,232;,
  3;222,245,209;,
  3;209,224,222;,
  3;223,224,209;,
  3;171,43,82;,
  4;88,140,165,86;,
  3;37,79,31;,
  4;106,179,193,103;,
  4;95,178,52,85;,
  4;35,77,81,42;,
  4;146,145,147,149;,
  3;44,75,51;,
  3;236,34,41;,
  3;40,14,236;,
  4;149,147,150,152;,
  4;168,180,190,171;,
  4;166,177,180,168;,
  4;161,184,177,166;,
  4;154,65,47,157;,
  4;97,174,179,105;,
  4;93,185,174,96;,
  4;159,55,184,161;,
  4;99,175,178,94;,
  4;101,181,175,98;,
  4;107,191,181,100;,
  4;170,168,171,173;,
  4;167,166,168,170;,
  4;163,161,166,167;,
  4;160,159,161,163;,
  4;165,160,163,162;,
  4;162,163,167,164;,
  4;164,167,170,169;,
  4;169,170,173,172;,
  4;90,189,185,92;,
  4;150,71,64,154;,
  4;147,62,70,150;,
  4;145,33,61,147;,
  3;177,184,198;,
  3;199,180,177;,
  3;128,215,177;,
  4;127,196,199,177;,
  3;188,25,234;,
  3;203,198,184;,
  3;234,17,54;,
  4;63,69,28,24;,
  3;60,192,21;,
  4;20,208,176,183;,
  3;216,188,182;,
  3;204,228,190;,
  3;236,219,192;,
  3;180,199,204;,
  3;186,226,203;,
  3;190,180,204;,
  3;203,184,186;,
  3;177,215,127;,
  4;177,198,197,128;,
  4;128,197,195,132;,
  3;132,195,212;,
  3;212,194,131;,
  4;131,194,196,127;,
  3;212,195,133;,
  4;133,195,197,129;,
  4;129,197,198,203;,
  3;130,194,212;,
  4;126,196,194,130;,
  4;204,199,196,126;,
  3;130,212,207;,
  3;200,212,133;,
  3;142,143,124;,
  3;124,159,142;,
  3;125,138,137;,
  3;137,171,125;,
  4;84,165,162,119;,
  4;119,162,164,117;,
  4;117,164,169,116;,
  4;116,169,172,113;,
  4;113,172,135,109;,
  4;102,193,134,112;,
  4;115,144,148,114;,
  4;114,148,151,118;,
  4;118,151,153,120;,
  4;120,153,156,121;,
  4;121,156,140,87;,
  4;123,187,139,122;;
 }
 MeshTextureCoords { 
 248;
 0.895909;0.128938;,
 0.725909;0.262271;,
 0.725909;0.262271;,
 0.986870;0.128938;,
 0.816870;0.262271;,
 0.816870;0.262271;,
 0.634947;0.262271;,
 0.634947;0.262271;,
 0.634947;0.262271;,
 0.634947;0.262271;,
 0.895909;0.056749;,
 0.725909;0.190082;,
 0.986765;0.081597;,
 0.816765;0.214930;,
 0.243811;0.472574;,
 0.635052;0.158806;,
 0.635052;0.158806;,
 0.243811;0.472574;,
 0.635052;0.158806;,
 0.635052;0.158806;,
 0.601667;0.331667;,
 0.231865;0.662268;,
 0.635052;0.308489;,
 0.635052;0.308489;,
 0.635052;0.308489;,
 0.231865;0.662268;,
 0.635052;0.308489;,
 0.635052;0.308489;,
 0.635000;0.365000;,
 0.635000;0.365000;,
 0.635000;0.365000;,
 0.306278;0.526156;,
 0.306278;0.526156;,
 0.595000;0.291667;,
 0.130734;0.709746;,
 0.130734;0.709746;,
 0.595000;0.291667;,
 0.297840;0.405191;,
 0.928006;0.431904;,
 0.297840;0.405191;,
 0.132746;0.414128;,
 0.132746;0.414128;,
 0.132746;0.414128;,
 0.575000;0.138333;,
 0.609766;0.526990;,
 0.998333;0.511667;,
 0.609766;0.526990;,
 0.595000;0.291667;,
 0.595000;0.291667;,
 0.130734;0.709746;,
 0.130734;0.709746;,
 0.613440;0.411024;,
 0.998333;0.511667;,
 0.613440;0.411024;,
 0.132746;0.414128;,
 0.575000;0.138333;,
 0.575000;0.138333;,
 0.132746;0.414128;,
 0.132746;0.414128;,
 0.533495;0.535217;,
 0.260512;0.686835;,
 0.601667;0.331667;,
 0.601667;0.331667;,
 0.601667;0.331667;,
 0.601667;0.331667;,
 0.601667;0.331667;,
 0.381397;0.401466;,
 0.387230;0.533551;,
 0.533495;0.403133;,
 0.608333;0.365000;,
 0.608333;0.365000;,
 0.608333;0.365000;,
 0.446053;0.383491;,
 0.447720;0.537866;,
 0.024105;0.621403;,
 0.648420;0.513462;,
 0.998333;0.538333;,
 0.024105;0.621403;,
 0.575000;0.238333;,
 0.266854;0.516796;,
 0.928333;0.511667;,
 0.046779;0.470606;,
 0.575000;0.178333;,
 0.046779;0.470606;,
 0.015000;0.138333;,
 0.928333;0.511667;,
 0.015000;0.138333;,
 0.015000;0.238333;,
 0.015000;0.238333;,
 0.948333;0.538333;,
 0.928333;0.511667;,
 0.928333;0.511667;,
 0.928333;0.471667;,
 0.928333;0.471667;,
 0.928333;0.471667;,
 0.928333;0.471667;,
 0.928333;0.431667;,
 0.928333;0.431667;,
 0.928333;0.431667;,
 0.928333;0.431667;,
 0.928333;0.391667;,
 0.928333;0.391667;,
 0.928333;0.351667;,
 0.928333;0.351667;,
 0.015000;0.291667;,
 0.928333;0.391667;,
 0.928333;0.391667;,
 0.928333;0.351667;,
 0.995000;0.431667;,
 0.015000;0.238333;,
 0.015000;0.238333;,
 0.998333;0.511667;,
 0.948333;0.331667;,
 0.015000;0.138333;,
 0.015000;0.331667;,
 0.015000;0.291667;,
 0.015000;0.051667;,
 0.015000;0.005000;,
 0.015000;0.365000;,
 0.015000;0.051667;,
 0.015000;0.331667;,
 0.015000;0.291667;,
 0.995000;0.431667;,
 0.998333;0.511667;,
 0.575000;0.178333;,
 0.575000;0.178333;,
 0.724007;0.143962;,
 0.724844;0.078390;,
 0.724844;0.078390;,
 0.724007;0.143962;,
 0.816729;0.172409;,
 0.816715;0.120470;,
 0.816715;0.120470;,
 0.816729;0.172409;,
 0.998333;0.331667;,
 0.121667;0.238333;,
 0.281667;0.238333;,
 0.448333;0.238333;,
 0.575000;0.238333;,
 0.928006;0.431904;,
 0.121667;0.238333;,
 0.281667;0.238333;,
 0.448333;0.238333;,
 0.575000;0.238333;,
 0.121667;0.291667;,
 0.448333;0.291667;,
 0.281667;0.291667;,
 0.448333;0.331667;,
 0.121667;0.331667;,
 0.281667;0.331667;,
 0.448333;0.365000;,
 0.121667;0.365000;,
 0.281667;0.365000;,
 0.121667;0.331667;,
 0.448333;0.331667;,
 0.281667;0.331667;,
 0.121667;0.291667;,
 0.448333;0.291667;,
 0.281667;0.291667;,
 0.448333;0.138333;,
 0.281667;0.138333;,
 0.448333;0.051667;,
 0.121667;0.051667;,
 0.281667;0.051667;,
 0.121667;0.005000;,
 0.121667;0.138333;,
 0.448333;0.006905;,
 0.281667;0.006905;,
 0.448333;0.051667;,
 0.121667;0.051667;,
 0.281667;0.051667;,
 0.448333;0.138333;,
 0.121667;0.138333;,
 0.281667;0.138333;,
 0.998333;0.431667;,
 0.998333;0.431667;,
 0.635000;0.365000;,
 0.635000;0.009286;,
 0.998333;0.471667;,
 0.998333;0.391667;,
 0.601667;0.051667;,
 0.998333;0.391667;,
 0.260512;0.686835;,
 0.635052;0.308489;,
 0.601667;0.051667;,
 0.998333;0.471667;,
 0.575000;0.138333;,
 0.928333;0.511667;,
 0.130734;0.709746;,
 0.998333;0.511667;,
 0.575000;0.138333;,
 0.998333;0.351667;,
 0.130734;0.709746;,
 0.998333;0.351667;,
 0.816722;0.144059;,
 0.816722;0.144059;,
 0.724426;0.116023;,
 0.724426;0.116023;,
 0.635232;0.089066;,
 0.635232;0.089066;,
 0.908690;0.219644;,
 0.816736;0.200759;,
 0.723588;0.171900;,
 0.635172;0.134371;,
 0.635172;0.134371;,
 0.723588;0.171900;,
 0.816736;0.200759;,
 0.908690;0.219644;,
 0.608333;0.365000;,
 0.908819;0.329632;,
 0.816488;0.356462;,
 0.728333;0.365000;,
 0.906251;0.182986;,
 0.816231;0.109973;,
 0.934583;0.215319;,
 0.725263;0.063130;,
 0.231865;0.662268;,
 0.816765;0.315840;,
 0.725909;0.312913;,
 0.231865;0.662268;,
 0.816765;0.315840;,
 0.725909;0.312913;,
 0.961393;0.295555;,
 0.961393;0.295555;,
 0.977520;0.284781;,
 0.816765;0.214930;,
 0.635052;0.158806;,
 0.725909;0.190082;,
 0.635052;0.158806;,
 0.816765;0.214930;,
 0.725909;0.190082;,
 0.958965;0.245628;,
 0.958965;0.245628;,
 0.816870;0.262271;,
 0.197905;0.637898;,
 0.725909;0.262271;,
 0.197905;0.637898;,
 0.816870;0.262271;,
 0.725909;0.262271;,
 0.964537;0.262271;,
 0.964537;0.262271;,
 0.990125;0.262271;,
 0.908522;0.262271;,
 0.908522;0.262271;,
 0.908749;0.228342;,
 0.908749;0.308271;,
 0.908749;0.228342;,
 0.908749;0.308271;;
 }
}
Frame frm-rwing {
  FrameTransformMatrix {
1.000000,0.000000,0.000000,0.000000,
0.000000,1.000000,0.000000,0.000000,
0.000000,0.000000,1.000000,0.000000,
0.035106,-0.226345,1.013678,1.000000;;
 }
Mesh rwing {
 15;
 -2.212361;-0.605324;5.205925;,
 -2.564313;-0.621682;1.590986;,
 -6.793541;0.228311;5.205925;,
 -6.793541;0.228311;4.096522;,
 -6.793541;0.228311;4.096522;,
 -3.725252;-0.410427;1.841540;,
 -3.725252;-0.410427;1.841540;,
 -3.725252;-0.410427;1.841540;,
 -3.676293;-0.141373;2.288705;,
 -6.419409;0.286153;4.543687;,
 -6.793541;0.228311;4.096522;,
 -6.793541;0.228311;5.205925;,
 -2.515353;-0.352628;2.038151;,
 -2.564313;-0.621682;1.590986;,
 -2.212361;-0.605324;5.205925;;

 5;
 4;8,12,1,6;,
 4;5,4,9,8;,
 5;2,3,7,13,0;,
 3;9,10,11;,
 5;11,14,12,8,9;;

 MeshMaterialList {
  2;
  5;
  0,
  0,
  1,
  0,
  0;
Material {
 1.000000;1.000000;1.000000;1.000000;;
 0.000000;
 1.000000;1.000000;1.000000;;
 0.0; 0.0; 0.0;;
 TextureFilename {
  "fig16.ppm";
 }
 }
Material {
 1.000000;1.000000;1.000000;1.000000;;
 0.000000;
 1.000000;1.000000;1.000000;;
 0.0; 0.0; 0.0;;
 TextureFilename {
  "fig16.ppm";
 }
 }
}
 MeshNormals {
  15;
  0.116983;-0.052173;0.991763;,
  -0.259294;-0.242116;-0.934958;,
  -0.136541;0.985910;0.096630;,
  -0.369727;0.888850;-0.270644;,
  -0.369727;0.888850;-0.270644;,
  -0.175349;0.701787;-0.690469;,
  -0.175349;0.701787;-0.690469;,
  -0.175349;0.701787;-0.690469;,
  0.058072;0.963535;-0.261206;,
  -0.009843;0.996720;-0.080331;,
  -0.369727;0.888850;-0.270644;,
  -0.136541;0.985910;0.096630;,
  0.124758;0.964748;-0.231728;,
  -0.259294;-0.242116;-0.934958;,
  0.116983;-0.052173;0.991763;;

  5;
  4;8,12,1,6;,
  4;5,4,9,8;,
  5;2,3,7,13,0;,
  3;9,10,11;,
  5;11,14,12,8,9;;
 }
 MeshTextureCoords { 
 15;
 0.281919;0.965284;,
 0.308357;0.696700;,
 0.018808;0.965284;,
 0.018807;0.883357;,
 0.615346;0.878903;,
 0.392031;0.713957;,
 0.392031;0.713957;,
 0.195029;0.716831;,
 0.389126;0.747525;,
 0.589101;0.912896;,
 0.615346;0.878903;,
 0.616677;0.952027;,
 0.305452;0.730268;,
 0.261705;0.698328;,
 0.297859;0.958940;;
 }
}
Frame frm-rwing_pod {
  FrameTransformMatrix {
-0.109340,0.000000,-0.000000,0.000000,
-0.000000,0.000000,0.505196,0.000000,
0.000000,0.109340,-0.000000,0.000000,
-6.758036,-0.002861,3.990264,1.000000;;
 }
Mesh rwing_pod {
 53;
 1.000007;-2.430635;-0.000000;,
 1.000007;-2.430635;-0.000000;,
 1.000007;2.500000;0.000000;,
 1.000007;2.500000;0.000000;,
 0.299409;-2.345339;-2.121947;,
 0.852007;1.892016;-1.475707;,
 0.852007;1.892016;-1.475707;,
 0.852007;1.892016;-1.475707;,
 0.500007;2.500000;-0.866025;,
 0.500007;2.500000;-0.866025;,
 -0.700592;-2.345339;-1.729471;,
 -0.499993;2.500000;-0.866025;,
 -0.999993;-2.430635;0.000000;,
 -0.999993;2.500000;0.000000;,
 -0.499993;-2.430635;0.866026;,
 -0.499993;2.500000;0.866026;,
 0.500007;-2.430635;0.866025;,
 0.500007;-2.430635;0.866025;,
 0.500007;-0.167427;0.866025;,
 0.500007;-0.167427;0.866025;,
 0.852008;1.892016;1.475707;,
 0.852008;1.892016;1.475707;,
 0.500007;2.500000;0.866025;,
 0.500007;2.500000;0.866025;,
 0.676007;-0.069074;-0.862438;,
 0.676007;-0.069074;-0.862438;,
 0.676007;-0.069074;-0.862438;,
 0.676007;-0.069074;-0.862438;,
 -0.675993;-0.069074;-0.862438;,
 0.500007;2.500000;0.866025;,
 0.852008;1.892016;1.475707;,
 0.500007;-0.167427;0.866025;,
 0.500007;-2.430635;0.866025;,
 -0.499993;2.500000;0.866026;,
 -0.851993;1.892016;1.475708;,
 -0.499993;-0.167427;0.866026;,
 -0.499993;-2.430635;0.866026;,
 -0.999993;2.500000;0.000000;,
 -1.703993;1.892016;0.000000;,
 -0.999993;-0.167427;0.000000;,
 -0.999993;-2.430635;0.000000;,
 -0.499993;2.500000;-0.866025;,
 -0.851993;1.892016;-1.475707;,
 -0.700592;-0.374575;-1.729471;,
 -0.700592;-2.345339;-1.729471;,
 0.500007;2.500000;-0.866025;,
 0.852007;1.892016;-1.475707;,
 0.299409;-0.374575;-2.121947;,
 0.299409;-2.345339;-2.121947;,
 1.000007;2.500000;0.000000;,
 1.704007;1.892016;-0.000000;,
 1.000007;-0.167427;-0.000000;,
 1.000007;-2.430635;-0.000000;;

 23;
 6;4,1,17,14,12,10;,
 4;47,51,0,48;,
 3;51,47,26;,
 4;50,7,9,3;,
 6;13,15,23,2,8,11;,
 4;16,52,51,19;,
 4;48,44,43,47;,
 4;42,6,25,28;,
 4;5,42,41,45;,
 4;43,44,40,39;,
 3;28,43,39;,
 4;24,47,43,28;,
 4;39,35,34,38;,
 4;42,38,37,41;,
 4;51,27,46,50;,
 4;18,51,50,21;,
 4;40,36,35,39;,
 4;38,34,33,37;,
 4;20,50,49,22;,
 4;36,32,31,35;,
 4;35,31,30,34;,
 4;34,30,29,33;,
 4;39,38,42,28;;

 MeshMaterialList {
  1;
  23;
  0,
  0,
  0,
  0,
  0,
  0,
  0,
  0,
  0,
  0,
  0,
  0,
  0,
  0,
  0,
  0,
  0,
  0,
  0,
  0,
  0,
  0,
  0;
Material {
 1.000000;1.000000;1.000000;1.000000;;
 0.000000;
 1.000000;1.000000;1.000000;;
 0.0; 0.0; 0.0;;
 TextureFilename {
  "fig16.ppm";
 }
 }
}
 MeshNormals {
  53;
  0.890483;-0.448267;0.078074;,
  0.890483;-0.448267;0.078074;,
  0.451623;0.892209;-0.000000;,
  0.451623;0.892209;-0.000000;,
  0.337251;-0.580917;-0.740809;,
  0.515274;0.322870;-0.793881;,
  0.515274;0.322870;-0.793881;,
  0.515274;0.322870;-0.793881;,
  0.225811;0.892209;-0.391117;,
  0.225811;0.892209;-0.391117;,
  -0.688850;-0.443090;-0.573721;,
  -0.225811;0.892209;-0.391117;,
  -0.882862;-0.447256;0.143238;,
  -0.451622;0.892209;0.000000;,
  -0.453398;-0.451400;0.768549;,
  -0.225811;0.892209;0.391117;,
  0.436392;-0.505979;0.744007;,
  0.436392;-0.505979;0.744007;,
  0.493144;-0.165036;0.854150;,
  0.493144;-0.165036;0.854150;,
  0.482608;0.261458;0.835900;,
  0.482608;0.261458;0.835900;,
  0.225811;0.892209;0.391117;,
  0.225811;0.892209;0.391117;,
  0.648723;0.219209;-0.728770;,
  0.648723;0.219209;-0.728770;,
  0.648723;0.219209;-0.728770;,
  0.648723;0.219209;-0.728770;,
  -0.635999;0.432298;-0.639237;,
  0.225811;0.892209;0.391117;,
  0.482608;0.261458;0.835900;,
  0.493144;-0.165036;0.854150;,
  0.436392;-0.505979;0.744007;,
  -0.225811;0.892209;0.391117;,
  -0.482607;0.261458;0.835901;,
  -0.493144;-0.165036;0.854150;,
  -0.453398;-0.451400;0.768549;,
  -0.451622;0.892209;0.000000;,
  -0.957500;0.288184;0.011990;,
  -0.999013;0.023660;0.037586;,
  -0.882862;-0.447256;0.143238;,
  -0.225811;0.892209;-0.391117;,
  -0.515274;0.322870;-0.793881;,
  -0.688843;0.517231;-0.507905;,
  -0.688850;-0.443090;-0.573721;,
  0.225811;0.892209;-0.391117;,
  0.515274;0.322870;-0.793881;,
  0.560637;0.442133;-0.700146;,
  0.337251;-0.580917;-0.740809;,
  0.451623;0.892209;-0.000000;,
  0.957500;0.288184;0.011989;,
  0.996794;-0.076659;-0.022897;,
  0.890483;-0.448267;0.078074;;

  23;
  6;4,1,17,14,12,10;,
  4;47,51,0,48;,
  3;51,47,26;,
  4;50,7,9,3;,
  6;13,15,23,2,8,11;,
  4;16,52,51,19;,
  4;48,44,43,47;,
  4;42,6,25,28;,
  4;5,42,41,45;,
  4;43,44,40,39;,
  3;28,43,39;,
  4;24,47,43,28;,
  4;39,35,34,38;,
  4;42,38,37,41;,
  4;51,27,46,50;,
  4;18,51,50,21;,
  4;40,36,35,39;,
  4;38,34,33,37;,
  4;20,50,49,22;,
  4;36,32,31,35;,
  4;35,31,30,34;,
  4;34,30,29,33;,
  4;39,38,42,28;;
 }
 MeshTextureCoords { 
 53;
 0.124043;0.083873;,
 0.115181;0.214636;,
 0.250494;0.555616;,
 0.122790;0.294266;,
 0.107106;0.214178;,
 0.159945;0.229727;,
 0.159945;0.229727;,
 0.142972;0.229667;,
 0.195332;0.473151;,
 0.141014;0.294320;,
 0.117179;0.213610;,
 0.115988;0.471544;,
 0.140858;0.213678;,
 0.059812;0.560322;,
 0.147716;0.214166;,
 0.099658;0.645745;,
 0.109400;0.083474;,
 0.141352;0.214760;,
 0.108740;0.182575;,
 0.108740;0.182575;,
 0.108872;0.229569;,
 0.108872;0.229569;,
 0.110689;0.292710;,
 0.211746;0.647740;,
 0.160755;0.187796;,
 0.160755;0.187796;,
 0.139232;0.186970;,
 0.139232;0.186970;,
 0.139232;0.186970;,
 0.101393;0.292862;,
 0.101746;0.229527;,
 0.100580;0.182538;,
 0.099573;0.083436;,
 0.110689;0.292710;,
 0.108872;0.229569;,
 0.108740;0.182575;,
 0.109400;0.083474;,
 0.122790;0.294266;,
 0.124430;0.229613;,
 0.123519;0.181667;,
 0.123621;0.083515;,
 0.141014;0.294320;,
 0.142972;0.229667;,
 0.146516;0.175835;,
 0.147091;0.087317;,
 0.159461;0.294761;,
 0.142972;0.229667;,
 0.157593;0.174259;,
 0.157222;0.084259;,
 0.122790;0.294266;,
 0.124430;0.229613;,
 0.123519;0.181667;,
 0.123621;0.083515;;
 }
}
}
}
Frame frm-lwing {
  FrameTransformMatrix {
-1.000000,0.000000,-0.000000,0.000000,
0.000000,1.000000,0.000000,0.000000,
0.000000,0.000000,-1.000000,0.000000,
0.035106,-0.226345,1.013678,1.000000;;
 }
Mesh lwing {
 15;
 -2.212361;-0.605324;-5.205925;,
 -2.564313;-0.621682;-1.590986;,
 -6.793541;0.228311;-5.205925;,
 -6.793541;0.228311;-4.096522;,
 -6.793541;0.228311;-4.096522;,
 -3.725252;-0.410427;-1.841540;,
 -3.725252;-0.410427;-1.841540;,
 -3.725252;-0.410427;-1.841540;,
 -3.676293;-0.141373;-2.288705;,
 -6.419409;0.286153;-4.543687;,
 -6.793541;0.228311;-4.096522;,
 -6.793541;0.228311;-5.205925;,
 -2.515353;-0.352628;-2.038151;,
 -2.564313;-0.621682;-1.590986;,
 -2.212361;-0.605324;-5.205925;;

 5;
 4;6,1,12,8;,
 4;8,9,4,5;,
 5;0,13,7,3,2;,
 3;11,10,9;,
 5;9,8,12,14,11;;

 MeshMaterialList {
  2;
  5;
  0,
  0,
  1,
  0,
  0;
Material {
 1.000000;1.000000;1.000000;1.000000;;
 0.000000;
 1.000000;1.000000;1.000000;;
 0.0; 0.0; 0.0;;
 TextureFilename {
  "fig16.ppm";
 }
 }
Material {
 1.000000;1.000000;1.000000;1.000000;;
 0.000000;
 1.000000;1.000000;1.000000;;
 0.0; 0.0; 0.0;;
 TextureFilename {
  "fig16.ppm";
 }
 }
}
 MeshNormals {
  15;
  0.116983;-0.052173;-0.991763;,
  -0.259294;-0.242116;0.934958;,
  -0.136541;0.985910;-0.096630;,
  -0.369727;0.888850;0.270644;,
  -0.369727;0.888850;0.270644;,
  -0.175349;0.701787;0.690469;,
  -0.175349;0.701787;0.690469;,
  -0.175349;0.701787;0.690469;,
  0.058072;0.963535;0.261206;,
  -0.009843;0.996720;0.080331;,
  -0.369727;0.888850;0.270644;,
  -0.136541;0.985910;-0.096630;,
  0.124758;0.964748;0.231728;,
  -0.259294;-0.242116;0.934958;,
  0.116983;-0.052173;-0.991763;;

  5;
  4;6,1,12,8;,
  4;8,9,4,5;,
  5;0,13,7,3,2;,
  3;11,10,9;,
  5;9,8,12,14,11;;
 }
 MeshTextureCoords { 
 15;
 0.281919;0.965284;,
 0.308357;0.696700;,
 0.018808;0.965284;,
 0.018807;0.883357;,
 0.615346;0.878903;,
 0.392031;0.713957;,
 0.392031;0.713957;,
 0.195029;0.716831;,
 0.389126;0.747525;,
 0.589101;0.912896;,
 0.615346;0.878903;,
 0.616677;0.952027;,
 0.305452;0.730268;,
 0.261705;0.698328;,
 0.297859;0.958940;;
 }
}
Frame frm-lwingpod {
  FrameTransformMatrix {
-0.109340,0.000000,-0.000000,0.000000,
0.000000,0.000000,-0.505196,0.000000,
0.000000,-0.109340,-0.000000,0.000000,
-6.758035,-0.002861,-3.990267,1.000000;;
 }
Mesh lwingpod {
 53;
 1.000007;-2.430635;0.000000;,
 1.000007;-2.430635;0.000000;,
 1.000007;2.500000;-0.000000;,
 1.000007;2.500000;-0.000000;,
 0.299409;-2.345339;2.121947;,
 0.852007;1.892016;1.475707;,
 0.852007;1.892016;1.475707;,
 0.852007;1.892016;1.475707;,
 0.500007;2.500000;0.866025;,
 0.500007;2.500000;0.866025;,
 -0.700592;-2.345339;1.729471;,
 -0.499993;2.500000;0.866025;,
 -0.999993;-2.430635;-0.000000;,
 -0.999993;2.500000;-0.000000;,
 -0.499993;-2.430635;-0.866026;,
 -0.499993;2.500000;-0.866026;,
 0.500007;-2.430635;-0.866025;,
 0.500007;-2.430635;-0.866025;,
 0.500007;-0.167427;-0.866025;,
 0.500007;-0.167427;-0.866025;,
 0.852008;1.892016;-1.475707;,
 0.852008;1.892016;-1.475707;,
 0.500007;2.500000;-0.866025;,
 0.500007;2.500000;-0.866025;,
 0.676007;-0.069074;0.862438;,
 0.676007;-0.069074;0.862438;,
 0.676007;-0.069074;0.862438;,
 0.676007;-0.069074;0.862438;,
 -0.675993;-0.069074;0.862438;,
 0.500007;2.500000;-0.866025;,
 0.852008;1.892016;-1.475707;,
 0.500007;-0.167427;-0.866025;,
 0.500007;-2.430635;-0.866025;,
 -0.499993;2.500000;-0.866026;,
 -0.851993;1.892016;-1.475708;,
 -0.499993;-0.167427;-0.866026;,
 -0.499993;-2.430635;-0.866026;,
 -0.999993;2.500000;-0.000000;,
 -1.703993;1.892016;-0.000000;,
 -0.999993;-0.167427;-0.000000;,
 -0.999993;-2.430635;-0.000000;,
 -0.499993;2.500000;0.866025;,
 -0.851993;1.892016;1.475707;,
 -0.700592;-0.374575;1.729471;,
 -0.700592;-2.345339;1.729471;,
 0.500007;2.500000;0.866025;,
 0.852007;1.892016;1.475707;,
 0.299409;-0.374575;2.121947;,
 0.299409;-2.345339;2.121947;,
 1.000007;2.500000;-0.000000;,
 1.704007;1.892016;0.000000;,
 1.000007;-0.167427;0.000000;,
 1.000007;-2.430635;0.000000;;

 23;
 6;10,12,14,17,1,4;,
 4;48,0,51,47;,
 3;26,47,51;,
 4;3,9,7,50;,
 6;11,8,2,23,15,13;,
 4;19,51,52,16;,
 4;47,43,44,48;,
 4;28,25,6,42;,
 4;45,41,42,5;,
 4;39,40,44,43;,
 3;39,43,28;,
 4;28,43,47,24;,
 4;38,34,35,39;,
 4;41,37,38,42;,
 4;50,46,27,51;,
 4;21,50,51,18;,
 4;39,35,36,40;,
 4;37,33,34,38;,
 4;22,49,50,20;,
 4;35,31,32,36;,
 4;34,30,31,35;,
 4;33,29,30,34;,
 4;28,42,38,39;;

 MeshMaterialList {
  1;
  23;
  0,
  0,
  0,
  0,
  0,
  0,
  0,
  0,
  0,
  0,
  0,
  0,
  0,
  0,
  0,
  0,
  0,
  0,
  0,
  0,
  0,
  0,
  0;
Material {
 1.000000;1.000000;1.000000;1.000000;;
 0.000000;
 1.000000;1.000000;1.000000;;
 0.0; 0.0; 0.0;;
 TextureFilename {
  "fig16.ppm";
 }
 }
}
 MeshNormals {
  53;
  0.890483;-0.448267;-0.078074;,
  0.890483;-0.448267;-0.078074;,
  0.451623;0.892209;0.000000;,
  0.451623;0.892209;0.000000;,
  0.337251;-0.580917;0.740809;,
  0.515274;0.322870;0.793881;,
  0.515274;0.322870;0.793881;,
  0.515274;0.322870;0.793881;,
  0.225811;0.892209;0.391117;,
  0.225811;0.892209;0.391117;,
  -0.688850;-0.443090;0.573721;,
  -0.225811;0.892209;0.391117;,
  -0.882862;-0.447256;-0.143238;,
  -0.451622;0.892209;-0.000000;,
  -0.453398;-0.451400;-0.768549;,
  -0.225811;0.892209;-0.391117;,
  0.436392;-0.505979;-0.744007;,
  0.436392;-0.505979;-0.744007;,
  0.493144;-0.165036;-0.854150;,
  0.493144;-0.165036;-0.854150;,
  0.482608;0.261458;-0.835900;,
  0.482608;0.261458;-0.835900;,
  0.225811;0.892209;-0.391117;,
  0.225811;0.892209;-0.391117;,
  0.648723;0.219209;0.728770;,
  0.648723;0.219209;0.728770;,
  0.648723;0.219209;0.728770;,
  0.648723;0.219209;0.728770;,
  -0.635999;0.432298;0.639237;,
  0.225811;0.892209;-0.391117;,
  0.482608;0.261458;-0.835900;,
  0.493144;-0.165036;-0.854150;,
  0.436392;-0.505979;-0.744007;,
  -0.225811;0.892209;-0.391117;,
  -0.482607;0.261458;-0.835901;,
  -0.493144;-0.165036;-0.854150;,
  -0.453398;-0.451400;-0.768549;,
  -0.451622;0.892209;-0.000000;,
  -0.957500;0.288184;-0.011990;,
  -0.999013;0.023660;-0.037586;,
  -0.882862;-0.447256;-0.143238;,
  -0.225811;0.892209;0.391117;,
  -0.515274;0.322870;0.793881;,
  -0.688843;0.517231;0.507905;,
  -0.688850;-0.443090;0.573721;,
  0.225811;0.892209;0.391117;,
  0.515274;0.322870;0.793881;,
  0.560637;0.442133;0.700146;,
  0.337251;-0.580917;0.740809;,
  0.451623;0.892209;0.000000;,
  0.957500;0.288184;-0.011989;,
  0.996794;-0.076659;0.022897;,
  0.890483;-0.448267;-0.078074;;

  23;
  6;10,12,14,17,1,4;,
  4;48,0,51,47;,
  3;26,47,51;,
  4;3,9,7,50;,
  6;11,8,2,23,15,13;,
  4;19,51,52,16;,
  4;47,43,44,48;,
  4;28,25,6,42;,
  4;45,41,42,5;,
  4;39,40,44,43;,
  3;39,43,28;,
  4;28,43,47,24;,
  4;38,34,35,39;,
  4;41,37,38,42;,
  4;50,46,27,51;,
  4;21,50,51,18;,
  4;39,35,36,40;,
  4;37,33,34,38;,
  4;22,49,50,20;,
  4;35,31,32,36;,
  4;34,30,31,35;,
  4;33,29,30,34;,
  4;28,42,38,39;;
 }
 MeshTextureCoords { 
 53;
 0.124043;0.083873;,
 0.115181;0.214636;,
 0.250494;0.555616;,
 0.122790;0.294266;,
 0.107106;0.214178;,
 0.159945;0.229727;,
 0.159945;0.229727;,
 0.142972;0.229667;,
 0.195332;0.473151;,
 0.141014;0.294320;,
 0.117179;0.213610;,
 0.115988;0.471544;,
 0.140858;0.213678;,
 0.059812;0.560322;,
 0.147716;0.214166;,
 0.099658;0.645745;,
 0.109400;0.083474;,
 0.141352;0.214760;,
 0.108740;0.182575;,
 0.108740;0.182575;,
 0.108872;0.229569;,
 0.108872;0.229569;,
 0.110689;0.292710;,
 0.211746;0.647740;,
 0.160755;0.187796;,
 0.160755;0.187796;,
 0.139232;0.186970;,
 0.139232;0.186970;,
 0.139232;0.186970;,
 0.101393;0.292862;,
 0.101746;0.229527;,
 0.100580;0.182538;,
 0.099573;0.083436;,
 0.110689;0.292710;,
 0.108872;0.229569;,
 0.108740;0.182575;,
 0.109400;0.083474;,
 0.122790;0.294266;,
 0.124430;0.229613;,
 0.123519;0.181667;,
 0.123621;0.083515;,
 0.141014;0.294320;,
 0.142972;0.229667;,
 0.146516;0.175835;,
 0.147091;0.087317;,
 0.159461;0.294761;,
 0.142972;0.229667;,
 0.157593;0.174259;,
 0.157222;0.084259;,
 0.122790;0.294266;,
 0.124430;0.229613;,
 0.123519;0.181667;,
 0.123621;0.083515;;
 }
}
}
}
Frame frm-rstablat {
  FrameTransformMatrix {
1.000000,0.000000,0.000000,0.000000,
0.000000,1.000000,0.000000,0.000000,
0.000000,0.000000,1.000000,0.000000,
0.035106,-0.226345,1.013678,1.000000;;
 }
Mesh rstablat {
 12;
 -1.045329;1.004177;4.787909;,
 -1.223522;1.536061;2.054345;,
 -2.033862;3.033903;4.787909;,
 -2.033862;3.033903;4.787909;,
 -2.062147;3.100804;3.364083;,
 -2.062147;3.100804;3.364083;,
 -2.069664;2.928757;3.684253;,
 -2.062147;3.100804;3.364083;,
 -2.033862;3.033903;4.787909;,
 -1.408027;1.476497;2.374515;,
 -1.223522;1.536061;2.054345;,
 -1.045329;1.004177;4.787909;;

 4;
 4;6,9,0,3;,
 4;6,5,1,9;,
 4;11,10,4,2;,
 3;8,7,6;;

 MeshMaterialList {
  2;
  4;
  0,
  0,
  1,
  0;
Material {
 1.000000;1.000000;1.000000;1.000000;;
 0.000000;
 1.000000;1.000000;1.000000;;
 0.0; 0.0; 0.0;;
 TextureFilename {
  "fig16.ppm";
 }
 }
Material {
 1.000000;1.000000;1.000000;1.000000;;
 0.000000;
 1.000000;1.000000;1.000000;;
 0.0; 0.0; 0.0;;
 TextureFilename {
  "fig16.ppm";
 }
 }
}
 MeshNormals {
  12;
  0.000603;0.037914;0.999281;,
  -0.075219;0.659182;-0.748212;,
  -0.992946;0.071450;0.094619;,
  -0.992946;0.071450;0.094619;,
  -0.915117;0.310897;-0.256717;,
  -0.915117;0.310897;-0.256717;,
  -0.979162;-0.181970;-0.090156;,
  -0.915117;0.310897;-0.256717;,
  -0.992946;0.071450;0.094619;,
  -0.937815;-0.314981;-0.145910;,
  -0.075219;0.659182;-0.748212;,
  0.000603;0.037914;0.999281;;

  4;
  4;6,9,0,3;,
  4;6,5,1,9;,
  4;11,10,4,2;,
  3;8,7,6;;
 }
 MeshTextureCoords { 
 12;
 0.666491;0.677534;,
 0.936276;0.605880;,
 0.646121;0.706928;,
 0.666491;0.386127;,
 0.779592;0.697633;,
 0.807014;0.376772;,
 0.775415;0.396156;,
 0.807014;0.376772;,
 0.666491;0.386127;,
 0.904678;0.601998;,
 0.902368;0.924976;,
 0.646121;0.996248;;
 }
}
}
Frame frm-lstablat {
  FrameTransformMatrix {
-1.000000,0.000000,-0.000000,0.000000,
0.000000,1.000000,0.000000,0.000000,
0.000000,0.000000,-1.000000,0.000000,
0.035106,-0.226345,1.013678,1.000000;;
 }
Mesh lstablat {
 12;
 -1.045329;1.004177;-4.787909;,
 -1.223522;1.536061;-2.054345;,
 -2.033862;3.033903;-4.787909;,
 -2.033862;3.033903;-4.787909;,
 -2.062147;3.100804;-3.364083;,
 -2.062147;3.100804;-3.364083;,
 -2.069664;2.928757;-3.684253;,
 -2.062147;3.100804;-3.364083;,
 -2.033862;3.033903;-4.787909;,
 -1.408027;1.476497;-2.374515;,
 -1.223522;1.536061;-2.054345;,
 -1.045329;1.004177;-4.787909;;

 4;
 4;3,0,9,6;,
 4;9,1,5,6;,
 4;2,4,10,11;,
 3;6,7,8;;

 MeshMaterialList {
  2;
  4;
  0,
  0,
  1,
  0;
Material {
 1.000000;1.000000;1.000000;1.000000;;
 0.000000;
 1.000000;1.000000;1.000000;;
 0.0; 0.0; 0.0;;
 TextureFilename {
  "fig16.ppm";
 }
 }
Material {
 1.000000;1.000000;1.000000;1.000000;;
 0.000000;
 1.000000;1.000000;1.000000;;
 0.0; 0.0; 0.0;;
 TextureFilename {
  "fig16.ppm";
 }
 }
}
 MeshNormals {
  12;
  0.000603;0.037914;-0.999281;,
  -0.075219;0.659182;0.748212;,
  -0.992946;0.071450;-0.094619;,
  -0.992946;0.071450;-0.094619;,
  -0.915117;0.310897;0.256717;,
  -0.915117;0.310897;0.256717;,
  -0.979162;-0.181970;0.090156;,
  -0.915117;0.310897;0.256717;,
  -0.992946;0.071450;-0.094619;,
  -0.937815;-0.314981;0.145910;,
  -0.075219;0.659182;0.748212;,
  0.000603;0.037914;-0.999281;;

  4;
  4;3,0,9,6;,
  4;9,1,5,6;,
  4;2,4,10,11;,
  3;6,7,8;;
 }
 MeshTextureCoords { 
 12;
 0.666491;0.677534;,
 0.936276;0.605880;,
 0.646121;0.706928;,
 0.666491;0.386127;,
 0.779592;0.697633;,
 0.807014;0.376772;,
 0.775415;0.396156;,
 0.807014;0.376772;,
 0.666491;0.386127;,
 0.904678;0.601998;,
 0.902368;0.924976;,
 0.646121;0.996248;;
 }
}
}
Frame frm-tur_pod {
  FrameTransformMatrix {
1.000000,0.000000,0.000000,0.000000,
0.000000,1.000000,0.000000,0.000000,
0.000000,0.000000,1.000000,0.000000,
0.035106,-1.263847,-5.126698,1.000000;;
 }
Mesh tur_pod {
 57;
 0.593374;-0.347591;-0.593374;,
 0.593374;-0.347591;-0.593374;,
 0.593374;-0.347591;-0.593374;,
 0.763633;-0.347591;-0.000000;,
 0.763633;-0.347591;-0.000000;,
 0.763633;-0.347591;-0.000000;,
 0.000000;-0.347591;-0.839158;,
 0.000000;-0.347591;-0.839158;,
 0.000000;-0.347591;-0.839158;,
 -0.593374;-0.347591;-0.593374;,
 -0.593374;-0.347591;-0.593374;,
 -0.593374;-0.347591;-0.593374;,
 -0.763633;-0.347591;-0.000000;,
 -0.763633;-0.347591;-0.000000;,
 -0.763633;-0.347591;-0.000000;,
 -0.593374;-0.347591;0.790907;,
 -0.593374;-0.347591;0.790907;,
 -0.593374;-0.347591;0.790907;,
 0.000000;-0.347591;1.036690;,
 0.000000;-0.347591;1.036690;,
 0.000000;-0.347591;1.036690;,
 0.593374;-0.347591;0.790907;,
 0.593374;-0.347591;0.790907;,
 0.593374;-0.347591;0.790907;,
 0.245784;-0.767328;0.443316;,
 0.454149;-0.547987;0.651681;,
 0.642264;0.000000;0.839796;,
 0.593374;-0.347591;0.790907;,
 0.000000;-0.767328;0.545123;,
 0.000000;-0.547987;0.839796;,
 0.000000;0.000000;1.105831;,
 0.000000;-0.347591;1.036690;,
 -0.245784;-0.767328;0.443316;,
 -0.454149;-0.547987;0.651681;,
 -0.642264;0.000000;0.839796;,
 -0.593374;-0.347591;0.790907;,
 -0.347591;-0.803243;-0.000000;,
 -0.642264;-0.642264;-0.000000;,
 -0.826551;0.000000;-0.000000;,
 -0.763633;-0.347591;-0.000000;,
 -0.245784;-0.803243;-0.245784;,
 -0.454149;-0.642264;-0.454149;,
 -0.518949;0.000000;-0.642264;,
 -0.593374;-0.347591;-0.593374;,
 0.000000;-0.803243;-0.347591;,
 0.000000;-0.642264;-0.642264;,
 0.000000;0.000000;-0.908298;,
 0.000000;-0.347591;-0.839158;,
 0.000000;-0.881362;-0.000000;,
 0.347591;-0.803243;-0.000000;,
 0.245784;-0.803243;-0.245784;,
 0.642264;-0.642264;-0.000000;,
 0.454149;-0.642264;-0.454149;,
 0.518949;0.000000;-0.642264;,
 0.826551;0.000000;-0.000000;,
 0.763633;-0.347591;-0.000000;,
 0.593374;-0.347591;-0.593374;;

 32;
 4;53,54,5,2;,
 4;1,4,51,52;,
 4;52,51,49,50;,
 3;48,50,49;,
 4;46,53,0,8;,
 4;7,56,52,45;,
 4;45,52,50,44;,
 3;48,44,50;,
 4;42,46,6,11;,
 4;10,47,45,41;,
 4;41,45,44,40;,
 3;48,40,44;,
 4;38,42,9,14;,
 4;13,43,41,37;,
 4;37,41,40,36;,
 3;48,36,40;,
 4;34,38,12,17;,
 4;16,39,37,33;,
 4;33,37,36,32;,
 3;48,32,36;,
 4;30,34,15,20;,
 4;19,35,33,29;,
 4;29,33,32,28;,
 3;48,28,32;,
 4;26,30,18,23;,
 4;22,31,29,25;,
 4;25,29,28,24;,
 3;48,24,28;,
 4;54,26,21,3;,
 4;55,27,25,51;,
 4;51,25,24,49;,
 3;48,49,24;;

 MeshMaterialList {
  1;
  32;
  0,
  0,
  0,
  0,
  0,
  0,
  0,
  0,
  0,
  0,
  0,
  0,
  0,
  0,
  0,
  0,
  0,
  0,
  0,
  0,
  0,
  0,
  0,
  0,
  0,
  0,
  0,
  0,
  0,
  0,
  0,
  0;
Material {
 1.000000;1.000000;1.000000;1.000000;;
 0.000000;
 1.000000;1.000000;1.000000;;
 0.0; 0.0; 0.0;;
 TextureFilename {
  "fig16.ppm";
 }
 }
}
 MeshNormals {
  57;
  0.698943;-0.301428;-0.648552;,
  0.698943;-0.301428;-0.648552;,
  0.698943;-0.301428;-0.648552;,
  0.952300;-0.300363;-0.053913;,
  0.952300;-0.300363;-0.053913;,
  0.952300;-0.300363;-0.053913;,
  0.000000;-0.351452;-0.936206;,
  0.000000;-0.351452;-0.936206;,
  0.000000;-0.351452;-0.936206;,
  -0.698943;-0.301428;-0.648552;,
  -0.698943;-0.301428;-0.648552;,
  -0.698943;-0.301428;-0.648552;,
  -0.952300;-0.300363;-0.053913;,
  -0.952300;-0.300363;-0.053913;,
  -0.952300;-0.300363;-0.053913;,
  -0.693367;-0.431561;0.577059;,
  -0.693367;-0.431561;0.577059;,
  -0.693367;-0.431561;0.577059;,
  -0.000000;-0.472055;0.881569;,
  -0.000000;-0.472055;0.881569;,
  -0.000000;-0.472055;0.881569;,
  0.693367;-0.431561;0.577059;,
  0.693367;-0.431561;0.577059;,
  0.693367;-0.431561;0.577059;,
  0.274851;-0.914653;0.296424;,
  0.497023;-0.735316;0.460736;,
  0.752666;-0.196879;0.628278;,
  0.693367;-0.431561;0.577059;,
  0.000000;-0.913019;0.407917;,
  -0.000000;-0.754059;0.656806;,
  -0.000000;-0.195090;0.980785;,
  -0.000000;-0.472055;0.881569;,
  -0.274851;-0.914653;0.296424;,
  -0.497023;-0.735316;0.460736;,
  -0.752666;-0.196879;0.628278;,
  -0.693367;-0.431561;0.577059;,
  -0.366943;-0.930023;0.020243;,
  -0.712713;-0.701451;-0.002696;,
  -0.992417;-0.093991;-0.079211;,
  -0.952300;-0.300363;-0.053913;,
  -0.248741;-0.936085;-0.248741;,
  -0.497651;-0.728165;-0.471295;,
  -0.728081;-0.064139;-0.682484;,
  -0.698943;-0.301428;-0.648552;,
  0.000000;-0.936085;-0.351773;,
  0.000000;-0.740915;-0.671599;,
  0.000000;-0.119655;-0.992815;,
  0.000000;-0.351452;-0.936206;,
  -0.000000;-0.999982;0.006053;,
  0.366943;-0.930023;0.020243;,
  0.248741;-0.936085;-0.248741;,
  0.712713;-0.701451;-0.002696;,
  0.497651;-0.728165;-0.471295;,
  0.728081;-0.064139;-0.682484;,
  0.992417;-0.093991;-0.079211;,
  0.952300;-0.300363;-0.053913;,
  0.698943;-0.301428;-0.648552;;

  32;
  4;53,54,5,2;,
  4;1,4,51,52;,
  4;52,51,49,50;,
  3;48,50,49;,
  4;46,53,0,8;,
  4;7,56,52,45;,
  4;45,52,50,44;,
  3;48,44,50;,
  4;42,46,6,11;,
  4;10,47,45,41;,
  4;41,45,44,40;,
  3;48,40,44;,
  4;38,42,9,14;,
  4;13,43,41,37;,
  4;37,41,40,36;,
  3;48,36,40;,
  4;34,38,12,17;,
  4;16,39,37,33;,
  4;33,37,36,32;,
  3;48,32,36;,
  4;30,34,15,20;,
  4;19,35,33,29;,
  4;29,33,32,28;,
  3;48,28,32;,
  4;26,30,18,23;,
  4;22,31,29,25;,
  4;25,29,28,24;,
  3;48,24,28;,
  4;54,26,21,3;,
  4;55,27,25,51;,
  4;51,25,24,49;,
  3;48,49,24;;
 }
 MeshTextureCoords { 
 57;
 0.579534;0.685027;,
 0.578675;0.686660;,
 0.579534;0.685027;,
 0.576567;0.685905;,
 0.526447;0.704152;,
 0.576567;0.685905;,
 0.580765;0.681958;,
 0.604412;0.635345;,
 0.580765;0.681958;,
 0.579540;0.678888;,
 0.578788;0.583166;,
 0.579540;0.678888;,
 0.576575;0.678005;,
 0.526593;0.564350;,
 0.576575;0.678005;,
 0.572621;0.678883;,
 0.454069;0.584747;,
 0.572621;0.678883;,
 0.571389;0.681951;,
 0.433749;0.635229;,
 0.571389;0.681951;,
 0.572615;0.685022;,
 0.445622;0.679074;,
 0.572615;0.685022;,
 0.484687;0.657563;,
 0.465016;0.676453;,
 0.572370;0.685275;,
 0.445622;0.679074;,
 0.475109;0.635259;,
 0.447318;0.635241;,
 0.571044;0.681951;,
 0.433749;0.635229;,
 0.484734;0.612968;,
 0.465103;0.594053;,
 0.572377;0.678630;,
 0.454069;0.584747;,
 0.526553;0.603760;,
 0.526581;0.577027;,
 0.576575;0.677679;,
 0.526593;0.564350;,
 0.549723;0.613011;,
 0.569394;0.594121;,
 0.579784;0.679273;,
 0.578788;0.583166;,
 0.559302;0.635314;,
 0.587093;0.635332;,
 0.581111;0.681958;,
 0.604412;0.635345;,
 0.526520;0.635293;,
 0.526487;0.666826;,
 0.549677;0.657605;,
 0.526459;0.693558;,
 0.569308;0.676521;,
 0.579779;0.684642;,
 0.576567;0.686231;,
 0.526447;0.704152;,
 0.578675;0.686660;;
 }
}
Frame frm-fgun {
  FrameTransformMatrix {
1.000000,0.000000,0.000000,0.000000,
0.000000,1.000000,0.000000,0.000000,
0.000000,0.000000,1.000000,0.000000,
0.000000,-0.562856,-1.331067,1.000000;;
 }
Mesh fgun {
 57;
 0.038752;0.119267;0.953646;,
 0.038752;0.119267;0.953646;,
 0.125405;0.000000;0.953646;,
 0.125405;0.000000;0.953646;,
 0.125405;0.000000;0.953646;,
 0.023986;0.073821;-0.895362;,
 0.023986;0.073821;-0.895362;,
 0.077620;-0.000000;-0.895362;,
 0.077620;-0.000000;-0.895362;,
 -0.101455;0.073711;0.953646;,
 -0.101455;0.073711;0.953646;,
 -0.062796;0.045624;-0.895362;,
 -0.062796;0.045624;-0.895362;,
 -0.101455;-0.073711;0.953646;,
 -0.101455;-0.073711;0.953646;,
 -0.101455;-0.073711;0.953646;,
 -0.064760;-0.047051;-0.559711;,
 -0.064760;-0.047051;-0.559711;,
 -0.098121;-0.071289;-0.715217;,
 -0.098121;-0.071289;-0.715217;,
 -0.062796;-0.045624;-0.895362;,
 -0.062796;-0.045624;-0.895362;,
 0.038752;-0.119267;0.953646;,
 0.038752;-0.119267;0.953646;,
 0.038752;-0.119267;0.953646;,
 0.024736;-0.076130;-0.559711;,
 0.024736;-0.076130;-0.559711;,
 0.037479;-0.115349;-0.715217;,
 0.037479;-0.115349;-0.715217;,
 0.037479;-0.115349;-0.715217;,
 0.023986;-0.073821;-0.895362;,
 0.023986;-0.073821;-0.895362;,
 0.038752;0.119267;0.953646;,
 -0.101455;0.073711;0.953646;,
 -0.101455;-0.073711;0.953646;,
 0.038752;-0.119267;0.953646;,
 0.125405;0.000000;0.953646;,
 0.023986;-0.073821;-0.895362;,
 0.037479;-0.115349;-0.715217;,
 0.024736;-0.076130;-0.559711;,
 0.038752;-0.119267;0.953646;,
 -0.062796;-0.045624;-0.895362;,
 -0.098121;-0.071289;-0.715217;,
 -0.064760;-0.047051;-0.559711;,
 -0.101455;-0.073711;0.953646;,
 -0.062796;0.045624;-0.895362;,
 -0.098121;0.071289;-0.715217;,
 -0.064760;0.047051;-0.559711;,
 -0.101455;0.073711;0.953646;,
 0.077620;-0.000000;-0.895362;,
 0.023986;0.073821;-0.895362;,
 0.121285;0.000000;-0.715217;,
 0.037479;0.115349;-0.715217;,
 0.024736;0.076130;-0.559711;,
 0.080048;0.000000;-0.559711;,
 0.125405;0.000000;0.953646;,
 0.038752;0.119267;0.953646;;

 21;
 4;32,36,4,1;,
 4;33,32,0,10;,
 4;51,52,53,54;,
 4;56,3,54,53;,
 4;8,6,52,51;,
 4;29,51,54,26;,
 4;2,24,25,54;,
 4;34,33,9,15;,
 4;35,34,14,23;,
 4;52,46,47,53;,
 4;48,56,53,47;,
 4;5,12,46,52;,
 4;21,31,28,19;,
 4;22,13,17,39;,
 4;36,35,40,55;,
 4;18,27,39,16;,
 4;46,42,43,47;,
 4;44,48,47,43;,
 4;11,20,42,46;,
 4;30,7,51,38;,
 5;50,49,37,41,45;;

 MeshMaterialList {
  1;
  21;
  0,
  0,
  0,
  0,
  0,
  0,
  0,
  0,
  0,
  0,
  0,
  0,
  0,
  0,
  0,
  0,
  0,
  0,
  0,
  0,
  0;
Material {
 1.000000;1.000000;1.000000;1.000000;;
 0.000000;
 1.000000;1.000000;1.000000;;
 0.0; 0.0; 0.0;;
 TextureFilename {
  "fig16.ppm";
 }
 }
}
 MeshNormals {
  57;
  0.308878;0.950630;-0.029957;,
  0.308878;0.950630;-0.029957;,
  0.999551;0.000000;-0.029957;,
  0.999551;0.000000;-0.029957;,
  0.999551;0.000000;-0.029957;,
  0.232883;0.716740;-0.657304;,
  0.232883;0.716740;-0.657304;,
  0.753625;0.000000;-0.657304;,
  0.753625;0.000000;-0.657304;,
  -0.808654;0.587521;-0.029957;,
  -0.808654;0.587521;-0.029957;,
  -0.609696;0.442970;-0.657304;,
  -0.609696;0.442970;-0.657304;,
  -0.808654;-0.587522;-0.029957;,
  -0.808654;-0.587522;-0.029957;,
  -0.808654;-0.587522;-0.029957;,
  -0.803631;-0.583872;0.115194;,
  -0.803631;-0.583872;0.115194;,
  -0.808969;-0.587750;0.010936;,
  -0.808969;-0.587750;0.010936;,
  -0.609696;-0.442970;-0.657304;,
  -0.609696;-0.442970;-0.657304;,
  0.308878;-0.950630;-0.029957;,
  0.308878;-0.950630;-0.029957;,
  0.308878;-0.950630;-0.029957;,
  0.306960;-0.944725;0.115194;,
  0.306960;-0.944725;0.115194;,
  0.308999;-0.951000;0.010936;,
  0.308999;-0.951000;0.010936;,
  0.308999;-0.951000;0.010936;,
  0.232883;-0.716740;-0.657304;,
  0.232883;-0.716740;-0.657304;,
  0.000000;0.000000;0.000000;,
  0.000000;0.000000;0.000000;,
  0.000000;0.000000;0.000000;,
  0.000000;0.000000;0.000000;,
  0.000000;0.000000;0.000000;,
  0.232883;-0.716740;-0.657304;,
  0.308999;-0.951000;0.010936;,
  0.306960;-0.944725;0.115194;,
  0.308878;-0.950630;-0.029957;,
  -0.609696;-0.442970;-0.657304;,
  -0.808969;-0.587750;0.010936;,
  -0.803631;-0.583872;0.115194;,
  -0.808654;-0.587522;-0.029957;,
  -0.609696;0.442970;-0.657304;,
  -0.808969;0.587750;0.010935;,
  -0.803631;0.583872;0.115194;,
  -0.808654;0.587521;-0.029957;,
  0.753625;0.000000;-0.657304;,
  0.232883;0.716740;-0.657304;,
  0.999940;0.000000;0.010936;,
  0.308999;0.951000;0.010935;,
  0.306960;0.944725;0.115194;,
  0.993343;0.000000;0.115194;,
  0.999551;0.000000;-0.029957;,
  0.308878;0.950630;-0.029957;;

  21;
  4;32,36,4,1;,
  4;33,32,0,10;,
  4;51,52,53,54;,
  4;56,3,54,53;,
  4;8,6,52,51;,
  4;29,51,54,26;,
  4;2,24,25,54;,
  4;34,33,9,15;,
  4;35,34,14,23;,
  4;52,46,47,53;,
  4;48,56,53,47;,
  4;5,12,46,52;,
  4;21,31,28,19;,
  4;22,13,17,39;,
  4;36,35,40,55;,
  4;18,27,39,16;,
  4;46,42,43,47;,
  4;44,48,47,43;,
  4;11,20,42,46;,
  4;30,7,51,38;,
  5;50,49,37,41,45;;
 }
 MeshTextureCoords { 
 57;
 0.000000;0.000000;,
 0.000000;0.000000;,
 0.969728;0.999306;,
 0.969728;0.999306;,
 0.000000;0.500000;,
 0.986055;0.637233;,
 0.986055;0.637233;,
 0.969753;0.637226;,
 0.969753;0.637226;,
 0.000000;0.190983;,
 0.000000;0.190983;,
 0.969753;0.637226;,
 0.969753;0.637226;,
 0.934775;0.997515;,
 0.000000;0.809017;,
 0.000000;0.809017;,
 0.934113;0.703152;,
 0.934113;0.703152;,
 0.934717;0.672908;,
 0.934717;0.672908;,
 0.986055;0.637233;,
 0.934078;0.637865;,
 0.932941;0.997504;,
 0.000000;1.000000;,
 0.949399;0.999317;,
 0.939894;0.702962;,
 0.939894;0.702962;,
 0.932943;0.672897;,
 0.932943;0.672897;,
 0.948557;0.672514;,
 0.939389;0.637233;,
 0.932943;0.637858;,
 0.000000;0.000000;,
 0.000000;0.190983;,
 0.000000;0.809017;,
 0.000000;1.000000;,
 0.000000;0.500000;,
 0.894167;0.713333;,
 0.948557;0.672514;,
 0.932943;0.703144;,
 0.000000;1.000000;,
 0.845000;0.710833;,
 0.995223;0.672514;,
 0.986561;0.702962;,
 0.996066;0.999317;,
 0.836667;0.674167;,
 0.969751;0.672503;,
 0.969749;0.702954;,
 0.969728;0.999306;,
 0.905833;0.675000;,
 0.871667;0.643333;,
 0.969751;0.672503;,
 0.995223;0.672514;,
 0.986561;0.702962;,
 0.969749;0.702954;,
 0.000000;0.500000;,
 0.996066;0.999317;;
 }
}
}
}
Frame frm-trail {
  FrameTransformMatrix {
1.000000,0.000000,0.000000,0.000000,
0.000000,1.000000,0.000000,0.000000,
0.000000,0.000000,1.000000,0.000000,
0.035106,-0.226345,7.000140,1.000000;;
 }
Mesh trail {
 4;
 -0.060339;-0.021333;0.000000;,
 0.000000;0.064000;0.000000;,
 0.030170;-0.021333;0.052256;,
 0.030170;-0.021333;-0.052256;;

 4;
 3;2,1,0;,
 3;3,0,1;,
 3;0,3,2;,
 3;1,2,3;;

 MeshMaterialList {
  1;
  4;
  0,
  0,
  0,
  0;
Material {
 1.000000;1.000000;1.000000;1.000000;;
 0.000000;
 1.000000;1.000000;1.000000;;
 0.000000;0.000000;0.000000;;
 TextureFilename {
  "fig16.ppm";
 }
 }
}
 MeshNormals {
  4;
  -0.942809;-0.333333;0.000000;,
  0.000000;1.000000;-0.000000;,
  0.471404;-0.333333;0.816497;,
  0.471404;-0.333333;-0.816497;;

  4;
  3;2,1,0;,
  3;3,0,1;,
  3;0,3,2;,
  3;1,2,3;;
 }
 MeshTextureCoords { 
 4;
 0.000000;1.000000;,
 0.000000;1.000000;,
 0.000000;1.000000;,
 0.000000;1.000000;;
 }
}
}
Frame frm-cockpt {
  FrameTransformMatrix {
1.000000,0.000000,0.000000,0.000000,
0.000000,1.000000,0.000000,0.000000,
0.000000,0.000000,1.000000,0.000000,
0.035106,1.014880,-3.596586,1.000000;;
 }
Mesh cockpt {
 4;
 -0.060339;-0.021333;0.000000;,
 0.000000;0.064000;0.000000;,
 0.030170;-0.021333;0.052256;,
 0.030170;-0.021333;-0.052256;;

 4;
 3;2,1,0;,
 3;3,0,1;,
 3;0,3,2;,
 3;1,2,3;;

 MeshMaterialList {
  1;
  4;
  0,
  0,
  0,
  0;
Material {
 1.000000;1.000000;1.000000;1.000000;;
 0.000000;
 1.000000;1.000000;1.000000;;
 0.000000;0.000000;0.000000;;
 TextureFilename {
  "fig16.ppm";
 }
 }
}
 MeshNormals {
  4;
  -0.942809;-0.333333;0.000000;,
  0.000000;1.000000;-0.000000;,
  0.471404;-0.333333;0.816497;,
  0.471404;-0.333333;-0.816497;;

  4;
  3;2,1,0;,
  3;3,0,1;,
  3;0,3,2;,
  3;1,2,3;;
 }
 MeshTextureCoords { 
 4;
 0.000000;1.000000;,
 0.000000;1.000000;,
 0.000000;1.000000;,
 0.000000;1.000000;;
 }
}
}
Frame frm-lthrust {
  FrameTransformMatrix {
1.000000,0.000000,0.000000,0.000000,
0.000000,1.000000,0.000000,0.000000,
0.000000,0.000000,1.000000,0.000000,
1.099129,-0.226345,6.932085,1.000000;;
 }
Mesh lthrust {
 4;
 -0.060339;-0.021333;0.000000;,
 0.000000;0.064000;0.000000;,
 0.030170;-0.021333;0.052256;,
 0.030170;-0.021333;-0.052256;;

 4;
 3;2,1,0;,
 3;3,0,1;,
 3;0,3,2;,
 3;1,2,3;;

 MeshMaterialList {
  1;
  4;
  0,
  0,
  0,
  0;
Material {
 1.000000;1.000000;1.000000;1.000000;;
 0.000000;
 1.000000;1.000000;1.000000;;
 0.000000;0.000000;0.000000;;
 TextureFilename {
  "fig16.ppm";
 }
 }
}
 MeshNormals {
  4;
  -0.942809;-0.333333;0.000000;,
  0.000000;1.000000;-0.000000;,
  0.471404;-0.333333;0.816497;,
  0.471404;-0.333333;-0.816497;;

  4;
  3;2,1,0;,
  3;3,0,1;,
  3;0,3,2;,
  3;1,2,3;;
 }
 MeshTextureCoords { 
 4;
 0.000000;1.000000;,
 0.000000;1.000000;,
 0.000000;1.000000;,
 0.000000;1.000000;;
 }
}
}
Frame frm-rthrust {
  FrameTransformMatrix {
1.000000,0.000000,0.000000,0.000000,
0.000000,1.000000,0.000000,0.000000,
0.000000,0.000000,1.000000,0.000000,
-0.891623,-0.226345,6.931192,1.000000;;
 }
Mesh rthrust {
 4;
 -0.060339;-0.021333;0.000000;,
 0.000000;0.064000;0.000000;,
 0.030170;-0.021333;0.052256;,
 0.030170;-0.021333;-0.052256;;

 4;
 3;2,1,0;,
 3;3,0,1;,
 3;0,3,2;,
 3;1,2,3;;

 MeshMaterialList {
  1;
  4;
  0,
  0,
  0,
  0;
Material {
 1.000000;1.000000;1.000000;1.000000;;
 0.000000;
 1.000000;1.000000;1.000000;;
 0.000000;0.000000;0.000000;;
 TextureFilename {
  "fig16.ppm";
 }
 }
}
 MeshNormals {
  4;
  -0.942809;-0.333333;0.000000;,
  0.000000;1.000000;-0.000000;,
  0.471404;-0.333333;0.816497;,
  0.471404;-0.333333;-0.816497;;

  4;
  3;2,1,0;,
  3;3,0,1;,
  3;0,3,2;,
  3;1,2,3;;
 }
 MeshTextureCoords { 
 4;
 0.000000;1.000000;,
 0.000000;1.000000;,
 0.000000;1.000000;,
 0.000000;1.000000;;
 }
}
}
Frame frm-missemt {
  FrameTransformMatrix {
1.000000,0.000000,0.000000,0.000000,
0.000000,1.000000,0.000000,0.000000,
0.000000,0.000000,1.000000,0.000000,
0.035106,-2.092350,-1.057931,1.000000;;
 }
Mesh missemt {
 4;
 -0.060339;-0.021333;0.000000;,
 0.000000;0.064000;0.000000;,
 0.030170;-0.021333;0.052256;,
 0.030170;-0.021333;-0.052256;;

 4;
 3;2,1,0;,
 3;3,0,1;,
 3;0,3,2;,
 3;1,2,3;;

 MeshMaterialList {
  1;
  4;
  0,
  0,
  0,
  0;
Material {
 1.000000;1.000000;1.000000;1.000000;;
 0.000000;
 1.000000;1.000000;1.000000;;
 0.000000;0.000000;0.000000;;
 TextureFilename {
  "fig16.ppm";
 }
 }
}
 MeshNormals {
  4;
  -0.942809;-0.333333;0.000000;,
  0.000000;1.000000;-0.000000;,
  0.471404;-0.333333;0.816497;,
  0.471404;-0.333333;-0.816497;;

  4;
  3;2,1,0;,
  3;3,0,1;,
  3;0,3,2;,
  3;1,2,3;;
 }
 MeshTextureCoords { 
 4;
 0.000000;1.000000;,
 0.000000;1.000000;,
 0.000000;1.000000;,
 0.000000;1.000000;;
 }
}
}
Frame frm-fwepemt {
  FrameTransformMatrix {
1.000000,0.000000,0.000000,0.000000,
0.000000,1.000000,0.000000,0.000000,
0.000000,0.000000,1.000000,0.000000,
0.035106,-1.797910,-7.451348,1.000000;;
 }
Mesh fwepemt {
 4;
 -0.060339;-0.021333;0.000000;,
 0.000000;0.064000;0.000000;,
 0.030170;-0.021333;0.052256;,
 0.030170;-0.021333;-0.052256;;

 4;
 3;2,1,0;,
 3;3,0,1;,
 3;0,3,2;,
 3;1,2,3;;

 MeshMaterialList {
  1;
  4;
  0,
  0,
  0,
  0;
Material {
 1.000000;1.000000;1.000000;1.000000;;
 0.000000;
 1.000000;1.000000;1.000000;;
 0.000000;0.000000;0.000000;;
 TextureFilename {
  "fig16.ppm";
 }
 }
}
 MeshNormals {
  4;
  -0.942809;-0.333333;0.000000;,
  0.000000;1.000000;-0.000000;,
  0.471404;-0.333333;0.816497;,
  0.471404;-0.333333;-0.816497;;

  4;
  3;2,1,0;,
  3;3,0,1;,
  3;0,3,2;,
  3;1,2,3;;
 }
 MeshTextureCoords { 
 4;
 0.000000;1.000000;,
 0.000000;1.000000;,
 0.000000;1.000000;,
 0.000000;1.000000;;
 }
}
}
Frame frm-wepemt1 {
  FrameTransformMatrix {
1.000000,0.000000,0.000000,0.000000,
0.000000,1.000000,0.000000,0.000000,
0.000000,0.000000,1.000000,0.000000,
6.801380,-0.232830,3.802233,1.000000;;
 }
Mesh wepemt1 {
 4;
 -0.060339;-0.021333;0.000000;,
 0.000000;0.064000;0.000000;,
 0.030170;-0.021333;0.052256;,
 0.030170;-0.021333;-0.052256;;

 4;
 3;2,1,0;,
 3;3,0,1;,
 3;0,3,2;,
 3;1,2,3;;

 MeshMaterialList {
  1;
  4;
  0,
  0,
  0,
  0;
Material {
 1.000000;1.000000;1.000000;1.000000;;
 0.000000;
 1.000000;1.000000;1.000000;;
 0.000000;0.000000;0.000000;;
 TextureFilename {
  "fig16.ppm";
 }
 }
}
 MeshNormals {
  4;
  -0.942809;-0.333333;0.000000;,
  0.000000;1.000000;-0.000000;,
  0.471404;-0.333333;0.816497;,
  0.471404;-0.333333;-0.816497;;

  4;
  3;2,1,0;,
  3;3,0,1;,
  3;0,3,2;,
  3;1,2,3;;
 }
 MeshTextureCoords { 
 4;
 0.000000;1.000000;,
 0.000000;1.000000;,
 0.000000;1.000000;,
 0.000000;1.000000;;
 }
}
}
Frame frm-wepemt2 {
  FrameTransformMatrix {
1.000000,0.000000,0.000000,0.000000,
0.000000,1.000000,0.000000,0.000000,
0.000000,0.000000,1.000000,0.000000,
-6.704058,-0.232830,3.802233,1.000000;;
 }
Mesh wepemt2 {
 4;
 -0.060339;-0.021333;0.000000;,
 0.000000;0.064000;0.000000;,
 0.030170;-0.021333;0.052256;,
 0.030170;-0.021333;-0.052256;;

 4;
 3;2,1,0;,
 3;3,0,1;,
 3;0,3,2;,
 3;1,2,3;;

 MeshMaterialList {
  1;
  4;
  0,
  0,
  0,
  0;
Material {
 1.000000;1.000000;1.000000;1.000000;;
 0.000000;
 1.000000;1.000000;1.000000;;
 0.000000;0.000000;0.000000;;
 TextureFilename {
  "fig16.ppm";
 }
 }
}
 MeshNormals {
  4;
  -0.942809;-0.333333;0.000000;,
  0.000000;1.000000;-0.000000;,
  0.471404;-0.333333;0.816497;,
  0.471404;-0.333333;-0.816497;;

  4;
  3;2,1,0;,
  3;3,0,1;,
  3;0,3,2;,
  3;1,2,3;;
 }
 MeshTextureCoords { 
 4;
 0.000000;1.000000;,
 0.000000;1.000000;,
 0.000000;1.000000;,
 0.000000;1.000000;;
 }
}
}
Frame frm-SSf {
  FrameTransformMatrix {
1.000000,0.000000,0.000000,0.000000,
0.000000,-1.000000,0.000000,0.000000,
0.000000,-0.000000,-1.000000,0.000000,
0.039999,-2.154227,-5.118925,1.000000;;
 }
Mesh SSf {
 4;
 -0.060339;-0.021333;0.000000;,
 0.000000;0.064000;0.000000;,
 0.030170;-0.021333;0.052256;,
 0.030170;-0.021333;-0.052256;;

 4;
 3;2,1,0;,
 3;3,0,1;,
 3;0,3,2;,
 3;1,2,3;;

 MeshMaterialList {
  1;
  4;
  0,
  0,
  0,
  0;
Material {
 1.000000;1.000000;1.000000;1.000000;;
 0.000000;
 1.000000;1.000000;1.000000;;
 0.0; 0.0; 0.0;;
 }
}
 MeshNormals {
  4;
  -0.942809;-0.333333;0.000000;,
  0.000000;1.000000;-0.000000;,
  0.471404;-0.333333;0.816497;,
  0.471404;-0.333333;-0.816497;;

  4;
  3;2,1,0;,
  3;3,0,1;,
  3;0,3,2;,
  3;1,2,3;;
 }
 MeshTextureCoords { 
 4;
 0.000000;0.000000;,
 0.000000;0.000000;,
 0.000000;0.000000;,
 0.000000;0.000000;;
 }
}
}
Frame frm-SSal {
  FrameTransformMatrix {
-0.866025,0.500000,-0.000000,0.000000,
0.500000,0.866025,0.000000,0.000000,
0.000000,-0.000000,-1.000000,0.000000,
2.119401,2.833410,5.780715,1.000000;;
 }
Mesh SSal {
 4;
 -0.060339;-0.021333;0.000000;,
 0.000000;0.064000;0.000000;,
 0.030170;-0.021333;0.052256;,
 0.030170;-0.021333;-0.052256;;

 4;
 3;2,1,0;,
 3;3,0,1;,
 3;0,3,2;,
 3;1,2,3;;

 MeshMaterialList {
  1;
  4;
  0,
  0,
  0,
  0;
Material {
 0.988701;0.005650;0.000000;1.000000;;
 0.000000;
 1.000000;0.000000;0.000000;;
 0.0; 0.0; 0.0;;
 }
}
 MeshNormals {
  4;
  -0.942809;-0.333333;0.000000;,
  0.000000;1.000000;-0.000000;,
  0.471404;-0.333333;0.816497;,
  0.471404;-0.333333;-0.816497;;

  4;
  3;2,1,0;,
  3;3,0,1;,
  3;0,3,2;,
  3;1,2,3;;
 }
 MeshTextureCoords { 
 4;
 0.000000;0.000000;,
 0.000000;0.000000;,
 0.000000;0.000000;,
 0.000000;0.000000;;
 }
}
}
Frame frm-SSar {
  FrameTransformMatrix {
-0.866025,-0.500000,-0.000000,0.000000,
-0.500000,0.866025,0.000000,0.000000,
0.000000,0.000000,-1.000000,0.000000,
-2.033721,2.833410,5.780715,1.000000;;
 }
Mesh SSar {
 4;
 -0.060339;-0.021333;0.000000;,
 0.000000;0.064000;0.000000;,
 0.030170;-0.021333;0.052256;,
 0.030170;-0.021333;-0.052256;;

 4;
 3;2,1,0;,
 3;3,0,1;,
 3;0,3,2;,
 3;1,2,3;;

 MeshMaterialList {
  1;
  4;
  0,
  0,
  0,
  0;
Material {
 0.000000;1.000000;0.000000;1.000000;;
 0.000000;
 0.000000;1.000000;0.000000;;
 0.0; 0.0; 0.0;;
 }
}
 MeshNormals {
  4;
  -0.942809;-0.333333;0.000000;,
  0.000000;1.000000;-0.000000;,
  0.471404;-0.333333;0.816497;,
  0.471404;-0.333333;-0.816497;;

  4;
  3;2,1,0;,
  3;3,0,1;,
  3;0,3,2;,
  3;1,2,3;;
 }
 MeshTextureCoords { 
 4;
 0.000000;0.000000;,
 0.000000;0.000000;,
 0.000000;0.000000;,
 0.000000;0.000000;;
 }
}
}
Frame frm-SSr {
  FrameTransformMatrix {
-0.000000,-1.000000,-0.000000,0.000000,
-1.000000,0.000000,0.000000,0.000000,
0.000000,0.000000,-1.000000,0.000000,
-6.564399,0.045675,6.206711,1.000000;;
 }
Mesh SSr {
 4;
 -0.060339;-0.021333;0.000000;,
 0.000000;0.064000;0.000000;,
 0.030170;-0.021333;0.052256;,
 0.030170;-0.021333;-0.052256;;

 4;
 3;2,1,0;,
 3;3,0,1;,
 3;0,3,2;,
 3;1,2,3;;

 MeshMaterialList {
  1;
  4;
  0,
  0,
  0,
  0;
Material {
 0.000000;1.000000;0.000000;1.000000;;
 0.000000;
 0.000000;1.000000;0.000000;;
 0.0; 0.0; 0.0;;
 }
}
 MeshNormals {
  4;
  -0.942809;-0.333333;0.000000;,
  0.000000;1.000000;-0.000000;,
  0.471404;-0.333333;0.816497;,
  0.471404;-0.333333;-0.816497;;

  4;
  3;2,1,0;,
  3;3,0,1;,
  3;0,3,2;,
  3;1,2,3;;
 }
 MeshTextureCoords { 
 4;
 0.000000;0.000000;,
 0.000000;0.000000;,
 0.000000;0.000000;,
 0.000000;0.000000;;
 }
}
}
Frame frm-SSl {
  FrameTransformMatrix {
-0.000000,1.000000,-0.000000,0.000000,
1.000000,0.000000,0.000000,0.000000,
0.000000,-0.000000,-1.000000,0.000000,
6.787371,0.046896,6.206711,1.000000;;
 }
Mesh SSl {
 4;
 -0.060339;-0.021333;0.000000;,
 0.000000;0.064000;0.000000;,
 0.030170;-0.021333;0.052256;,
 0.030170;-0.021333;-0.052256;;

 4;
 3;2,1,0;,
 3;3,0,1;,
 3;0,3,2;,
 3;1,2,3;;

 MeshMaterialList {
  1;
  4;
  0,
  0,
  0,
  0;
Material {
 0.988701;0.005650;0.000000;1.000000;;
 0.000000;
 1.000000;0.000000;0.000000;;
 0.0; 0.0; 0.0;;
 }
}
 MeshNormals {
  4;
  -0.942809;-0.333333;0.000000;,
  0.000000;1.000000;-0.000000;,
  0.471404;-0.333333;0.816497;,
  0.471404;-0.333333;-0.816497;;

  4;
  3;2,1,0;,
  3;3,0,1;,
  3;0,3,2;,
  3;1,2,3;;
 }
 MeshTextureCoords { 
 4;
 0.000000;0.000000;,
 0.000000;0.000000;,
 0.000000;0.000000;,
 0.000000;0.000000;;
 }
}
}
Frame frm-FL {
  FrameTransformMatrix {
0.000000,0.000000,1.544639,0.000000,
-0.000154,1.544639,0.000000,0.000000,
-1.544639,-0.000154,0.000000,0.000000,
1.266631,-2.406272,1.022032,1.000000;;
 }
Mesh FL {
 36;
 -0.449663;-0.459231;-0.106248;,
 -0.449663;-0.459231;0.106241;,
 -0.308061;0.236011;-0.092415;,
 -0.217702;0.221672;0.000018;,
 -0.308061;0.236011;0.092450;,
 -0.398420;0.250351;0.000018;,
 0.207099;-0.121015;-0.048200;,
 0.207099;-0.121015;0.048230;,
 0.323388;-0.147596;-0.048200;,
 0.323388;-0.147596;0.048230;,
 0.758343;-0.253581;0.144591;,
 0.758343;-0.253581;-0.144592;,
 -0.190006;0.753887;-0.096804;,
 -0.113268;0.746567;-0.018962;,
 -0.190006;0.753887;0.058881;,
 -0.266744;0.761206;-0.018962;,
 -0.449663;-0.459231;-0.106248;,
 -0.345855;-0.459588;-0.000003;,
 -0.449663;-0.459231;0.106241;,
 -0.567802;-0.459400;-0.000003;,
 0.106925;-0.459268;-0.058004;,
 0.106925;-0.459268;0.058019;,
 0.253013;-0.459268;-0.058004;,
 0.253013;-0.459268;0.058019;,
 0.407162;0.736925;-0.055539;,
 0.407162;0.736925;0.021298;,
 0.507223;0.736925;-0.055539;,
 0.507223;0.736925;0.021298;,
 -0.770463;-0.459171;0.227441;,
 -0.770463;-0.459171;-0.227443;,
 -0.770463;-0.529879;0.227441;,
 -0.770463;-0.529879;-0.227443;,
 0.387949;-0.459172;0.174955;,
 0.387949;-0.459172;-0.174956;,
 0.405528;-0.529879;0.174955;,
 0.405528;-0.529879;-0.174956;;

 48;
 3;30,28,29;,
 3;31,30,29;,
 3;19,18,5;,
 3;3,13,14;,
 3;4,3,14;,
 3;34,10,32;,
 3;17,3,4;,
 3;17,16,3;,
 3;35,33,11;,
 3;0,2,3;,
 3;10,34,35;,
 3;11,10,35;,
 3;1,4,5;,
 3;32,10,11;,
 3;33,32,11;,
 3;4,14,15;,
 3;5,4,15;,
 3;33,29,28;,
 3;32,33,28;,
 3;2,12,13;,
 3;3,2,13;,
 3;35,31,29;,
 3;33,35,29;,
 3;34,30,31;,
 3;35,34,31;,
 3;7,21,23;,
 3;9,7,23;,
 3;32,28,30;,
 3;34,32,30;,
 3;8,26,27;,
 3;9,8,27;,
 3;0,19,2;,
 3;6,24,26;,
 3;8,6,26;,
 3;9,23,22;,
 3;8,9,22;,
 3;7,25,24;,
 3;6,7,24;,
 3;1,17,4;,
 3;9,27,25;,
 3;7,9,25;,
 3;5,15,12;,
 3;2,5,12;,
 3;6,20,21;,
 3;7,6,21;,
 3;19,5,2;,
 3;8,22,20;,
 3;6,8,20;;

 MeshMaterialList {
  3;
  48;
  0,
  0,
  1,
  1,
  1,
  0,
  1,
  1,
  0,
  1,
  0,
  0,
  1,
  0,
  0,
  1,
  1,
  0,
  0,
  1,
  1,
  0,
  0,
  0,
  0,
  2,
  2,
  0,
  0,
  2,
  2,
  1,
  2,
  2,
  2,
  2,
  2,
  2,
  1,
  2,
  2,
  1,
  1,
  2,
  2,
  1,
  2,
  2;
Material {
 1.000000;1.000000;1.000000;1.000000;;
 0.000000;
 1.000000;1.000000;1.000000;;
 0.0; 0.0; 0.0;;
 TextureFilename {
  "fig16.ppm";
 }
 }
Material {
 1.000000;1.000000;1.000000;1.000000;;
 0.000000;
 1.000000;1.000000;1.000000;;
 0.0; 0.0; 0.0;;
 TextureFilename {
  "fig16.ppm";
 }
 }
Material {
 1.000000;1.000000;1.000000;1.000000;;
 0.000000;
 1.000000;1.000000;1.000000;;
 0.0; 0.0; 0.0;;
 TextureFilename {
  "fig16.ppm";
 }
 }
}
 MeshNormals {
  36;
  0.026284;0.014534;-0.999549;,
  0.010504;0.017693;0.999788;,
  0.008921;0.002618;-0.999957;,
  0.982999;-0.183595;0.002526;,
  0.009996;0.043640;0.998997;,
  -0.972517;0.232714;0.007417;,
  -0.680930;0.190018;-0.707268;,
  -0.681163;0.194649;0.705782;,
  0.693242;-0.136045;-0.707748;,
  0.694532;-0.130696;0.707491;,
  0.561346;-0.467359;0.682983;,
  -0.197932;0.686769;-0.699408;,
  -0.313629;0.063758;-0.947403;,
  0.929715;-0.196576;-0.311428;,
  0.322073;-0.011961;0.946639;,
  -0.918202;0.247623;0.309172;,
  0.708657;-0.133286;-0.692849;,
  0.934355;-0.174564;0.310657;,
  -0.660454;0.157595;0.734142;,
  -0.921741;0.216080;-0.322028;,
  -0.425123;0.152862;-0.892135;,
  -0.854805;0.266047;0.445565;,
  0.874889;-0.183448;-0.448236;,
  0.439837;-0.072303;0.895163;,
  -0.871735;0.199451;-0.447545;,
  -0.431876;0.128313;0.892759;,
  0.436909;-0.098339;-0.894114;,
  0.877891;-0.168813;0.448118;,
  -0.392744;0.822727;0.410942;,
  -0.648979;0.343576;-0.678809;,
  -0.650659;-0.336856;0.680566;,
  -0.392977;-0.822633;-0.410907;,
  -0.198212;0.676580;0.709191;,
  -0.105820;0.826757;-0.552516;,
  0.212154;-0.804962;0.554100;,
  0.341090;-0.626337;-0.700971;;

  48;
  3;30,28,29;,
  3;31,30,29;,
  3;19,18,5;,
  3;3,13,14;,
  3;4,3,14;,
  3;34,10,32;,
  3;17,3,4;,
  3;17,16,3;,
  3;35,33,11;,
  3;0,2,3;,
  3;10,34,35;,
  3;11,10,35;,
  3;1,4,5;,
  3;32,10,11;,
  3;33,32,11;,
  3;4,14,15;,
  3;5,4,15;,
  3;33,29,28;,
  3;32,33,28;,
  3;2,12,13;,
  3;3,2,13;,
  3;35,31,29;,
  3;33,35,29;,
  3;34,30,31;,
  3;35,34,31;,
  3;7,21,23;,
  3;9,7,23;,
  3;32,28,30;,
  3;34,32,30;,
  3;8,26,27;,
  3;9,8,27;,
  3;0,19,2;,
  3;6,24,26;,
  3;8,6,26;,
  3;9,23,22;,
  3;8,9,22;,
  3;7,25,24;,
  3;6,7,24;,
  3;1,17,4;,
  3;9,27,25;,
  3;7,9,25;,
  3;5,15,12;,
  3;2,5,12;,
  3;6,20,21;,
  3;7,6,21;,
  3;19,5,2;,
  3;8,22,20;,
  3;6,8,20;;
 }
 MeshTextureCoords { 
 36;
 0.995365;0.992695;,
 0.922181;0.992695;,
 0.990601;0.791657;,
 0.958766;0.795804;,
 0.926931;0.791657;,
 0.958766;0.787511;,
 0.984703;0.894268;,
 0.936449;0.894268;,
 0.984703;0.902124;,
 0.936449;0.902124;,
 0.269484;0.232771;,
 0.269484;0.180563;,
 0.992112;0.641907;,
 0.965303;0.644024;,
 0.938493;0.641907;,
 0.965303;0.639791;,
 0.995365;0.992695;,
 0.958773;0.992798;,
 0.922181;0.992695;,
 0.958773;0.992744;,
 0.989609;0.994236;,
 0.931550;0.994236;,
 0.989609;0.994236;,
 0.931550;0.994236;,
 0.988375;0.640711;,
 0.949926;0.640711;,
 0.988375;0.640711;,
 0.949926;0.640711;,
 0.118695;0.247728;,
 0.118695;0.165606;,
 0.118695;0.247728;,
 0.118695;0.165606;,
 0.232952;0.238253;,
 0.232952;0.175082;,
 0.234685;0.238253;,
 0.234685;0.175082;;
 }
}
}
Frame frm-LRl {
  FrameTransformMatrix {
0.000000,0.000000,1.544639,0.000000,
-0.000154,1.544639,0.000000,0.000000,
-1.544639,-0.000154,0.000000,0.000000,
-1.189879,-2.406272,1.022032,1.000000;;
 }
Mesh LRl {
 36;
 -0.449663;-0.459231;-0.106248;,
 -0.449663;-0.459231;0.106241;,
 -0.308061;0.236011;-0.092415;,
 -0.217702;0.221672;0.000018;,
 -0.308061;0.236011;0.092450;,
 -0.398420;0.250351;0.000018;,
 0.207099;-0.121015;-0.048200;,
 0.207099;-0.121015;0.048230;,
 0.323388;-0.147596;-0.048200;,
 0.323388;-0.147596;0.048230;,
 0.758343;-0.253581;0.144591;,
 0.758343;-0.253581;-0.144592;,
 -0.190006;0.753887;-0.096804;,
 -0.113268;0.746567;-0.018962;,
 -0.190006;0.753887;0.058881;,
 -0.266744;0.761206;-0.018962;,
 -0.449663;-0.459231;-0.106248;,
 -0.345855;-0.459588;-0.000003;,
 -0.449663;-0.459231;0.106241;,
 -0.567802;-0.459400;-0.000003;,
 0.106925;-0.459268;-0.058004;,
 0.106925;-0.459268;0.058019;,
 0.253013;-0.459268;-0.058004;,
 0.253013;-0.459268;0.058019;,
 0.407162;0.736925;-0.055539;,
 0.407162;0.736925;0.021298;,
 0.507223;0.736925;-0.055539;,
 0.507223;0.736925;0.021298;,
 -0.770463;-0.459171;0.227441;,
 -0.770463;-0.459171;-0.227443;,
 -0.770463;-0.529879;0.227441;,
 -0.770463;-0.529879;-0.227443;,
 0.387949;-0.459172;0.174955;,
 0.387949;-0.459172;-0.174956;,
 0.405528;-0.529879;0.174955;,
 0.405528;-0.529879;-0.174956;;

 48;
 3;30,28,29;,
 3;31,30,29;,
 3;19,18,5;,
 3;3,13,14;,
 3;4,3,14;,
 3;34,10,32;,
 3;17,3,4;,
 3;17,16,3;,
 3;35,33,11;,
 3;0,2,3;,
 3;10,34,35;,
 3;11,10,35;,
 3;1,4,5;,
 3;32,10,11;,
 3;33,32,11;,
 3;4,14,15;,
 3;5,4,15;,
 3;33,29,28;,
 3;32,33,28;,
 3;2,12,13;,
 3;3,2,13;,
 3;35,31,29;,
 3;33,35,29;,
 3;34,30,31;,
 3;35,34,31;,
 3;7,21,23;,
 3;9,7,23;,
 3;32,28,30;,
 3;34,32,30;,
 3;8,26,27;,
 3;9,8,27;,
 3;0,19,2;,
 3;6,24,26;,
 3;8,6,26;,
 3;9,23,22;,
 3;8,9,22;,
 3;7,25,24;,
 3;6,7,24;,
 3;1,17,4;,
 3;9,27,25;,
 3;7,9,25;,
 3;5,15,12;,
 3;2,5,12;,
 3;6,20,21;,
 3;7,6,21;,
 3;19,5,2;,
 3;8,22,20;,
 3;6,8,20;;

 MeshMaterialList {
  3;
  48;
  0,
  0,
  1,
  1,
  1,
  0,
  1,
  1,
  0,
  1,
  0,
  0,
  1,
  0,
  0,
  1,
  1,
  0,
  0,
  1,
  1,
  0,
  0,
  0,
  0,
  2,
  2,
  0,
  0,
  2,
  2,
  1,
  2,
  2,
  2,
  2,
  2,
  2,
  1,
  2,
  2,
  1,
  1,
  2,
  2,
  1,
  2,
  2;
Material {
 1.000000;1.000000;1.000000;1.000000;;
 0.000000;
 1.000000;1.000000;1.000000;;
 0.0; 0.0; 0.0;;
 TextureFilename {
  "fig16.ppm";
 }
 }
Material {
 1.000000;1.000000;1.000000;1.000000;;
 0.000000;
 1.000000;1.000000;1.000000;;
 0.0; 0.0; 0.0;;
 TextureFilename {
  "fig16.ppm";
 }
 }
Material {
 1.000000;1.000000;1.000000;1.000000;;
 0.000000;
 1.000000;1.000000;1.000000;;
 0.0; 0.0; 0.0;;
 TextureFilename {
  "fig16.ppm";
 }
 }
}
 MeshNormals {
  36;
  0.026284;0.014534;-0.999549;,
  0.010504;0.017693;0.999788;,
  0.008921;0.002618;-0.999957;,
  0.982999;-0.183595;0.002526;,
  0.009996;0.043640;0.998997;,
  -0.972517;0.232714;0.007417;,
  -0.680930;0.190018;-0.707268;,
  -0.681163;0.194649;0.705782;,
  0.693242;-0.136045;-0.707748;,
  0.694532;-0.130696;0.707491;,
  0.561346;-0.467359;0.682983;,
  -0.197932;0.686769;-0.699408;,
  -0.313629;0.063758;-0.947403;,
  0.929715;-0.196576;-0.311428;,
  0.322073;-0.011961;0.946639;,
  -0.918202;0.247623;0.309172;,
  0.708657;-0.133286;-0.692849;,
  0.934355;-0.174564;0.310657;,
  -0.660454;0.157595;0.734142;,
  -0.921741;0.216080;-0.322028;,
  -0.425123;0.152862;-0.892135;,
  -0.854805;0.266047;0.445565;,
  0.874889;-0.183448;-0.448236;,
  0.439837;-0.072303;0.895163;,
  -0.871735;0.199451;-0.447545;,
  -0.431876;0.128313;0.892759;,
  0.436909;-0.098339;-0.894114;,
  0.877891;-0.168813;0.448118;,
  -0.392744;0.822727;0.410942;,
  -0.648979;0.343576;-0.678809;,
  -0.650659;-0.336856;0.680566;,
  -0.392977;-0.822633;-0.410907;,
  -0.198212;0.676580;0.709191;,
  -0.105820;0.826757;-0.552516;,
  0.212154;-0.804962;0.554100;,
  0.341090;-0.626337;-0.700971;;

  48;
  3;30,28,29;,
  3;31,30,29;,
  3;19,18,5;,
  3;3,13,14;,
  3;4,3,14;,
  3;34,10,32;,
  3;17,3,4;,
  3;17,16,3;,
  3;35,33,11;,
  3;0,2,3;,
  3;10,34,35;,
  3;11,10,35;,
  3;1,4,5;,
  3;32,10,11;,
  3;33,32,11;,
  3;4,14,15;,
  3;5,4,15;,
  3;33,29,28;,
  3;32,33,28;,
  3;2,12,13;,
  3;3,2,13;,
  3;35,31,29;,
  3;33,35,29;,
  3;34,30,31;,
  3;35,34,31;,
  3;7,21,23;,
  3;9,7,23;,
  3;32,28,30;,
  3;34,32,30;,
  3;8,26,27;,
  3;9,8,27;,
  3;0,19,2;,
  3;6,24,26;,
  3;8,6,26;,
  3;9,23,22;,
  3;8,9,22;,
  3;7,25,24;,
  3;6,7,24;,
  3;1,17,4;,
  3;9,27,25;,
  3;7,9,25;,
  3;5,15,12;,
  3;2,5,12;,
  3;6,20,21;,
  3;7,6,21;,
  3;19,5,2;,
  3;8,22,20;,
  3;6,8,20;;
 }
 MeshTextureCoords { 
 36;
 0.995365;0.992695;,
 0.922181;0.992695;,
 0.990601;0.791657;,
 0.958766;0.795804;,
 0.926931;0.791657;,
 0.958766;0.787511;,
 0.984703;0.894268;,
 0.936449;0.894268;,
 0.984703;0.902124;,
 0.936449;0.902124;,
 0.269484;0.232771;,
 0.269484;0.180563;,
 0.992112;0.641907;,
 0.965303;0.644024;,
 0.938493;0.641907;,
 0.965303;0.639791;,
 0.995365;0.992695;,
 0.958773;0.992798;,
 0.922181;0.992695;,
 0.958773;0.992744;,
 0.989609;0.994236;,
 0.931550;0.994236;,
 0.989609;0.994236;,
 0.931550;0.994236;,
 0.988375;0.640711;,
 0.949926;0.640711;,
 0.988375;0.640711;,
 0.949926;0.640711;,
 0.118695;0.247728;,
 0.118695;0.165606;,
 0.118695;0.247728;,
 0.118695;0.165606;,
 0.232952;0.238253;,
 0.232952;0.175082;,
 0.234685;0.238253;,
 0.234685;0.175082;;
 }
}
}
Frame frm-LLl {
  FrameTransformMatrix {
0.000000,0.000000,1.306764,0.000000,
-0.000131,1.306764,0.000000,0.000000,
-1.306764,-0.000131,0.000000,0.000000,
0.052738,-2.515821,-2.990447,1.000000;;
 }
Mesh LLl {
 36;
 0.046344;-0.459231;-0.106248;,
 0.046344;-0.459231;0.106241;,
 -0.063551;0.236012;-0.092415;,
 0.026808;0.221673;0.000018;,
 -0.063551;0.236012;0.092450;,
 -0.153910;0.250351;0.000018;,
 0.179155;-0.148959;-0.048202;,
 0.179155;-0.148959;0.048228;,
 0.295444;-0.175540;-0.048202;,
 0.295444;-0.175540;0.048228;,
 0.835189;-0.253581;0.144591;,
 0.835189;-0.253581;-0.144592;,
 -0.148090;0.809775;-0.096800;,
 -0.071352;0.802455;-0.018958;,
 -0.148090;0.809775;0.058885;,
 -0.224828;0.817094;-0.018958;,
 0.046344;-0.459231;-0.106248;,
 0.150151;-0.459588;-0.000003;,
 0.046344;-0.459231;0.106241;,
 -0.071795;-0.459400;-0.000003;,
 0.232673;-0.459268;-0.058004;,
 0.232673;-0.459268;0.058019;,
 0.336845;-0.459268;-0.058004;,
 0.336845;-0.459268;0.058019;,
 0.015945;0.799799;-0.055535;,
 0.015945;0.799799;0.021302;,
 0.116006;0.799799;-0.055535;,
 0.116006;0.799799;0.021302;,
 -0.770463;-0.459171;0.227441;,
 -0.770463;-0.459171;-0.227443;,
 -0.770463;-0.529879;0.227441;,
 -0.770463;-0.529879;-0.227443;,
 0.429865;-0.459172;0.174955;,
 0.429865;-0.459172;-0.174956;,
 0.447444;-0.529879;0.174955;,
 0.447444;-0.529879;-0.174956;;

 48;
 3;30,28,29;,
 3;31,30,29;,
 3;19,18,5;,
 3;3,13,14;,
 3;4,3,14;,
 3;34,10,32;,
 3;17,3,4;,
 3;17,16,3;,
 3;35,33,11;,
 3;0,2,3;,
 3;10,34,35;,
 3;11,10,35;,
 3;1,4,5;,
 3;32,10,11;,
 3;33,32,11;,
 3;4,14,15;,
 3;5,4,15;,
 3;33,29,28;,
 3;32,33,28;,
 3;2,12,13;,
 3;3,2,13;,
 3;35,31,29;,
 3;33,35,29;,
 3;34,30,31;,
 3;35,34,31;,
 3;7,21,23;,
 3;9,7,23;,
 3;32,28,30;,
 3;34,32,30;,
 3;8,26,27;,
 3;9,8,27;,
 3;0,19,2;,
 3;6,24,26;,
 3;8,6,26;,
 3;9,23,22;,
 3;8,9,22;,
 3;7,25,24;,
 3;6,7,24;,
 3;1,17,4;,
 3;9,27,25;,
 3;7,9,25;,
 3;5,15,12;,
 3;2,5,12;,
 3;6,20,21;,
 3;7,6,21;,
 3;19,5,2;,
 3;8,22,20;,
 3;6,8,20;;

 MeshMaterialList {
  3;
  48;
  0,
  0,
  1,
  1,
  1,
  0,
  1,
  1,
  0,
  1,
  0,
  0,
  1,
  0,
  0,
  1,
  1,
  0,
  0,
  1,
  1,
  0,
  0,
  0,
  0,
  2,
  2,
  0,
  0,
  2,
  2,
  1,
  2,
  2,
  2,
  2,
  2,
  2,
  1,
  2,
  2,
  1,
  1,
  2,
  2,
  1,
  2,
  2;
Material {
 1.000000;1.000000;1.000000;1.000000;;
 0.000000;
 1.000000;1.000000;1.000000;;
 0.0; 0.0; 0.0;;
 TextureFilename {
  "fig16.ppm";
 }
 }
Material {
 1.000000;1.000000;1.000000;1.000000;;
 0.000000;
 1.000000;1.000000;1.000000;;
 0.0; 0.0; 0.0;;
 TextureFilename {
  "fig16.ppm";
 }
 }
Material {
 1.000000;1.000000;1.000000;1.000000;;
 0.000000;
 1.000000;1.000000;1.000000;;
 0.0; 0.0; 0.0;;
 TextureFilename {
  "fig16.ppm";
 }
 }
}
 MeshNormals {
  36;
  0.037325;0.025776;-0.998971;,
  -0.006828;0.018753;0.999801;,
  0.011037;0.009817;-0.999891;,
  0.984182;0.177135;-0.003014;,
  -0.001030;0.041241;0.999149;,
  -0.991655;-0.128327;0.012364;,
  -0.696484;-0.116168;-0.708106;,
  -0.696963;-0.097684;0.710423;,
  0.696492;0.133037;-0.705125;,
  0.698499;0.131962;0.703339;,
  0.532725;-0.495456;0.686096;,
  -0.180944;0.691257;-0.699588;,
  -0.327281;-0.056366;-0.943244;,
  0.940720;0.149890;-0.304268;,
  0.326035;0.101951;0.939844;,
  -0.945507;-0.107316;0.307410;,
  0.709551;0.128486;-0.692841;,
  0.938915;0.168865;0.299874;,
  -0.666631;-0.077148;0.741385;,
  -0.941549;-0.115121;-0.316594;,
  -0.439006;-0.046041;-0.897304;,
  -0.883310;-0.138207;0.447953;,
  0.883295;0.144299;-0.446058;,
  0.444596;0.094296;0.890754;,
  -0.881018;-0.155012;-0.446966;,
  -0.439159;-0.050436;0.896993;,
  0.439433;0.074020;-0.895221;,
  0.877912;0.173831;0.446153;,
  -0.393288;0.822507;0.410861;,
  -0.649599;0.343212;-0.678400;,
  -0.651220;-0.336728;0.680093;,
  -0.393505;-0.822420;-0.410828;,
  -0.183129;0.681334;0.708695;,
  -0.097841;0.827730;-0.552531;,
  0.198589;-0.808210;0.554400;,
  0.319732;-0.636522;-0.701863;;

  48;
  3;30,28,29;,
  3;31,30,29;,
  3;19,18,5;,
  3;3,13,14;,
  3;4,3,14;,
  3;34,10,32;,
  3;17,3,4;,
  3;17,16,3;,
  3;35,33,11;,
  3;0,2,3;,
  3;10,34,35;,
  3;11,10,35;,
  3;1,4,5;,
  3;32,10,11;,
  3;33,32,11;,
  3;4,14,15;,
  3;5,4,15;,
  3;33,29,28;,
  3;32,33,28;,
  3;2,12,13;,
  3;3,2,13;,
  3;35,31,29;,
  3;33,35,29;,
  3;34,30,31;,
  3;35,34,31;,
  3;7,21,23;,
  3;9,7,23;,
  3;32,28,30;,
  3;34,32,30;,
  3;8,26,27;,
  3;9,8,27;,
  3;0,19,2;,
  3;6,24,26;,
  3;8,6,26;,
  3;9,23,22;,
  3;8,9,22;,
  3;7,25,24;,
  3;6,7,24;,
  3;1,17,4;,
  3;9,27,25;,
  3;7,9,25;,
  3;5,15,12;,
  3;2,5,12;,
  3;6,20,21;,
  3;7,6,21;,
  3;19,5,2;,
  3;8,22,20;,
  3;6,8,20;;
 }
 MeshTextureCoords { 
 36;
 0.986857;0.993950;,
 0.931482;0.993950;,
 0.983252;0.791572;,
 0.959164;0.795746;,
 0.935076;0.791572;,
 0.959164;0.787398;,
 0.984703;0.894268;,
 0.936449;0.894268;,
 0.984703;0.902124;,
 0.936449;0.902124;,
 0.269484;0.232771;,
 0.269484;0.180563;,
 0.984396;0.640823;,
 0.964110;0.642954;,
 0.943824;0.640823;,
 0.964110;0.638693;,
 0.986857;0.993950;,
 0.959170;0.994054;,
 0.931482;0.993950;,
 0.959170;0.993999;,
 0.989609;0.994236;,
 0.931550;0.994236;,
 0.989609;0.994236;,
 0.931550;0.994236;,
 0.988375;0.640711;,
 0.949926;0.640711;,
 0.988375;0.640711;,
 0.949926;0.640711;,
 0.118695;0.247728;,
 0.118695;0.165606;,
 0.118695;0.247728;,
 0.118695;0.165606;,
 0.232952;0.238253;,
 0.232952;0.175082;,
 0.234685;0.238253;,
 0.234685;0.175082;;
 }
}
}
}
AnimationSet {
 Animation anim-fuselg {
  {frm-fuselg}
  AnimationKey {
  2;
  2;
  1; 3; -0.035106, 0.226345, -1.013678;;,
  90; 3; -0.035106, 0.226345, -1.013678;;;
  }
 }
 Animation anim-rwing {
  {frm-rwing}
  AnimationKey {
  2;
  2;
  1; 3; 0.035106, -0.226345, 1.013678;;,
  90; 3; 0.035106, -0.226345, 1.013678;;;
  }
 }
 Animation anim-rwing_pod {
  {frm-rwing_pod}
  AnimationKey {
  0;
  2;
  1; 4; -0.000000, 0.000000, -0.707107, 0.707107;;,
  90; 4; -0.000000, 0.000000, -0.707107, 0.707107;;;
  }
  AnimationKey {
  1;
  2;
  1; 3; 0.109340, 0.505196, 0.109340;;,
  90; 3; 0.109340, 0.505196, 0.109340;;;
  }
  AnimationKey {
  2;
  2;
  1; 3; -6.758036, -0.002861, 3.990264;;,
  90; 3; -6.758036, -0.002861, 3.990264;;;
  }
 }
 Animation anim-lwing {
  {frm-lwing}
  AnimationKey {
  0;
  2;
  1; 4; 0.000000, 0.000000, 1.000000, -0.000000;;,
  90; 4; 0.000000, 0.000000, 1.000000, -0.000000;;;
  }
  AnimationKey {
  2;
  2;
  1; 3; 0.035106, -0.226345, 1.013678;;,
  90; 3; 0.035106, -0.226345, 1.013678;;;
  }
 }
 Animation anim-lwingpod {
  {frm-lwingpod}
  AnimationKey {
  0;
  2;
  1; 4; 0.000000, 0.000000, 0.707107, 0.707107;;,
  90; 4; 0.000000, 0.000000, 0.707107, 0.707107;;;
  }
  AnimationKey {
  1;
  2;
  1; 3; 0.109340, 0.505196, 0.109340;;,
  90; 3; 0.109340, 0.505196, 0.109340;;;
  }
  AnimationKey {
  2;
  2;
  1; 3; -6.758035, -0.002861, -3.990266;;,
  90; 3; -6.758035, -0.002861, -3.990266;;;
  }
 }
 Animation anim-rstablat {
  {frm-rstablat}
  AnimationKey {
  2;
  2;
  1; 3; 0.035106, -0.226345, 1.013678;;,
  90; 3; 0.035106, -0.226345, 1.013678;;;
  }
 }
 Animation anim-lstablat {
  {frm-lstablat}
  AnimationKey {
  0;
  2;
  1; 4; 0.000000, 0.000000, 1.000000, -0.000000;;,
  90; 4; 0.000000, 0.000000, 1.000000, -0.000000;;;
  }
  AnimationKey {
  2;
  2;
  1; 3; 0.035106, -0.226345, 1.013678;;,
  90; 3; 0.035106, -0.226345, 1.013678;;;
  }
 }
 Animation anim-tur_pod {
  {frm-tur_pod}
  AnimationKey {
  2;
  2;
  1; 3; 0.035106, -1.263847, -5.126698;;,
  90; 3; 0.035106, -1.263847, -5.126698;;;
  }
 }
 Animation anim-fgun {
  {frm-fgun}
  AnimationKey {
  2;
  2;
  1; 3; 0.000000, -0.562856, -1.331067;;,
  90; 3; 0.000000, -0.562856, -1.331067;;;
  }
 }
 Animation anim-trail {
  {frm-trail}
  AnimationKey {
  2;
  2;
  1; 3; 0.035106, -0.226345, 7.000140;;,
  90; 3; 0.035106, -0.226345, 7.000140;;;
  }
 }
 Animation anim-cockpt {
  {frm-cockpt}
  AnimationKey {
  2;
  2;
  1; 3; 0.035106, 1.014880, -3.596586;;,
  90; 3; 0.035106, 1.014880, -3.596586;;;
  }
 }
 Animation anim-lthrust {
  {frm-lthrust}
  AnimationKey {
  2;
  2;
  1; 3; 1.099129, -0.226345, 6.932085;;,
  90; 3; 1.099129, -0.226345, 6.932085;;;
  }
 }
 Animation anim-rthrust {
  {frm-rthrust}
  AnimationKey {
  2;
  2;
  1; 3; -0.891623, -0.226345, 6.931192;;,
  90; 3; -0.891623, -0.226345, 6.931192;;;
  }
 }
 Animation anim-missemt {
  {frm-missemt}
  AnimationKey {
  2;
  2;
  1; 3; 0.035106, -2.092350, -1.057931;;,
  90; 3; 0.035106, -2.092350, -1.057931;;;
  }
 }
 Animation anim-fwepemt {
  {frm-fwepemt}
  AnimationKey {
  2;
  2;
  1; 3; 0.035106, -1.797910, -7.451348;;,
  90; 3; 0.035106, -1.797910, -7.451348;;;
  }
 }
 Animation anim-wepemt1 {
  {frm-wepemt1}
  AnimationKey {
  2;
  2;
  1; 3; 6.801380, -0.232830, 3.802233;;,
  90; 3; 6.801380, -0.232830, 3.802233;;;
  }
 }
 Animation anim-wepemt2 {
  {frm-wepemt2}
  AnimationKey {
  2;
  2;
  1; 3; -6.704058, -0.232830, 3.802233;;,
  90; 3; -6.704058, -0.232830, 3.802233;;;
  }
 }
 Animation anim-SSf {
  {frm-SSf}
  AnimationKey {
  0;
  2;
  1; 4; 0.000000, 1.000000, 0.000000, 0.000000;;,
  90; 4; 0.000000, 1.000000, 0.000000, 0.000000;;;
  }
  AnimationKey {
  2;
  2;
  1; 3; 0.039999, -2.154228, -5.118925;;,
  90; 3; 0.039999, -2.154228, -5.118925;;;
  }
 }
 Animation anim-SSal {
  {frm-SSal}
  AnimationKey {
  0;
  2;
  1; 4; -0.000000, -0.258819, -0.965926, -0.000000;;,
  90; 4; -0.000000, -0.258819, -0.965926, -0.000000;;;
  }
  AnimationKey {
  2;
  2;
  1; 3; 2.119401, 2.833410, 5.780715;;,
  90; 3; 2.119401, 2.833410, 5.780715;;;
  }
 }
 Animation anim-SSar {
  {frm-SSar}
  AnimationKey {
  0;
  2;
  1; 4; 0.000000, -0.258819, 0.965926, -0.000000;;,
  90; 4; 0.000000, -0.258819, 0.965926, -0.000000;;;
  }
  AnimationKey {
  2;
  2;
  1; 3; -2.033721, 2.833410, 5.780715;;,
  90; 3; -2.033721, 2.833410, 5.780715;;;
  }
 }
 Animation anim-SSr {
  {frm-SSr}
  AnimationKey {
  0;
  2;
  1; 4; 0.000000, -0.707107, 0.707107, -0.000000;;,
  90; 4; 0.000000, -0.707107, 0.707107, -0.000000;;;
  }
  AnimationKey {
  2;
  2;
  1; 3; -6.564399, 0.045675, 6.206711;;,
  90; 3; -6.564399, 0.045675, 6.206711;;;
  }
 }
 Animation anim-SSl {
  {frm-SSl}
  AnimationKey {
  0;
  2;
  1; 4; -0.000000, -0.707107, -0.707107, -0.000000;;,
  90; 4; -0.000000, -0.707107, -0.707107, -0.000000;;;
  }
  AnimationKey {
  2;
  2;
  1; 3; 6.787370, 0.046896, 6.206711;;,
  90; 3; 6.787370, 0.046896, 6.206711;;;
  }
 }
 Animation anim-FL {
  {frm-FL}
  AnimationKey {
  0;
  2;
  1; 4; 0.707107, 0.000035, -0.707107, -0.000035;;,
  90; 4; 0.707107, 0.000035, -0.707107, -0.000035;;;
  }
  AnimationKey {
  1;
  2;
  1; 3; 1.544639, 1.544639, 1.544639;;,
  90; 3; 1.544639, 1.544639, 1.544639;;;
  }
  AnimationKey {
  2;
  14;
  1; 3; 1.266631, -2.406272, 1.022032;;,
  16; 3; 1.266631, -0.614591, 1.022032;;,
  19; 3; 1.266631, -0.639537, 1.022032;;,
  22; 3; 1.266631, -0.709508, 1.022032;;,
  25; 3; 1.266631, -0.817202, 1.022032;;,
  29; 3; 1.266631, -1.006856, 1.022032;;,
  34; 3; 1.266631, -1.293612, 1.022032;;,
  46; 3; 1.266631, -2.014007, 1.022032;;,
  50; 3; 1.266631, -2.203661, 1.022032;;,
  53; 3; 1.266631, -2.311355, 1.022032;;,
  56; 3; 1.266631, -2.381326, 1.022032;;,
  59; 3; 1.266631, -2.406272, 1.022032;;,
  60; 3; 1.266631, -0.614591, 1.022032;;,
  90; 3; 1.266631, -0.614591, 1.022032;;;
  }
 }
 Animation anim-LRl {
  {frm-LRl}
  AnimationKey {
  0;
  2;
  1; 4; 0.707107, 0.000035, -0.707107, -0.000035;;,
  90; 4; 0.707107, 0.000035, -0.707107, -0.000035;;;
  }
  AnimationKey {
  1;
  2;
  1; 3; 1.544639, 1.544639, 1.544639;;,
  90; 3; 1.544639, 1.544639, 1.544639;;;
  }
  AnimationKey {
  2;
  14;
  1; 3; -1.189879, -2.406272, 1.022031;;,
  16; 3; -1.189879, -0.614591, 1.022031;;,
  19; 3; -1.189879, -0.639537, 1.022031;;,
  22; 3; -1.189879, -0.709508, 1.022031;;,
  25; 3; -1.189879, -0.817202, 1.022031;;,
  29; 3; -1.189879, -1.006856, 1.022031;;,
  34; 3; -1.189879, -1.293612, 1.022031;;,
  46; 3; -1.189879, -2.014007, 1.022031;;,
  50; 3; -1.189879, -2.203661, 1.022031;;,
  53; 3; -1.189879, -2.311355, 1.022031;;,
  56; 3; -1.189879, -2.381326, 1.022031;;,
  59; 3; -1.189879, -2.406272, 1.022031;;,
  60; 3; -1.189879, -0.614591, 1.022031;;,
  90; 3; -1.189879, -0.614591, 1.022031;;;
  }
 }
 Animation anim-LLl {
  {frm-LLl}
  AnimationKey {
  0;
  2;
  1; 4; 0.707107, 0.000035, -0.707107, -0.000035;;,
  90; 4; 0.707107, 0.000035, -0.707107, -0.000035;;;
  }
  AnimationKey {
  1;
  2;
  1; 3; 1.306764, 1.306764, 1.306764;;,
  90; 3; 1.306764, 1.306764, 1.306764;;;
  }
  AnimationKey {
  2;
  14;
  1; 3; 0.052738, -2.515821, -2.990447;;,
  16; 3; 0.052738, -0.724140, -2.990447;;,
  19; 3; 0.052738, -0.749086, -2.990447;;,
  22; 3; 0.052738, -0.819057, -2.990447;;,
  25; 3; 0.052738, -0.926751, -2.990447;;,
  29; 3; 0.052738, -1.116405, -2.990447;;,
  34; 3; 0.052738, -1.403161, -2.990447;;,
  46; 3; 0.052738, -2.123556, -2.990447;;,
  50; 3; 0.052738, -2.313210, -2.990447;;,
  53; 3; 0.052738, -2.420904, -2.990447;;,
  56; 3; 0.052738, -2.490875, -2.990447;;,
  59; 3; 0.052738, -2.515821, -2.990447;;,
  60; 3; 0.052738, -0.724140, -2.990447;;,
  90; 3; 0.052738, -0.724140, -2.990447;;;
  }
 }
}
