xof 0302txt 0032
template Header {
 <3D82AB43-62DA-11cf-AB39-0020AF71E433>
 WORD major;
 WORD minor;
 DWORD flags;
}

template Vector {
 <3D82AB5E-62DA-11cf-AB39-0020AF71E433>
 FLOAT x;
 FLOAT y;
 FLOAT z;
}

template Coords2d {
 <F6F23F44-7686-11cf-8F52-0040333594A3>
 FLOAT u;
 FLOAT v;
}

template Matrix4x4 {
 <F6F23F45-7686-11cf-8F52-0040333594A3>
 array FLOAT matrix[16];
}

template ColorRGBA {
 <35FF44E0-6C7C-11cf-8F52-0040333594A3>
 FLOAT red;
 FLOAT green;
 FLOAT blue;
 FLOAT alpha;
}

template ColorRGB {
 <D3E16E81-7835-11cf-8F52-0040333594A3>
 FLOAT red;
 FLOAT green;
 FLOAT blue;
}

template TextureFilename {
 <A42790E1-7810-11cf-8F52-0040333594A3>
 STRING filename;
}

template Material {
 <3D82AB4D-62DA-11cf-AB39-0020AF71E433>
 ColorRGBA faceColor;
 FLOAT power;
 ColorRGB specularColor;
 ColorRGB emissiveColor;
 [...]
}

template MeshFace {
 <3D82AB5F-62DA-11cf-AB39-0020AF71E433>
 DWORD nFaceVertexIndices;
 array DWORD faceVertexIndices[nFaceVertexIndices];
}

template MeshTextureCoords {
 <F6F23F40-7686-11cf-8F52-0040333594A3>
 DWORD nTextureCoords;
 array Coords2d textureCoords[nTextureCoords];
}

template MeshMaterialList {
 <F6F23F42-7686-11cf-8F52-0040333594A3>
 DWORD nMaterials;
 DWORD nFaceIndexes;
 array DWORD faceIndexes[nFaceIndexes];
 [Material]
}

template MeshNormals {
 <F6F23F43-7686-11cf-8F52-0040333594A3>
 DWORD nNormals;
 array Vector normals[nNormals];
 DWORD nFaceNormals;
 array MeshFace faceNormals[nFaceNormals];
}

template Mesh {
 <3D82AB44-62DA-11cf-AB39-0020AF71E433>
 DWORD nVertices;
 array Vector vertices[nVertices];
 DWORD nFaces;
 array MeshFace faces[nFaces];
 [...]
}

template FrameTransformMatrix {
 <F6F23F41-7686-11cf-8F52-0040333594A3>
 Matrix4x4 frameMatrix;
}

template Frame {
 <3D82AB46-62DA-11cf-AB39-0020AF71E433>
 [...]
}
template FloatKeys {
 <10DD46A9-775B-11cf-8F52-0040333594A3>
 DWORD nValues;
 array FLOAT values[nValues];
}

template TimedFloatKeys {
 <F406B180-7B3B-11cf-8F52-0040333594A3>
 DWORD time;
 FloatKeys tfkeys;
}

template AnimationKey {
 <10DD46A8-775B-11cf-8F52-0040333594A3>
 DWORD keyType;
 DWORD nKeys;
 array TimedFloatKeys keys[nKeys];
}

template AnimationOptions {
 <E2BF56C0-840F-11cf-8F52-0040333594A3>
 DWORD openclosed;
 DWORD positionquality;
}

template Animation {
 <3D82AB4F-62DA-11cf-AB39-0020AF71E433>
 [...]
}

template AnimationSet {
 <3D82AB50-62DA-11cf-AB39-0020AF71E433>
 [Animation]
}

Header {
 1;
 0;
 1;
}

Frame frm-bgrnd50 {
  FrameTransformMatrix {
1.000000,0.000000,0.000000,0.000000,
0.000000,1.000000,0.000000,0.000000,
0.000000,0.000000,1.000000,0.000000,
0.000000,0.000000,0.000000,1.000000;;
 }
Mesh bgrnd50 {
 67;
 0.002612;2.301362;0.081747;,
 0.002612;2.301362;0.081747;,
 0.002612;2.301362;0.081747;,
 0.002612;2.301362;0.081747;,
 0.002612;2.301362;0.081747;,
 0.002612;2.301362;0.081747;,
 0.002612;2.301362;0.081747;,
 0.704694;-1.674271;-0.694140;,
 0.704694;-1.674271;-0.694140;,
 0.704694;-1.674271;-0.694140;,
 1.357156;-1.037523;-1.313158;,
 1.357156;-1.037523;-1.313158;,
 1.720889;0.013861;-1.585427;,
 1.720889;0.013861;-1.585427;,
 1.446858;1.154245;-1.328082;,
 1.446858;1.154245;-1.328082;,
 0.859737;2.102071;-0.817848;,
 0.859737;2.102071;-0.817848;,
 0.001515;-2.056801;0.002720;,
 0.001515;-2.056801;0.002720;,
 0.001515;-2.056801;0.002720;,
 0.001515;-2.056801;0.002720;,
 0.001515;-2.056801;0.002720;,
 0.001515;-2.056801;0.002720;,
 0.001515;-2.056801;0.002720;,
 0.001515;-2.056801;0.002720;,
 -1.111956;2.001802;0.005090;,
 -1.910712;1.131956;0.051860;,
 -2.306921;0.037477;0.096009;,
 -1.746426;-0.964168;0.090011;,
 -0.972627;-1.722301;0.032761;,
 -0.762170;1.966577;-0.746899;,
 0.012158;-1.645394;-0.963581;,
 -0.782531;1.951706;0.782440;,
 -1.392713;1.128814;1.405422;,
 -1.699097;-0.007623;1.704124;,
 -1.431583;-1.166373;1.510687;,
 -0.773662;-1.910980;0.820428;,
 -1.185271;1.007043;-1.141343;,
 0.058408;-0.985280;-1.746762;,
 0.015227;1.973759;1.131907;,
 0.020143;1.152737;2.033550;,
 0.011833;-0.016507;2.434869;,
 0.009448;-1.241032;2.162304;,
 0.009364;-2.019282;1.201817;,
 -1.315063;0.017952;-1.253193;,
 0.083059;-0.004623;-2.046490;,
 0.870058;2.093923;0.843348;,
 1.548131;1.241204;1.485993;,
 1.820020;0.006212;1.751455;,
 1.521359;-1.225075;1.548481;,
 0.824563;-1.982202;0.857886;,
 -1.071540;-0.889263;-1.079525;,
 0.046685;1.011603;-1.729822;,
 1.251393;2.161576;0.002580;,
 2.276927;1.333591;0.025318;,
 2.696179;0.062651;0.024783;,
 2.022212;-1.090172;0.041051;,
 1.047923;-1.781663;0.029967;,
 -0.642617;-1.624825;-0.645507;,
 0.017737;1.948125;-1.063519;,
 0.859737;2.102071;-0.817848;,
 1.446858;1.154245;-1.328082;,
 1.720889;0.013861;-1.585427;,
 1.357156;-1.037523;-1.313158;,
 0.704694;-1.674271;-0.694140;,
 0.002612;2.301362;0.081747;;

 48;
 4;11,57,58,9;,
 4;13,56,57,10;,
 4;15,55,56,12;,
 4;17,54,55,14;,
 4;57,50,51,58;,
 4;56,49,50,57;,
 4;55,48,49,56;,
 4;54,47,48,55;,
 4;50,43,44,51;,
 4;49,42,43,50;,
 4;48,41,42,49;,
 4;47,40,41,48;,
 4;43,36,37,44;,
 4;42,35,36,43;,
 4;41,34,35,42;,
 4;40,33,34,41;,
 4;36,29,30,37;,
 4;35,28,29,36;,
 4;34,27,28,35;,
 4;33,26,27,34;,
 3;6,54,16;,
 4;29,52,59,30;,
 4;28,45,52,29;,
 4;27,38,45,28;,
 4;26,31,38,27;,
 3;24,51,44;,
 4;52,39,32,59;,
 4;45,46,39,52;,
 4;38,53,46,45;,
 4;31,60,53,38;,
 4;39,64,8,32;,
 4;46,63,64,39;,
 4;53,62,63,46;,
 4;60,61,62,53;,
 3;5,26,33;,
 3;47,54,4;,
 3;3,33,40;,
 3;2,40,47;,
 3;31,26,1;,
 3;0,61,60;,
 3;66,60,31;,
 3;23,59,32;,
 3;30,59,22;,
 3;37,30,21;,
 3;44,37,20;,
 3;58,51,19;,
 3;7,58,18;,
 3;32,65,25;;

 MeshMaterialList {
  1;
  48;
  0,
  0,
  0,
  0,
  0,
  0,
  0,
  0,
  0,
  0,
  0,
  0,
  0,
  0,
  0,
  0,
  0,
  0,
  0,
  0,
  0,
  0,
  0,
  0,
  0,
  0,
  0,
  0,
  0,
  0,
  0,
  0,
  0,
  0,
  0,
  0,
  0,
  0,
  0,
  0,
  0,
  0,
  0,
  0,
  0,
  0,
  0,
  0;
Material {
 1.000000;1.000000;1.000000;1.000000;;
 50.000000;
 1.000000;1.000000;1.000000;;
 0.0; 0.0; 0.0;;
 TextureFilename {
  "bgrnd05.bmp";
 }
 }
}
 MeshNormals {
  67;
  -0.086404;0.996252;0.004137;,
  -0.086404;0.996252;0.004137;,
  -0.086404;0.996252;0.004137;,
  -0.086404;0.996252;0.004137;,
  -0.086404;0.996252;0.004137;,
  -0.086404;0.996252;0.004137;,
  -0.086404;0.996252;0.004137;,
  0.276083;-0.871966;-0.404293;,
  0.276083;-0.871966;-0.404293;,
  0.276083;-0.871966;-0.404293;,
  0.481466;-0.621498;-0.618005;,
  0.481466;-0.621498;-0.618005;,
  0.604412;-0.047978;-0.795226;,
  0.604412;-0.047978;-0.795226;,
  0.493747;0.486004;-0.721120;,
  0.493747;0.486004;-0.721120;,
  0.215429;0.866632;-0.450044;,
  0.215429;0.866632;-0.450044;,
  -0.043383;-0.978328;-0.202465;,
  -0.043383;-0.978328;-0.202465;,
  -0.043383;-0.978328;-0.202465;,
  -0.043383;-0.978328;-0.202465;,
  -0.043383;-0.978328;-0.202465;,
  -0.043383;-0.978328;-0.202465;,
  -0.043383;-0.978328;-0.202465;,
  -0.043383;-0.978328;-0.202465;,
  -0.517297;0.855009;-0.036933;,
  -0.860065;0.499833;-0.102253;,
  -0.988024;-0.055015;-0.144156;,
  -0.813870;-0.554503;-0.173613;,
  -0.524065;-0.825800;-0.208352;,
  -0.379489;0.806096;-0.454090;,
  -0.080997;-0.845360;-0.528021;,
  -0.365721;0.855862;0.365718;,
  -0.604522;0.548230;0.577925;,
  -0.736676;0.017405;0.676021;,
  -0.655927;-0.573783;0.490442;,
  -0.405744;-0.904151;0.133726;,
  -0.606075;0.391468;-0.692406;,
  -0.117533;-0.552358;-0.825280;,
  -0.080538;0.861837;0.500750;,
  -0.047662;0.543995;0.837733;,
  -0.026829;0.045698;0.998595;,
  -0.029017;-0.550274;0.834480;,
  -0.042355;-0.942976;0.330154;,
  -0.671866;-0.055553;-0.738586;,
  -0.118953;-0.023880;-0.992613;,
  0.226673;0.894651;0.384992;,
  0.531330;0.547784;0.646236;,
  0.677649;-0.008498;0.735337;,
  0.592096;-0.596473;0.541888;,
  0.324175;-0.934427;0.147499;,
  -0.600423;-0.501284;-0.623062;,
  -0.105154;0.415717;-0.903395;,
  0.389011;0.921038;-0.018940;,
  0.822720;0.566723;-0.044240;,
  0.996174;-0.071629;-0.050069;,
  0.761691;-0.641923;-0.088102;,
  0.428949;-0.887639;-0.167633;,
  -0.408066;-0.797985;-0.443511;,
  -0.100802;0.801545;-0.589377;,
  0.215429;0.866632;-0.450044;,
  0.493747;0.486004;-0.721120;,
  0.604412;-0.047978;-0.795226;,
  0.481466;-0.621498;-0.618005;,
  0.276083;-0.871966;-0.404293;,
  -0.086404;0.996252;0.004137;;

  48;
  4;11,57,58,9;,
  4;13,56,57,10;,
  4;15,55,56,12;,
  4;17,54,55,14;,
  4;57,50,51,58;,
  4;56,49,50,57;,
  4;55,48,49,56;,
  4;54,47,48,55;,
  4;50,43,44,51;,
  4;49,42,43,50;,
  4;48,41,42,49;,
  4;47,40,41,48;,
  4;43,36,37,44;,
  4;42,35,36,43;,
  4;41,34,35,42;,
  4;40,33,34,41;,
  4;36,29,30,37;,
  4;35,28,29,36;,
  4;34,27,28,35;,
  4;33,26,27,34;,
  3;6,54,16;,
  4;29,52,59,30;,
  4;28,45,52,29;,
  4;27,38,45,28;,
  4;26,31,38,27;,
  3;24,51,44;,
  4;52,39,32,59;,
  4;45,46,39,52;,
  4;38,53,46,45;,
  4;31,60,53,38;,
  4;39,64,8,32;,
  4;46,63,64,39;,
  4;53,62,63,46;,
  4;60,61,62,53;,
  3;5,26,33;,
  3;47,54,4;,
  3;3,33,40;,
  3;2,40,47;,
  3;31,26,1;,
  3;0,61,60;,
  3;66,60,31;,
  3;23,59,32;,
  3;30,59,22;,
  3;37,30,21;,
  3;44,37,20;,
  3;58,51,19;,
  3;7,58,18;,
  3;32,65,25;;
 }
 MeshTextureCoords { 
 67;
 0.901244;0.058544;,
 0.740011;0.038205;,
 0.359375;0.025391;,
 0.521261;0.032346;,
 0.181641;0.027344;,
 0.638449;0.036252;,
 0.044922;0.048828;,
 0.001953;0.810547;,
 0.988932;0.804036;,
 0.001953;0.810547;,
 0.001953;0.685547;,
 0.001953;0.685547;,
 0.001953;0.529297;,
 0.001953;0.529297;,
 0.001953;0.373047;,
 0.001953;0.373047;,
 0.001953;0.185547;,
 0.001953;0.185547;,
 0.042969;0.940104;,
 0.195313;0.965495;,
 0.478516;0.979167;,
 0.625000;0.965495;,
 0.710938;0.951823;,
 0.805050;0.956141;,
 0.353516;0.977214;,
 0.932003;0.965907;,
 0.662568;0.206465;,
 0.649896;0.375499;,
 0.645317;0.529783;,
 0.647872;0.681904;,
 0.652117;0.833950;,
 0.760161;0.213925;,
 0.856255;0.793860;,
 0.555882;0.187453;,
 0.538588;0.368918;,
 0.535276;0.536679;,
 0.534131;0.694215;,
 0.548879;0.846499;,
 0.757984;0.382756;,
 0.869442;0.681580;,
 0.423998;0.161124;,
 0.410791;0.356482;,
 0.409050;0.540346;,
 0.410780;0.710064;,
 0.423073;0.866933;,
 0.757081;0.537589;,
 0.872297;0.538195;,
 0.270350;0.153296;,
 0.272034;0.347715;,
 0.272703;0.536770;,
 0.274264;0.690647;,
 0.239157;0.852922;,
 0.761092;0.682726;,
 0.868444;0.383702;,
 0.130859;0.169922;,
 0.144191;0.351778;,
 0.146398;0.526159;,
 0.143629;0.701770;,
 0.145891;0.857152;,
 0.758810;0.821915;,
 0.861328;0.208984;,
 0.998047;0.185547;,
 0.998047;0.373047;,
 0.998047;0.529297;,
 0.998047;0.685547;,
 0.988932;0.804036;,
 0.809490;0.061617;;
 }
}
}

