xof 0302txt 0032
template Header {
 <3D82AB43-62DA-11cf-AB39-0020AF71E433>
 WORD major;
 WORD minor;
 DWORD flags;
}

template Vector {
 <3D82AB5E-62DA-11cf-AB39-0020AF71E433>
 FLOAT x;
 FLOAT y;
 FLOAT z;
}

template Coords2d {
 <F6F23F44-7686-11cf-8F52-0040333594A3>
 FLOAT u;
 FLOAT v;
}

template Matrix4x4 {
 <F6F23F45-7686-11cf-8F52-0040333594A3>
 array FLOAT matrix[16];
}

template ColorRGBA {
 <35FF44E0-6C7C-11cf-8F52-0040333594A3>
 FLOAT red;
 FLOAT green;
 FLOAT blue;
 FLOAT alpha;
}

template ColorRGB {
 <D3E16E81-7835-11cf-8F52-0040333594A3>
 FLOAT red;
 FLOAT green;
 FLOAT blue;
}

template TextureFilename {
 <A42790E1-7810-11cf-8F52-0040333594A3>
 STRING filename;
}

template Material {
 <3D82AB4D-62DA-11cf-AB39-0020AF71E433>
 ColorRGBA faceColor;
 FLOAT power;
 ColorRGB specularColor;
 ColorRGB emissiveColor;
 [...]
}

template MeshFace {
 <3D82AB5F-62DA-11cf-AB39-0020AF71E433>
 DWORD nFaceVertexIndices;
 array DWORD faceVertexIndices[nFaceVertexIndices];
}

template MeshTextureCoords {
 <F6F23F40-7686-11cf-8F52-0040333594A3>
 DWORD nTextureCoords;
 array Coords2d textureCoords[nTextureCoords];
}

template MeshMaterialList {
 <F6F23F42-7686-11cf-8F52-0040333594A3>
 DWORD nMaterials;
 DWORD nFaceIndexes;
 array DWORD faceIndexes[nFaceIndexes];
 [Material]
}

template MeshNormals {
 <F6F23F43-7686-11cf-8F52-0040333594A3>
 DWORD nNormals;
 array Vector normals[nNormals];
 DWORD nFaceNormals;
 array MeshFace faceNormals[nFaceNormals];
}

template Mesh {
 <3D82AB44-62DA-11cf-AB39-0020AF71E433>
 DWORD nVertices;
 array Vector vertices[nVertices];
 DWORD nFaces;
 array MeshFace faces[nFaces];
 [...]
}

template FrameTransformMatrix {
 <F6F23F41-7686-11cf-8F52-0040333594A3>
 Matrix4x4 frameMatrix;
}

template Frame {
 <3D82AB46-62DA-11cf-AB39-0020AF71E433>
 [...]
}
template FloatKeys {
 <10DD46A9-775B-11cf-8F52-0040333594A3>
 DWORD nValues;
 array FLOAT values[nValues];
}

template TimedFloatKeys {
 <F406B180-7B3B-11cf-8F52-0040333594A3>
 DWORD time;
 FloatKeys tfkeys;
}

template AnimationKey {
 <10DD46A8-775B-11cf-8F52-0040333594A3>
 DWORD keyType;
 DWORD nKeys;
 array TimedFloatKeys keys[nKeys];
}

template AnimationOptions {
 <E2BF56C0-840F-11cf-8F52-0040333594A3>
 DWORD openclosed;
 DWORD positionquality;
}

template Animation {
 <3D82AB4F-62DA-11cf-AB39-0020AF71E433>
 [...]
}

template AnimationSet {
 <3D82AB50-62DA-11cf-AB39-0020AF71E433>
 [Animation]
}

Header {
 1;
 0;
 1;
}

Frame frm-bgrnd54 {
  FrameTransformMatrix {
1.000000,0.000000,0.000000,0.000000,
0.000000,1.000000,0.000000,0.000000,
0.000000,0.000000,1.000000,0.000000,
0.000000,0.000000,0.000000,1.000000;;
 }
Mesh bgrnd54 {
 66;
 3.061148;-4.214178;-0.026288;,
 3.061148;-4.214178;-0.026288;,
 4.246011;-2.453562;-0.063156;,
 4.246011;-2.453562;-0.063156;,
 4.901658;0.004109;-0.042633;,
 4.901658;0.004109;-0.042633;,
 4.655031;2.655788;0.023792;,
 4.655031;2.655788;0.023792;,
 3.268645;4.506761;0.030879;,
 3.268645;4.506761;0.030879;,
 0.051030;-4.897564;-0.008197;,
 0.051030;-4.897564;-0.008197;,
 0.051030;-4.897564;-0.008197;,
 0.051030;-4.897564;-0.008197;,
 0.051030;-4.897564;-0.008197;,
 0.051030;-4.897564;-0.008197;,
 0.051030;-4.897564;-0.008197;,
 0.003931;5.567607;0.022341;,
 0.003931;5.567607;0.022341;,
 0.003931;5.567607;0.022341;,
 0.003931;5.567607;0.022341;,
 0.003931;5.567607;0.022341;,
 0.003931;5.567607;0.022341;,
 0.003931;5.567607;0.022341;,
 0.003931;5.567607;0.022341;,
 0.051030;-4.897564;-0.008197;,
 0.006391;4.090162;-2.900615;,
 0.034943;2.326209;-4.172904;,
 0.034946;0.008382;-4.733657;,
 0.034097;-2.097728;-3.718392;,
 0.028728;-3.646474;-2.597203;,
 -2.062960;4.094284;-1.999685;,
 -2.862946;2.280080;-2.806471;,
 -3.118577;0.008636;-3.158268;,
 -2.504725;-1.988567;-2.524950;,
 -1.687485;-3.350726;-1.727050;,
 -3.107387;4.355001;0.055144;,
 -4.279818;2.469587;0.050758;,
 -4.351981;0.047208;-0.038353;,
 -3.460201;-1.931887;-0.025512;,
 -2.313065;-3.192870;-0.015961;,
 -2.309231;4.578997;2.315125;,
 -3.100332;2.584551;3.106894;,
 -2.998806;0.068025;2.982763;,
 -2.430174;-1.920874;2.395891;,
 -1.642329;-3.212735;1.637135;,
 -0.025358;4.552444;3.255960;,
 -0.000128;2.612904;4.486195;,
 0.029598;0.085715;4.405387;,
 -0.003144;-1.919143;3.394081;,
 0.017776;-3.356824;2.362177;,
 2.337669;4.595422;2.377765;,
 3.299843;2.692765;3.331924;,
 3.347313;0.071162;3.322404;,
 2.689323;-2.133003;2.556971;,
 1.947149;-3.801076;1.830149;,
 3.268645;4.506761;0.030879;,
 4.655031;2.655788;0.023792;,
 4.901658;0.004109;-0.042633;,
 4.246011;-2.453562;-0.063156;,
 3.061148;-4.214178;-0.026288;,
 2.214551;4.308302;-2.186005;,
 3.204180;2.520880;-3.176249;,
 3.513811;-0.000989;-3.555969;,
 2.937282;-2.330739;-2.868878;,
 2.049970;-3.956473;-1.984726;;

 48;
 3;65,1,16;,
 4;64,3,0,65;,
 4;63,5,2,64;,
 4;62,7,4,63;,
 4;61,9,6,62;,
 3;23,8,61;,
 3;60,55,15;,
 4;59,54,55,60;,
 4;58,53,54,59;,
 4;57,52,53,58;,
 4;56,51,52,57;,
 3;22,51,56;,
 3;55,50,14;,
 4;54,49,50,55;,
 4;53,48,49,54;,
 4;52,47,48,53;,
 4;51,46,47,52;,
 3;21,46,51;,
 3;50,45,13;,
 4;49,44,45,50;,
 4;48,43,44,49;,
 4;47,42,43,48;,
 4;46,41,42,47;,
 3;20,41,46;,
 3;45,40,12;,
 4;44,39,40,45;,
 4;43,38,39,44;,
 4;42,37,38,43;,
 4;41,36,37,42;,
 3;19,36,41;,
 3;40,35,11;,
 4;39,34,35,40;,
 4;38,33,34,39;,
 4;37,32,33,38;,
 4;36,31,32,37;,
 3;18,31,36;,
 3;35,30,10;,
 4;34,29,30,35;,
 4;33,28,29,34;,
 4;32,27,28,33;,
 4;31,26,27,32;,
 3;17,26,31;,
 3;30,65,25;,
 4;29,64,65,30;,
 4;28,63,64,29;,
 4;27,62,63,28;,
 4;26,61,62,27;,
 3;24,61,26;;

 MeshMaterialList {
  1;
  48;
  0,
  0,
  0,
  0,
  0,
  0,
  0,
  0,
  0,
  0,
  0,
  0,
  0,
  0,
  0,
  0,
  0,
  0,
  0,
  0,
  0,
  0,
  0,
  0,
  0,
  0,
  0,
  0,
  0,
  0,
  0,
  0,
  0,
  0,
  0,
  0,
  0,
  0,
  0,
  0,
  0,
  0,
  0,
  0,
  0,
  0,
  0,
  0;
Material {
 1.000000;1.000000;1.000000;1.000000;;
 50.000000;
 1.000000;1.000000;1.000000;;
 0.0; 0.0; 0.0;;
 TextureFilename {
  "bgrnd56.ppm";
 }
 }
}
 MeshNormals {
  66;
  0.536304;-0.842065;0.057481;,
  0.536304;-0.842065;0.057481;,
  0.885433;-0.462122;0.049516;,
  0.885433;-0.462122;0.049516;,
  0.992953;-0.116196;0.023281;,
  0.992953;-0.116196;0.023281;,
  0.930088;0.366935;-0.017202;,
  0.930088;0.366935;-0.017202;,
  0.572956;0.817563;-0.057548;,
  0.572956;0.817563;-0.057548;,
  -0.202848;-0.977525;0.057420;,
  -0.202848;-0.977525;0.057420;,
  -0.202848;-0.977525;0.057420;,
  -0.202848;-0.977525;0.057420;,
  -0.202848;-0.977525;0.057420;,
  -0.202848;-0.977525;0.057420;,
  -0.202848;-0.977525;0.057420;,
  -0.034362;0.995013;-0.093645;,
  -0.034362;0.995013;-0.093645;,
  -0.034362;0.995013;-0.093645;,
  -0.034362;0.995013;-0.093645;,
  -0.034362;0.995013;-0.093645;,
  -0.034362;0.995013;-0.093645;,
  -0.034362;0.995013;-0.093645;,
  -0.034362;0.995013;-0.093645;,
  -0.202848;-0.977525;0.057420;,
  -0.074123;0.755830;-0.650559;,
  -0.074798;0.402623;-0.912305;,
  -0.076244;-0.103543;-0.991698;,
  -0.096102;-0.506224;-0.857030;,
  -0.153393;-0.765047;-0.625439;,
  -0.438517;0.738896;-0.511601;,
  -0.656799;0.354446;-0.665570;,
  -0.723986;-0.130992;-0.677263;,
  -0.639959;-0.525983;-0.560173;,
  -0.539748;-0.745507;-0.391013;,
  -0.631744;0.767342;-0.109940;,
  -0.954594;0.294243;-0.046600;,
  -0.982654;-0.185333;0.006473;,
  -0.844587;-0.534788;0.025954;,
  -0.673806;-0.738056;0.035467;,
  -0.462144;0.793498;0.395960;,
  -0.704118;0.248810;0.665065;,
  -0.695888;-0.224053;0.682305;,
  -0.604556;-0.523879;0.600053;,
  -0.499373;-0.732011;0.463450;,
  -0.024015;0.796676;0.603930;,
  -0.045873;0.264078;0.963410;,
  -0.055538;-0.233351;0.970805;,
  -0.070065;-0.498082;0.864295;,
  -0.129269;-0.714048;0.688059;,
  0.399017;0.820552;0.409243;,
  0.647118;0.317189;0.693274;,
  0.645726;-0.190814;0.739343;,
  0.527913;-0.463346;0.711771;,
  0.283496;-0.748859;0.599033;,
  0.572956;0.817563;-0.057548;,
  0.930088;0.366935;-0.017202;,
  0.992953;-0.116196;0.023281;,
  0.885433;-0.462122;0.049516;,
  0.536304;-0.842065;0.057481;,
  0.348296;0.795656;-0.495603;,
  0.596103;0.409565;-0.690592;,
  0.670746;-0.091864;-0.735976;,
  0.559691;-0.482054;-0.674070;,
  0.302872;-0.805039;-0.510079;;

  48;
  3;65,1,16;,
  4;64,3,0,65;,
  4;63,5,2,64;,
  4;62,7,4,63;,
  4;61,9,6,62;,
  3;23,8,61;,
  3;60,55,15;,
  4;59,54,55,60;,
  4;58,53,54,59;,
  4;57,52,53,58;,
  4;56,51,52,57;,
  3;22,51,56;,
  3;55,50,14;,
  4;54,49,50,55;,
  4;53,48,49,54;,
  4;52,47,48,53;,
  4;51,46,47,52;,
  3;21,46,51;,
  3;50,45,13;,
  4;49,44,45,50;,
  4;48,43,44,49;,
  4;47,42,43,48;,
  4;46,41,42,47;,
  3;20,41,46;,
  3;45,40,12;,
  4;44,39,40,45;,
  4;43,38,39,44;,
  4;42,37,38,43;,
  4;41,36,37,42;,
  3;19,36,41;,
  3;40,35,11;,
  4;39,34,35,40;,
  4;38,33,34,39;,
  4;37,32,33,38;,
  4;36,31,32,37;,
  3;18,31,36;,
  3;35,30,10;,
  4;34,29,30,35;,
  4;33,28,29,34;,
  4;32,27,28,33;,
  4;31,26,27,32;,
  3;17,26,31;,
  3;30,65,25;,
  4;29,64,65,30;,
  4;28,63,64,29;,
  4;27,62,63,28;,
  4;26,61,62,27;,
  3;24,61,26;;
 }
 MeshTextureCoords { 
 66;
 0.974431;0.845459;,
 0.974431;0.845459;,
 0.971464;0.713292;,
 0.971464;0.713292;,
 0.971806;0.538473;,
 0.971806;0.538473;,
 0.974236;0.357957;,
 0.974236;0.357957;,
 0.976936;0.209019;,
 0.976936;0.209019;,
 0.679186;0.991972;,
 0.539736;0.991788;,
 0.426668;0.975919;,
 0.317370;0.983854;,
 0.192995;0.987821;,
 0.076159;0.983854;,
 0.924166;0.980253;,
 0.650044;0.034510;,
 0.538232;0.030542;,
 0.423908;0.026575;,
 0.322148;0.034510;,
 0.204055;0.033187;,
 0.089731;0.027897;,
 0.917637;0.038477;,
 0.781956;0.029220;,
 0.796023;0.984098;,
 0.722488;0.214148;,
 0.728200;0.367869;,
 0.729303;0.538231;,
 0.727018;0.707400;,
 0.722058;0.842781;,
 0.599918;0.225189;,
 0.604701;0.373051;,
 0.608117;0.538533;,
 0.605487;0.697739;,
 0.601273;0.828492;,
 0.487962;0.233926;,
 0.490196;0.373803;,
 0.493243;0.535475;,
 0.492039;0.691696;,
 0.489685;0.818469;,
 0.379909;0.232923;,
 0.378830;0.370330;,
 0.379493;0.534498;,
 0.380917;0.692527;,
 0.381992;0.818565;,
 0.268469;0.226603;,
 0.264014;0.367255;,
 0.263172;0.533145;,
 0.266975;0.699167;,
 0.270688;0.830826;,
 0.148973;0.217887;,
 0.144449;0.362064;,
 0.143052;0.533850;,
 0.142276;0.709354;,
 0.146160;0.843366;,
 0.030937;0.209019;,
 0.028237;0.357957;,
 0.025807;0.538473;,
 0.025465;0.713292;,
 0.028432;0.845459;,
 0.853191;0.207726;,
 0.854731;0.361223;,
 0.853445;0.538373;,
 0.855544;0.712197;,
 0.854267;0.848667;;
 }
}
}
