xof 0302txt 0032
template Header {
 <3D82AB43-62DA-11cf-AB39-0020AF71E433>
 WORD major;
 WORD minor;
 DWORD flags;
}

template Vector {
 <3D82AB5E-62DA-11cf-AB39-0020AF71E433>
 FLOAT x;
 FLOAT y;
 FLOAT z;
}

template Coords2d {
 <F6F23F44-7686-11cf-8F52-0040333594A3>
 FLOAT u;
 FLOAT v;
}

template Matrix4x4 {
 <F6F23F45-7686-11cf-8F52-0040333594A3>
 array FLOAT matrix[16];
}

template ColorRGBA {
 <35FF44E0-6C7C-11cf-8F52-0040333594A3>
 FLOAT red;
 FLOAT green;
 FLOAT blue;
 FLOAT alpha;
}

template ColorRGB {
 <D3E16E81-7835-11cf-8F52-0040333594A3>
 FLOAT red;
 FLOAT green;
 FLOAT blue;
}

template TextureFilename {
 <A42790E1-7810-11cf-8F52-0040333594A3>
 STRING filename;
}

template Material {
 <3D82AB4D-62DA-11cf-AB39-0020AF71E433>
 ColorRGBA faceColor;
 FLOAT power;
 ColorRGB specularColor;
 ColorRGB emissiveColor;
 [...]
}

template MeshFace {
 <3D82AB5F-62DA-11cf-AB39-0020AF71E433>
 DWORD nFaceVertexIndices;
 array DWORD faceVertexIndices[nFaceVertexIndices];
}

template MeshTextureCoords {
 <F6F23F40-7686-11cf-8F52-0040333594A3>
 DWORD nTextureCoords;
 array Coords2d textureCoords[nTextureCoords];
}

template MeshMaterialList {
 <F6F23F42-7686-11cf-8F52-0040333594A3>
 DWORD nMaterials;
 DWORD nFaceIndexes;
 array DWORD faceIndexes[nFaceIndexes];
 [Material]
}

template MeshNormals {
 <F6F23F43-7686-11cf-8F52-0040333594A3>
 DWORD nNormals;
 array Vector normals[nNormals];
 DWORD nFaceNormals;
 array MeshFace faceNormals[nFaceNormals];
}

template Mesh {
 <3D82AB44-62DA-11cf-AB39-0020AF71E433>
 DWORD nVertices;
 array Vector vertices[nVertices];
 DWORD nFaces;
 array MeshFace faces[nFaces];
 [...]
}

template FrameTransformMatrix {
 <F6F23F41-7686-11cf-8F52-0040333594A3>
 Matrix4x4 frameMatrix;
}

template Frame {
 <3D82AB46-62DA-11cf-AB39-0020AF71E433>
 [...]
}
template FloatKeys {
 <10DD46A9-775B-11cf-8F52-0040333594A3>
 DWORD nValues;
 array FLOAT values[nValues];
}

template TimedFloatKeys {
 <F406B180-7B3B-11cf-8F52-0040333594A3>
 DWORD time;
 FloatKeys tfkeys;
}

template AnimationKey {
 <10DD46A8-775B-11cf-8F52-0040333594A3>
 DWORD keyType;
 DWORD nKeys;
 array TimedFloatKeys keys[nKeys];
}

template AnimationOptions {
 <E2BF56C0-840F-11cf-8F52-0040333594A3>
 DWORD openclosed;
 DWORD positionquality;
}

template Animation {
 <3D82AB4F-62DA-11cf-AB39-0020AF71E433>
 [...]
}

template AnimationSet {
 <3D82AB50-62DA-11cf-AB39-0020AF71E433>
 [Animation]
}

Header {
 1;
 0;
 1;
}

Frame frm-sphere1 {
  FrameTransformMatrix {
1.000000,0.000000,0.000000,0.000000,
0.000000,1.000000,0.000000,0.000000,
0.000000,0.000000,1.000000,0.000000,
0.000000,0.000000,0.000000,1.000000;;
 }
Mesh sphere1 {
 104;
 1.767767;-4.330127;-1.767767;,
 1.767767;-4.330127;-1.767767;,
 3.535534;0.000000;-3.535534;,
 3.535534;0.000000;-3.535534;,
 3.535534;0.000000;-3.535534;,
 3.061862;2.500000;-3.061862;,
 3.061862;2.500000;-3.061862;,
 3.061862;2.500000;-3.061862;,
 2.500000;-4.330127;0.000000;,
 2.500000;-4.330127;0.000000;,
 4.330127;-2.500000;0.000000;,
 4.330127;-2.500000;0.000000;,
 4.330127;-2.500000;0.000000;,
 5.000000;0.000000;0.000000;,
 5.000000;0.000000;0.000000;,
 4.330127;2.500000;0.000000;,
 4.330127;2.500000;0.000000;,
 4.330127;2.500000;0.000000;,
 1.767767;-4.330127;1.767767;,
 1.767767;-4.330127;1.767767;,
 3.061862;-2.500000;3.061862;,
 3.061862;-2.500000;3.061862;,
 3.061862;-2.500000;3.061862;,
 3.061862;2.500000;3.061862;,
 3.061862;2.500000;3.061862;,
 3.061862;2.500000;3.061862;,
 0.000000;-4.330127;2.500000;,
 0.000000;-4.330127;2.500000;,
 0.000000;-2.500000;4.330127;,
 0.000000;-2.500000;4.330127;,
 0.000000;0.000000;5.000000;,
 0.000000;0.000000;5.000000;,
 0.000000;2.500000;4.330127;,
 0.000000;2.500000;4.330127;,
 0.000000;2.500000;4.330127;,
 -1.767767;-4.330127;1.767767;,
 -1.767767;-4.330127;1.767767;,
 -3.061862;2.500000;3.061862;,
 -3.061862;2.500000;3.061862;,
 -3.061862;2.500000;3.061862;,
 -2.500000;-4.330127;0.000000;,
 -2.500000;-4.330127;0.000000;,
 -4.330127;2.500000;0.000000;,
 -4.330127;2.500000;0.000000;,
 -4.330127;2.500000;0.000000;,
 -1.767767;-4.330127;-1.767767;,
 -1.767767;-4.330127;-1.767767;,
 -3.061862;-2.500000;-3.061862;,
 -3.061862;-2.500000;-3.061862;,
 -3.535534;0.000000;-3.535534;,
 -3.535534;0.000000;-3.535534;,
 -3.061862;2.500000;-3.061862;,
 -3.061862;2.500000;-3.061862;,
 -3.061862;2.500000;-3.061862;,
 -0.000000;-4.330127;-2.500000;,
 -0.000000;-4.330127;-2.500000;,
 -0.000000;0.000000;-5.000000;,
 -0.000000;0.000000;-5.000000;,
 -0.000000;0.000000;-5.000000;,
 -0.000000;2.500000;-4.330126;,
 -0.000000;2.500000;-4.330126;,
 -0.000000;2.500000;-4.330126;,
 0.000000;-4.856168;0.000000;,
 0.000000;4.856168;0.000000;,
 -0.000000;4.330127;-2.500000;,
 -0.000000;2.500000;-4.330126;,
 -0.000000;0.000000;-5.000000;,
 -0.000000;-2.500000;-4.330127;,
 -0.000000;-4.330127;-2.500000;,
 -1.767767;4.330127;-1.767767;,
 -3.061862;2.500000;-3.061862;,
 -3.535534;0.000000;-3.535534;,
 -3.061862;-2.500000;-3.061862;,
 -1.767767;-4.330127;-1.767767;,
 -2.500000;4.330127;0.000000;,
 -4.330127;2.500000;0.000000;,
 -5.000000;0.000000;0.000000;,
 -4.330127;-2.500000;0.000000;,
 -2.500000;-4.330127;0.000000;,
 -1.767767;4.330127;1.767767;,
 -3.061862;2.500000;3.061862;,
 -3.535534;0.000000;3.535534;,
 -3.061862;-2.500000;3.061862;,
 -1.767767;-4.330127;1.767767;,
 0.000000;4.330127;2.500000;,
 0.000000;2.500000;4.330127;,
 0.000000;0.000000;5.000000;,
 0.000000;-2.500000;4.330127;,
 0.000000;-4.330127;2.500000;,
 1.767767;4.330127;1.767767;,
 3.061862;2.500000;3.061862;,
 3.535534;0.000000;3.535534;,
 3.061862;-2.500000;3.061862;,
 1.767767;-4.330127;1.767767;,
 2.500000;4.330127;0.000000;,
 4.330127;2.500000;0.000000;,
 5.000000;0.000000;0.000000;,
 4.330127;-2.500000;0.000000;,
 2.500000;-4.330127;0.000000;,
 1.767767;4.330127;-1.767767;,
 3.061862;2.500000;-3.061862;,
 3.535534;0.000000;-3.535534;,
 3.061862;-2.500000;-3.061862;,
 1.767767;-4.330127;-1.767767;;

 48;
 4;50,58,61,53;,
 4;1,9,12,102;,
 4;102,11,14,4;,
 4;3,13,17,7;,
 4;6,16,94,99;,
 4;60,5,99,64;,
 4;48,67,57,49;,
 4;8,19,22,10;,
 4;97,21,91,96;,
 4;96,91,25,15;,
 4;95,24,89,94;,
 4;46,55,67,47;,
 4;54,0,102,67;,
 4;18,27,29,20;,
 4;92,28,31,91;,
 4;91,30,34,23;,
 4;90,33,84,89;,
 4;56,2,100,59;,
 4;44,52,69,74;,
 4;26,36,82,87;,
 4;87,82,81,86;,
 4;86,81,39,32;,
 4;85,38,79,84;,
 4;51,65,64,69;,
 4;76,71,70,43;,
 4;35,41,77,82;,
 4;82,77,76,81;,
 4;81,76,42,37;,
 4;80,75,74,79;,
 4;67,102,101,66;,
 4;77,72,71,76;,
 4;40,45,72,77;,
 3;99,94,63;,
 3;79,74,63;,
 3;63,94,89;,
 3;84,79,63;,
 3;89,84,63;,
 3;63,74,69;,
 3;64,99,63;,
 3;69,64,63;,
 3;103,68,62;,
 3;83,88,62;,
 3;62,68,73;,
 3;78,83,62;,
 3;62,88,93;,
 3;93,98,62;,
 3;62,98,103;,
 3;73,78,62;;

 MeshMaterialList {
  5;
  48;
  0,
  0,
  0,
  0,
  0,
  0,
  0,
  1,
  0,
  0,
  0,
  0,
  0,
  2,
  0,
  0,
  0,
  0,
  0,
  3,
  3,
  3,
  0,
  0,
  3,
  3,
  3,
  3,
  0,
  0,
  3,
  3,
  0,
  0,
  0,
  0,
  0,
  0,
  0,
  0,
  4,
  4,
  4,
  4,
  4,
  4,
  4,
  4;
Material {
 0.860000;0.740000;0.740000;1.000000;;
 50.000000;
 1.000000;1.000000;1.000000;;
 0.0; 0.0; 0.0;;
 TextureFilename {
  "weap.ppm";
 }
 }
Material {
 1.000000;0.989680;0.400000;1.000000;;
 50.000000;
 1.000000;1.000000;1.000000;;
 0.0; 0.0; 0.0;;
 TextureFilename {
  "weap.ppm";
 }
 }
Material {
 1.000000;0.400000;0.400000;1.000000;;
 50.000000;
 1.000000;1.000000;1.000000;;
 0.0; 0.0; 0.0;;
 TextureFilename {
  "weap.ppm";
 }
 }
Material {
 0.400000;0.888137;1.000000;1.000000;;
 50.000000;
 1.000000;1.000000;1.000000;;
 0.0; 0.0; 0.0;;
 TextureFilename {
  "weap.ppm";
 }
 }
Material {
 0.880000;0.400000;1.000000;1.000000;;
 50.000000;
 1.000000;1.000000;1.000000;;
 0.0; 0.0; 0.0;;
 TextureFilename {
  "weap.ppm";
 }
 }
}
 MeshNormals {
  104;
  -0.333292;0.881948;0.333292;,
  -0.333292;0.881948;0.333292;,
  -0.707107;-0.000000;0.707107;,
  -0.707107;-0.000000;0.707107;,
  -0.707107;-0.000000;0.707107;,
  -0.610799;-0.503834;0.610799;,
  -0.610799;-0.503834;0.610799;,
  -0.610799;-0.503834;0.610799;,
  -0.471346;0.881948;0.000000;,
  -0.471346;0.881948;0.000000;,
  -0.863800;0.503834;0.000000;,
  -0.863800;0.503834;0.000000;,
  -0.863800;0.503834;0.000000;,
  -1.000000;0.000000;0.000000;,
  -1.000000;0.000000;0.000000;,
  -0.863800;-0.503834;0.000000;,
  -0.863800;-0.503834;0.000000;,
  -0.863800;-0.503834;0.000000;,
  -0.333292;0.881948;-0.333292;,
  -0.333292;0.881948;-0.333292;,
  -0.610799;0.503834;-0.610799;,
  -0.610799;0.503834;-0.610799;,
  -0.610799;0.503834;-0.610799;,
  -0.610799;-0.503834;-0.610799;,
  -0.610799;-0.503834;-0.610799;,
  -0.610799;-0.503834;-0.610799;,
  0.000000;0.881948;-0.471346;,
  0.000000;0.881948;-0.471346;,
  0.000000;0.503834;-0.863800;,
  0.000000;0.503834;-0.863800;,
  0.000000;0.000000;-1.000000;,
  0.000000;0.000000;-1.000000;,
  0.000000;-0.503834;-0.863800;,
  0.000000;-0.503834;-0.863800;,
  0.000000;-0.503834;-0.863800;,
  0.333292;0.881948;-0.333292;,
  0.333292;0.881948;-0.333292;,
  0.610799;-0.503834;-0.610799;,
  0.610799;-0.503834;-0.610799;,
  0.610799;-0.503834;-0.610799;,
  0.471346;0.881948;-0.000000;,
  0.471346;0.881948;-0.000000;,
  0.863800;-0.503834;0.000000;,
  0.863800;-0.503834;0.000000;,
  0.863800;-0.503834;0.000000;,
  0.333292;0.881948;0.333292;,
  0.333292;0.881948;0.333292;,
  0.610799;0.503834;0.610799;,
  0.610799;0.503834;0.610799;,
  0.707107;-0.000000;0.707107;,
  0.707107;-0.000000;0.707107;,
  0.610799;-0.503834;0.610799;,
  0.610799;-0.503834;0.610799;,
  0.610799;-0.503834;0.610799;,
  -0.000000;0.881948;0.471346;,
  -0.000000;0.881948;0.471346;,
  -0.000000;-0.000000;1.000000;,
  -0.000000;-0.000000;1.000000;,
  -0.000000;-0.000000;1.000000;,
  -0.000000;-0.503834;0.863800;,
  -0.000000;-0.503834;0.863800;,
  -0.000000;-0.503834;0.863800;,
  0.000000;1.000000;0.000000;,
  0.000000;-1.000000;0.000000;,
  0.000000;-0.881948;0.471346;,
  -0.000000;-0.503834;0.863800;,
  -0.000000;-0.000000;1.000000;,
  -0.000000;0.503834;0.863800;,
  -0.000000;0.881948;0.471346;,
  0.333292;-0.881948;0.333292;,
  0.610799;-0.503834;0.610799;,
  0.707107;-0.000000;0.707107;,
  0.610799;0.503834;0.610799;,
  0.333292;0.881948;0.333292;,
  0.471346;-0.881948;0.000000;,
  0.863800;-0.503834;0.000000;,
  1.000000;0.000000;0.000000;,
  0.863800;0.503834;0.000000;,
  0.471346;0.881948;-0.000000;,
  0.333292;-0.881948;-0.333292;,
  0.610799;-0.503834;-0.610799;,
  0.707107;0.000000;-0.707107;,
  0.610799;0.503834;-0.610799;,
  0.333292;0.881948;-0.333292;,
  0.000000;-0.881948;-0.471346;,
  0.000000;-0.503834;-0.863800;,
  0.000000;0.000000;-1.000000;,
  0.000000;0.503834;-0.863800;,
  0.000000;0.881948;-0.471346;,
  -0.333292;-0.881948;-0.333292;,
  -0.610799;-0.503834;-0.610799;,
  -0.707107;0.000000;-0.707107;,
  -0.610799;0.503834;-0.610799;,
  -0.333292;0.881948;-0.333292;,
  -0.471346;-0.881948;0.000000;,
  -0.863800;-0.503834;0.000000;,
  -1.000000;0.000000;0.000000;,
  -0.863800;0.503834;0.000000;,
  -0.471346;0.881948;0.000000;,
  -0.333292;-0.881948;0.333292;,
  -0.610799;-0.503834;0.610799;,
  -0.707107;-0.000000;0.707107;,
  -0.610799;0.503834;0.610799;,
  -0.333292;0.881948;0.333292;;

  48;
  4;50,58,61,53;,
  4;1,9,12,102;,
  4;102,11,14,4;,
  4;3,13,17,7;,
  4;6,16,94,99;,
  4;60,5,99,64;,
  4;48,67,57,49;,
  4;8,19,22,10;,
  4;97,21,91,96;,
  4;96,91,25,15;,
  4;95,24,89,94;,
  4;46,55,67,47;,
  4;54,0,102,67;,
  4;18,27,29,20;,
  4;92,28,31,91;,
  4;91,30,34,23;,
  4;90,33,84,89;,
  4;56,2,100,59;,
  4;44,52,69,74;,
  4;26,36,82,87;,
  4;87,82,81,86;,
  4;86,81,39,32;,
  4;85,38,79,84;,
  4;51,65,64,69;,
  4;76,71,70,43;,
  4;35,41,77,82;,
  4;82,77,76,81;,
  4;81,76,42,37;,
  4;80,75,74,79;,
  4;67,102,101,66;,
  4;77,72,71,76;,
  4;40,45,72,77;,
  3;99,94,63;,
  3;79,74,63;,
  3;63,94,89;,
  3;84,79,63;,
  3;89,84,63;,
  3;63,74,69;,
  3;64,99,63;,
  3;69,64,63;,
  3;103,68,62;,
  3;83,88,62;,
  3;62,68,73;,
  3;78,83,62;,
  3;62,88,93;,
  3;93,98,62;,
  3;62,98,103;,
  3;73,78,62;;
 }
 MeshTextureCoords { 
 104;
 0.251667;0.998333;,
 0.251667;0.998333;,
 0.751667;0.498333;,
 0.751667;0.498333;,
 0.251667;0.748333;,
 0.501667;0.001667;,
 0.501667;0.001667;,
 0.751667;0.248333;,
 0.501667;0.248333;,
 0.501667;0.998333;,
 0.501667;0.001667;,
 0.501667;0.865000;,
 0.501667;0.865000;,
 0.998333;0.498333;,
 0.501667;0.748333;,
 0.501667;0.498333;,
 0.501667;0.365000;,
 0.998333;0.248333;,
 0.001667;0.998333;,
 0.998333;0.248333;,
 0.001667;0.748333;,
 0.751667;0.998333;,
 0.998333;0.001667;,
 0.751667;0.498333;,
 0.501667;0.748333;,
 0.751667;0.498333;,
 0.001667;0.748333;,
 0.251667;0.998333;,
 0.998333;0.998333;,
 0.251667;0.748333;,
 0.998333;0.748333;,
 0.998333;0.748333;,
 0.001667;0.001667;,
 0.251667;0.748333;,
 0.998333;0.498333;,
 0.165000;0.748333;,
 0.165000;0.748333;,
 0.168333;0.001667;,
 0.001667;0.748333;,
 0.168333;0.001667;,
 0.368333;0.748333;,
 0.368333;0.748333;,
 0.368333;0.001667;,
 0.368333;0.001667;,
 0.001667;0.365000;,
 0.501667;0.748333;,
 0.001667;0.998333;,
 0.001667;0.865000;,
 0.001667;0.865000;,
 0.001667;0.748333;,
 0.251667;0.998333;,
 0.001667;0.001667;,
 0.001667;0.001667;,
 0.251667;0.748333;,
 0.118333;0.998333;,
 0.118333;0.998333;,
 0.501667;0.498333;,
 0.118333;0.748333;,
 0.501667;0.998333;,
 0.501667;0.248333;,
 0.251667;0.001667;,
 0.501667;0.748333;,
 0.751667;0.748333;,
 0.255000;0.365000;,
 0.255000;0.198333;,
 0.251667;0.001667;,
 0.118333;0.748333;,
 0.118333;0.865000;,
 0.751667;0.498333;,
 0.148333;0.231667;,
 0.501667;0.001667;,
 0.501667;0.248333;,
 0.501667;0.498333;,
 0.501667;0.498333;,
 0.111667;0.365000;,
 0.001667;0.365000;,
 0.368333;0.231667;,
 0.368333;0.498333;,
 0.501667;0.748333;,
 0.135000;0.495000;,
 0.001667;0.748333;,
 0.168333;0.231667;,
 0.168333;0.498333;,
 0.501667;0.998333;,
 0.255000;0.528333;,
 0.251667;0.748333;,
 0.001667;0.248333;,
 0.001667;0.498333;,
 0.751667;0.998333;,
 0.368333;0.498333;,
 0.501667;0.748333;,
 0.751667;0.748333;,
 0.751667;0.998333;,
 0.998333;0.998333;,
 0.401667;0.365000;,
 0.501667;0.365000;,
 0.501667;0.748333;,
 0.501667;0.998333;,
 0.998333;0.748333;,
 0.368333;0.231667;,
 0.751667;0.248333;,
 0.251667;0.748333;,
 0.251667;0.865000;,
 0.998333;0.498333;;
 }
}
}
