xof 0302txt 0032
template Header {
 <3D82AB43-62DA-11cf-AB39-0020AF71E433>
 WORD major;
 WORD minor;
 DWORD flags;
}

template Vector {
 <3D82AB5E-62DA-11cf-AB39-0020AF71E433>
 FLOAT x;
 FLOAT y;
 FLOAT z;
}

template Coords2d {
 <F6F23F44-7686-11cf-8F52-0040333594A3>
 FLOAT u;
 FLOAT v;
}

template Matrix4x4 {
 <F6F23F45-7686-11cf-8F52-0040333594A3>
 array FLOAT matrix[16];
}

template ColorRGBA {
 <35FF44E0-6C7C-11cf-8F52-0040333594A3>
 FLOAT red;
 FLOAT green;
 FLOAT blue;
 FLOAT alpha;
}

template ColorRGB {
 <D3E16E81-7835-11cf-8F52-0040333594A3>
 FLOAT red;
 FLOAT green;
 FLOAT blue;
}

template TextureFilename {
 <A42790E1-7810-11cf-8F52-0040333594A3>
 STRING filename;
}

template Material {
 <3D82AB4D-62DA-11cf-AB39-0020AF71E433>
 ColorRGBA faceColor;
 FLOAT power;
 ColorRGB specularColor;
 ColorRGB emissiveColor;
 [...]
}

template MeshFace {
 <3D82AB5F-62DA-11cf-AB39-0020AF71E433>
 DWORD nFaceVertexIndices;
 array DWORD faceVertexIndices[nFaceVertexIndices];
}

template MeshTextureCoords {
 <F6F23F40-7686-11cf-8F52-0040333594A3>
 DWORD nTextureCoords;
 array Coords2d textureCoords[nTextureCoords];
}

template MeshMaterialList {
 <F6F23F42-7686-11cf-8F52-0040333594A3>
 DWORD nMaterials;
 DWORD nFaceIndexes;
 array DWORD faceIndexes[nFaceIndexes];
 [Material]
}

template MeshNormals {
 <F6F23F43-7686-11cf-8F52-0040333594A3>
 DWORD nNormals;
 array Vector normals[nNormals];
 DWORD nFaceNormals;
 array MeshFace faceNormals[nFaceNormals];
}

template Mesh {
 <3D82AB44-62DA-11cf-AB39-0020AF71E433>
 DWORD nVertices;
 array Vector vertices[nVertices];
 DWORD nFaces;
 array MeshFace faces[nFaces];
 [...]
}

template FrameTransformMatrix {
 <F6F23F41-7686-11cf-8F52-0040333594A3>
 Matrix4x4 frameMatrix;
}

template Frame {
 <3D82AB46-62DA-11cf-AB39-0020AF71E433>
 [...]
}
template FloatKeys {
 <10DD46A9-775B-11cf-8F52-0040333594A3>
 DWORD nValues;
 array FLOAT values[nValues];
}

template TimedFloatKeys {
 <F406B180-7B3B-11cf-8F52-0040333594A3>
 DWORD time;
 FloatKeys tfkeys;
}

template AnimationKey {
 <10DD46A8-775B-11cf-8F52-0040333594A3>
 DWORD keyType;
 DWORD nKeys;
 array TimedFloatKeys keys[nKeys];
}

template AnimationOptions {
 <E2BF56C0-840F-11cf-8F52-0040333594A3>
 DWORD openclosed;
 DWORD positionquality;
}

template Animation {
 <3D82AB4F-62DA-11cf-AB39-0020AF71E433>
 [...]
}

template AnimationSet {
 <3D82AB50-62DA-11cf-AB39-0020AF71E433>
 [Animation]
}

Header {
 1;
 0;
 1;
}

Frame frm-sphere1 {
  FrameTransformMatrix {
1.000000,0.000000,0.000000,0.000000,
0.000000,1.000000,0.000000,0.000000,
0.000000,0.000000,1.000000,0.000000,
0.000000,0.000000,0.000000,1.000000;;
 }
Mesh sphere1 {
 44;
 5.000000;0.000000;0.000000;,
 5.000000;0.000000;0.000000;,
 0.000000;-4.856168;0.000000;,
 0.000000;4.856168;0.000000;,
 -0.000000;4.330127;-2.500000;,
 -0.000000;2.500000;-4.330126;,
 -0.000000;0.000000;-5.000000;,
 -0.000000;-2.500000;-4.330127;,
 -0.000000;-4.330127;-2.500000;,
 -1.767767;4.330127;-1.767767;,
 -3.061862;2.500000;-3.061862;,
 -3.535534;0.000000;-3.535534;,
 -3.061862;-2.500000;-3.061862;,
 -1.767767;-4.330127;-1.767767;,
 -2.500000;4.330127;0.000000;,
 -4.330127;2.500000;0.000000;,
 -5.000000;0.000000;0.000000;,
 -4.330127;-2.500000;0.000000;,
 -2.500000;-4.330127;0.000000;,
 -1.767767;4.330127;1.767767;,
 -3.061862;2.500000;3.061862;,
 -3.535534;0.000000;3.535534;,
 -3.061862;-2.500000;3.061862;,
 -1.767767;-4.330127;1.767767;,
 0.000000;4.330127;2.500000;,
 0.000000;2.500000;4.330127;,
 0.000000;0.000000;5.000000;,
 0.000000;-2.500000;4.330127;,
 0.000000;-4.330127;2.500000;,
 1.767767;4.330127;1.767767;,
 3.061862;2.500000;3.061862;,
 3.535534;0.000000;3.535534;,
 3.061862;-2.500000;3.061862;,
 1.767767;-4.330127;1.767767;,
 2.500000;4.330127;0.000000;,
 4.330127;2.500000;0.000000;,
 5.000000;0.000000;0.000000;,
 4.330127;-2.500000;0.000000;,
 2.500000;-4.330127;0.000000;,
 1.767767;4.330127;-1.767767;,
 3.061862;2.500000;-3.061862;,
 3.535534;0.000000;-3.535534;,
 3.061862;-2.500000;-3.061862;,
 1.767767;-4.330127;-1.767767;;

 48;
 4;11,6,5,10;,
 4;43,38,37,42;,
 4;42,37,1,41;,
 4;41,0,35,40;,
 4;40,35,34,39;,
 4;5,40,39,4;,
 4;12,7,6,11;,
 4;38,33,32,37;,
 4;37,32,31,36;,
 4;36,31,30,35;,
 4;35,30,29,34;,
 4;13,8,7,12;,
 4;8,43,42,7;,
 4;33,28,27,32;,
 4;32,27,26,31;,
 4;31,26,25,30;,
 4;30,25,24,29;,
 4;6,41,40,5;,
 4;15,10,9,14;,
 4;28,23,22,27;,
 4;27,22,21,26;,
 4;26,21,20,25;,
 4;25,20,19,24;,
 4;10,5,4,9;,
 4;16,11,10,15;,
 4;23,18,17,22;,
 4;22,17,16,21;,
 4;21,16,15,20;,
 4;20,15,14,19;,
 4;7,42,41,6;,
 4;17,12,11,16;,
 4;18,13,12,17;,
 3;39,34,3;,
 3;19,14,3;,
 3;3,34,29;,
 3;24,19,3;,
 3;29,24,3;,
 3;3,14,9;,
 3;4,39,3;,
 3;9,4,3;,
 3;43,8,2;,
 3;23,28,2;,
 3;2,8,13;,
 3;18,23,2;,
 3;2,28,33;,
 3;33,38,2;,
 3;2,38,43;,
 3;13,18,2;;

 MeshMaterialList {
  1;
  48;
  0,
  0,
  0,
  0,
  0,
  0,
  0,
  0,
  0,
  0,
  0,
  0,
  0,
  0,
  0,
  0,
  0,
  0,
  0,
  0,
  0,
  0,
  0,
  0,
  0,
  0,
  0,
  0,
  0,
  0,
  0,
  0,
  0,
  0,
  0,
  0,
  0,
  0,
  0,
  0,
  0,
  0,
  0,
  0,
  0,
  0,
  0,
  0;
Material {
 0.860000;0.740000;0.740000;1.000000;;
 50.000000;
 1.000000;1.000000;1.000000;;
 0.0; 0.0; 0.0;;
 TextureFilename {
  "Nebulae1.ppm";
 }
 }
}
 MeshNormals {
  44;
  -1.000000;0.000000;0.000000;,
  -1.000000;0.000000;0.000000;,
  0.000000;1.000000;0.000000;,
  0.000000;-1.000000;0.000000;,
  0.000000;-0.881948;0.471346;,
  -0.000000;-0.503834;0.863800;,
  -0.000000;-0.000000;1.000000;,
  -0.000000;0.503834;0.863800;,
  -0.000000;0.881948;0.471346;,
  0.333292;-0.881948;0.333292;,
  0.610799;-0.503834;0.610799;,
  0.707107;-0.000000;0.707107;,
  0.610799;0.503834;0.610799;,
  0.333292;0.881948;0.333292;,
  0.471346;-0.881948;0.000000;,
  0.863800;-0.503834;0.000000;,
  1.000000;0.000000;0.000000;,
  0.863800;0.503834;0.000000;,
  0.471346;0.881948;-0.000000;,
  0.333292;-0.881948;-0.333292;,
  0.610799;-0.503834;-0.610799;,
  0.707107;0.000000;-0.707107;,
  0.610799;0.503834;-0.610799;,
  0.333292;0.881948;-0.333292;,
  0.000000;-0.881948;-0.471346;,
  0.000000;-0.503834;-0.863800;,
  0.000000;0.000000;-1.000000;,
  0.000000;0.503834;-0.863800;,
  0.000000;0.881948;-0.471346;,
  -0.333292;-0.881948;-0.333292;,
  -0.610799;-0.503834;-0.610799;,
  -0.707107;0.000000;-0.707107;,
  -0.610799;0.503834;-0.610799;,
  -0.333292;0.881948;-0.333292;,
  -0.471346;-0.881948;0.000000;,
  -0.863800;-0.503834;0.000000;,
  -1.000000;0.000000;0.000000;,
  -0.863800;0.503834;0.000000;,
  -0.471346;0.881948;0.000000;,
  -0.333292;-0.881948;0.333292;,
  -0.610799;-0.503834;0.610799;,
  -0.707107;-0.000000;0.707107;,
  -0.610799;0.503834;0.610799;,
  -0.333292;0.881948;0.333292;;

  48;
  4;11,6,5,10;,
  4;43,38,37,42;,
  4;42,37,1,41;,
  4;41,0,35,40;,
  4;40,35,34,39;,
  4;5,40,39,4;,
  4;12,7,6,11;,
  4;38,33,32,37;,
  4;37,32,31,36;,
  4;36,31,30,35;,
  4;35,30,29,34;,
  4;13,8,7,12;,
  4;8,43,42,7;,
  4;33,28,27,32;,
  4;32,27,26,31;,
  4;31,26,25,30;,
  4;30,25,24,29;,
  4;6,41,40,5;,
  4;15,10,9,14;,
  4;28,23,22,27;,
  4;27,22,21,26;,
  4;26,21,20,25;,
  4;25,20,19,24;,
  4;10,5,4,9;,
  4;16,11,10,15;,
  4;23,18,17,22;,
  4;22,17,16,21;,
  4;21,16,15,20;,
  4;20,15,14,19;,
  4;7,42,41,6;,
  4;17,12,11,16;,
  4;18,13,12,17;,
  3;39,34,3;,
  3;19,14,3;,
  3;3,34,29;,
  3;24,19,3;,
  3;29,24,3;,
  3;3,14,9;,
  3;4,39,3;,
  3;9,4,3;,
  3;43,8,2;,
  3;23,28,2;,
  3;2,8,13;,
  3;18,23,2;,
  3;2,28,33;,
  3;33,38,2;,
  3;2,38,43;,
  3;13,18,2;;
 }
 MeshTextureCoords { 
 44;
 0.750000;0.500000;,
 0.750000;0.500000;,
 0.501953;0.498047;,
 0.501953;0.498047;,
 0.501953;0.248047;,
 0.501953;0.001953;,
 0.501953;0.248047;,
 0.501953;0.001953;,
 0.501953;0.248047;,
 0.314453;0.310547;,
 0.001953;0.001953;,
 0.314453;0.310547;,
 0.001953;0.001953;,
 0.314453;0.310547;,
 0.251953;0.498047;,
 0.001953;0.498047;,
 0.251953;0.498047;,
 0.001953;0.498047;,
 0.251953;0.498047;,
 0.314453;0.685547;,
 0.001953;0.998047;,
 0.314453;0.685547;,
 0.001953;0.998047;,
 0.314453;0.685547;,
 0.501953;0.748047;,
 0.501953;0.998047;,
 0.501953;0.748047;,
 0.501953;0.998047;,
 0.501953;0.748047;,
 0.689453;0.685547;,
 0.998047;0.998047;,
 0.689453;0.685547;,
 0.998047;0.998047;,
 0.689453;0.685547;,
 0.751953;0.498047;,
 0.998047;0.498047;,
 0.751953;0.498047;,
 0.998047;0.498047;,
 0.751953;0.498047;,
 0.689453;0.310547;,
 0.998047;0.001953;,
 0.689453;0.310547;,
 0.998047;0.001953;,
 0.689453;0.310547;;
 }
}
}
