xof 0302txt 0032
template Header {
 <3D82AB43-62DA-11cf-AB39-0020AF71E433>
 WORD major;
 WORD minor;
 DWORD flags;
}

template Vector {
 <3D82AB5E-62DA-11cf-AB39-0020AF71E433>
 FLOAT x;
 FLOAT y;
 FLOAT z;
}

template Coords2d {
 <F6F23F44-7686-11cf-8F52-0040333594A3>
 FLOAT u;
 FLOAT v;
}

template Matrix4x4 {
 <F6F23F45-7686-11cf-8F52-0040333594A3>
 array FLOAT matrix[16];
}

template ColorRGBA {
 <35FF44E0-6C7C-11cf-8F52-0040333594A3>
 FLOAT red;
 FLOAT green;
 FLOAT blue;
 FLOAT alpha;
}

template ColorRGB {
 <D3E16E81-7835-11cf-8F52-0040333594A3>
 FLOAT red;
 FLOAT green;
 FLOAT blue;
}

template TextureFilename {
 <A42790E1-7810-11cf-8F52-0040333594A3>
 STRING filename;
}

template Material {
 <3D82AB4D-62DA-11cf-AB39-0020AF71E433>
 ColorRGBA faceColor;
 FLOAT power;
 ColorRGB specularColor;
 ColorRGB emissiveColor;
 [...]
}

template MeshFace {
 <3D82AB5F-62DA-11cf-AB39-0020AF71E433>
 DWORD nFaceVertexIndices;
 array DWORD faceVertexIndices[nFaceVertexIndices];
}

template MeshTextureCoords {
 <F6F23F40-7686-11cf-8F52-0040333594A3>
 DWORD nTextureCoords;
 array Coords2d textureCoords[nTextureCoords];
}

template MeshMaterialList {
 <F6F23F42-7686-11cf-8F52-0040333594A3>
 DWORD nMaterials;
 DWORD nFaceIndexes;
 array DWORD faceIndexes[nFaceIndexes];
 [Material]
}

template MeshNormals {
 <F6F23F43-7686-11cf-8F52-0040333594A3>
 DWORD nNormals;
 array Vector normals[nNormals];
 DWORD nFaceNormals;
 array MeshFace faceNormals[nFaceNormals];
}

template Mesh {
 <3D82AB44-62DA-11cf-AB39-0020AF71E433>
 DWORD nVertices;
 array Vector vertices[nVertices];
 DWORD nFaces;
 array MeshFace faces[nFaces];
 [...]
}

template FrameTransformMatrix {
 <F6F23F41-7686-11cf-8F52-0040333594A3>
 Matrix4x4 frameMatrix;
}

template Frame {
 <3D82AB46-62DA-11cf-AB39-0020AF71E433>
 [...]
}
template FloatKeys {
 <10DD46A9-775B-11cf-8F52-0040333594A3>
 DWORD nValues;
 array FLOAT values[nValues];
}

template TimedFloatKeys {
 <F406B180-7B3B-11cf-8F52-0040333594A3>
 DWORD time;
 FloatKeys tfkeys;
}

template AnimationKey {
 <10DD46A8-775B-11cf-8F52-0040333594A3>
 DWORD keyType;
 DWORD nKeys;
 array TimedFloatKeys keys[nKeys];
}

template AnimationOptions {
 <E2BF56C0-840F-11cf-8F52-0040333594A3>
 DWORD openclosed;
 DWORD positionquality;
}

template Animation {
 <3D82AB4F-62DA-11cf-AB39-0020AF71E433>
 [...]
}

template AnimationSet {
 <3D82AB50-62DA-11cf-AB39-0020AF71E433>
 [Animation]
}

Header {
 1;
 0;
 1;
}

Frame frm-sphere1 {
  FrameTransformMatrix {
1.000000,0.000000,0.000000,0.000000,
0.000000,1.000000,0.000000,0.000000,
0.000000,0.000000,1.000000,0.000000,
0.000000,0.000000,0.000000,1.000000;;
 }
Mesh sphere1 {
 68;
 2.500000;-4.330127;0.000000;,
 2.500000;-4.330127;0.000000;,
 2.500000;-4.330127;0.000000;,
 4.330127;-2.500000;0.000000;,
 4.330127;-2.500000;0.000000;,
 5.000000;0.000000;0.000000;,
 5.000000;0.000000;0.000000;,
 4.330127;2.500000;0.000000;,
 4.330127;2.500000;0.000000;,
 2.500000;4.330127;0.000000;,
 2.500000;4.330127;0.000000;,
 2.500000;4.330127;0.000000;,
 0.000000;5.009507;0.000000;,
 0.000000;5.009507;0.000000;,
 0.000000;5.009507;0.000000;,
 0.000000;5.009507;0.000000;,
 0.000000;5.009507;0.000000;,
 0.000000;5.009507;0.000000;,
 0.000000;5.009507;0.000000;,
 0.000000;-5.009507;0.000000;,
 0.000000;-5.009507;0.000000;,
 0.000000;-5.009507;0.000000;,
 0.000000;-5.009507;0.000000;,
 0.000000;-5.009507;0.000000;,
 0.000000;-5.009507;0.000000;,
 0.000000;-5.009507;0.000000;,
 0.000000;-5.009507;0.000000;,
 0.000000;5.009507;0.000000;,
 -0.000000;4.330127;-2.500000;,
 -0.000000;2.500000;-4.330126;,
 -0.000000;0.000000;-5.000000;,
 -0.000000;-2.500000;-4.330127;,
 -0.000000;-4.330127;-2.500000;,
 -1.767767;4.330127;-1.767767;,
 -3.061862;2.500000;-3.061862;,
 -3.535534;0.000000;-3.535534;,
 -3.061862;-2.500000;-3.061862;,
 -1.767767;-4.330127;-1.767767;,
 -2.500000;4.330127;0.000000;,
 -4.330127;2.500000;0.000000;,
 -5.000000;0.000000;0.000000;,
 -4.330127;-2.500000;0.000000;,
 -2.500000;-4.330127;0.000000;,
 -1.767767;4.330127;1.767767;,
 -3.061862;2.500000;3.061862;,
 -3.535534;0.000000;3.535534;,
 -3.061862;-2.500000;3.061862;,
 -1.767767;-4.330127;1.767767;,
 0.000000;4.330127;2.500000;,
 0.000000;2.500000;4.330127;,
 0.000000;0.000000;5.000000;,
 0.000000;-2.500000;4.330127;,
 0.000000;-4.330127;2.500000;,
 1.767767;4.330127;1.767767;,
 3.061862;2.500000;3.061862;,
 3.535534;0.000000;3.535534;,
 3.061862;-2.500000;3.061862;,
 1.767767;-4.330127;1.767767;,
 2.500000;4.330127;0.000000;,
 4.330127;2.500000;0.000000;,
 5.000000;0.000000;0.000000;,
 4.330127;-2.500000;0.000000;,
 2.500000;-4.330127;0.000000;,
 1.767767;4.330127;-1.767767;,
 3.061862;2.500000;-3.061862;,
 3.535534;0.000000;-3.535534;,
 3.061862;-2.500000;-3.061862;,
 1.767767;-4.330127;-1.767767;;

 48;
 4;29,64,63,28;,
 4;67,2,4,66;,
 4;66,3,6,65;,
 4;65,5,8,64;,
 4;64,7,11,63;,
 4;30,65,64,29;,
 4;31,66,65,30;,
 4;1,57,56,61;,
 4;61,56,55,60;,
 4;60,55,54,59;,
 4;59,54,53,10;,
 4;32,67,66,31;,
 4;34,29,28,33;,
 4;57,52,51,56;,
 4;56,51,50,55;,
 4;55,50,49,54;,
 4;54,49,48,53;,
 4;35,30,29,34;,
 4;36,31,30,35;,
 4;52,47,46,51;,
 4;51,46,45,50;,
 4;50,45,44,49;,
 4;49,44,43,48;,
 4;37,32,31,36;,
 4;39,34,33,38;,
 4;47,42,41,46;,
 4;46,41,40,45;,
 4;45,40,39,44;,
 4;44,39,38,43;,
 4;40,35,34,39;,
 4;41,36,35,40;,
 4;42,37,36,41;,
 3;63,9,18;,
 3;43,38,17;,
 3;16,58,53;,
 3;48,43,15;,
 3;53,48,14;,
 3;13,38,33;,
 3;28,63,12;,
 3;33,28,27;,
 3;0,67,25;,
 3;42,47,24;,
 3;23,47,52;,
 3;57,62,22;,
 3;52,57,21;,
 3;20,67,32;,
 3;37,42,19;,
 3;32,37,26;;

 MeshMaterialList {
  1;
  48;
  0,
  0,
  0,
  0,
  0,
  0,
  0,
  0,
  0,
  0,
  0,
  0,
  0,
  0,
  0,
  0,
  0,
  0,
  0,
  0,
  0,
  0,
  0,
  0,
  0,
  0,
  0,
  0,
  0,
  0,
  0,
  0,
  0,
  0,
  0,
  0,
  0,
  0,
  0,
  0,
  0,
  0,
  0,
  0,
  0,
  0,
  0,
  0;
Material {
 1.000000;1.000000;1.000000;1.000000;;
 50.000000;
 1.000000;1.000000;1.000000;;
 0.0; 0.0; 0.0;;
 TextureFilename {
  "rendermap_light.ppm";
 }
 }
}
 MeshNormals {
  68;
  -0.497468;0.867482;0.000000;,
  -0.497468;0.867482;0.000000;,
  -0.497468;0.867482;0.000000;,
  -0.863800;0.503834;0.000000;,
  -0.863800;0.503834;0.000000;,
  -1.000000;0.000000;0.000000;,
  -1.000000;0.000000;0.000000;,
  -0.863800;-0.503834;0.000000;,
  -0.863800;-0.503834;0.000000;,
  -0.497468;-0.867482;0.000000;,
  -0.497468;-0.867482;0.000000;,
  -0.497468;-0.867482;0.000000;,
  0.000000;-1.000000;0.000000;,
  0.000000;-1.000000;0.000000;,
  0.000000;-1.000000;0.000000;,
  0.000000;-1.000000;0.000000;,
  0.000000;-1.000000;0.000000;,
  0.000000;-1.000000;0.000000;,
  0.000000;-1.000000;0.000000;,
  0.000000;1.000000;0.000000;,
  0.000000;1.000000;0.000000;,
  0.000000;1.000000;0.000000;,
  0.000000;1.000000;0.000000;,
  0.000000;1.000000;0.000000;,
  0.000000;1.000000;0.000000;,
  0.000000;1.000000;0.000000;,
  0.000000;1.000000;0.000000;,
  0.000000;-1.000000;0.000000;,
  0.000000;-0.867482;0.497468;,
  -0.000000;-0.503834;0.863800;,
  -0.000000;-0.000000;1.000000;,
  -0.000000;0.503834;0.863800;,
  -0.000000;0.867482;0.497468;,
  0.351763;-0.867482;0.351763;,
  0.610799;-0.503834;0.610799;,
  0.707107;-0.000000;0.707107;,
  0.610799;0.503834;0.610799;,
  0.351763;0.867482;0.351763;,
  0.497468;-0.867482;0.000000;,
  0.863800;-0.503834;0.000000;,
  1.000000;0.000000;0.000000;,
  0.863800;0.503834;0.000000;,
  0.497468;0.867482;0.000000;,
  0.351763;-0.867482;-0.351763;,
  0.610799;-0.503834;-0.610799;,
  0.707107;0.000000;-0.707107;,
  0.610799;0.503834;-0.610799;,
  0.351763;0.867482;-0.351763;,
  -0.000000;-0.867482;-0.497468;,
  0.000000;-0.503834;-0.863800;,
  0.000000;0.000000;-1.000000;,
  0.000000;0.503834;-0.863800;,
  0.000000;0.867482;-0.497468;,
  -0.351763;-0.867482;-0.351763;,
  -0.610799;-0.503834;-0.610799;,
  -0.707107;0.000000;-0.707107;,
  -0.610799;0.503834;-0.610799;,
  -0.351763;0.867482;-0.351763;,
  -0.497468;-0.867482;0.000000;,
  -0.863800;-0.503834;0.000000;,
  -1.000000;0.000000;0.000000;,
  -0.863800;0.503834;0.000000;,
  -0.497468;0.867482;0.000000;,
  -0.351763;-0.867482;0.351763;,
  -0.610799;-0.503834;0.610799;,
  -0.707107;-0.000000;0.707107;,
  -0.610799;0.503834;0.610799;,
  -0.351763;0.867482;0.351763;;

  48;
  4;29,64,63,28;,
  4;67,2,4,66;,
  4;66,3,6,65;,
  4;65,5,8,64;,
  4;64,7,11,63;,
  4;30,65,64,29;,
  4;31,66,65,30;,
  4;1,57,56,61;,
  4;61,56,55,60;,
  4;60,55,54,59;,
  4;59,54,53,10;,
  4;32,67,66,31;,
  4;34,29,28,33;,
  4;57,52,51,56;,
  4;56,51,50,55;,
  4;55,50,49,54;,
  4;54,49,48,53;,
  4;35,30,29,34;,
  4;36,31,30,35;,
  4;52,47,46,51;,
  4;51,46,45,50;,
  4;50,45,44,49;,
  4;49,44,43,48;,
  4;37,32,31,36;,
  4;39,34,33,38;,
  4;47,42,41,46;,
  4;46,41,40,45;,
  4;45,40,39,44;,
  4;44,39,38,43;,
  4;40,35,34,39;,
  4;41,36,35,40;,
  4;42,37,36,41;,
  3;63,9,18;,
  3;43,38,17;,
  3;16,58,53;,
  3;48,43,15;,
  3;53,48,14;,
  3;13,38,33;,
  3;28,63,12;,
  3;33,28,27;,
  3;0,67,25;,
  3;42,47,24;,
  3;23,47,52;,
  3;57,62,22;,
  3;52,57,21;,
  3;20,67,32;,
  3;37,42,19;,
  3;32,37,26;;
 }
 MeshTextureCoords { 
 68;
 1.000000;0.833333;,
 -0.000000;0.833333;,
 1.000000;0.833333;,
 1.000000;0.666667;,
 1.000000;0.666667;,
 1.000000;0.500000;,
 1.000000;0.500000;,
 1.000000;0.333333;,
 1.000000;0.333333;,
 1.000000;0.166667;,
 -0.000000;0.166667;,
 1.000000;0.166667;,
 0.814453;0.001953;,
 0.564453;0.001953;,
 0.189453;0.001953;,
 0.314453;0.001953;,
 0.064453;0.001953;,
 0.439453;0.001953;,
 0.939453;0.001953;,
 0.564453;0.998047;,
 0.814453;0.998047;,
 0.189453;0.998047;,
 0.064453;0.998047;,
 0.314453;0.998047;,
 0.439453;0.998047;,
 0.939453;0.998047;,
 0.689453;0.998047;,
 0.689453;0.001953;,
 0.750000;0.166667;,
 0.750000;0.333333;,
 0.750000;0.500000;,
 0.750000;0.666667;,
 0.750000;0.833333;,
 0.625000;0.166667;,
 0.625000;0.333333;,
 0.625000;0.500000;,
 0.625000;0.666667;,
 0.625000;0.833333;,
 0.500000;0.166667;,
 0.500000;0.333333;,
 0.500000;0.500000;,
 0.500000;0.666667;,
 0.500000;0.833333;,
 0.375000;0.166667;,
 0.375000;0.333333;,
 0.375000;0.500000;,
 0.375000;0.666667;,
 0.375000;0.833333;,
 0.250000;0.166667;,
 0.250000;0.333333;,
 0.250000;0.500000;,
 0.250000;0.666667;,
 0.250000;0.833333;,
 0.125000;0.166667;,
 0.125000;0.333333;,
 0.125000;0.500000;,
 0.125000;0.666667;,
 0.125000;0.833333;,
 -0.000000;0.166667;,
 -0.000000;0.333333;,
 -0.000000;0.500000;,
 -0.000000;0.666667;,
 -0.000000;0.833333;,
 0.875000;0.166667;,
 0.875000;0.333333;,
 0.875000;0.500000;,
 0.875000;0.666667;,
 0.875000;0.833333;;
 }
}
}
