xof 0302txt 0032
template Header {
 <3D82AB43-62DA-11cf-AB39-0020AF71E433>
 WORD major;
 WORD minor;
 DWORD flags;
}

template Vector {
 <3D82AB5E-62DA-11cf-AB39-0020AF71E433>
 FLOAT x;
 FLOAT y;
 FLOAT z;
}

template Coords2d {
 <F6F23F44-7686-11cf-8F52-0040333594A3>
 FLOAT u;
 FLOAT v;
}

template Matrix4x4 {
 <F6F23F45-7686-11cf-8F52-0040333594A3>
 array FLOAT matrix[16];
}

template ColorRGBA {
 <35FF44E0-6C7C-11cf-8F52-0040333594A3>
 FLOAT red;
 FLOAT green;
 FLOAT blue;
 FLOAT alpha;
}

template ColorRGB {
 <D3E16E81-7835-11cf-8F52-0040333594A3>
 FLOAT red;
 FLOAT green;
 FLOAT blue;
}

template TextureFilename {
 <A42790E1-7810-11cf-8F52-0040333594A3>
 STRING filename;
}

template Material {
 <3D82AB4D-62DA-11cf-AB39-0020AF71E433>
 ColorRGBA faceColor;
 FLOAT power;
 ColorRGB specularColor;
 ColorRGB emissiveColor;
 [...]
}

template MeshFace {
 <3D82AB5F-62DA-11cf-AB39-0020AF71E433>
 DWORD nFaceVertexIndices;
 array DWORD faceVertexIndices[nFaceVertexIndices];
}

template MeshTextureCoords {
 <F6F23F40-7686-11cf-8F52-0040333594A3>
 DWORD nTextureCoords;
 array Coords2d textureCoords[nTextureCoords];
}

template MeshMaterialList {
 <F6F23F42-7686-11cf-8F52-0040333594A3>
 DWORD nMaterials;
 DWORD nFaceIndexes;
 array DWORD faceIndexes[nFaceIndexes];
 [Material]
}

template MeshNormals {
 <F6F23F43-7686-11cf-8F52-0040333594A3>
 DWORD nNormals;
 array Vector normals[nNormals];
 DWORD nFaceNormals;
 array MeshFace faceNormals[nFaceNormals];
}

template Mesh {
 <3D82AB44-62DA-11cf-AB39-0020AF71E433>
 DWORD nVertices;
 array Vector vertices[nVertices];
 DWORD nFaces;
 array MeshFace faces[nFaces];
 [...]
}

template FrameTransformMatrix {
 <F6F23F41-7686-11cf-8F52-0040333594A3>
 Matrix4x4 frameMatrix;
}

template Frame {
 <3D82AB46-62DA-11cf-AB39-0020AF71E433>
 [...]
}
template FloatKeys {
 <10DD46A9-775B-11cf-8F52-0040333594A3>
 DWORD nValues;
 array FLOAT values[nValues];
}

template TimedFloatKeys {
 <F406B180-7B3B-11cf-8F52-0040333594A3>
 DWORD time;
 FloatKeys tfkeys;
}

template AnimationKey {
 <10DD46A8-775B-11cf-8F52-0040333594A3>
 DWORD keyType;
 DWORD nKeys;
 array TimedFloatKeys keys[nKeys];
}

template AnimationOptions {
 <E2BF56C0-840F-11cf-8F52-0040333594A3>
 DWORD openclosed;
 DWORD positionquality;
}

template Animation {
 <3D82AB4F-62DA-11cf-AB39-0020AF71E433>
 [...]
}

template AnimationSet {
 <3D82AB50-62DA-11cf-AB39-0020AF71E433>
 [Animation]
}

Header {
 1;
 0;
 1;
}

Frame frm-interior {
  FrameTransformMatrix {
1.000000,0.000000,0.000000,0.000000,
0.000000,1.000000,0.000000,0.000000,
0.000000,0.000000,1.000000,0.000000,
0.000000,0.000000,0.000000,1.000000;;
 }
Frame frm-crossbar {
  FrameTransformMatrix {
1.000000,0.000000,0.000000,0.000000,
0.000000,1.000000,0.000000,0.000000,
0.000000,0.000000,1.000000,0.000000,
-0.002923,0.034930,-0.379892,1.000000;;
 }
Mesh crossbar {
 36;
 0.272843;-0.111921;0.112678;,
 0.265064;-0.123420;0.106341;,
 0.265064;-0.123420;0.106341;,
 -0.250785;-0.123483;0.106206;,
 -0.250785;-0.123483;0.106206;,
 -0.254102;-0.128983;0.092600;,
 0.193118;0.116991;-0.042375;,
 0.193118;0.116991;-0.042375;,
 0.184485;0.098316;-0.045664;,
 0.184485;0.098316;-0.045664;,
 0.184485;0.098316;-0.045664;,
 0.184485;0.098316;-0.045664;,
 0.184485;0.098316;-0.045664;,
 0.188554;0.105901;-0.064759;,
 0.188554;0.105901;-0.064759;,
 -0.182607;0.116892;-0.042042;,
 -0.182607;0.116892;-0.042042;,
 -0.178442;0.098522;-0.045353;,
 -0.178442;0.098522;-0.045353;,
 -0.178442;0.098522;-0.045353;,
 -0.178442;0.098522;-0.045353;,
 -0.178442;0.098522;-0.045353;,
 -0.181218;0.105514;-0.064177;,
 -0.181218;0.105514;-0.064177;,
 -0.181218;0.105514;-0.064177;,
 -0.178442;0.098522;-0.045353;,
 -0.182607;0.116892;-0.042042;,
 0.188554;0.105901;-0.064759;,
 0.184485;0.098316;-0.045664;,
 0.193118;0.116991;-0.042375;,
 -0.254102;-0.128983;0.092600;,
 -0.250785;-0.123483;0.106206;,
 -0.258676;-0.112078;0.112508;,
 0.268574;-0.128749;0.092800;,
 0.265064;-0.123420;0.106341;,
 0.272843;-0.111921;0.112678;;

 12;
 3;12,2,0;,
 3;7,11,35;,
 3;14,33,1;,
 3;10,13,34;,
 3;4,5,21;,
 3;30,23,20;,
 3;32,3,16;,
 3;31,19,15;,
 3;18,9,6;,
 3;26,17,29;,
 3;22,27,8;,
 3;25,24,28;;

 MeshMaterialList {
  3;
  12;
  0,
  0,
  0,
  0,
  1,
  1,
  1,
  1,
  2,
  2,
  2,
  2;
Material {
 1.000000;1.000000;1.000000;1.000000;;
 0.000000;
 1.000000;1.000000;1.000000;;
 0.0; 0.0; 0.0;;
 TextureFilename {
  "pit_fig02.ppm";
 }
 }
Material {
 1.000000;1.000000;1.000000;1.000000;;
 0.000000;
 1.000000;1.000000;1.000000;;
 0.0; 0.0; 0.0;;
 TextureFilename {
  "pit_fig02.ppm";
 }
 }
Material {
 1.000000;1.000000;1.000000;1.000000;;
 0.000000;
 1.000000;1.000000;1.000000;;
 0.0; 0.0; 0.0;;
 TextureFilename {
  "pit_fig02.ppm";
 }
 }
}
 MeshNormals {
  36;
  -0.732784;0.185182;0.654778;,
  -0.953514;-0.294684;0.063023;,
  -0.953514;-0.294684;0.063023;,
  0.918092;-0.033037;0.394987;,
  0.918092;-0.033037;0.394987;,
  0.891685;-0.411241;-0.189151;,
  -0.258271;-0.051773;0.964684;,
  -0.258271;-0.051773;0.964684;,
  -0.663832;-0.654734;0.361455;,
  -0.663832;-0.654734;0.361455;,
  -0.663832;-0.654734;0.361455;,
  -0.663832;-0.654734;0.361455;,
  -0.663832;-0.654734;0.361455;,
  -0.640321;-0.699474;-0.317373;,
  -0.640321;-0.699474;-0.317373;,
  0.595231;0.033864;0.802841;,
  0.595231;0.033864;0.802841;,
  0.696519;-0.536978;0.475937;,
  0.696519;-0.536978;0.475937;,
  0.696519;-0.536978;0.475937;,
  0.696519;-0.536978;0.475937;,
  0.696519;-0.536978;0.475937;,
  0.314279;-0.870547;-0.378650;,
  0.314279;-0.870547;-0.378650;,
  0.314279;-0.870547;-0.378650;,
  0.696519;-0.536978;0.475937;,
  0.595231;0.033864;0.802841;,
  -0.640321;-0.699474;-0.317373;,
  -0.663832;-0.654734;0.361455;,
  -0.258271;-0.051773;0.964684;,
  0.891685;-0.411241;-0.189151;,
  0.918092;-0.033037;0.394987;,
  0.756067;0.174582;0.630780;,
  -0.922235;-0.375724;-0.091180;,
  -0.953514;-0.294684;0.063023;,
  -0.732784;0.185182;0.654778;;

  12;
  3;12,2,0;,
  3;7,11,35;,
  3;14,33,1;,
  3;10,13,34;,
  3;4,5,21;,
  3;30,23,20;,
  3;32,3,16;,
  3;31,19,15;,
  3;18,9,6;,
  3;26,17,29;,
  3;22,27,8;,
  3;25,24,28;;
 }
 MeshTextureCoords { 
 36;
 0.576398;0.231335;,
 0.574109;0.266756;,
 0.574109;0.266756;,
 0.573100;0.271890;,
 0.573100;0.271890;,
 0.570604;0.285453;,
 0.770265;0.377611;,
 0.325561;0.049258;,
 0.769318;0.414192;,
 0.769318;0.414192;,
 0.329042;0.089313;,
 0.329042;0.089313;,
 0.329042;0.089313;,
 0.315706;0.097648;,
 0.315706;0.097648;,
 0.326445;0.049346;,
 0.326445;0.049346;,
 0.418104;0.412430;,
 0.418104;0.412430;,
 0.329024;0.089457;,
 0.329024;0.089457;,
 0.329024;0.089457;,
 0.418105;0.437953;,
 0.314393;0.096222;,
 0.418105;0.437953;,
 0.418104;0.412430;,
 0.418106;0.376951;,
 0.769775;0.436111;,
 0.769318;0.414192;,
 0.770265;0.377611;,
 0.570604;0.285453;,
 0.573100;0.271890;,
 0.574628;0.229801;,
 0.569833;0.283429;,
 0.574109;0.266756;,
 0.576398;0.231335;;
 }
}
}
Frame frm-rbar {
  FrameTransformMatrix {
1.000000,0.000000,0.000000,0.000000,
0.000000,1.000000,0.000000,0.000000,
0.000000,0.000000,1.000000,0.000000,
-0.000947,0.033611,-0.380787,1.000000;;
 }
Mesh rbar {
 36;
 -0.263935;0.250337;0.434700;,
 -0.263935;0.250337;0.434700;,
 -0.280212;0.252364;0.431595;,
 -0.175849;0.114202;-0.053940;,
 -0.175849;0.114202;-0.053940;,
 -0.175849;0.114202;-0.053940;,
 -0.180599;0.099407;-0.043953;,
 -0.180599;0.099407;-0.043953;,
 -0.180599;0.099407;-0.043953;,
 -0.180599;0.099407;-0.043953;,
 -0.180599;0.099407;-0.043953;,
 -0.203396;0.106400;-0.053011;,
 -0.119777;-0.248812;-0.446011;,
 -0.119777;-0.248812;-0.446011;,
 -0.132542;-0.282563;-0.474055;,
 -0.176082;-0.087630;-0.341163;,
 -0.176082;-0.087630;-0.341163;,
 -0.159924;-0.083125;-0.340603;,
 -0.159924;-0.083125;-0.340603;,
 -0.159924;-0.083125;-0.340603;,
 -0.159924;-0.083125;-0.340603;,
 -0.159924;-0.083125;-0.340603;,
 -0.152026;-0.077388;-0.354650;,
 -0.152026;-0.077388;-0.354650;,
 -0.152026;-0.077388;-0.354650;,
 -0.159924;-0.083125;-0.340603;,
 -0.176082;-0.087630;-0.341163;,
 -0.132542;-0.282563;-0.474055;,
 -0.119777;-0.248812;-0.446011;,
 -0.119618;-0.244453;-0.489411;,
 -0.203396;0.106400;-0.053011;,
 -0.180599;0.099407;-0.043953;,
 -0.175849;0.114202;-0.053940;,
 -0.280212;0.252364;0.431595;,
 -0.263935;0.250337;0.434700;,
 -0.259645;0.264545;0.425269;;

 12;
 3;10,11,16;,
 3;21,9,15;,
 3;5,8,20;,
 3;23,4,19;,
 3;2,30,7;,
 3;1,33,6;,
 3;0,31,3;,
 3;35,34,32;,
 3;13,29,22;,
 3;18,12,24;,
 3;14,28,17;,
 3;26,27,25;;

 MeshMaterialList {
  1;
  12;
  0,
  0,
  0,
  0,
  0,
  0,
  0,
  0,
  0,
  0,
  0,
  0;
Material {
 1.000000;1.000000;1.000000;1.000000;;
 0.000000;
 1.000000;1.000000;1.000000;;
 0.0; 0.0; 0.0;;
 TextureFilename {
  "pit_fig02.ppm";
 }
 }
}
 MeshNormals {
  36;
  0.773378;-0.553344;0.309350;,
  0.773378;-0.553344;0.309350;,
  -0.267917;-0.932114;0.243687;,
  0.945275;-0.225201;0.236094;,
  0.945275;-0.225201;0.236094;,
  0.945275;-0.225201;0.236094;,
  0.252098;-0.867598;0.428626;,
  0.252098;-0.867598;0.428626;,
  0.252098;-0.867598;0.428626;,
  0.252098;-0.867598;0.428626;,
  0.252098;-0.867598;0.428626;,
  -0.399117;-0.847311;0.350384;,
  0.775617;-0.214183;0.593754;,
  0.775617;-0.214183;0.593754;,
  -0.064038;-0.561041;0.825308;,
  -0.032553;-0.758352;0.651032;,
  -0.032553;-0.758352;0.651032;,
  0.561916;-0.529979;0.635116;,
  0.561916;-0.529979;0.635116;,
  0.561916;-0.529979;0.635116;,
  0.561916;-0.529979;0.635116;,
  0.561916;-0.529979;0.635116;,
  0.953602;-0.106322;0.281672;,
  0.953602;-0.106322;0.281672;,
  0.953602;-0.106322;0.281672;,
  0.561916;-0.529979;0.635116;,
  -0.032553;-0.758352;0.651032;,
  -0.064038;-0.561041;0.825308;,
  0.775617;-0.214183;0.593754;,
  0.984525;0.173969;0.021094;,
  -0.399117;-0.847311;0.350384;,
  0.252098;-0.867598;0.428626;,
  0.945275;-0.225201;0.236094;,
  -0.267917;-0.932114;0.243687;,
  0.773378;-0.553344;0.309350;,
  0.965186;-0.148458;0.215353;;

  12;
  3;10,11,16;,
  3;21,9,15;,
  3;5,8,20;,
  3;23,4,19;,
  3;2,30,7;,
  3;1,33,6;,
  3;0,31,3;,
  3;35,34,32;,
  3;13,29,22;,
  3;18,12,24;,
  3;14,28,17;,
  3;26,27,25;;
 }
 MeshTextureCoords { 
 36;
 0.930180;0.361950;,
 0.930180;0.361950;,
 0.927829;0.378583;,
 0.573790;0.305187;,
 0.573790;0.305187;,
 0.573790;0.305187;,
 0.571670;0.327637;,
 0.571670;0.327637;,
 0.571670;0.327637;,
 0.571670;0.327637;,
 0.571670;0.327637;,
 0.569596;0.351419;,
 0.215189;0.098737;,
 0.215189;0.098737;,
 0.191628;0.107105;,
 0.327837;0.216073;,
 0.327837;0.216073;,
 0.333383;0.191817;,
 0.333383;0.191817;,
 0.333383;0.191817;,
 0.333383;0.191817;,
 0.333383;0.191817;,
 0.338851;0.168572;,
 0.338851;0.168572;,
 0.338851;0.168572;,
 0.333383;0.191817;,
 0.327837;0.216073;,
 0.191628;0.107105;,
 0.215189;0.098737;,
 0.192954;0.056161;,
 0.569596;0.351419;,
 0.571670;0.327637;,
 0.573790;0.305187;,
 0.927829;0.378583;,
 0.930180;0.361950;,
 0.932664;0.341261;;
 }
}
}
Frame frm-lbar {
  FrameTransformMatrix {
-1.000000,0.000000,0.000000,0.000000,
0.000000,1.000000,0.000000,0.000000,
0.000000,0.000000,-1.000000,0.000000,
0.000000,0.033761,-0.380562,1.000000;;
 }
Mesh lbar {
 36;
 -0.264882;0.250188;-0.434475;,
 -0.264882;0.250188;-0.434475;,
 -0.281158;0.252214;-0.431370;,
 -0.176796;0.114052;0.054165;,
 -0.176796;0.114052;0.054165;,
 -0.176796;0.114052;0.054165;,
 -0.181546;0.099258;0.044178;,
 -0.181546;0.099258;0.044178;,
 -0.181546;0.099258;0.044178;,
 -0.181546;0.099258;0.044178;,
 -0.181546;0.099258;0.044178;,
 -0.204343;0.106250;0.053236;,
 -0.122436;-0.248619;0.446107;,
 -0.122436;-0.248619;0.446107;,
 -0.133489;-0.282713;0.474280;,
 -0.177029;-0.087779;0.341388;,
 -0.177029;-0.087779;0.341388;,
 -0.160871;-0.083274;0.340828;,
 -0.160871;-0.083274;0.340828;,
 -0.160871;-0.083274;0.340828;,
 -0.160871;-0.083274;0.340828;,
 -0.160871;-0.083274;0.340828;,
 -0.152973;-0.077537;0.354875;,
 -0.152973;-0.077537;0.354875;,
 -0.152973;-0.077537;0.354875;,
 -0.160871;-0.083274;0.340828;,
 -0.177029;-0.087779;0.341388;,
 -0.133489;-0.282713;0.474280;,
 -0.122436;-0.248619;0.446107;,
 -0.120564;-0.244602;0.489636;,
 -0.204343;0.106250;0.053236;,
 -0.181546;0.099258;0.044178;,
 -0.176796;0.114052;0.054165;,
 -0.281158;0.252214;-0.431370;,
 -0.264882;0.250188;-0.434475;,
 -0.260592;0.264396;-0.425044;;

 12;
 3;16,11,10;,
 3;15,9,21;,
 3;20,8,5;,
 3;19,4,23;,
 3;7,30,2;,
 3;6,33,1;,
 3;3,31,0;,
 3;32,34,35;,
 3;22,29,13;,
 3;24,12,18;,
 3;17,28,14;,
 3;25,27,26;;

 MeshMaterialList {
  1;
  12;
  0,
  0,
  0,
  0,
  0,
  0,
  0,
  0,
  0,
  0,
  0,
  0;
Material {
 1.000000;1.000000;1.000000;1.000000;;
 0.000000;
 1.000000;1.000000;1.000000;;
 0.0; 0.0; 0.0;;
 TextureFilename {
  "pit_fig02.ppm";
 }
 }
}
 MeshNormals {
  36;
  0.773378;-0.553344;-0.309350;,
  0.773378;-0.553344;-0.309350;,
  -0.267917;-0.932114;-0.243687;,
  0.945275;-0.225201;-0.236094;,
  0.945275;-0.225201;-0.236094;,
  0.945275;-0.225201;-0.236094;,
  0.252098;-0.867598;-0.428626;,
  0.252098;-0.867598;-0.428626;,
  0.252098;-0.867598;-0.428626;,
  0.252098;-0.867598;-0.428626;,
  0.252098;-0.867598;-0.428626;,
  -0.399117;-0.847311;-0.350384;,
  0.762675;-0.230078;-0.604476;,
  0.762675;-0.230078;-0.604476;,
  -0.074010;-0.561598;-0.824094;,
  -0.032553;-0.758352;-0.651032;,
  -0.032553;-0.758352;-0.651032;,
  0.558890;-0.532865;-0.635371;,
  0.558890;-0.532865;-0.635371;,
  0.558890;-0.532865;-0.635371;,
  0.558890;-0.532865;-0.635371;,
  0.558890;-0.532865;-0.635371;,
  0.949364;-0.117765;-0.291271;,
  0.949364;-0.117765;-0.291271;,
  0.949364;-0.117765;-0.291271;,
  0.558890;-0.532865;-0.635371;,
  -0.032553;-0.758352;-0.651032;,
  -0.074010;-0.561598;-0.824094;,
  0.762675;-0.230078;-0.604476;,
  0.987635;0.146440;-0.055971;,
  -0.399117;-0.847311;-0.350384;,
  0.252098;-0.867598;-0.428626;,
  0.945275;-0.225201;-0.236094;,
  -0.267917;-0.932114;-0.243687;,
  0.773378;-0.553344;-0.309350;,
  0.965186;-0.148458;-0.215353;;

  12;
  3;16,11,10;,
  3;15,9,21;,
  3;20,8,5;,
  3;19,4,23;,
  3;7,30,2;,
  3;6,33,1;,
  3;3,31,0;,
  3;32,34,35;,
  3;22,29,13;,
  3;24,12,18;,
  3;17,28,14;,
  3;25,27,26;;
 }
 MeshTextureCoords { 
 36;
 0.930248;0.359086;,
 0.930248;0.359086;,
 0.928356;0.378365;,
 0.572769;0.308940;,
 0.572769;0.308940;,
 0.572769;0.308940;,
 0.571012;0.326212;,
 0.571012;0.326212;,
 0.571012;0.326212;,
 0.571012;0.326212;,
 0.571012;0.326212;,
 0.568928;0.348044;,
 0.215549;0.097329;,
 0.215549;0.097329;,
 0.191180;0.112081;,
 0.329632;0.215418;,
 0.329632;0.215418;,
 0.332064;0.197605;,
 0.332064;0.197605;,
 0.332064;0.197605;,
 0.332064;0.197605;,
 0.332064;0.197605;,
 0.338326;0.169525;,
 0.338326;0.169525;,
 0.338326;0.169525;,
 0.332064;0.197605;,
 0.329632;0.215418;,
 0.191180;0.112081;,
 0.215549;0.097329;,
 0.194041;0.057630;,
 0.568928;0.348044;,
 0.571012;0.326212;,
 0.572769;0.308940;,
 0.928356;0.378365;,
 0.930248;0.359086;,
 0.932152;0.340767;;
 }
}
}
Frame frm-bmerge3 {
  FrameTransformMatrix {
1.000000,0.000000,0.000000,0.000000,
0.000000,1.000000,0.000000,0.000000,
0.000000,0.000000,1.000000,0.000000,
0.000000,-0.129324,-0.321559,1.000000;;
 }
Mesh bmerge3 {
 98;
 -0.156741;-0.527587;-0.381146;,
 -0.156741;-0.527587;-0.381146;,
 -0.156741;-0.527587;-0.381146;,
 -0.156741;-0.527587;-0.381146;,
 -0.156232;-0.194945;-0.433244;,
 -0.156232;-0.194945;-0.433244;,
 -0.156232;-0.194945;-0.433244;,
 -0.156232;-0.194945;-0.433244;,
 -0.156232;-0.194945;-0.433244;,
 -0.156232;-0.194945;-0.433244;,
 -0.156232;-0.194945;-0.433244;,
 -0.156232;-0.194945;-0.433244;,
 0.156741;-0.527587;-0.381146;,
 0.156741;-0.527587;-0.381146;,
 0.156741;-0.527587;-0.381146;,
 0.156741;-0.527587;-0.381146;,
 0.156741;-0.527587;-0.381146;,
 0.114426;-0.085535;-0.466770;,
 0.114426;-0.085535;-0.466770;,
 0.114426;-0.085535;-0.466770;,
 0.114426;-0.085535;-0.466770;,
 0.114426;-0.085535;-0.466770;,
 0.114426;-0.085535;-0.466770;,
 -0.127406;-0.081771;-0.545024;,
 -0.127406;-0.081771;-0.545024;,
 -0.127406;-0.081771;-0.545024;,
 -0.127406;-0.081771;-0.545024;,
 -0.144488;-0.147396;-0.444683;,
 -0.144488;-0.147396;-0.444683;,
 -0.144488;-0.147396;-0.444683;,
 -0.144488;-0.147396;-0.444683;,
 -0.144488;-0.147396;-0.444683;,
 -0.144488;-0.147396;-0.444683;,
 0.129860;-0.081493;-0.544945;,
 0.145166;-0.146712;-0.444424;,
 0.145166;-0.146712;-0.444424;,
 0.145166;-0.146712;-0.444424;,
 0.145166;-0.146712;-0.444424;,
 0.158296;-0.194261;-0.432985;,
 0.158296;-0.194261;-0.432985;,
 0.158296;-0.194261;-0.432985;,
 0.158296;-0.194261;-0.432985;,
 0.158296;-0.194261;-0.432985;,
 0.158296;-0.194261;-0.432985;,
 0.260582;0.404180;0.350230;,
 -0.263738;0.402913;0.349751;,
 -0.276605;0.221361;0.349313;,
 -0.276605;0.221361;0.349313;,
 -0.276605;0.221361;0.349313;,
 -0.276605;0.221361;0.349313;,
 0.276605;0.221361;0.349313;,
 0.276605;0.221361;0.349313;,
 0.276605;0.221361;0.349313;,
 0.276605;0.221361;0.349313;,
 0.276605;0.221361;0.349313;,
 -0.367826;-0.527862;0.545024;,
 -0.367826;-0.527862;0.545024;,
 0.367826;-0.527862;0.545024;,
 0.367826;-0.527862;0.545024;,
 0.173463;-0.157990;-0.515016;,
 0.173463;-0.157990;-0.515016;,
 0.187070;-0.211960;-0.493950;,
 0.187070;-0.211960;-0.493950;,
 0.187070;-0.211960;-0.493950;,
 0.187070;-0.211960;-0.493950;,
 -0.184637;-0.213028;-0.494208;,
 -0.184637;-0.213028;-0.494208;,
 -0.171863;-0.158571;-0.515242;,
 -0.171863;-0.158571;-0.515242;,
 -0.344249;0.222062;0.348982;,
 -0.112285;-0.085628;-0.465310;,
 -0.112285;-0.085628;-0.465310;,
 -0.112285;-0.085628;-0.465310;,
 -0.112285;-0.085628;-0.465310;,
 -0.112285;-0.085628;-0.465310;,
 -0.344249;0.222062;0.348982;,
 -0.171863;-0.158571;-0.515242;,
 -0.184637;-0.213028;-0.494208;,
 0.344249;0.222062;0.348982;,
 0.187070;-0.211960;-0.493950;,
 0.173463;-0.157990;-0.515016;,
 0.367826;-0.527862;0.545024;,
 -0.367826;-0.527862;0.545024;,
 0.276605;0.221361;0.349313;,
 -0.276605;0.221361;0.349313;,
 -0.263738;0.402913;0.349751;,
 -0.158385;0.527105;0.372889;,
 0.154676;0.527862;0.373175;,
 0.260582;0.404180;0.350230;,
 0.158296;-0.194261;-0.432985;,
 0.145166;-0.146712;-0.444424;,
 0.129860;-0.081493;-0.544945;,
 -0.144488;-0.147396;-0.444683;,
 -0.127406;-0.081771;-0.545024;,
 0.114426;-0.085535;-0.466770;,
 0.156741;-0.527587;-0.381146;,
 -0.156232;-0.194945;-0.433244;,
 -0.156741;-0.527587;-0.381146;;

 31;
 3;16,11,3;,
 4;22,33,26,73;,
 4;58,15,2,56;,
 3;21,25,72;,
 3;71,20,24;,
 3;32,19,70;,
 3;69,10,66;,
 3;37,18,31;,
 3;30,9,43;,
 3;36,29,42;,
 3;14,41,8;,
 4;45,86,87,44;,
 3;49,55,1;,
 4;54,48,85,88;,
 3;75,47,7;,
 4;53,57,82,46;,
 3;0,6,84;,
 3;35,64,60;,
 3;40,63,34;,
 3;17,90,59;,
 3;91,94,80;,
 3;13,62,39;,
 3;61,38,52;,
 3;78,79,51;,
 3;50,89,12;,
 3;95,81,83;,
 3;68,65,5;,
 3;23,67,28;,
 3;27,76,4;,
 3;77,97,96;,
 3;74,93,92;;

 MeshMaterialList {
  9;
  31;
  0,
  1,
  2,
  1,
  3,
  1,
  4,
  1,
  1,
  1,
  0,
  5,
  6,
  5,
  4,
  5,
  6,
  1,
  1,
  1,
  1,
  1,
  7,
  7,
  8,
  8,
  1,
  1,
  1,
  1,
  1;
Material {
 1.000000;1.000000;1.000000;1.000000;;
 0.000000;
 1.000000;1.000000;1.000000;;
 0.0; 0.0; 0.0;;
 TextureFilename {
  "pit_fig02.ppm";
 }
 }
Material {
 1.000000;1.000000;1.000000;1.000000;;
 0.000000;
 1.000000;1.000000;1.000000;;
 0.0; 0.0; 0.0;;
 TextureFilename {
  "pit_fig02.ppm";
 }
 }
Material {
 1.000000;1.000000;1.000000;1.000000;;
 0.000000;
 1.000000;1.000000;1.000000;;
 0.0; 0.0; 0.0;;
 TextureFilename {
  "pit_fig02.ppm";
 }
 }
Material {
 1.000000;1.000000;1.000000;1.000000;;
 0.000000;
 1.000000;1.000000;1.000000;;
 0.0; 0.0; 0.0;;
 }
Material {
 1.000000;1.000000;1.000000;1.000000;;
 0.000000;
 1.000000;1.000000;1.000000;;
 0.0; 0.0; 0.0;;
 TextureFilename {
  "pit_fig02.ppm";
 }
 }
Material {
 1.000000;1.000000;1.000000;1.000000;;
 0.000000;
 1.000000;1.000000;1.000000;;
 0.0; 0.0; 0.0;;
 TextureFilename {
  "pit_fig02.ppm";
 }
 }
Material {
 1.000000;1.000000;1.000000;1.000000;;
 0.000000;
 1.000000;1.000000;1.000000;;
 0.0; 0.0; 0.0;;
 TextureFilename {
  "pit_fig02.ppm";
 }
 }
Material {
 1.000000;0.966102;0.971751;1.000000;;
 0.000000;
 1.000000;1.000000;1.000000;;
 0.0; 0.0; 0.0;;
 TextureFilename {
  "pit_fig02.ppm";
 }
 }
Material {
 1.000000;0.977401;1.000000;1.000000;;
 0.000000;
 1.000000;1.000000;1.000000;;
 0.0; 0.0; 0.0;;
 TextureFilename {
  "pit_fig02.ppm";
 }
 }
}
 MeshNormals {
  98;
  0.746569;0.423251;0.513316;,
  0.746569;0.423251;0.513316;,
  0.746569;0.423251;0.513316;,
  0.746569;0.423251;0.513316;,
  -0.121121;0.716794;0.686685;,
  -0.121121;0.716794;0.686685;,
  -0.121121;0.716794;0.686685;,
  -0.121121;0.716794;0.686685;,
  -0.121121;0.716794;0.686685;,
  -0.121121;0.716794;0.686685;,
  -0.121121;0.716794;0.686685;,
  -0.121121;0.716794;0.686685;,
  0.313340;0.472074;0.823992;,
  0.313340;0.472074;0.823992;,
  0.313340;0.472074;0.823992;,
  0.313340;0.472074;0.823992;,
  0.313340;0.472074;0.823992;,
  0.435060;0.694389;0.573190;,
  0.435060;0.694389;0.573190;,
  0.435060;0.694389;0.573190;,
  0.435060;0.694389;0.573190;,
  0.435060;0.694389;0.573190;,
  0.435060;0.694389;0.573190;,
  -0.616909;0.768089;0.171648;,
  -0.616909;0.768089;0.171648;,
  -0.616909;0.768089;0.171648;,
  -0.616909;0.768089;0.171648;,
  -0.444027;0.429276;0.786487;,
  -0.444027;0.429276;0.786487;,
  -0.444027;0.429276;0.786487;,
  -0.444027;0.429276;0.786487;,
  -0.444027;0.429276;0.786487;,
  -0.444027;0.429276;0.786487;,
  0.465015;0.874770;0.136157;,
  0.620534;0.416673;0.664320;,
  0.620534;0.416673;0.664320;,
  0.620534;0.416673;0.664320;,
  0.620534;0.416673;0.664320;,
  0.428938;0.238925;0.871164;,
  0.428938;0.238925;0.871164;,
  0.428938;0.238925;0.871164;,
  0.428938;0.238925;0.871164;,
  0.428938;0.238925;0.871164;,
  0.428938;0.238925;0.871164;,
  0.000450;0.093631;-0.995607;,
  0.000450;0.093631;-0.995607;,
  0.673489;0.201687;-0.711150;,
  0.673489;0.201687;-0.711150;,
  0.673489;0.201687;-0.711150;,
  0.673489;0.201687;-0.711150;,
  -0.674131;0.205792;-0.709364;,
  -0.674131;0.205792;-0.709364;,
  -0.674131;0.205792;-0.709364;,
  -0.674131;0.205792;-0.709364;,
  -0.674131;0.205792;-0.709364;,
  0.692612;0.488711;-0.530519;,
  0.692612;0.488711;-0.530519;,
  -0.692612;0.488711;-0.530519;,
  -0.692612;0.488711;-0.530519;,
  0.849346;0.465644;0.248571;,
  0.849346;0.465644;0.248571;,
  0.842518;0.505924;0.184946;,
  0.842518;0.505924;0.184946;,
  0.842518;0.505924;0.184946;,
  0.842518;0.505924;0.184946;,
  -0.444292;0.893992;-0.058158;,
  -0.444292;0.893992;-0.058158;,
  -0.873083;0.396400;0.283888;,
  -0.873083;0.396400;0.283888;,
  0.153220;0.886835;-0.435945;,
  -0.376720;0.795194;0.475131;,
  -0.376720;0.795194;0.475131;,
  -0.376720;0.795194;0.475131;,
  -0.376720;0.795194;0.475131;,
  -0.376720;0.795194;0.475131;,
  0.153220;0.886835;-0.435945;,
  -0.873083;0.396400;0.283888;,
  -0.444292;0.893992;-0.058158;,
  -0.011448;0.889876;-0.456059;,
  0.842518;0.505924;0.184946;,
  0.849346;0.465644;0.248571;,
  -0.692612;0.488711;-0.530519;,
  0.692612;0.488711;-0.530519;,
  -0.674131;0.205792;-0.709364;,
  0.673489;0.201687;-0.711150;,
  0.000450;0.093631;-0.995607;,
  0.000456;0.182781;-0.983154;,
  0.000456;0.182781;-0.983154;,
  0.000450;0.093631;-0.995607;,
  0.428938;0.238925;0.871164;,
  0.620534;0.416673;0.664320;,
  0.465015;0.874770;0.136157;,
  -0.444027;0.429276;0.786487;,
  -0.616909;0.768089;0.171648;,
  0.435060;0.694389;0.573190;,
  0.313340;0.472074;0.823992;,
  -0.121121;0.716794;0.686685;,
  0.746569;0.423251;0.513316;;

  31;
  3;16,11,3;,
  4;22,33,26,73;,
  4;58,15,2,56;,
  3;21,25,72;,
  3;71,20,24;,
  3;32,19,70;,
  3;69,10,66;,
  3;37,18,31;,
  3;30,9,43;,
  3;36,29,42;,
  3;14,41,8;,
  4;45,86,87,44;,
  3;49,55,1;,
  4;54,48,85,88;,
  3;75,47,7;,
  4;53,57,82,46;,
  3;0,6,84;,
  3;35,64,60;,
  3;40,63,34;,
  3;17,90,59;,
  3;91,94,80;,
  3;13,62,39;,
  3;61,38,52;,
  3;78,79,51;,
  3;50,89,12;,
  3;95,81,83;,
  3;68,65,5;,
  3;23,67,28;,
  3;27,76,4;,
  3;77,97,96;,
  3;74,93,92;;
 }
 MeshTextureCoords { 
 98;
 0.349437;0.578275;,
 0.349437;0.578275;,
 0.288375;0.708258;,
 0.799991;0.018153;,
 0.729696;0.974612;,
 0.729696;0.974612;,
 0.370231;0.318613;,
 0.765355;0.424385;,
 0.944093;0.018614;,
 0.729696;0.974612;,
 0.765355;0.424385;,
 0.944093;0.018614;,
 0.352182;0.579392;,
 0.364427;0.989353;,
 0.799991;0.302159;,
 0.287431;0.866903;,
 0.799991;0.302159;,
 0.410632;0.665047;,
 0.410632;0.665047;,
 0.410632;0.665047;,
 0.000000;0.000000;,
 0.410632;0.665047;,
 0.410632;0.665047;,
 0.696233;0.480015;,
 0.000000;0.000000;,
 0.696233;0.480015;,
 0.696233;0.480015;,
 0.714118;0.813143;,
 0.714118;0.813143;,
 0.714118;0.813143;,
 0.714118;0.813143;,
 0.714118;0.813143;,
 0.714118;0.813143;,
 0.402439;0.483552;,
 0.385643;0.814238;,
 0.385643;0.814238;,
 0.385643;0.814238;,
 0.385643;0.814238;,
 0.763850;0.382522;,
 0.362621;0.578078;,
 0.369428;0.975707;,
 0.944389;0.303569;,
 0.369428;0.975707;,
 0.369428;0.975707;,
 0.955008;0.472361;,
 0.801883;0.473079;,
 0.798125;0.575857;,
 0.422592;0.425044;,
 0.798125;0.575857;,
 0.085797;0.007870;,
 0.088515;0.005534;,
 0.420953;0.382857;,
 0.420953;0.382857;,
 0.959687;0.575857;,
 0.959687;0.575857;,
 0.013530;0.582370;,
 0.059521;0.601452;,
 0.986328;1.000000;,
 0.060168;0.979363;,
 0.353767;0.707895;,
 0.353767;0.707895;,
 0.766811;0.431840;,
 0.329218;0.599917;,
 0.339915;0.875348;,
 0.339915;0.875348;,
 0.758782;0.866967;,
 0.765868;0.382549;,
 0.743952;0.712491;,
 0.743952;0.712491;,
 0.421424;0.385506;,
 0.688404;0.665162;,
 0.000000;0.000000;,
 0.688404;0.665162;,
 0.688404;0.665162;,
 0.688404;0.665162;,
 0.421424;0.385506;,
 0.743952;0.712491;,
 0.760727;0.601234;,
 0.420120;0.438227;,
 0.766811;0.431840;,
 0.353767;0.707895;,
 0.011660;0.582133;,
 0.771484;1.000000;,
 0.088515;0.005534;,
 0.085797;0.007870;,
 0.801883;0.473079;,
 0.832651;0.402772;,
 0.924079;0.402344;,
 0.955008;0.472361;,
 0.370481;0.320779;,
 0.385643;0.814238;,
 0.402439;0.483552;,
 0.714118;0.813143;,
 0.696233;0.480015;,
 0.410632;0.665047;,
 0.352182;0.579392;,
 0.727751;0.578922;,
 0.728343;0.989353;;
 }
}
}
}
AnimationSet {
 Animation anim-crossbar {
  {frm-crossbar}
  AnimationKey {
  2;
  2;
  1; 3; -0.002923, 0.034930, -0.379892;;,
  214; 3; -0.002923, 0.034930, -0.379892;;;
  }
 }
 Animation anim-rbar {
  {frm-rbar}
  AnimationKey {
  2;
  2;
  1; 3; -0.000947, 0.033611, -0.380787;;,
  214; 3; -0.000947, 0.033611, -0.380787;;;
  }
 }
 Animation anim-lbar {
  {frm-lbar}
  AnimationKey {
  0;
  2;
  1; 4; 0.000000, 0.000000, 1.000000, 0.000000;;,
  214; 4; 0.000000, 0.000000, 1.000000, 0.000000;;;
  }
  AnimationKey {
  2;
  2;
  1; 3; 0.000000, 0.033761, -0.380562;;,
  214; 3; 0.000000, 0.033761, -0.380562;;;
  }
 }
 Animation anim-bmerge3 {
  {frm-bmerge3}
  AnimationKey {
  2;
  2;
  1; 3; 0.000000, -0.129324, -0.321559;;,
  214; 3; 0.000000, -0.129324, -0.321559;;;
  }
 }
}
