xof 0302txt 0032
template Header {
 <3D82AB43-62DA-11cf-AB39-0020AF71E433>
 WORD major;
 WORD minor;
 DWORD flags;
}

template Vector {
 <3D82AB5E-62DA-11cf-AB39-0020AF71E433>
 FLOAT x;
 FLOAT y;
 FLOAT z;
}

template Coords2d {
 <F6F23F44-7686-11cf-8F52-0040333594A3>
 FLOAT u;
 FLOAT v;
}

template Matrix4x4 {
 <F6F23F45-7686-11cf-8F52-0040333594A3>
 array FLOAT matrix[16];
}

template ColorRGBA {
 <35FF44E0-6C7C-11cf-8F52-0040333594A3>
 FLOAT red;
 FLOAT green;
 FLOAT blue;
 FLOAT alpha;
}

template ColorRGB {
 <D3E16E81-7835-11cf-8F52-0040333594A3>
 FLOAT red;
 FLOAT green;
 FLOAT blue;
}

template TextureFilename {
 <A42790E1-7810-11cf-8F52-0040333594A3>
 STRING filename;
}

template Material {
 <3D82AB4D-62DA-11cf-AB39-0020AF71E433>
 ColorRGBA faceColor;
 FLOAT power;
 ColorRGB specularColor;
 ColorRGB emissiveColor;
 [...]
}

template MeshFace {
 <3D82AB5F-62DA-11cf-AB39-0020AF71E433>
 DWORD nFaceVertexIndices;
 array DWORD faceVertexIndices[nFaceVertexIndices];
}

template MeshTextureCoords {
 <F6F23F40-7686-11cf-8F52-0040333594A3>
 DWORD nTextureCoords;
 array Coords2d textureCoords[nTextureCoords];
}

template MeshMaterialList {
 <F6F23F42-7686-11cf-8F52-0040333594A3>
 DWORD nMaterials;
 DWORD nFaceIndexes;
 array DWORD faceIndexes[nFaceIndexes];
 [Material]
}

template MeshNormals {
 <F6F23F43-7686-11cf-8F52-0040333594A3>
 DWORD nNormals;
 array Vector normals[nNormals];
 DWORD nFaceNormals;
 array MeshFace faceNormals[nFaceNormals];
}

template Mesh {
 <3D82AB44-62DA-11cf-AB39-0020AF71E433>
 DWORD nVertices;
 array Vector vertices[nVertices];
 DWORD nFaces;
 array MeshFace faces[nFaces];
 [...]
}

template FrameTransformMatrix {
 <F6F23F41-7686-11cf-8F52-0040333594A3>
 Matrix4x4 frameMatrix;
}

template Frame {
 <3D82AB46-62DA-11cf-AB39-0020AF71E433>
 [...]
}
template FloatKeys {
 <10DD46A9-775B-11cf-8F52-0040333594A3>
 DWORD nValues;
 array FLOAT values[nValues];
}

template TimedFloatKeys {
 <F406B180-7B3B-11cf-8F52-0040333594A3>
 DWORD time;
 FloatKeys tfkeys;
}

template AnimationKey {
 <10DD46A8-775B-11cf-8F52-0040333594A3>
 DWORD keyType;
 DWORD nKeys;
 array TimedFloatKeys keys[nKeys];
}

template AnimationOptions {
 <E2BF56C0-840F-11cf-8F52-0040333594A3>
 DWORD openclosed;
 DWORD positionquality;
}

template Animation {
 <3D82AB4F-62DA-11cf-AB39-0020AF71E433>
 [...]
}

template AnimationSet {
 <3D82AB50-62DA-11cf-AB39-0020AF71E433>
 [Animation]
}

Header {
 1;
 0;
 1;
}

Frame frm-Mis08 {
  FrameTransformMatrix {
1.000000,0.000000,0.000000,0.000000,
0.000000,1.000000,0.000000,0.000000,
0.000000,0.000000,1.000000,0.000000,
0.000000,0.000000,0.000000,1.000000;;
 }
Mesh Mis08 {
 4;
 0.000000;0.000000;0.000000;,
 0.000000;0.000000;0.000000;,
 0.000000;0.000000;0.000000;,
 0.000000;0.000000;0.000000;;

 1;
 3;1,2,3;;

 MeshNormals {
  4;
  0.000000;0.000000;0.000000;,
  0.000000;0.000000;0.000000;,
  0.000000;0.000000;0.000000;,
  0.000000;0.000000;0.000000;;

  1;
  3;1,2,3;;
 }
}
Frame frm-body {
  FrameTransformMatrix {
1.000000,0.000000,0.000000,0.000000,
0.000000,0.000000,1.000000,0.000000,
0.000000,-1.000000,0.000000,0.000000,
0.000000,0.000000,0.013653,1.000000;;
 }
Mesh body {
 55;
 -0.008012;0.482166;0.013877;,
 0.008012;0.482166;0.013877;,
 0.000000;0.492658;-0.000000;,
 0.033174;-0.495891;-0.000000;,
 0.033174;0.393023;-0.000000;,
 0.016023;0.482166;-0.000000;,
 0.016587;-0.495891;0.028730;,
 0.016587;0.393023;0.028730;,
 0.008012;0.482166;0.013877;,
 -0.016587;-0.495891;0.028730;,
 -0.016587;0.393023;0.028730;,
 -0.008012;0.482166;0.013877;,
 -0.033174;-0.495891;-0.000000;,
 -0.033174;0.393023;-0.000000;,
 -0.016023;0.482166;-0.000000;,
 -0.016587;-0.495891;-0.028730;,
 -0.016587;0.393023;-0.028730;,
 -0.008012;0.482166;-0.013877;,
 0.016587;-0.495891;-0.028730;,
 0.016587;0.393023;-0.028730;,
 0.008012;0.482166;-0.013877;,
 0.008012;0.482166;-0.013877;,
 0.016587;0.393023;-0.028730;,
 0.016587;0.393023;-0.028730;,
 0.016587;-0.495891;-0.028730;,
 0.016587;-0.495891;-0.028730;,
 -0.008012;0.482166;-0.013877;,
 -0.016587;0.393023;-0.028730;,
 -0.016587;0.393023;-0.028730;,
 -0.016587;-0.495891;-0.028730;,
 -0.016587;-0.495891;-0.028730;,
 -0.016023;0.482166;-0.000000;,
 -0.033174;0.393023;-0.000000;,
 -0.033174;0.393023;-0.000000;,
 -0.033174;0.393023;-0.000000;,
 -0.033174;-0.495891;-0.000000;,
 -0.033174;-0.495891;-0.000000;,
 -0.008012;0.482166;0.013877;,
 -0.016587;0.393023;0.028730;,
 -0.016587;0.393023;0.028730;,
 -0.016587;-0.495891;0.028730;,
 -0.016587;-0.495891;0.028730;,
 0.008012;0.482166;0.013877;,
 0.016587;0.393023;0.028730;,
 0.016587;0.393023;0.028730;,
 0.016587;-0.495891;0.028730;,
 0.016587;-0.495891;0.028730;,
 0.016023;0.482166;-0.000000;,
 0.033174;0.393023;-0.000000;,
 0.033174;0.393023;-0.000000;,
 0.033174;0.393023;-0.000000;,
 0.033174;-0.495891;-0.000000;,
 0.033174;-0.495891;-0.000000;,
 0.000000;0.492658;-0.000000;,
 0.000000;0.492658;-0.000000;;

 19;
 6;45,40,35,29,24,51;,
 3;53,42,47;,
 4;34,27,30,12;,
 4;14,26,28,13;,
 3;53,26,14;,
 4;48,43,46,52;,
 4;47,42,44,49;,
 4;1,0,38,7;,
 3;54,37,8;,
 4;16,22,25,15;,
 4;17,21,22,16;,
 3;54,21,17;,
 4;7,38,41,6;,
 4;39,32,36,9;,
 4;11,31,33,10;,
 3;2,31,11;,
 4;23,50,3,18;,
 4;20,5,4,19;,
 3;2,5,20;;

 MeshMaterialList {
  1;
  19;
  0,
  0,
  0,
  0,
  0,
  0,
  0,
  0,
  0,
  0,
  0,
  0,
  0,
  0,
  0,
  0,
  0,
  0,
  0;
Material {
 1.000000;1.000000;1.000000;1.000000;;
 0.000000;
 1.000000;1.000000;1.000000;;
 0.0; 0.0; 0.0;;
 TextureFilename {
  "mis08.ppm";
 }
 }
}
 MeshNormals {
  55;
  0.000000;0.517787;0.855510;,
  0.000000;0.517787;0.855510;,
  0.000000;1.000000;0.000000;,
  0.866029;0.000000;-0.499994;,
  0.854259;0.164353;-0.493183;,
  0.740909;0.517782;-0.427733;,
  0.000000;0.000000;1.000000;,
  0.000000;0.082458;0.996595;,
  0.000000;0.517787;0.855510;,
  -0.866029;0.000000;0.499994;,
  -0.854259;0.164353;0.493183;,
  -0.740909;0.517782;0.427733;,
  -0.866029;0.000000;-0.499994;,
  -0.854259;0.164353;-0.493183;,
  -0.740909;0.517782;-0.427733;,
  0.000000;0.000000;-1.000000;,
  0.000000;0.082458;-0.996595;,
  0.000000;0.517787;-0.855510;,
  0.866029;0.000000;-0.499994;,
  0.854259;0.164353;-0.493183;,
  0.740909;0.517782;-0.427733;,
  0.000000;0.517787;-0.855510;,
  0.000000;0.082458;-0.996595;,
  0.866029;0.000000;-0.499994;,
  0.000000;-1.000000;0.000000;,
  0.000000;0.000000;-1.000000;,
  -0.740909;0.517782;-0.427733;,
  -0.866029;0.000000;-0.499994;,
  -0.854259;0.164353;-0.493183;,
  0.000000;-1.000000;0.000000;,
  -0.866029;0.000000;-0.499994;,
  -0.740909;0.517782;0.427733;,
  -0.866029;0.000000;0.499994;,
  -0.854259;0.164353;0.493183;,
  -0.866029;0.000000;-0.499994;,
  0.000000;-1.000000;0.000000;,
  -0.866029;0.000000;0.499994;,
  0.000000;0.517787;0.855510;,
  0.000000;0.082458;0.996595;,
  -0.866029;0.000000;0.499994;,
  0.000000;-1.000000;0.000000;,
  0.000000;0.000000;1.000000;,
  0.740909;0.517782;0.427733;,
  0.866029;0.000000;0.499994;,
  0.854259;0.164353;0.493183;,
  0.000000;-1.000000;0.000000;,
  0.866029;0.000000;0.499994;,
  0.740909;0.517782;0.427733;,
  0.866029;0.000000;0.499994;,
  0.854259;0.164353;0.493183;,
  0.866029;0.000000;-0.499994;,
  0.000000;-1.000000;0.000000;,
  0.866029;0.000000;0.499994;,
  0.000000;1.000000;0.000000;,
  0.000000;1.000000;0.000000;;

  19;
  6;45,40,35,29,24,51;,
  3;53,42,47;,
  4;34,27,30,12;,
  4;14,26,28,13;,
  3;53,26,14;,
  4;48,43,46,52;,
  4;47,42,44,49;,
  4;1,0,38,7;,
  3;54,37,8;,
  4;16,22,25,15;,
  4;17,21,22,16;,
  3;54,21,17;,
  4;7,38,41,6;,
  4;39,32,36,9;,
  4;11,31,33,10;,
  3;2,31,11;,
  4;23,50,3,18;,
  4;20,5,4,19;,
  3;2,5,20;;
 }
 MeshTextureCoords { 
 55;
 0.621094;0.011719;,
 0.558594;0.011719;,
 0.753906;-0.069010;,
 0.902344;0.980469;,
 0.902344;0.097656;,
 0.902344;0.011719;,
 0.558594;0.980469;,
 0.558594;0.097656;,
 0.621094;0.011719;,
 0.621094;0.980469;,
 0.621094;0.097656;,
 0.621094;0.011719;,
 0.691406;0.980469;,
 0.691406;0.097656;,
 0.691406;0.011719;,
 0.761719;0.980469;,
 0.761719;0.097656;,
 0.761719;0.011719;,
 0.832031;0.980469;,
 0.832031;0.097656;,
 0.832031;0.011719;,
 0.832031;0.011719;,
 0.832031;0.097656;,
 0.832031;0.097656;,
 0.128906;0.222656;,
 0.832031;0.980469;,
 0.761719;0.011719;,
 0.761719;0.097656;,
 0.761719;0.097656;,
 0.355469;0.222656;,
 0.761719;0.980469;,
 0.691406;0.011719;,
 0.691406;0.097656;,
 0.691406;0.097656;,
 0.691406;0.097656;,
 0.457031;0.136719;,
 0.691406;0.980469;,
 0.558594;0.011719;,
 0.621094;0.097656;,
 0.621094;0.097656;,
 0.339844;0.027344;,
 0.621094;0.980469;,
 0.988281;0.011719;,
 0.988281;0.097656;,
 0.988281;0.097656;,
 0.152344;0.027344;,
 0.988281;0.980469;,
 0.902344;0.011719;,
 0.902344;0.097656;,
 0.902344;0.097656;,
 0.902344;0.097656;,
 0.027344;0.136719;,
 0.902344;0.980469;,
 0.753906;-0.069010;,
 0.753906;-0.069010;;
 }
}
Frame frm-frontfin4_1 {
  FrameTransformMatrix {
0.000000,0.000000,-1.000000,0.000000,
-1.000000,-0.000000,-0.000000,0.000000,
-0.000000,1.000000,0.000000,0.000000,
0.000000,0.283493,-0.000000,1.000000;;
 }
Mesh frontfin4_1 {
 14;
 0.025530;0.000990;0.040760;,
 0.025530;0.000990;0.040760;,
 0.025530;-0.000990;0.040760;,
 0.025530;0.000000;-0.095943;,
 0.108593;0.000000;0.057692;,
 0.108593;0.000000;0.057692;,
 0.067061;0.000000;-0.019125;,
 0.067061;0.000000;-0.019125;,
 0.067061;0.000000;-0.019125;,
 0.067061;0.000000;-0.019125;,
 0.108593;0.000000;0.057692;,
 0.025530;0.000000;-0.095943;,
 0.025530;-0.000990;0.040760;,
 0.025530;0.000990;0.040760;;

 5;
 3;8,3,1;,
 3;5,0,2;,
 3;7,4,12;,
 3;12,11,6;,
 3;13,10,9;;

 MeshMaterialList {
  1;
  5;
  0,
  0,
  0,
  0,
  0;
Material {
 1.000000;1.000000;1.000000;1.000000;;
 0.000000;
 1.000000;1.000000;1.000000;;
 0.0; 0.0; 0.0;;
 TextureFilename {
  "mis08.ppm";
 }
 }
}
 MeshNormals {
  14;
  -0.077650;0.897839;0.433423;,
  -0.077650;0.897839;0.433423;,
  -0.077650;-0.897839;0.433423;,
  0.879666;0.000000;-0.475593;,
  -0.176348;0.000000;0.984328;,
  -0.176348;0.000000;0.984328;,
  0.879666;0.000000;-0.475593;,
  0.879666;0.000000;-0.475593;,
  0.879666;0.000000;-0.475593;,
  0.879666;0.000000;-0.475593;,
  -0.176348;0.000000;0.984328;,
  0.879666;0.000000;-0.475593;,
  -0.077650;-0.897839;0.433423;,
  -0.077650;0.897839;0.433423;;

  5;
  3;8,3,1;,
  3;5,0,2;,
  3;7,4,12;,
  3;12,11,6;,
  3;13,10,9;;
 }
 MeshTextureCoords { 
 14;
 0.000000;0.889791;,
 0.027344;0.496094;,
 0.000000;0.889791;,
 0.027344;0.269531;,
 0.058594;0.253906;,
 1.000000;1.000000;,
 0.261719;0.363281;,
 0.261719;0.363281;,
 0.230469;0.386719;,
 0.230469;0.386719;,
 0.417969;0.496094;,
 0.449219;0.464844;,
 0.449219;0.253906;,
 0.027344;0.496094;;
 }
}
}
Frame frm-frontfin5 {
  FrameTransformMatrix {
-1.000000,0.000000,-0.000000,0.000000,
0.000000,0.000000,-1.000000,0.000000,
0.000000,-1.000000,-0.000000,0.000000,
0.000000,0.283493,-0.000000,1.000000;;
 }
Mesh frontfin5 {
 14;
 0.025530;0.000990;-0.040760;,
 0.025530;0.000990;-0.040760;,
 0.025530;-0.000990;-0.040760;,
 0.025530;0.000000;0.095943;,
 0.108593;0.000000;-0.057692;,
 0.108593;0.000000;-0.057692;,
 0.067061;0.000000;0.019125;,
 0.067061;0.000000;0.019125;,
 0.067061;0.000000;0.019125;,
 0.067061;0.000000;0.019125;,
 0.108593;0.000000;-0.057692;,
 0.025530;0.000000;0.095943;,
 0.025530;-0.000990;-0.040760;,
 0.025530;0.000990;-0.040760;;

 5;
 3;1,3,8;,
 3;2,0,5;,
 3;12,4,7;,
 3;6,11,12;,
 3;9,10,13;;

 MeshMaterialList {
  1;
  5;
  0,
  0,
  0,
  0,
  0;
Material {
 1.000000;1.000000;1.000000;1.000000;;
 0.000000;
 1.000000;1.000000;1.000000;;
 0.0; 0.0; 0.0;;
 TextureFilename {
  "mis08.ppm";
 }
 }
}
 MeshNormals {
  14;
  -0.077650;0.897839;-0.433423;,
  -0.077650;0.897839;-0.433423;,
  -0.077650;-0.897839;-0.433423;,
  0.879666;0.000000;0.475593;,
  -0.176348;0.000000;-0.984328;,
  -0.176348;0.000000;-0.984328;,
  0.879666;0.000000;0.475593;,
  0.879666;0.000000;0.475593;,
  0.879666;0.000000;0.475593;,
  0.879666;0.000000;0.475593;,
  -0.176348;0.000000;-0.984328;,
  0.879666;0.000000;0.475593;,
  -0.077650;-0.897839;-0.433423;,
  -0.077650;0.897839;-0.433423;;

  5;
  3;1,3,8;,
  3;2,0,5;,
  3;12,4,7;,
  3;6,11,12;,
  3;9,10,13;;
 }
 MeshTextureCoords { 
 14;
 0.000000;0.889791;,
 0.027344;0.496094;,
 0.000000;0.889791;,
 0.027344;0.269531;,
 0.058594;0.253906;,
 1.000000;1.000000;,
 0.261719;0.363281;,
 0.261719;0.363281;,
 0.230469;0.386719;,
 0.230469;0.386719;,
 0.417969;0.496094;,
 0.449219;0.464844;,
 0.449219;0.253906;,
 0.027344;0.496094;;
 }
}
}
Frame frm-frontfin4 {
  FrameTransformMatrix {
1.000000,0.000000,0.000000,0.000000,
0.000000,0.000000,-1.000000,0.000000,
0.000000,1.000000,0.000000,0.000000,
0.000000,0.283493,-0.000000,1.000000;;
 }
Mesh frontfin4 {
 14;
 0.025530;0.000990;0.040760;,
 0.025530;0.000990;0.040760;,
 0.025530;-0.000990;0.040760;,
 0.025530;0.000000;-0.095943;,
 0.108593;0.000000;0.057692;,
 0.108593;0.000000;0.057692;,
 0.067061;0.000000;-0.019125;,
 0.067061;0.000000;-0.019125;,
 0.067061;0.000000;-0.019125;,
 0.067061;0.000000;-0.019125;,
 0.108593;0.000000;0.057692;,
 0.025530;0.000000;-0.095943;,
 0.025530;-0.000990;0.040760;,
 0.025530;0.000990;0.040760;;

 5;
 3;8,3,1;,
 3;5,0,2;,
 3;7,4,12;,
 3;12,11,6;,
 3;13,10,9;;

 MeshMaterialList {
  1;
  5;
  0,
  0,
  0,
  0,
  0;
Material {
 1.000000;1.000000;1.000000;1.000000;;
 0.000000;
 1.000000;1.000000;1.000000;;
 0.0; 0.0; 0.0;;
 TextureFilename {
  "mis08.ppm";
 }
 }
}
 MeshNormals {
  14;
  -0.077650;0.897839;0.433423;,
  -0.077650;0.897839;0.433423;,
  -0.077650;-0.897839;0.433423;,
  0.879666;0.000000;-0.475593;,
  -0.176348;0.000000;0.984328;,
  -0.176348;0.000000;0.984328;,
  0.879666;0.000000;-0.475593;,
  0.879666;0.000000;-0.475593;,
  0.879666;0.000000;-0.475593;,
  0.879666;0.000000;-0.475593;,
  -0.176348;0.000000;0.984328;,
  0.879666;0.000000;-0.475593;,
  -0.077650;-0.897839;0.433423;,
  -0.077650;0.897839;0.433423;;

  5;
  3;8,3,1;,
  3;5,0,2;,
  3;7,4,12;,
  3;12,11,6;,
  3;13,10,9;;
 }
 MeshTextureCoords { 
 14;
 0.000000;0.889791;,
 0.027344;0.496094;,
 0.000000;0.889791;,
 0.027344;0.269531;,
 0.058594;0.253906;,
 1.000000;1.000000;,
 0.261719;0.363281;,
 0.261719;0.363281;,
 0.230469;0.386719;,
 0.230469;0.386719;,
 0.417969;0.496094;,
 0.449219;0.464844;,
 0.449219;0.253906;,
 0.027344;0.496094;;
 }
}
}
Frame frm-frontfin6 {
  FrameTransformMatrix {
0.000000,0.000000,1.000000,0.000000,
-1.000000,0.000000,0.000000,0.000000,
-0.000000,-1.000000,0.000000,0.000000,
0.000000,0.283493,-0.000000,1.000000;;
 }
Mesh frontfin6 {
 14;
 0.025530;0.000990;-0.040760;,
 0.025530;0.000990;-0.040760;,
 0.025530;-0.000990;-0.040760;,
 0.025530;0.000000;0.095943;,
 0.108593;0.000000;-0.057692;,
 0.108593;0.000000;-0.057692;,
 0.067061;0.000000;0.019125;,
 0.067061;0.000000;0.019125;,
 0.067061;0.000000;0.019125;,
 0.067061;0.000000;0.019125;,
 0.108593;0.000000;-0.057692;,
 0.025530;0.000000;0.095943;,
 0.025530;-0.000990;-0.040760;,
 0.025530;0.000990;-0.040760;;

 5;
 3;1,3,8;,
 3;2,0,5;,
 3;12,4,7;,
 3;6,11,12;,
 3;9,10,13;;

 MeshMaterialList {
  1;
  5;
  0,
  0,
  0,
  0,
  0;
Material {
 1.000000;1.000000;1.000000;1.000000;;
 0.000000;
 1.000000;1.000000;1.000000;;
 0.0; 0.0; 0.0;;
 TextureFilename {
  "mis08.ppm";
 }
 }
}
 MeshNormals {
  14;
  -0.077650;0.897839;-0.433423;,
  -0.077650;0.897839;-0.433423;,
  -0.077650;-0.897839;-0.433423;,
  0.879666;0.000000;0.475593;,
  -0.176348;0.000000;-0.984328;,
  -0.176348;0.000000;-0.984328;,
  0.879666;0.000000;0.475593;,
  0.879666;0.000000;0.475593;,
  0.879666;0.000000;0.475593;,
  0.879666;0.000000;0.475593;,
  -0.176348;0.000000;-0.984328;,
  0.879666;0.000000;0.475593;,
  -0.077650;-0.897839;-0.433423;,
  -0.077650;0.897839;-0.433423;;

  5;
  3;1,3,8;,
  3;2,0,5;,
  3;12,4,7;,
  3;6,11,12;,
  3;9,10,13;;
 }
 MeshTextureCoords { 
 14;
 0.000000;0.889791;,
 0.027344;0.496094;,
 0.000000;0.889791;,
 0.027344;0.269531;,
 0.058594;0.253906;,
 1.000000;1.000000;,
 0.261719;0.363281;,
 0.261719;0.363281;,
 0.230469;0.386719;,
 0.230469;0.386719;,
 0.417969;0.496094;,
 0.449219;0.464844;,
 0.449219;0.253906;,
 0.027344;0.496094;;
 }
}
}
Frame frm-rear_fin4_1 {
  FrameTransformMatrix {
0.000000,0.000000,-1.000000,0.000000,
-1.000000,-0.000000,-0.000000,0.000000,
-0.000000,1.000000,0.000000,0.000000,
0.000000,-0.387693,0.000000,1.000000;;
 }
Mesh rear_fin4_1 {
 14;
 0.143916;0.000000;-0.033814;,
 0.143916;0.000000;-0.033814;,
 0.143916;0.000000;0.093900;,
 0.143916;0.000000;0.093900;,
 0.026310;-0.003346;-0.093900;,
 0.026310;-0.003346;0.093900;,
 0.026310;0.003346;-0.093900;,
 0.026310;0.003346;0.093900;,
 0.026310;0.003346;0.093900;,
 0.026310;0.003346;-0.093900;,
 0.026310;-0.003346;0.093900;,
 0.026310;-0.003346;-0.093900;,
 0.143916;0.000000;0.093900;,
 0.143916;0.000000;-0.033814;;

 4;
 4;3,1,6,7;,
 3;0,4,9;,
 4;13,2,5,11;,
 3;12,8,10;;

 MeshMaterialList {
  1;
  4;
  0,
  0,
  0,
  0;
Material {
 1.000000;1.000000;1.000000;1.000000;;
 0.000000;
 1.000000;1.000000;1.000000;;
 0.0; 0.0; 0.0;;
 TextureFilename {
  "mis08.ppm";
 }
 }
}
 MeshNormals {
  14;
  0.498329;0.000000;-0.866988;,
  0.498329;0.000000;-0.866988;,
  0.056787;0.000000;0.998386;,
  0.056787;0.000000;0.998386;,
  0.339631;-0.702292;-0.625649;,
  0.020110;-0.706821;0.707107;,
  0.339631;0.702292;-0.625649;,
  0.020110;0.706821;0.707107;,
  0.020110;0.706821;0.707107;,
  0.339631;0.702292;-0.625649;,
  0.020110;-0.706821;0.707107;,
  0.339631;-0.702292;-0.625649;,
  0.056787;0.000000;0.998386;,
  0.498329;0.000000;-0.866988;;

  4;
  4;3,1,6,7;,
  3;0,4,9;,
  4;13,2,5,11;,
  3;12,8,10;;
 }
 MeshTextureCoords { 
 14;
 0.230469;0.730469;,
 0.472656;0.691406;,
 0.472656;0.691406;,
 0.472656;0.949219;,
 0.175781;0.683594;,
 0.042969;0.582031;,
 0.042969;0.582031;,
 0.043566;0.962896;,
 0.175781;0.683594;,
 0.175781;0.753906;,
 0.175781;0.753906;,
 0.043566;0.962896;,
 0.230469;0.730469;,
 0.472656;0.949219;;
 }
}
}
Frame frm-rear_fin6 {
  FrameTransformMatrix {
0.000000,0.000000,1.000000,0.000000,
-1.000000,0.000000,0.000000,0.000000,
-0.000000,-1.000000,0.000000,0.000000,
0.000000,-0.387693,0.000000,1.000000;;
 }
Mesh rear_fin6 {
 14;
 0.143916;0.000000;0.033814;,
 0.143916;0.000000;0.033814;,
 0.143916;0.000000;-0.093900;,
 0.143916;0.000000;-0.093900;,
 0.026310;-0.003346;0.093900;,
 0.026310;-0.003346;-0.093900;,
 0.026310;0.003346;0.093900;,
 0.026310;0.003346;-0.093900;,
 0.026310;0.003346;-0.093900;,
 0.026310;0.003346;0.093900;,
 0.026310;-0.003346;-0.093900;,
 0.026310;-0.003346;0.093900;,
 0.143916;0.000000;-0.093900;,
 0.143916;0.000000;0.033814;;

 4;
 4;7,6,1,3;,
 3;9,4,0;,
 4;11,5,2,13;,
 3;10,8,12;;

 MeshMaterialList {
  1;
  4;
  0,
  0,
  0,
  0;
Material {
 1.000000;1.000000;1.000000;1.000000;;
 0.000000;
 1.000000;1.000000;1.000000;;
 0.0; 0.0; 0.0;;
 TextureFilename {
  "mis08.ppm";
 }
 }
}
 MeshNormals {
  14;
  0.498329;0.000000;0.866988;,
  0.498329;0.000000;0.866988;,
  0.056787;0.000000;-0.998386;,
  0.056787;0.000000;-0.998386;,
  0.339631;-0.702292;0.625649;,
  0.020110;-0.706821;-0.707107;,
  0.339631;0.702292;0.625649;,
  0.020110;0.706821;-0.707107;,
  0.020110;0.706821;-0.707107;,
  0.339631;0.702292;0.625649;,
  0.020110;-0.706821;-0.707107;,
  0.339631;-0.702292;0.625649;,
  0.056787;0.000000;-0.998386;,
  0.498329;0.000000;0.866988;;

  4;
  4;7,6,1,3;,
  3;9,4,0;,
  4;11,5,2,13;,
  3;10,8,12;;
 }
 MeshTextureCoords { 
 14;
 0.230469;0.730469;,
 0.472656;0.691406;,
 0.472656;0.691406;,
 0.472656;0.949219;,
 0.175781;0.683594;,
 0.042969;0.582031;,
 0.042969;0.582031;,
 0.043566;0.962896;,
 0.175781;0.683594;,
 0.175781;0.753906;,
 0.175781;0.753906;,
 0.043566;0.962896;,
 0.230469;0.730469;,
 0.472656;0.949219;;
 }
}
}
Frame frm-rear_fin5 {
  FrameTransformMatrix {
-1.000000,0.000000,-0.000000,0.000000,
0.000000,0.000000,-1.000000,0.000000,
0.000000,-1.000000,-0.000000,0.000000,
0.000000,-0.387693,0.000000,1.000000;;
 }
Mesh rear_fin5 {
 14;
 0.143916;0.000000;0.033814;,
 0.143916;0.000000;0.033814;,
 0.143916;0.000000;-0.093900;,
 0.143916;0.000000;-0.093900;,
 0.026310;-0.003346;0.093900;,
 0.026310;-0.003346;-0.093900;,
 0.026310;0.003346;0.093900;,
 0.026310;0.003346;-0.093900;,
 0.026310;0.003346;-0.093900;,
 0.026310;0.003346;0.093900;,
 0.026310;-0.003346;-0.093900;,
 0.026310;-0.003346;0.093900;,
 0.143916;0.000000;-0.093900;,
 0.143916;0.000000;0.033814;;

 4;
 4;7,6,1,3;,
 3;9,4,0;,
 4;11,5,2,13;,
 3;10,8,12;;

 MeshMaterialList {
  1;
  4;
  0,
  0,
  0,
  0;
Material {
 1.000000;1.000000;1.000000;1.000000;;
 0.000000;
 1.000000;1.000000;1.000000;;
 0.0; 0.0; 0.0;;
 TextureFilename {
  "mis08.ppm";
 }
 }
}
 MeshNormals {
  14;
  0.498329;0.000000;0.866988;,
  0.498329;0.000000;0.866988;,
  0.056787;0.000000;-0.998386;,
  0.056787;0.000000;-0.998386;,
  0.339631;-0.702292;0.625649;,
  0.020110;-0.706821;-0.707107;,
  0.339631;0.702292;0.625649;,
  0.020110;0.706821;-0.707107;,
  0.020110;0.706821;-0.707107;,
  0.339631;0.702292;0.625649;,
  0.020110;-0.706821;-0.707107;,
  0.339631;-0.702292;0.625649;,
  0.056787;0.000000;-0.998386;,
  0.498329;0.000000;0.866988;;

  4;
  4;7,6,1,3;,
  3;9,4,0;,
  4;11,5,2,13;,
  3;10,8,12;;
 }
 MeshTextureCoords { 
 14;
 0.230469;0.730469;,
 0.472656;0.691406;,
 0.472656;0.691406;,
 0.472656;0.949219;,
 0.175781;0.683594;,
 0.042969;0.582031;,
 0.042969;0.582031;,
 0.043566;0.962896;,
 0.175781;0.683594;,
 0.175781;0.753906;,
 0.175781;0.753906;,
 0.043566;0.962896;,
 0.230469;0.730469;,
 0.472656;0.949219;;
 }
}
}
Frame frm-rear_fin4 {
  FrameTransformMatrix {
1.000000,0.000000,0.000000,0.000000,
0.000000,0.000000,-1.000000,0.000000,
0.000000,1.000000,0.000000,0.000000,
0.000000,-0.387693,0.000000,1.000000;;
 }
Mesh rear_fin4 {
 14;
 0.143916;0.000000;-0.033814;,
 0.143916;0.000000;-0.033814;,
 0.143916;0.000000;0.093900;,
 0.143916;0.000000;0.093900;,
 0.026310;-0.003346;-0.093900;,
 0.026310;-0.003346;0.093900;,
 0.026310;0.003346;-0.093900;,
 0.026310;0.003346;0.093900;,
 0.026310;0.003346;0.093900;,
 0.026310;0.003346;-0.093900;,
 0.026310;-0.003346;0.093900;,
 0.026310;-0.003346;-0.093900;,
 0.143916;0.000000;0.093900;,
 0.143916;0.000000;-0.033814;;

 4;
 4;3,1,6,7;,
 3;0,4,9;,
 4;13,2,5,11;,
 3;12,8,10;;

 MeshMaterialList {
  1;
  4;
  0,
  0,
  0,
  0;
Material {
 1.000000;1.000000;1.000000;1.000000;;
 0.000000;
 1.000000;1.000000;1.000000;;
 0.0; 0.0; 0.0;;
 TextureFilename {
  "mis08.ppm";
 }
 }
}
 MeshNormals {
  14;
  0.498329;0.000000;-0.866988;,
  0.498329;0.000000;-0.866988;,
  0.056787;0.000000;0.998386;,
  0.056787;0.000000;0.998386;,
  0.339631;-0.702292;-0.625649;,
  0.020110;-0.706821;0.707107;,
  0.339631;0.702292;-0.625649;,
  0.020110;0.706821;0.707107;,
  0.020110;0.706821;0.707107;,
  0.339631;0.702292;-0.625649;,
  0.020110;-0.706821;0.707107;,
  0.339631;-0.702292;-0.625649;,
  0.056787;0.000000;0.998386;,
  0.498329;0.000000;-0.866988;;

  4;
  4;3,1,6,7;,
  3;0,4,9;,
  4;13,2,5,11;,
  3;12,8,10;;
 }
 MeshTextureCoords { 
 14;
 0.230469;0.730469;,
 0.472656;0.691406;,
 0.472656;0.691406;,
 0.472656;0.949219;,
 0.175781;0.683594;,
 0.042969;0.582031;,
 0.042969;0.582031;,
 0.043566;0.962896;,
 0.175781;0.683594;,
 0.175781;0.753906;,
 0.175781;0.753906;,
 0.043566;0.962896;,
 0.230469;0.730469;,
 0.472656;0.949219;;
 }
}
}
}
Frame frm-thrust {
  FrameTransformMatrix {
0.001080,0.000000,0.000000,0.000000,
0.000000,0.001080,0.000000,0.000000,
0.000000,0.000000,0.001080,0.000000,
0.000000,0.000000,0.517063,1.000000;;
 }
Mesh thrust {
 8;
 5.000000;5.000000;-5.000000;,
 5.000000;5.000000;5.000000;,
 5.000000;-5.000000;-5.000000;,
 5.000000;-5.000000;5.000000;,
 -5.000000;5.000000;-5.000000;,
 -5.000000;5.000000;5.000000;,
 -5.000000;-5.000000;-5.000000;,
 -5.000000;-5.000000;5.000000;;

 6;
 4;5,4,6,7;,
 4;4,0,2,6;,
 4;0,1,3,2;,
 4;1,5,7,3;,
 4;7,6,2,3;,
 4;1,0,4,5;;

 MeshNormals {
  8;
  0.577350;0.577350;-0.577350;,
  0.577350;0.577350;0.577350;,
  0.577350;-0.577350;-0.577350;,
  0.577350;-0.577350;0.577350;,
  -0.577350;0.577350;-0.577350;,
  -0.577350;0.577350;0.577350;,
  -0.577350;-0.577350;-0.577350;,
  -0.577350;-0.577350;0.577350;;

  6;
  4;5,4,6,7;,
  4;4,0,2,6;,
  4;0,1,3,2;,
  4;1,5,7,3;,
  4;7,6,2,3;,
  4;1,0,4,5;;
 }
}
}
Frame frm-trail {
  FrameTransformMatrix {
0.001080,0.000000,0.000000,0.000000,
0.000000,0.001080,0.000000,0.000000,
0.000000,0.000000,0.001080,0.000000,
0.000000,0.000000,0.518652,1.000000;;
 }
Mesh trail {
 8;
 5.000000;5.000000;-5.000000;,
 5.000000;5.000000;5.000000;,
 5.000000;-5.000000;-5.000000;,
 5.000000;-5.000000;5.000000;,
 -5.000000;5.000000;-5.000000;,
 -5.000000;5.000000;5.000000;,
 -5.000000;-5.000000;-5.000000;,
 -5.000000;-5.000000;5.000000;;

 6;
 4;5,4,6,7;,
 4;4,0,2,6;,
 4;0,1,3,2;,
 4;1,5,7,3;,
 4;7,6,2,3;,
 4;1,0,4,5;;

 MeshNormals {
  8;
  0.577350;0.577350;-0.577350;,
  0.577350;0.577350;0.577350;,
  0.577350;-0.577350;-0.577350;,
  0.577350;-0.577350;0.577350;,
  -0.577350;0.577350;-0.577350;,
  -0.577350;0.577350;0.577350;,
  -0.577350;-0.577350;-0.577350;,
  -0.577350;-0.577350;0.577350;;

  6;
  4;5,4,6,7;,
  4;4,0,2,6;,
  4;0,1,3,2;,
  4;1,5,7,3;,
  4;7,6,2,3;,
  4;1,0,4,5;;
 }
}
}
}
AnimationSet {
 Animation anim-body {
  {frm-body}
  AnimationKey {
  0;
  2;
  1; 4; 0.707107, 0.707107, 0.000000, 0.000000;;,
  100; 4; 0.707107, 0.707107, 0.000000, 0.000000;;;
  }
  AnimationKey {
  2;
  2;
  1; 3; 0.000000, 0.000000, 0.013653;;,
  100; 3; 0.000000, 0.000000, 0.013653;;;
  }
 }
 Animation anim-frontfin4_1 {
  {frm-frontfin4_1}
  AnimationKey {
  0;
  2;
  1; 4; 0.500000, -0.500000, 0.500000, -0.500000;;,
  100; 4; 0.500000, -0.500000, 0.500000, -0.500000;;;
  }
  AnimationKey {
  2;
  2;
  1; 3; 0.000000, 0.283493, -0.000000;;,
  100; 3; 0.000000, 0.283493, -0.000000;;;
  }
 }
 Animation anim-frontfin5 {
  {frm-frontfin5}
  AnimationKey {
  0;
  2;
  1; 4; 0.000000, 0.000000, 0.707107, 0.707107;;,
  100; 4; 0.000000, 0.000000, 0.707107, 0.707107;;;
  }
  AnimationKey {
  2;
  2;
  1; 3; 0.000000, 0.283493, -0.000000;;,
  100; 3; 0.000000, 0.283493, -0.000000;;;
  }
 }
 Animation anim-frontfin4 {
  {frm-frontfin4}
  AnimationKey {
  0;
  2;
  1; 4; 0.707107, -0.707107, 0.000000, 0.000000;;,
  100; 4; 0.707107, -0.707107, 0.000000, 0.000000;;;
  }
  AnimationKey {
  2;
  2;
  1; 3; 0.000000, 0.283493, -0.000000;;,
  100; 3; 0.000000, 0.283493, -0.000000;;;
  }
 }
 Animation anim-frontfin6 {
  {frm-frontfin6}
  AnimationKey {
  0;
  2;
  1; 4; 0.500000, 0.500000, -0.500000, -0.500000;;,
  100; 4; 0.500000, 0.500000, -0.500000, -0.500000;;;
  }
  AnimationKey {
  2;
  2;
  1; 3; 0.000000, 0.283493, -0.000000;;,
  100; 3; 0.000000, 0.283493, -0.000000;;;
  }
 }
 Animation anim-rear_fin4_1 {
  {frm-rear_fin4_1}
  AnimationKey {
  0;
  2;
  1; 4; 0.500000, -0.500000, 0.500000, -0.500000;;,
  100; 4; 0.500000, -0.500000, 0.500000, -0.500000;;;
  }
  AnimationKey {
  2;
  2;
  1; 3; 0.000000, -0.387693, 0.000000;;,
  100; 3; 0.000000, -0.387693, 0.000000;;;
  }
 }
 Animation anim-rear_fin6 {
  {frm-rear_fin6}
  AnimationKey {
  0;
  2;
  1; 4; 0.500000, 0.500000, -0.500000, -0.500000;;,
  100; 4; 0.500000, 0.500000, -0.500000, -0.500000;;;
  }
  AnimationKey {
  2;
  2;
  1; 3; 0.000000, -0.387693, 0.000000;;,
  100; 3; 0.000000, -0.387693, 0.000000;;;
  }
 }
 Animation anim-rear_fin5 {
  {frm-rear_fin5}
  AnimationKey {
  0;
  2;
  1; 4; 0.000000, 0.000000, 0.707107, 0.707107;;,
  100; 4; 0.000000, 0.000000, 0.707107, 0.707107;;;
  }
  AnimationKey {
  2;
  2;
  1; 3; 0.000000, -0.387693, 0.000000;;,
  100; 3; 0.000000, -0.387693, 0.000000;;;
  }
 }
 Animation anim-rear_fin4 {
  {frm-rear_fin4}
  AnimationKey {
  0;
  2;
  1; 4; 0.707107, -0.707107, 0.000000, 0.000000;;,
  100; 4; 0.707107, -0.707107, 0.000000, 0.000000;;;
  }
  AnimationKey {
  2;
  2;
  1; 3; 0.000000, -0.387693, 0.000000;;,
  100; 3; 0.000000, -0.387693, 0.000000;;;
  }
 }
 Animation anim-thrust {
  {frm-thrust}
  AnimationKey {
  1;
  2;
  1; 3; 0.001080, 0.001080, 0.001080;;,
  100; 3; 0.001080, 0.001080, 0.001080;;;
  }
  AnimationKey {
  2;
  2;
  1; 3; 0.000000, 0.000000, 0.517063;;,
  100; 3; 0.000000, 0.000000, 0.517063;;;
  }
 }
 Animation anim-trail {
  {frm-trail}
  AnimationKey {
  1;
  2;
  1; 3; 0.001080, 0.001080, 0.001080;;,
  100; 3; 0.001080, 0.001080, 0.001080;;;
  }
  AnimationKey {
  2;
  2;
  1; 3; 0.000000, 0.000000, 0.518652;;,
  100; 3; 0.000000, 0.000000, 0.518652;;;
  }
 }
}
