xof 0302txt 0032
template Header {
 <3D82AB43-62DA-11cf-AB39-0020AF71E433>
 WORD major;
 WORD minor;
 DWORD flags;
}

template Vector {
 <3D82AB5E-62DA-11cf-AB39-0020AF71E433>
 FLOAT x;
 FLOAT y;
 FLOAT z;
}

template Coords2d {
 <F6F23F44-7686-11cf-8F52-0040333594A3>
 FLOAT u;
 FLOAT v;
}

template Matrix4x4 {
 <F6F23F45-7686-11cf-8F52-0040333594A3>
 array FLOAT matrix[16];
}

template ColorRGBA {
 <35FF44E0-6C7C-11cf-8F52-0040333594A3>
 FLOAT red;
 FLOAT green;
 FLOAT blue;
 FLOAT alpha;
}

template ColorRGB {
 <D3E16E81-7835-11cf-8F52-0040333594A3>
 FLOAT red;
 FLOAT green;
 FLOAT blue;
}

template TextureFilename {
 <A42790E1-7810-11cf-8F52-0040333594A3>
 STRING filename;
}

template Material {
 <3D82AB4D-62DA-11cf-AB39-0020AF71E433>
 ColorRGBA faceColor;
 FLOAT power;
 ColorRGB specularColor;
 ColorRGB emissiveColor;
 [...]
}

template MeshFace {
 <3D82AB5F-62DA-11cf-AB39-0020AF71E433>
 DWORD nFaceVertexIndices;
 array DWORD faceVertexIndices[nFaceVertexIndices];
}

template MeshTextureCoords {
 <F6F23F40-7686-11cf-8F52-0040333594A3>
 DWORD nTextureCoords;
 array Coords2d textureCoords[nTextureCoords];
}

template MeshMaterialList {
 <F6F23F42-7686-11cf-8F52-0040333594A3>
 DWORD nMaterials;
 DWORD nFaceIndexes;
 array DWORD faceIndexes[nFaceIndexes];
 [Material]
}

template MeshNormals {
 <F6F23F43-7686-11cf-8F52-0040333594A3>
 DWORD nNormals;
 array Vector normals[nNormals];
 DWORD nFaceNormals;
 array MeshFace faceNormals[nFaceNormals];
}

template Mesh {
 <3D82AB44-62DA-11cf-AB39-0020AF71E433>
 DWORD nVertices;
 array Vector vertices[nVertices];
 DWORD nFaces;
 array MeshFace faces[nFaces];
 [...]
}

template FrameTransformMatrix {
 <F6F23F41-7686-11cf-8F52-0040333594A3>
 Matrix4x4 frameMatrix;
}

template Frame {
 <3D82AB46-62DA-11cf-AB39-0020AF71E433>
 [...]
}
template FloatKeys {
 <10DD46A9-775B-11cf-8F52-0040333594A3>
 DWORD nValues;
 array FLOAT values[nValues];
}

template TimedFloatKeys {
 <F406B180-7B3B-11cf-8F52-0040333594A3>
 DWORD time;
 FloatKeys tfkeys;
}

template AnimationKey {
 <10DD46A8-775B-11cf-8F52-0040333594A3>
 DWORD keyType;
 DWORD nKeys;
 array TimedFloatKeys keys[nKeys];
}

template AnimationOptions {
 <E2BF56C0-840F-11cf-8F52-0040333594A3>
 DWORD openclosed;
 DWORD positionquality;
}

template Animation {
 <3D82AB4F-62DA-11cf-AB39-0020AF71E433>
 [...]
}

template AnimationSet {
 <3D82AB50-62DA-11cf-AB39-0020AF71E433>
 [Animation]
}

Header {
 1;
 0;
 1;
}

Frame frm-null1 {
  FrameTransformMatrix {
1.000000,0.000000,0.000000,0.000000,
0.000000,1.000000,0.000000,0.000000,
0.000000,0.000000,1.000000,0.000000,
0.000000,0.000000,0.000000,1.000000;;
 }
Frame frm-extru1 {
  FrameTransformMatrix {
1.000000,0.000000,0.000000,0.000000,
0.000000,1.000000,0.000000,0.000000,
0.000000,0.000000,1.000000,0.000000,
0.000000,0.000000,0.000000,1.000000;;
 }
Mesh extru1 {
 52;
 -4.454825;-1.355954;-0.208334;,
 1.708591;-1.335955;-0.208334;,
 2.569661;-1.314875;-0.208334;,
 3.356151;-1.203915;-0.208334;,
 4.000981;-0.967496;-0.208334;,
 4.437072;-0.570036;-0.208334;,
 4.597342;0.024045;-0.208334;,
 4.436842;0.617244;-0.208334;,
 4.000942;1.013344;-0.208334;,
 3.358042;1.249845;-0.208334;,
 2.576542;1.364245;-0.208334;,
 1.724842;1.394045;-0.208334;,
 4.203681;1.398485;-0.208334;,
 2.612561;1.768765;-0.208334;,
 -4.454825;1.784045;-0.208334;,
 -4.454825;1.384045;-0.208334;,
 -4.454825;1.784045;0.166667;,
 1.728590;1.784045;0.166667;,
 2.612561;1.768765;0.166667;,
 3.470551;1.667805;0.166667;,
 4.203681;1.398485;0.166667;,
 4.713072;0.878125;0.166667;,
 4.899841;0.024045;0.166667;,
 4.703281;-0.831035;0.166667;,
 4.190762;-1.353595;0.166667;,
 3.455522;-1.625115;0.166667;,
 2.590802;-1.727075;0.166667;,
 1.689842;-1.740955;0.166667;,
 2.590802;-1.727075;-0.208334;,
 -4.454825;-1.735955;-0.208334;,
 1.689842;-1.740955;-0.208334;,
 -4.454825;-1.735955;0.166667;,
 -4.454825;-1.355954;0.166667;,
 4.899841;0.024045;-0.208334;,
 4.190762;-1.353595;-0.208334;,
 3.455522;-1.625115;-0.208334;,
 4.703281;-0.831035;-0.208334;,
 1.708591;-1.335955;0.166667;,
 2.569661;-1.314875;0.166667;,
 3.356151;-1.203915;0.166667;,
 4.000981;-0.967496;0.166667;,
 4.437072;-0.570036;0.166667;,
 4.597342;0.024045;0.166667;,
 4.436842;0.617244;0.166667;,
 4.000942;1.013344;0.166667;,
 3.358042;1.249845;0.166667;,
 2.576542;1.364245;0.166667;,
 1.724842;1.394045;0.166667;,
 4.713072;0.878125;-0.208334;,
 3.470551;1.667805;-0.208334;,
 1.728590;1.784045;-0.208334;,
 -4.454825;1.384045;0.166667;;

 94;
 3;15,51,16;,
 3;14,15,16;,
 3;29,0,1;,
 3;30,29,1;,
 3;28,30,1;,
 3;35,28,1;,
 3;34,35,1;,
 3;33,36,34;,
 3;12,48,33;,
 3;13,49,12;,
 3;50,13,12;,
 3;14,50,12;,
 3;15,14,12;,
 3;11,15,12;,
 3;10,11,12;,
 3;9,10,12;,
 3;8,9,12;,
 3;7,8,12;,
 3;34,1,2;,
 3;7,12,33;,
 3;6,7,33;,
 3;5,6,33;,
 3;34,2,3;,
 3;5,33,34;,
 3;4,5,34;,
 3;3,4,34;,
 3;18,17,16;,
 3;19,18,16;,
 3;20,19,16;,
 3;22,21,20;,
 3;24,23,22;,
 3;26,25,24;,
 3;27,26,24;,
 3;31,27,24;,
 3;32,31,24;,
 3;37,32,24;,
 3;38,37,24;,
 3;39,38,24;,
 3;40,39,24;,
 3;41,40,24;,
 3;16,51,47;,
 3;20,16,47;,
 3;41,24,22;,
 3;42,41,22;,
 3;43,42,22;,
 3;20,47,46;,
 3;43,22,20;,
 3;44,43,20;,
 3;45,44,20;,
 3;46,45,20;,
 3;14,16,17;,
 3;50,14,17;,
 3;50,17,18;,
 3;13,50,18;,
 3;10,46,47;,
 3;11,10,47;,
 3;9,45,46;,
 3;10,9,46;,
 3;8,44,45;,
 3;9,8,45;,
 3;7,43,44;,
 3;8,7,44;,
 3;6,42,43;,
 3;7,6,43;,
 3;5,41,42;,
 3;6,5,42;,
 3;4,40,41;,
 3;5,4,41;,
 3;3,39,40;,
 3;4,3,40;,
 3;2,38,39;,
 3;3,2,39;,
 3;1,37,38;,
 3;2,1,38;,
 3;35,25,26;,
 3;28,35,26;,
 3;36,23,24;,
 3;34,36,24;,
 3;12,20,21;,
 3;48,12,21;,
 3;49,19,20;,
 3;12,49,20;,
 3;13,18,19;,
 3;49,13,19;,
 3;29,31,32;,
 3;0,29,32;,
 3;48,21,22;,
 3;33,48,22;,
 3;33,22,23;,
 3;36,33,23;,
 3;34,24,25;,
 3;35,34,25;,
 3;28,26,27;,
 3;30,28,27;;

 MeshNormals {
  52;
  -0.707107;-0.000001;-0.707107;,
  -0.007739;0.316133;-0.948683;,
  -0.068414;0.829233;-0.554700;,
  -0.202455;0.807044;-0.554700;,
  -0.431530;0.711400;-0.554700;,
  -0.603708;0.368153;-0.707107;,
  -0.832050;-0.000306;-0.554700;,
  -0.603299;-0.368823;-0.707107;,
  -0.431385;-0.711488;-0.554700;,
  -0.204987;-0.806404;-0.554700;,
  -0.074920;-0.828670;-0.554700;,
  -0.015638;-0.446940;-0.894427;,
  0.142883;0.220942;-0.964764;,
  0.055878;0.830172;-0.554700;,
  -0.333333;0.666667;-0.666667;,
  -0.707107;0.000000;-0.707107;,
  -0.365148;0.182574;0.912871;,
  0.008198;0.948648;0.316228;,
  0.055878;0.830172;0.554700;,
  0.193407;0.809260;0.554700;,
  0.190674;0.294841;0.936329;,
  0.834803;0.450670;0.316228;,
  0.447207;-0.002383;0.894427;,
  0.832173;-0.455508;0.316228;,
  0.142966;-0.220888;0.964764;,
  0.221415;-0.922483;0.316228;,
  0.055197;-0.830217;0.554700;,
  0.010892;-0.707023;0.707107;,
  0.055197;-0.830217;-0.554700;,
  -0.707107;-0.000001;-0.707107;,
  0.002993;-0.447204;-0.894427;,
  -0.447214;-0.000001;0.894427;,
  -0.707107;-0.000001;0.707107;,
  0.447207;-0.002383;-0.894427;,
  0.214038;-0.330696;-0.919145;,
  0.194193;-0.809071;-0.554700;,
  0.832173;-0.455508;-0.316228;,
  -0.010945;0.447080;0.894427;,
  -0.068414;0.829233;0.554700;,
  -0.202455;0.807044;0.554700;,
  -0.431530;0.711400;0.554700;,
  -0.603708;0.368153;0.707107;,
  -0.832050;-0.000306;0.554700;,
  -0.603299;-0.368823;0.707107;,
  -0.431385;-0.711488;0.554700;,
  -0.204987;-0.806404;0.554700;,
  -0.074920;-0.828670;0.554700;,
  -0.019397;-0.554361;0.832050;,
  0.834803;0.450670;-0.316228;,
  0.220518;0.922698;-0.316228;,
  0.007190;0.832019;-0.554700;,
  -0.707107;0.000000;0.707107;;

  94;
  3;15,51,16;,
  3;14,15,16;,
  3;29,0,1;,
  3;30,29,1;,
  3;28,30,1;,
  3;35,28,1;,
  3;34,35,1;,
  3;33,36,34;,
  3;12,48,33;,
  3;13,49,12;,
  3;50,13,12;,
  3;14,50,12;,
  3;15,14,12;,
  3;11,15,12;,
  3;10,11,12;,
  3;9,10,12;,
  3;8,9,12;,
  3;7,8,12;,
  3;34,1,2;,
  3;7,12,33;,
  3;6,7,33;,
  3;5,6,33;,
  3;34,2,3;,
  3;5,33,34;,
  3;4,5,34;,
  3;3,4,34;,
  3;18,17,16;,
  3;19,18,16;,
  3;20,19,16;,
  3;22,21,20;,
  3;24,23,22;,
  3;26,25,24;,
  3;27,26,24;,
  3;31,27,24;,
  3;32,31,24;,
  3;37,32,24;,
  3;38,37,24;,
  3;39,38,24;,
  3;40,39,24;,
  3;41,40,24;,
  3;16,51,47;,
  3;20,16,47;,
  3;41,24,22;,
  3;42,41,22;,
  3;43,42,22;,
  3;20,47,46;,
  3;43,22,20;,
  3;44,43,20;,
  3;45,44,20;,
  3;46,45,20;,
  3;14,16,17;,
  3;50,14,17;,
  3;50,17,18;,
  3;13,50,18;,
  3;10,46,47;,
  3;11,10,47;,
  3;9,45,46;,
  3;10,9,46;,
  3;8,44,45;,
  3;9,8,45;,
  3;7,43,44;,
  3;8,7,44;,
  3;6,42,43;,
  3;7,6,43;,
  3;5,41,42;,
  3;6,5,42;,
  3;4,40,41;,
  3;5,4,41;,
  3;3,39,40;,
  3;4,3,40;,
  3;2,38,39;,
  3;3,2,39;,
  3;1,37,38;,
  3;2,1,38;,
  3;35,25,26;,
  3;28,35,26;,
  3;36,23,24;,
  3;34,36,24;,
  3;12,20,21;,
  3;48,12,21;,
  3;49,19,20;,
  3;12,49,20;,
  3;13,18,19;,
  3;49,13,19;,
  3;29,31,32;,
  3;0,29,32;,
  3;48,21,22;,
  3;33,48,22;,
  3;33,22,23;,
  3;36,33,23;,
  3;34,24,25;,
  3;35,34,25;,
  3;28,26,27;,
  3;30,28,27;;
 }
}
}
}
