xof 0302txt 0032Header {
 1;
 0;
 1;
}

Frame frm-cube1 {
  FrameTransformMatrix {
1.000000,0.000000,0.000000,0.000000,
0.000000,1.000000,0.000000,0.000000,
0.000000,0.000000,1.000000,0.000000,
0.000000,0.000000,0.000000,1.000000;;
 }
Mesh cube1 {
 16;
 -0.163424;3.438712;0.163424;,
 -0.356822;-2.563320;0.356822;,
 -0.163424;3.438712;-0.163425;,
 -0.356822;-2.563320;-0.356822;,
 0.163424;3.438712;0.163424;,
 0.356822;-2.563320;0.356822;,
 0.163424;3.438712;-0.163425;,
 0.356822;-2.563320;-0.356822;,
 -1.368909;-2.563320;0.354750;,
 0.354750;-2.563320;-1.376368;,
 -0.354750;-2.563320;-1.376368;,
 -1.368909;-2.563320;-0.354750;,
 -0.354750;-2.563320;1.376368;,
 0.354750;-2.563320;1.376368;,
 1.368909;-2.563320;0.354750;,
 1.368909;-2.563320;-0.354750;;

 18;
 3;2,3,11;,
 4;3,10,9,7;,
 3;15,7,6;,
 3;0,1,12;,
 3;6,7,9;,
 3;10,3,2;,
 3;4,5,14;,
 3;13,5,4;,
 3;8,1,0;,
 4;6,9,10,2;,
 4;0,12,13,4;,
 4;4,14,15,6;,
 4;2,11,8,0;,
 4;0,4,6,2;,
 4;1,8,11,3;,
 4;5,13,12,1;,
 4;7,15,14,5;,
 4;5,1,3,7;;

 MeshMaterialList {
  3;
  18;
  0,
  1,
  0,
  0,
  0,
  0,
  0,
  0,
  0,
  0,
  0,
  0,
  0,
  2,
  1,
  1,
  1,
  1;
Material {
 0.700000;0.700000;0.700000;1.000000;;
 50.000000;
 0.0; 0.0; 0.0;;
 0.0; 0.0; 0.0;;
 }
Material {
 0.461018;1.000000;0.400000;1.000000;;
 50.000000;
 0.0; 0.0; 0.0;;
 0.0; 0.0; 0.0;;
 }
Material {
 1.000000;0.400000;0.400000;1.000000;;
 50.000000;
 0.0; 0.0; 0.0;;
 0.0; 0.0; 0.0;;
 }
}
 MeshNormals {
  64;
  -0.999477;0.032271;0.002031;,
  -0.002046;0.032271;0.999477;,
  0.000000;0.198084;0.980185;,
  -0.980421;0.196914;-0.000000;,
  0.000000;1.000000;-0.000000;,
  -0.999477;0.032271;0.002031;,
  -0.002046;0.032271;0.999477;,
  0.000000;-1.000000;0.000000;,
  0.000000;-1.000000;0.000000;,
  0.000000;-1.000000;0.000000;,
  -0.002046;0.032271;-0.999477;,
  -0.999477;0.032271;-0.002031;,
  0.000000;0.198084;-0.980185;,
  -0.980421;0.196914;-0.000000;,
  0.000000;1.000000;-0.000000;,
  -0.002046;0.032271;-0.999477;,
  0.000000;-1.000000;0.000000;,
  -0.999477;0.032271;-0.002031;,
  0.000000;-1.000000;0.000000;,
  0.000000;-1.000000;0.000000;,
  0.002046;0.032271;0.999477;,
  0.999477;0.032271;0.002031;,
  0.000000;0.198084;0.980185;,
  0.980421;0.196914;-0.000000;,
  0.000000;1.000000;-0.000000;,
  0.002046;0.032271;0.999477;,
  0.999477;0.032271;0.002031;,
  0.000000;-1.000000;0.000000;,
  0.000000;-1.000000;0.000000;,
  0.000000;-1.000000;0.000000;,
  0.002046;0.032271;-0.999477;,
  0.999477;0.032271;-0.002031;,
  0.000000;0.198084;-0.980185;,
  0.980421;0.196914;-0.000000;,
  0.000000;1.000000;-0.000000;,
  0.000000;-1.000000;0.000000;,
  0.002046;0.032271;-0.999477;,
  0.999477;0.032271;-0.002031;,
  0.000000;-1.000000;0.000000;,
  0.000000;-1.000000;0.000000;,
  -0.002046;0.032271;0.999477;,
  -0.980421;0.196914;-0.000000;,
  0.000000;-1.000000;0.000000;,
  0.000000;-1.000000;0.000000;,
  0.999477;0.032271;-0.002031;,
  0.000000;0.198084;-0.980185;,
  0.000000;-1.000000;0.000000;,
  -0.999477;0.032271;-0.002031;,
  0.000000;0.198084;-0.980185;,
  -0.002046;0.032271;-0.999477;,
  -0.980421;0.196914;-0.000000;,
  0.000000;-1.000000;0.000000;,
  -0.999477;0.032271;0.002031;,
  0.000000;0.198084;0.980185;,
  0.000000;-1.000000;0.000000;,
  0.999477;0.032271;0.002031;,
  0.000000;0.198084;0.980185;,
  0.000000;-1.000000;0.000000;,
  0.002046;0.032271;0.999477;,
  0.980421;0.196914;-0.000000;,
  0.000000;-1.000000;0.000000;,
  0.002046;0.032271;-0.999477;,
  0.980421;0.196914;-0.000000;,
  0.000000;-1.000000;0.000000;;

18;
  3;10,15,49;,
  4;16,46,43,35;,
  3;61,36,30;,
  3;0,5,52;,
  3;31,37,44;,
  3;47,17,11;,
  3;20,25,58;,
  3;55,26,21;,
  3;40,6,1;,
  4;32,45,48,12;,
  4;2,53,56,22;,
  4;23,59,62,33;,
  4;13,50,41,3;,
  4;4,24,34,14;,
  4;7,42,51,18;,
  4;27,57,54,8;,
  4;38,63,60,28;,
  4;29,9,19,39;;
}
}
}
