xof 0302txt 0032
template Header {
 <3D82AB43-62DA-11cf-AB39-0020AF71E433>
 WORD major;
 WORD minor;
 DWORD flags;
}

template Vector {
 <3D82AB5E-62DA-11cf-AB39-0020AF71E433>
 FLOAT x;
 FLOAT y;
 FLOAT z;
}

template Coords2d {
 <F6F23F44-7686-11cf-8F52-0040333594A3>
 FLOAT u;
 FLOAT v;
}

template Matrix4x4 {
 <F6F23F45-7686-11cf-8F52-0040333594A3>
 array FLOAT matrix[16];
}

template ColorRGBA {
 <35FF44E0-6C7C-11cf-8F52-0040333594A3>
 FLOAT red;
 FLOAT green;
 FLOAT blue;
 FLOAT alpha;
}

template ColorRGB {
 <D3E16E81-7835-11cf-8F52-0040333594A3>
 FLOAT red;
 FLOAT green;
 FLOAT blue;
}

template TextureFilename {
 <A42790E1-7810-11cf-8F52-0040333594A3>
 STRING filename;
}

template Material {
 <3D82AB4D-62DA-11cf-AB39-0020AF71E433>
 ColorRGBA faceColor;
 FLOAT power;
 ColorRGB specularColor;
 ColorRGB emissiveColor;
 [...]
}

template MeshFace {
 <3D82AB5F-62DA-11cf-AB39-0020AF71E433>
 DWORD nFaceVertexIndices;
 array DWORD faceVertexIndices[nFaceVertexIndices];
}

template MeshTextureCoords {
 <F6F23F40-7686-11cf-8F52-0040333594A3>
 DWORD nTextureCoords;
 array Coords2d textureCoords[nTextureCoords];
}

template MeshMaterialList {
 <F6F23F42-7686-11cf-8F52-0040333594A3>
 DWORD nMaterials;
 DWORD nFaceIndexes;
 array DWORD faceIndexes[nFaceIndexes];
 [Material]
}

template MeshNormals {
 <F6F23F43-7686-11cf-8F52-0040333594A3>
 DWORD nNormals;
 array Vector normals[nNormals];
 DWORD nFaceNormals;
 array MeshFace faceNormals[nFaceNormals];
}

template Mesh {
 <3D82AB44-62DA-11cf-AB39-0020AF71E433>
 DWORD nVertices;
 array Vector vertices[nVertices];
 DWORD nFaces;
 array MeshFace faces[nFaces];
 [...]
}

template FrameTransformMatrix {
 <F6F23F41-7686-11cf-8F52-0040333594A3>
 Matrix4x4 frameMatrix;
}

template Frame {
 <3D82AB46-62DA-11cf-AB39-0020AF71E433>
 [...]
}
template FloatKeys {
 <10DD46A9-775B-11cf-8F52-0040333594A3>
 DWORD nValues;
 array FLOAT values[nValues];
}

template TimedFloatKeys {
 <F406B180-7B3B-11cf-8F52-0040333594A3>
 DWORD time;
 FloatKeys tfkeys;
}

template AnimationKey {
 <10DD46A8-775B-11cf-8F52-0040333594A3>
 DWORD keyType;
 DWORD nKeys;
 array TimedFloatKeys keys[nKeys];
}

template AnimationOptions {
 <E2BF56C0-840F-11cf-8F52-0040333594A3>
 DWORD openclosed;
 DWORD positionquality;
}

template Animation {
 <3D82AB4F-62DA-11cf-AB39-0020AF71E433>
 [...]
}

template AnimationSet {
 <3D82AB50-62DA-11cf-AB39-0020AF71E433>
 [Animation]
}

Header {
 1;
 0;
 1;
}

Frame frm-canopy_1_1_1 {
  FrameTransformMatrix {
1.000000,0.000000,0.000000,0.000000,
0.000000,1.000000,0.000000,0.000000,
0.000000,0.000000,1.000000,0.000000,
0.000000,0.310433,-0.596694,1.000000;;
 }
Mesh canopy_1_1_1 {
 80;
 -0.840406;0.824138;1.736655;,
 -0.840406;0.824138;1.736655;,
 0.840358;0.824138;1.736655;,
 0.840358;0.824138;1.736655;,
 0.593795;-0.454010;1.429281;,
 0.593795;-0.454010;1.429281;,
 0.593795;-0.454010;1.429281;,
 -0.593795;-0.454010;1.429281;,
 -0.593795;-0.454010;1.429281;,
 -0.593795;-0.454010;1.429281;,
 -1.054190;0.758002;1.723778;,
 -1.054190;0.758002;1.723778;,
 1.054142;0.758002;1.723778;,
 1.054142;0.758002;1.723778;,
 1.054142;0.758002;1.723778;,
 1.054142;0.758002;1.723778;,
 -0.000000;-0.406337;-2.558813;,
 -0.000000;0.221997;-2.531607;,
 0.688038;0.333225;2.164696;,
 -0.688060;0.333225;2.164696;,
 0.273366;0.352936;0.915740;,
 -0.273382;0.352936;0.915740;,
 0.782745;-0.494968;-2.552696;,
 -0.782748;-0.494968;-2.552696;,
 -0.705837;-0.581739;-2.549063;,
 -0.713923;-0.555436;-2.726120;,
 0.705835;-0.581738;-2.549063;,
 0.713919;-0.555435;-2.726121;,
 0.256227;-0.432561;-0.073934;,
 -0.292358;-0.432659;-0.090968;,
 -0.654803;-0.141793;1.049474;,
 0.654803;-0.141793;1.049474;,
 -0.477003;-0.518340;0.739010;,
 0.477003;-0.518340;0.739010;,
 0.256227;0.396046;-0.073934;,
 -0.292358;0.396001;-0.090968;,
 0.467922;-0.197813;-0.245412;,
 0.467922;0.161154;-0.245412;,
 -0.469558;0.161154;-0.245412;,
 -0.469558;-0.197813;-0.245412;,
 0.391730;0.045945;-2.536977;,
 -0.438385;-0.220560;-2.542792;,
 -0.391731;0.045945;-2.536977;,
 0.438385;-0.220560;-2.542792;,
 -0.408572;-0.340628;-3.584115;,
 -0.669196;-0.291287;-2.839626;,
 0.408569;-0.340627;-3.584115;,
 0.669193;-0.291287;-2.839627;,
 0.258277;0.254568;-2.980794;,
 -0.258277;0.254568;-2.980794;,
 0.198119;-0.540529;-3.191882;,
 -0.198119;-0.540529;-3.191882;,
 -0.303490;-0.444165;-3.297720;,
 0.303489;-0.444165;-3.297720;,
 -0.703959;-0.135149;-2.673742;,
 0.703958;-0.135149;-2.673742;,
 0.507969;0.077133;-2.951573;,
 -0.507969;0.077133;-2.951573;,
 0.094036;-0.135183;-4.131660;,
 -0.094037;-0.135183;-4.131660;,
 0.167760;0.062479;-3.783571;,
 -0.167760;0.062479;-3.783571;,
 0.048394;-0.357588;-4.544428;,
 -0.048394;-0.357588;-4.544428;,
 0.224015;-0.337453;-4.252306;,
 0.233120;-0.083473;-3.728223;,
 -0.233120;-0.083473;-3.728223;,
 -0.224015;-0.337453;-4.252306;,
 0.056910;-0.466030;-4.354487;,
 -0.056910;-0.466030;-4.354487;,
 1.054142;0.758002;1.723778;,
 -1.054190;0.758002;1.723778;,
 -0.593795;-0.454010;1.429281;,
 0.593795;-0.454010;1.429281;,
 -0.541342;-0.313383;1.701293;,
 0.541331;-0.313383;1.701293;,
 0.840358;0.824138;1.736655;,
 -0.840406;0.824138;1.736655;,
 0.095534;-0.277645;-4.423564;,
 -0.095534;-0.277645;-4.423564;;

 79;
 4;18,3,1,19;,
 4;48,60,61,49;,
 4;59,61,60,58;,
 4;33,6,9,32;,
 3;66,59,67;,
 3;64,58,65;,
 3;2,18,15;,
 3;67,63,52;,
 3;19,0,11;,
 3;31,5,33;,
 3;60,48,65;,
 3;49,61,66;,
 4;25,23,45,44;,
 3;79,67,59;,
 3;60,65,58;,
 3;20,76,14;,
 4;8,74,19,10;,
 3;31,13,4;,
 4;22,27,46,47;,
 3;21,71,77;,
 4;20,34,35,21;,
 4;75,74,7,73;,
 4;58,78,79,59;,
 3;64,78,58;,
 4;12,18,75,73;,
 3;63,67,79;,
 3;62,78,64;,
 3;53,55,43;,
 3;52,16,41;,
 3;72,71,30;,
 4;20,21,77,76;,
 4;44,45,54,67;,
 4;63,62,68,69;,
 4;62,63,79,78;,
 4;19,74,75,18;,
 3;66,61,59;,
 3;22,26,27;,
 3;49,66,57;,
 4;55,64,65,56;,
 4;29,28,33,32;,
 3;24,23,25;,
 4;57,66,67,54;,
 3;53,62,64;,
 3;32,72,30;,
 4;50,68,62,53;,
 4;52,63,69,51;,
 4;51,69,68,50;,
 3;47,55,53;,
 3;44,67,52;,
 3;35,38,21;,
 3;56,65,48;,
 4;26,22,47,53;,
 4;23,24,52,45;,
 4;47,46,64,55;,
 3;31,33,28;,
 3;31,28,36;,
 3;20,37,34;,
 3;29,32,30;,
 3;39,29,30;,
 3;53,64,46;,
 4;27,26,53,46;,
 3;21,30,71;,
 3;70,31,20;,
 4;20,31,36,37;,
 3;52,54,45;,
 4;38,39,30,21;,
 4;24,25,44,52;,
 3;43,16,53;,
 3;16,52,51;,
 3;17,48,49;,
 3;16,51,50;,
 3;41,42,57;,
 3;16,50,53;,
 3;43,55,56;,
 3;41,54,52;,
 4;42,17,49,57;,
 4;17,40,56,48;,
 3;57,54,41;,
 3;56,40,43;;

 MeshMaterialList {
  3;
  79;
  0,
  1,
  1,
  2,
  1,
  1,
  0,
  1,
  0,
  2,
  1,
  1,
  1,
  1,
  1,
  2,
  0,
  2,
  1,
  2,
  2,
  0,
  1,
  1,
  0,
  1,
  1,
  1,
  1,
  2,
  2,
  1,
  1,
  1,
  0,
  1,
  1,
  1,
  1,
  2,
  1,
  1,
  1,
  2,
  1,
  1,
  1,
  1,
  1,
  2,
  1,
  1,
  1,
  1,
  2,
  2,
  2,
  2,
  2,
  1,
  1,
  2,
  2,
  2,
  1,
  2,
  1,
  1,
  1,
  1,
  1,
  1,
  1,
  1,
  1,
  1,
  1,
  1,
  1;
Material {
 1.000000;1.000000;1.000000;1.000000;;
 50.000000;
 1.000000;1.000000;1.000000;;
 0.0; 0.0; 0.0;;
 TextureFilename {
  "cap103.ppm";
 }
 }
Material {
 1.000000;1.000000;1.000000;1.000000;;
 50.000000;
 1.000000;1.000000;1.000000;;
 0.0; 0.0; 0.0;;
 TextureFilename {
  "cap103.ppm";
 }
 }
Material {
 1.000000;1.000000;1.000000;1.000000;;
 50.000000;
 1.000000;1.000000;1.000000;;
 0.0; 0.0; 0.0;;
 TextureFilename {
  "cap103.ppm";
 }
 }
}
 MeshNormals {
  80;
  -0.147291;0.978261;0.145983;,
  -0.147291;0.978261;0.145983;,
  0.147292;0.978261;0.145982;,
  0.147292;0.978261;0.145982;,
  0.667947;-0.727393;0.157311;,
  0.667947;-0.727393;0.157311;,
  0.667947;-0.727393;0.157311;,
  -0.667938;-0.727403;0.157305;,
  -0.667938;-0.727403;0.157305;,
  -0.667938;-0.727403;0.157305;,
  -0.947757;0.254253;-0.192643;,
  -0.947757;0.254253;-0.192643;,
  0.947754;0.254279;-0.192627;,
  0.947754;0.254279;-0.192627;,
  0.947754;0.254279;-0.192627;,
  0.947754;0.254279;-0.192627;,
  0.000000;-0.943909;0.330205;,
  0.000000;0.976489;0.215569;,
  0.418870;0.209340;0.883586;,
  -0.418866;0.209328;0.883591;,
  0.493759;0.792468;-0.358045;,
  -0.510231;0.783025;-0.355718;,
  0.964083;-0.256733;0.068060;,
  -0.964082;-0.256734;0.068068;,
  -0.106888;-0.986048;0.127613;,
  -0.713146;-0.649869;-0.262855;,
  0.106893;-0.986048;0.127606;,
  0.713147;-0.649867;-0.262858;,
  0.652611;-0.736594;-0.177559;,
  -0.668218;-0.725699;-0.163844;,
  -0.954752;-0.162090;-0.249352;,
  0.951451;-0.168373;-0.257665;,
  -0.582960;-0.804176;-0.116010;,
  0.587949;-0.798341;-0.130259;,
  0.410089;0.911470;0.032386;,
  -0.455211;0.889151;0.046834;,
  0.981889;-0.177323;-0.066712;,
  0.841917;0.539494;-0.011066;,
  -0.867779;0.496948;0.001867;,
  -0.988256;-0.135865;-0.069929;,
  0.775570;0.556808;0.297417;,
  -0.753502;-0.363161;0.548041;,
  -0.775570;0.556808;0.297417;,
  0.753502;-0.363161;0.548040;,
  -0.756548;-0.573075;-0.314991;,
  -0.489972;-0.221557;0.843113;,
  0.756547;-0.573078;-0.314989;,
  0.489967;-0.221587;0.843109;,
  0.444345;0.890233;-0.100211;,
  -0.444345;0.890233;-0.100211;,
  0.454030;-0.885937;0.094722;,
  -0.454030;-0.885937;0.094722;,
  -0.293894;-0.933220;0.206707;,
  0.293896;-0.933219;0.206706;,
  -0.908722;-0.089899;0.407607;,
  0.908721;-0.089908;0.407606;,
  0.683909;0.723657;0.092679;,
  -0.683909;0.723657;0.092679;,
  0.515530;0.742905;-0.426990;,
  -0.515530;0.742905;-0.426990;,
  0.548935;0.744251;-0.380474;,
  -0.548935;0.744251;-0.380474;,
  0.652789;-0.407750;-0.638440;,
  -0.652789;-0.407750;-0.638441;,
  0.918949;0.041511;-0.392185;,
  0.798433;0.512173;-0.316518;,
  -0.798433;0.512173;-0.316518;,
  -0.918949;0.041514;-0.392186;,
  0.287587;-0.918857;-0.270176;,
  -0.287587;-0.918857;-0.270176;,
  0.947754;0.254279;-0.192627;,
  -0.947757;0.254253;-0.192643;,
  -0.667938;-0.727403;0.157305;,
  0.667947;-0.727393;0.157311;,
  -0.324047;-0.720033;0.613633;,
  0.324054;-0.720028;0.613636;,
  0.147292;0.978261;0.145982;,
  -0.147291;0.978261;0.145983;,
  0.427036;0.748107;-0.507913;,
  -0.427036;0.748107;-0.507913;;

  79;
  4;18,3,1,19;,
  4;48,60,61,49;,
  4;59,61,60,58;,
  4;33,6,9,32;,
  3;66,59,67;,
  3;64,58,65;,
  3;2,18,15;,
  3;67,63,52;,
  3;19,0,11;,
  3;31,5,33;,
  3;60,48,65;,
  3;49,61,66;,
  4;25,23,45,44;,
  3;79,67,59;,
  3;60,65,58;,
  3;20,76,14;,
  4;8,74,19,10;,
  3;31,13,4;,
  4;22,27,46,47;,
  3;21,71,77;,
  4;20,34,35,21;,
  4;75,74,7,73;,
  4;58,78,79,59;,
  3;64,78,58;,
  4;12,18,75,73;,
  3;63,67,79;,
  3;62,78,64;,
  3;53,55,43;,
  3;52,16,41;,
  3;72,71,30;,
  4;20,21,77,76;,
  4;44,45,54,67;,
  4;63,62,68,69;,
  4;62,63,79,78;,
  4;19,74,75,18;,
  3;66,61,59;,
  3;22,26,27;,
  3;49,66,57;,
  4;55,64,65,56;,
  4;29,28,33,32;,
  3;24,23,25;,
  4;57,66,67,54;,
  3;53,62,64;,
  3;32,72,30;,
  4;50,68,62,53;,
  4;52,63,69,51;,
  4;51,69,68,50;,
  3;47,55,53;,
  3;44,67,52;,
  3;35,38,21;,
  3;56,65,48;,
  4;26,22,47,53;,
  4;23,24,52,45;,
  4;47,46,64,55;,
  3;31,33,28;,
  3;31,28,36;,
  3;20,37,34;,
  3;29,32,30;,
  3;39,29,30;,
  3;53,64,46;,
  4;27,26,53,46;,
  3;21,30,71;,
  3;70,31,20;,
  4;20,31,36,37;,
  3;52,54,45;,
  4;38,39,30,21;,
  4;24,25,44,52;,
  3;43,16,53;,
  3;16,52,51;,
  3;17,48,49;,
  3;16,51,50;,
  3;41,42,57;,
  3;16,50,53;,
  3;43,55,56;,
  3;41,54,52;,
  4;42,17,49,57;,
  4;17,40,56,48;,
  3;57,54,41;,
  3;56,40,43;;
 }
 MeshTextureCoords { 
 80;
 0.281669;0.518030;,
 0.281669;0.518030;,
 0.038636;0.518030;,
 0.038636;0.518030;,
 0.603771;0.685244;,
 0.603771;0.685244;,
 0.603771;0.685244;,
 0.246010;0.701919;,
 0.246010;0.701919;,
 0.603771;0.685244;,
 0.312581;0.527545;,
 0.312581;0.527545;,
 0.007723;0.527545;,
 0.656986;0.474106;,
 0.656986;0.474106;,
 0.007723;0.527545;,
 0.491418;0.171854;,
 0.498128;0.022921;,
 0.060661;0.588658;,
 0.259640;0.588658;,
 0.510974;0.544670;,
 0.510974;0.544670;,
 0.492926;0.192862;,
 0.492926;0.192862;,
 0.493822;0.213429;,
 0.450154;0.207195;,
 0.493822;0.213429;,
 0.450154;0.207195;,
 0.332140;0.681508;,
 0.329062;0.681525;,
 0.535140;0.630855;,
 0.535140;0.630855;,
 0.479039;0.696451;,
 0.479039;0.696451;,
 0.332140;0.537160;,
 0.329062;0.537168;,
 0.301154;0.640614;,
 0.301154;0.578080;,
 0.301154;0.578080;,
 0.301154;0.640614;,
 0.496803;0.064650;,
 0.495369;0.127820;,
 0.496803;0.064650;,
 0.495369;0.127820;,
 0.238546;0.156279;,
 0.422160;0.144584;,
 0.238546;0.156279;,
 0.422160;0.144584;,
 0.387344;0.015200;,
 0.387344;0.015200;,
 0.335283;0.203661;,
 0.335283;0.203661;,
 0.309180;0.180820;,
 0.309180;0.180820;,
 0.463073;0.107575;,
 0.463073;0.107575;,
 0.394551;0.057258;,
 0.394551;0.057258;,
 0.103503;0.107583;,
 0.103503;0.107583;,
 0.189353;0.060731;,
 0.189353;0.060731;,
 0.001702;0.160299;,
 0.001702;0.160299;,
 0.073748;0.155527;,
 0.203004;0.095326;,
 0.203004;0.095326;,
 0.073748;0.155527;,
 0.048547;0.186003;,
 0.048547;0.186003;,
 0.656986;0.474106;,
 0.656986;0.474106;,
 0.603771;0.685244;,
 0.074288;0.701919;,
 0.238425;0.681687;,
 0.081874;0.681687;,
 0.659313;0.462585;,
 0.659313;0.462585;,
 0.031510;0.141350;,
 0.031510;0.141350;;
 }
}
Frame frm-engine-nib {
  FrameTransformMatrix {
1.000000,0.000000,0.000000,0.000000,
0.000000,1.000000,0.000000,0.000000,
0.000000,0.000000,1.000000,0.000000,
0.000000,-2.788176,-1.856979,1.000000;;
 }
Mesh engine-nib {
 16;
 -0.155973;3.611958;3.594686;,
 -0.155411;2.478156;3.561258;,
 -0.166359;3.131770;4.212455;,
 -0.166359;3.131770;4.212455;,
 0.155973;3.611958;3.594686;,
 0.155411;2.478156;3.561258;,
 0.166359;3.131770;4.212455;,
 0.166359;3.131770;4.212455;,
 0.166359;3.131770;4.212455;,
 0.155411;2.478156;3.561258;,
 0.163036;3.129964;4.014781;,
 0.155973;3.611958;3.594686;,
 -0.166359;3.131770;4.212455;,
 -0.155411;2.478156;3.561258;,
 -0.163036;3.129964;4.014781;,
 -0.155973;3.611958;3.594686;;

 4;
 4;7,4,0,3;,
 4;6,5,10,11;,
 4;15,14,1,2;,
 4;9,8,12,13;;

 MeshMaterialList {
  2;
  4;
  0,
  1,
  1,
  0;
Material {
 1.000000;1.000000;1.000000;1.000000;;
 50.000000;
 1.000000;1.000000;1.000000;;
 0.0; 0.0; 0.0;;
 TextureFilename {
  "cap103.ppm";
 }
 }
Material {
 1.000000;1.000000;1.000000;1.000000;;
 50.000000;
 1.000000;1.000000;1.000000;;
 0.0; 0.0; 0.0;;
 TextureFilename {
  "cap103.ppm";
 }
 }
}
 MeshNormals {
  16;
  -0.710499;0.577163;0.402585;,
  -0.711114;-0.518017;0.475369;,
  -0.593231;0.049327;0.803520;,
  -0.593231;0.049327;0.803520;,
  0.710499;0.577163;0.402585;,
  0.711114;-0.518017;0.475369;,
  0.593231;0.049327;0.803520;,
  0.593231;0.049327;0.803520;,
  0.593231;0.049327;0.803520;,
  0.711114;-0.518017;0.475369;,
  0.999859;0.000000;-0.016809;,
  0.710499;0.577163;0.402585;,
  -0.593231;0.049327;0.803520;,
  -0.711114;-0.518017;0.475369;,
  -0.999859;0.000000;-0.016809;,
  -0.710499;0.577163;0.402585;;

  4;
  4;7,4,0,3;,
  4;6,5,10,11;,
  4;15,14,1,2;,
  4;9,8,12,13;;
 }
 MeshTextureCoords { 
 16;
 0.273067;0.790992;,
 0.782227;0.364258;,
 0.760742;0.295898;,
 0.271611;0.852675;,
 0.316777;0.790992;,
 0.782227;0.364258;,
 0.760742;0.295898;,
 0.318233;0.852675;,
 0.318233;0.852675;,
 0.316698;0.936635;,
 0.778320;0.299805;,
 0.799805;0.262695;,
 0.271611;0.852675;,
 0.273145;0.936635;,
 0.778320;0.299805;,
 0.799805;0.262695;;
 }
}
}
Frame frm-extru2_1 {
  FrameTransformMatrix {
1.000000,0.000000,0.000000,0.000000,
0.000000,0.217100,-0.976149,0.000000,
0.000000,0.976149,0.217100,0.000000,
0.000000,0.262966,-3.783030,1.000000;;
 }
Mesh extru2_1 {
 32;
 -0.392253;0.917706;0.181791;,
 -0.392253;0.917706;0.181791;,
 0.392253;0.917706;0.181791;,
 0.392253;0.917706;0.181791;,
 0.392253;0.917706;0.181791;,
 -0.427539;0.959211;0.097636;,
 -0.427539;0.959211;0.097636;,
 0.427539;0.959211;0.097636;,
 0.427539;0.959211;0.097636;,
 0.000000;0.116736;0.152474;,
 0.000000;0.111522;0.201786;,
 0.000000;0.111522;0.201786;,
 0.000000;0.111522;0.201786;,
 -0.107312;1.798408;0.027272;,
 -0.107312;1.798408;0.027272;,
 -0.513107;0.767173;0.362327;,
 0.513107;0.767173;0.362327;,
 0.107312;1.798408;0.027272;,
 0.204740;0.238279;0.184520;,
 -0.204740;0.238279;0.184520;,
 0.107312;1.798408;0.027272;,
 0.513107;0.767173;0.362327;,
 -0.513107;0.767173;0.362327;,
 -0.107312;1.798408;0.027272;,
 0.000000;0.111522;0.201786;,
 0.000000;0.116736;0.152474;,
 0.000000;1.784577;0.002728;,
 0.000000;1.784577;-0.026729;,
 0.427539;0.959211;0.097636;,
 -0.427539;0.959211;0.097636;,
 0.392253;0.917706;0.181791;,
 -0.392253;0.917706;0.181791;;

 20;
 3;27,14,26;,
 3;6,1,13;,
 3;5,15,0;,
 4;31,19,12,26;,
 3;9,18,11;,
 4;26,10,18,4;,
 3;8,3,16;,
 3;7,17,2;,
 3;31,22,19;,
 3;28,21,18;,
 3;24,19,25;,
 3;26,20,27;,
 3;19,22,29;,
 3;18,21,30;,
 3;30,20,26;,
 3;27,20,28;,
 3;29,23,27;,
 3;26,23,31;,
 4;28,18,25,27;,
 4;27,25,19,29;;

 MeshMaterialList {
  1;
  20;
  0,
  0,
  0,
  0,
  0,
  0,
  0,
  0,
  0,
  0,
  0,
  0,
  0,
  0,
  0,
  0,
  0,
  0,
  0,
  0;
Material {
 1.000000;1.000000;1.000000;1.000000;;
 50.000000;
 1.000000;1.000000;1.000000;;
 0.0; 0.0; 0.0;;
 TextureFilename {
  "cap103.ppm";
 }
 }
}
 MeshNormals {
  32;
  0.009038;0.398448;0.917147;,
  0.009038;0.398448;0.917147;,
  -0.009038;0.398447;0.917147;,
  -0.009038;0.398447;0.917147;,
  -0.009038;0.398447;0.917147;,
  -0.832930;0.280469;-0.477037;,
  -0.832930;0.280469;-0.477037;,
  0.832931;0.280469;-0.477036;,
  0.832931;0.280469;-0.477036;,
  0.000000;-0.667748;-0.744387;,
  0.000000;-0.639402;0.768873;,
  0.000000;-0.639402;0.768873;,
  0.000000;-0.639402;0.768873;,
  -0.471131;0.825017;0.312062;,
  -0.471131;0.825017;0.312062;,
  -0.330593;0.683144;0.651171;,
  0.330592;0.683143;0.651172;,
  0.471131;0.825017;0.312063;,
  0.523058;-0.852272;0.006549;,
  -0.523058;-0.852272;0.006549;,
  0.471131;0.825017;0.312063;,
  0.330592;0.683143;0.651172;,
  -0.330593;0.683144;0.651171;,
  -0.471131;0.825017;0.312062;,
  0.000000;-0.639402;0.768873;,
  0.000000;-0.667748;-0.744387;,
  -0.000000;0.514453;0.857519;,
  0.000000;0.436510;-0.899700;,
  0.832931;0.280469;-0.477036;,
  -0.832930;0.280469;-0.477037;,
  -0.009038;0.398447;0.917147;,
  0.009038;0.398448;0.917147;;

  20;
  3;27,14,26;,
  3;6,1,13;,
  3;5,15,0;,
  4;31,19,12,26;,
  3;9,18,11;,
  4;26,10,18,4;,
  3;8,3,16;,
  3;7,17,2;,
  3;31,22,19;,
  3;28,21,18;,
  3;24,19,25;,
  3;26,20,27;,
  3;19,22,29;,
  3;18,21,30;,
  3;30,20,26;,
  3;27,20,28;,
  3;29,23,27;,
  3;26,23,31;,
  4;28,18,25,27;,
  4;27,25,19,29;;
 }
 MeshTextureCoords { 
 32;
 0.751670;0.354592;,
 0.751670;0.354592;,
 0.753572;0.335849;,
 0.751670;0.354592;,
 0.620117;0.700195;,
 0.753572;0.335849;,
 0.753572;0.335849;,
 0.751670;0.354592;,
 0.753572;0.335849;,
 0.698242;0.836914;,
 0.698242;0.834961;,
 0.698242;0.834961;,
 0.698242;0.834961;,
 0.844814;0.281296;,
 0.715820;0.551758;,
 0.670093;0.371027;,
 0.670093;0.371027;,
 0.844814;0.281296;,
 0.669596;0.816732;,
 0.724284;0.816732;,
 0.678711;0.553711;,
 0.606445;0.719727;,
 0.788086;0.719727;,
 0.715820;0.551758;,
 0.698242;0.836914;,
 0.698242;0.834961;,
 0.696289;0.557617;,
 0.696289;0.557617;,
 0.620117;0.700195;,
 0.772461;0.696289;,
 0.620117;0.700195;,
 0.772461;0.696289;;
 }
}
}
Frame frm-cube3 {
  FrameTransformMatrix {
1.000000,0.000000,0.000000,0.000000,
0.000000,0.971802,0.235800,0.000000,
0.000000,-0.235800,0.971802,0.000000,
0.000000,0.938756,1.531854,1.000000;;
 }
Mesh cube3 {
 8;
 0.091236;-0.343718;-0.600896;,
 0.250200;0.014052;0.297467;,
 0.183206;-0.420130;-0.724736;,
 0.450000;-0.164148;0.168587;,
 -0.091236;-0.343718;-0.600896;,
 -0.250200;0.014052;0.297467;,
 -0.183206;-0.420130;-0.724736;,
 -0.450000;-0.164148;0.168587;;

 5;
 4;5,4,6,7;,
 4;4,0,2,6;,
 4;0,1,3,2;,
 4;1,5,7,3;,
 4;1,0,4,5;;

 MeshMaterialList {
  1;
  5;
  0,
  0,
  0,
  0,
  0;
Material {
 1.000000;1.000000;1.000000;1.000000;;
 50.000000;
 1.000000;1.000000;1.000000;;
 0.0; 0.0; 0.0;;
 TextureFilename {
  "cap103.ppm";
 }
 }
}
 MeshNormals {
  8;
  0.135736;0.890414;-0.434441;,
  0.317429;0.947676;0.033893;,
  0.203923;0.862376;-0.463382;,
  0.626097;0.390256;0.675058;,
  -0.135736;0.890414;-0.434441;,
  -0.317429;0.947676;0.033893;,
  -0.203923;0.862376;-0.463382;,
  -0.626097;0.390256;0.675058;;

  5;
  4;5,4,6,7;,
  4;4,0,2,6;,
  4;0,1,3,2;,
  4;1,5,7,3;,
  4;1,0,4,5;;
 }
 MeshTextureCoords { 
 8;
 0.170563;0.572049;,
 0.195500;0.703254;,
 0.184991;0.553962;,
 0.226844;0.684431;,
 0.141937;0.572049;,
 0.117000;0.703254;,
 0.127510;0.553962;,
 0.085656;0.684431;;
 }
}
}
Frame frm-null1 {
  FrameTransformMatrix {
1.000000,0.000000,0.000000,0.000000,
0.000000,1.000000,0.000000,0.000000,
0.000000,0.000000,1.000000,0.000000,
0.000000,-0.310433,0.596694,1.000000;;
 }
Frame frm-cyl1 {
  FrameTransformMatrix {
0.847060,-0.341700,0.407100,0.000000,
0.200819,-0.503411,-0.840386,0.000000,
0.492099,0.793611,-0.357800,0.000000,
0.365424,0.235466,1.308744,1.000000;;
 }
Mesh cyl1 {
 32;
 -0.053137;0.473282;0.092037;,
 -0.106275;0.473282;0.000000;,
 -0.106275;0.473282;0.000000;,
 0.053138;0.473282;0.092037;,
 0.106275;0.473282;0.000000;,
 0.053138;0.473282;-0.092037;,
 -0.053137;0.473282;-0.092037;,
 -0.053137;0.473282;-0.092037;,
 -0.053137;0.473282;-0.092037;,
 0.053138;0.473282;-0.092037;,
 0.106275;0.473282;0.000000;,
 0.053138;0.473282;0.092037;,
 -0.106275;0.473282;0.000000;,
 -0.053137;0.473282;0.092037;,
 -0.075434;0.213541;-0.130655;,
 0.150868;0.213541;0.000000;,
 0.075434;0.213541;-0.130655;,
 0.075434;0.213541;0.130656;,
 -0.150868;0.213541;0.000000;,
 -0.075434;0.213541;0.130656;,
 0.115696;0.161975;-0.200392;,
 0.115696;0.011922;-0.200392;,
 -0.115696;0.161975;-0.200392;,
 -0.115696;-0.010107;-0.200392;,
 -0.231393;0.161975;0.000000;,
 -0.231393;-0.065567;0.000000;,
 -0.115696;0.161975;0.200392;,
 -0.115696;-0.088373;0.200392;,
 0.115696;0.161975;0.200392;,
 0.115696;-0.057015;0.200392;,
 0.231393;0.161975;0.000000;,
 0.231393;-0.002073;0.000000;;

 19;
 4;2,7,14,18;,
 4;30,28,29,31;,
 6;6,1,0,3,4,5;,
 4;28,26,27,29;,
 4;26,24,25,27;,
 4;24,22,23,25;,
 4;22,20,21,23;,
 4;20,30,31,21;,
 4;19,18,24,26;,
 4;17,19,26,28;,
 4;16,15,30,20;,
 4;14,16,20,22;,
 4;18,14,22,24;,
 4;15,17,28,30;,
 4;13,12,18,19;,
 4;11,13,19,17;,
 4;10,11,17,15;,
 4;9,10,15,16;,
 4;8,9,16,14;;

 MeshMaterialList {
  2;
  19;
  0,
  0,
  1,
  0,
  0,
  0,
  0,
  0,
  0,
  0,
  0,
  0,
  0,
  0,
  0,
  0,
  0,
  0,
  0;
Material {
 1.000000;1.000000;1.000000;1.000000;;
 50.000000;
 1.000000;1.000000;1.000000;;
 0.0; 0.0; 0.0;;
 TextureFilename {
  "cap103.ppm";
 }
 }
Material {
 1.000000;1.000000;1.000000;1.000000;;
 50.000000;
 1.000000;1.000000;1.000000;;
 0.0; 0.0; 0.0;;
 TextureFilename {
  "cap103.ppm";
 }
 }
}
 MeshNormals {
  32;
  -0.413656;0.561743;0.716473;,
  -0.827312;0.561743;0.000000;,
  -0.827312;0.561743;0.000000;,
  0.413656;0.561743;0.716473;,
  0.827312;0.561743;0.000000;,
  0.413656;0.561743;-0.716473;,
  -0.413656;0.561743;-0.716473;,
  -0.413656;0.561743;-0.716473;,
  -0.413656;0.561743;-0.716473;,
  0.413656;0.561743;-0.716473;,
  0.827312;0.561743;0.000000;,
  0.413656;0.561743;0.716473;,
  -0.827312;0.561743;0.000000;,
  -0.413656;0.561743;0.716473;,
  -0.382162;0.644832;-0.661925;,
  0.764325;0.644832;0.000000;,
  0.382162;0.644832;-0.661924;,
  0.382162;0.644832;0.661925;,
  -0.764325;0.644832;-0.000000;,
  -0.382162;0.644832;0.661925;,
  0.399108;0.602371;-0.691276;,
  0.336598;-0.763310;-0.551416;,
  -0.399108;0.602371;-0.691276;,
  -0.498683;-0.578606;-0.645392;,
  -0.798217;0.602371;-0.000000;,
  -1.000000;0.000000;-0.000000;,
  -0.399108;0.602371;0.691276;,
  -0.500000;-0.000000;0.866025;,
  0.399108;0.602371;0.691276;,
  0.500000;-0.000000;0.866025;,
  0.798217;0.602371;0.000000;,
  0.594663;-0.790752;-0.145216;;

  19;
  4;2,7,14,18;,
  4;30,28,29,31;,
  6;6,1,0,3,4,5;,
  4;28,26,27,29;,
  4;26,24,25,27;,
  4;24,22,23,25;,
  4;22,20,21,23;,
  4;20,30,31,21;,
  4;19,18,24,26;,
  4;17,19,26,28;,
  4;16,15,30,20;,
  4;14,16,20,22;,
  4;18,14,22,24;,
  4;15,17,28,30;,
  4;13,12,18,19;,
  4;11,13,19,17;,
  4;10,11,17,15;,
  4;9,10,15,16;,
  4;8,9,16,14;;
 }
 MeshTextureCoords { 
 32;
 0.524208;0.873186;,
 0.495681;0.929688;,
 0.882793;0.905080;,
 0.581261;0.873186;,
 0.609788;0.929688;,
 0.581261;0.986189;,
 0.524208;0.986189;,
 0.882503;0.918972;,
 0.882503;0.918972;,
 0.881922;0.946758;,
 0.881632;0.960651;,
 0.881922;0.946758;,
 0.882793;0.905080;,
 0.882502;0.918972;,
 0.773360;0.910862;,
 0.772125;0.970028;,
 0.772537;0.950306;,
 0.772537;0.950306;,
 0.773772;0.891140;,
 0.773360;0.910862;,
 0.750625;0.960380;,
 0.687503;0.959062;,
 0.751888;0.899882;,
 0.679499;0.898371;,
 0.752519;0.869634;,
 0.656800;0.867635;,
 0.751888;0.899882;,
 0.646575;0.897684;,
 0.750625;0.960380;,
 0.658503;0.958457;,
 0.749993;0.990629;,
 0.680984;0.989188;;
 }
}
}
Frame frm-l-t-engine4 {
  FrameTransformMatrix {
0.999838,-0.018000,-0.000600,0.000000,
0.000611,0.000589,1.000000,0.000000,
-0.018000,-0.999838,0.000600,0.000000,
0.451266,0.931578,1.335315,1.000000;;
 }
Mesh l-t-engine4 {
 43;
 -0.071776;-0.751384;0.089109;,
 0.071776;-0.751384;0.089109;,
 -0.119230;-0.751384;-0.006585;,
 -0.119230;-0.751384;-0.006585;,
 0.119229;-0.751384;-0.006585;,
 0.119229;-0.751384;-0.006585;,
 0.071776;-0.751384;-0.101249;,
 -0.071776;-0.751384;-0.101249;,
 -0.000000;-0.751384;0.120452;,
 -0.000000;-0.751384;-0.136861;,
 -0.000000;-0.201793;0.269715;,
 -0.000000;0.031076;0.269715;,
 -0.000000;0.031076;-0.286125;,
 -0.000000;-0.201793;-0.286125;,
 -0.000000;-0.290193;-0.221091;,
 -0.000000;-0.290193;0.204682;,
 -0.000000;-0.751384;-0.136861;,
 -0.000000;-0.751384;0.120452;,
 -0.000000;0.126876;0.080521;,
 -0.071776;-0.751384;-0.101249;,
 0.071776;-0.751384;-0.101249;,
 0.119229;-0.751384;-0.006585;,
 -0.119230;-0.751384;-0.006585;,
 0.071776;-0.751384;0.089109;,
 -0.071776;-0.751384;0.089109;,
 0.118767;-0.290193;0.151422;,
 -0.118767;-0.290193;0.151422;,
 -0.197288;-0.290193;-0.006585;,
 0.197287;-0.290193;-0.006585;,
 -0.118767;-0.290193;-0.163561;,
 0.118767;-0.290193;-0.163561;,
 -0.155048;0.031076;-0.211672;,
 -0.155048;-0.201793;-0.211672;,
 -0.257555;0.031076;-0.006585;,
 -0.257555;-0.201793;-0.006585;,
 -0.155049;0.031076;0.199533;,
 -0.155049;-0.201793;0.199533;,
 0.155048;0.031076;0.199533;,
 0.155048;-0.201793;0.199533;,
 0.257556;0.031076;-0.006585;,
 0.257556;-0.201793;-0.006585;,
 0.155048;-0.201793;-0.211672;,
 0.155048;0.031076;-0.211672;;

 29;
 5;5,1,8,0,3;,
 4;39,37,38,40;,
 3;37,39,18;,
 4;11,35,36,10;,
 4;35,33,34,36;,
 5;2,7,9,6,4;,
 4;33,31,32,34;,
 4;19,22,27,29;,
 4;12,42,41,13;,
 4;42,39,40,41;,
 4;14,29,32,13;,
 4;28,30,41,40;,
 4;29,27,34,32;,
 4;15,25,38,10;,
 4;27,26,36,34;,
 4;25,28,40,38;,
 4;17,23,25,15;,
 4;22,24,26,27;,
 4;23,21,28,25;,
 4;16,19,29,14;,
 4;21,20,30,28;,
 3;18,33,35;,
 4;35,11,37,18;,
 4;15,26,24,17;,
 4;10,36,26,15;,
 4;10,38,37,11;,
 4;14,30,20,16;,
 4;13,41,30,14;,
 4;13,32,31,12;;

 MeshMaterialList {
  2;
  29;
  0,
  1,
  1,
  1,
  1,
  0,
  1,
  1,
  1,
  1,
  1,
  1,
  1,
  1,
  1,
  1,
  1,
  1,
  1,
  1,
  1,
  1,
  1,
  1,
  1,
  1,
  1,
  1,
  1;
Material {
 1.000000;1.000000;1.000000;1.000000;;
 50.000000;
 1.000000;1.000000;1.000000;;
 0.0; 0.0; 0.0;;
 TextureFilename {
  "cap103.ppm";
 }
 }
Material {
 1.000000;1.000000;1.000000;1.000000;;
 50.000000;
 1.000000;1.000000;1.000000;;
 0.0; 0.0; 0.0;;
 TextureFilename {
  "cap103.ppm";
 }
 }
}
 MeshNormals {
  43;
  -0.573391;-0.559886;0.598123;,
  0.573391;-0.559886;0.598123;,
  -0.645414;-0.763832;-0.001051;,
  -0.645414;-0.763832;-0.001051;,
  0.645414;-0.763832;-0.001051;,
  0.645414;-0.763832;-0.001051;,
  0.583781;-0.558910;-0.588914;,
  -0.583780;-0.558910;-0.588914;,
  0.000000;-0.567737;0.823210;,
  -0.000000;-0.569123;-0.822253;,
  -0.000000;-0.315684;0.948864;,
  -0.000000;0.341947;0.939719;,
  0.000000;-0.000000;-1.000000;,
  0.000000;-0.318102;-0.948056;,
  0.000000;-0.401335;-0.915931;,
  0.000000;-0.397480;0.917611;,
  -0.000000;-0.569123;-0.822253;,
  0.000000;-0.567737;0.823210;,
  -0.000000;0.953287;0.302067;,
  -0.583780;-0.558910;-0.588914;,
  0.583781;-0.558910;-0.588914;,
  0.645414;-0.763832;-0.001051;,
  -0.645414;-0.763832;-0.001051;,
  0.573391;-0.559886;0.598123;,
  -0.573391;-0.559886;0.598123;,
  0.643902;-0.374047;0.667442;,
  -0.643902;-0.374047;0.667442;,
  -0.926312;-0.376754;-0.001296;,
  0.926312;-0.376754;-0.001295;,
  -0.654033;-0.371572;-0.658920;,
  0.654033;-0.371572;-0.658920;,
  -0.701487;-0.000000;-0.712683;,
  -0.671918;-0.294519;-0.679548;,
  -0.934261;0.348252;0.076668;,
  -0.954079;-0.299554;-0.001013;,
  -0.540948;0.552684;0.633969;,
  -0.664221;-0.296121;0.686384;,
  0.540948;0.552684;0.633969;,
  0.664221;-0.296121;0.686384;,
  0.934261;0.348252;0.076668;,
  0.954079;-0.299554;-0.001012;,
  0.671918;-0.294519;-0.679547;,
  0.701487;-0.000000;-0.712682;;

  29;
  5;5,1,8,0,3;,
  4;39,37,38,40;,
  3;37,39,18;,
  4;11,35,36,10;,
  4;35,33,34,36;,
  5;2,7,9,6,4;,
  4;33,31,32,34;,
  4;19,22,27,29;,
  4;12,42,41,13;,
  4;42,39,40,41;,
  4;14,29,32,13;,
  4;28,30,41,40;,
  4;29,27,34,32;,
  4;15,25,38,10;,
  4;27,26,36,34;,
  4;25,28,40,38;,
  4;17,23,25,15;,
  4;22,24,26,27;,
  4;23,21,28,25;,
  4;16,19,29,14;,
  4;21,20,30,28;,
  3;18,33,35;,
  4;35,11,37,18;,
  4;15,26,24,17;,
  4;10,36,26,15;,
  4;10,38,37,11;,
  4;14,30,20,16;,
  4;13,41,30,14;,
  4;13,32,31,12;;
 }
 MeshTextureCoords { 
 43;
 0.518101;0.976841;,
 0.591274;0.976841;,
 0.493913;0.930494;,
 0.493913;0.930494;,
 0.615462;0.930494;,
 0.615462;0.930494;,
 0.591274;0.884645;,
 0.518101;0.884645;,
 0.554687;0.992021;,
 0.554687;0.867397;,
 0.725750;0.859224;,
 0.667014;0.858999;,
 0.665395;0.985293;,
 0.724131;0.985518;,
 0.746618;0.970827;,
 0.747858;0.874086;,
 0.863188;0.952135;,
 0.863938;0.893670;,
 0.642300;0.901893;,
 0.863292;0.944044;,
 0.863292;0.944044;,
 0.863568;0.922535;,
 0.863568;0.922535;,
 0.863846;0.900792;,
 0.863846;0.900792;,
 0.747703;0.886187;,
 0.747703;0.886187;,
 0.747242;0.922088;,
 0.747242;0.922088;,
 0.746785;0.957756;,
 0.746785;0.957756;,
 0.665612;0.968376;,
 0.724348;0.968601;,
 0.666210;0.921778;,
 0.724946;0.922003;,
 0.666810;0.874945;,
 0.725546;0.875170;,
 0.666810;0.874945;,
 0.725546;0.875170;,
 0.666210;0.921778;,
 0.724946;0.922003;,
 0.724348;0.968601;,
 0.665612;0.968376;;
 }
}
}
Frame frm-l-t-engine7 {
  FrameTransformMatrix {
-0.999838,-0.018000,-0.000600,0.000000,
-0.000611,0.000589,1.000000,0.000000,
-0.018000,0.999838,-0.000600,0.000000,
-0.451266,0.931578,1.335315,1.000000;;
 }
Mesh l-t-engine7 {
 43;
 -0.071776;-0.751384;-0.089109;,
 0.071776;-0.751384;-0.089109;,
 -0.119230;-0.751384;0.006585;,
 -0.119230;-0.751384;0.006585;,
 0.119229;-0.751384;0.006585;,
 0.119229;-0.751384;0.006585;,
 0.071776;-0.751384;0.101249;,
 -0.071776;-0.751384;0.101249;,
 -0.000000;-0.751384;-0.120452;,
 -0.000000;-0.751384;0.136861;,
 -0.000000;-0.201793;-0.269715;,
 -0.000000;0.031076;-0.269715;,
 -0.000000;0.031076;0.286125;,
 -0.000000;-0.201793;0.286125;,
 -0.000000;-0.290193;0.221091;,
 -0.000000;-0.290193;-0.204682;,
 -0.000000;-0.751384;0.136861;,
 -0.000000;-0.751384;-0.120452;,
 -0.000000;0.126876;-0.080521;,
 -0.071776;-0.751384;0.101249;,
 0.071776;-0.751384;0.101249;,
 0.119229;-0.751384;0.006585;,
 -0.119230;-0.751384;0.006585;,
 0.071776;-0.751384;-0.089109;,
 -0.071776;-0.751384;-0.089109;,
 0.118767;-0.290193;-0.151422;,
 -0.118767;-0.290193;-0.151422;,
 -0.197288;-0.290193;0.006585;,
 0.197287;-0.290193;0.006585;,
 -0.118767;-0.290193;0.163561;,
 0.118767;-0.290193;0.163561;,
 -0.155048;0.031076;0.211672;,
 -0.155048;-0.201793;0.211672;,
 -0.257555;0.031076;0.006585;,
 -0.257555;-0.201793;0.006585;,
 -0.155049;0.031076;-0.199533;,
 -0.155049;-0.201793;-0.199533;,
 0.155048;0.031076;-0.199533;,
 0.155048;-0.201793;-0.199533;,
 0.257556;0.031076;0.006585;,
 0.257556;-0.201793;0.006585;,
 0.155048;-0.201793;0.211672;,
 0.155048;0.031076;0.211672;;

 29;
 5;3,0,8,1,5;,
 4;40,38,37,39;,
 3;18,39,37;,
 4;10,36,35,11;,
 4;36,34,33,35;,
 5;4,6,9,7,2;,
 4;34,32,31,33;,
 4;29,27,22,19;,
 4;13,41,42,12;,
 4;41,40,39,42;,
 4;13,32,29,14;,
 4;40,41,30,28;,
 4;32,34,27,29;,
 4;10,38,25,15;,
 4;34,36,26,27;,
 4;38,40,28,25;,
 4;15,25,23,17;,
 4;27,26,24,22;,
 4;25,28,21,23;,
 4;14,29,19,16;,
 4;28,30,20,21;,
 3;35,33,18;,
 4;18,37,11,35;,
 4;17,24,26,15;,
 4;15,26,36,10;,
 4;11,37,38,10;,
 4;16,20,30,14;,
 4;14,30,41,13;,
 4;12,31,32,13;;

 MeshMaterialList {
  2;
  29;
  0,
  1,
  1,
  1,
  1,
  0,
  1,
  1,
  1,
  1,
  1,
  1,
  1,
  1,
  1,
  1,
  1,
  1,
  1,
  1,
  1,
  1,
  1,
  1,
  1,
  1,
  1,
  1,
  1;
Material {
 1.000000;1.000000;1.000000;1.000000;;
 50.000000;
 1.000000;1.000000;1.000000;;
 0.0; 0.0; 0.0;;
 TextureFilename {
  "cap103.ppm";
 }
 }
Material {
 1.000000;1.000000;1.000000;1.000000;;
 50.000000;
 1.000000;1.000000;1.000000;;
 0.0; 0.0; 0.0;;
 TextureFilename {
  "cap103.ppm";
 }
 }
}
 MeshNormals {
  43;
  -0.573391;-0.559886;-0.598123;,
  0.573391;-0.559886;-0.598123;,
  -0.645414;-0.763832;0.001051;,
  -0.645414;-0.763832;0.001051;,
  0.645414;-0.763832;0.001051;,
  0.645414;-0.763832;0.001051;,
  0.583781;-0.558910;0.588914;,
  -0.583780;-0.558910;0.588914;,
  0.000000;-0.567737;-0.823210;,
  -0.000000;-0.569123;0.822253;,
  -0.000000;-0.315684;-0.948864;,
  -0.000000;0.341947;-0.939719;,
  0.000000;-0.000000;1.000000;,
  0.000000;-0.318102;0.948056;,
  0.000000;-0.401335;0.915931;,
  0.000000;-0.397480;-0.917611;,
  -0.000000;-0.569123;0.822253;,
  0.000000;-0.567737;-0.823210;,
  -0.000000;0.953287;-0.302067;,
  -0.583780;-0.558910;0.588914;,
  0.583781;-0.558910;0.588914;,
  0.645414;-0.763832;0.001051;,
  -0.645414;-0.763832;0.001051;,
  0.573391;-0.559886;-0.598123;,
  -0.573391;-0.559886;-0.598123;,
  0.643902;-0.374047;-0.667442;,
  -0.643902;-0.374047;-0.667442;,
  -0.926312;-0.376754;0.001296;,
  0.926312;-0.376754;0.001295;,
  -0.654033;-0.371572;0.658920;,
  0.654033;-0.371572;0.658920;,
  -0.701487;-0.000000;0.712683;,
  -0.671918;-0.294519;0.679548;,
  -0.934261;0.348252;-0.076668;,
  -0.954079;-0.299554;0.001013;,
  -0.540948;0.552684;-0.633969;,
  -0.664221;-0.296121;-0.686384;,
  0.540948;0.552684;-0.633969;,
  0.664221;-0.296121;-0.686384;,
  0.934261;0.348252;-0.076668;,
  0.954079;-0.299554;0.001012;,
  0.671918;-0.294519;0.679547;,
  0.701487;-0.000000;0.712682;;

  29;
  5;3,0,8,1,5;,
  4;40,38,37,39;,
  3;18,39,37;,
  4;10,36,35,11;,
  4;36,34,33,35;,
  5;4,6,9,7,2;,
  4;34,32,31,33;,
  4;29,27,22,19;,
  4;13,41,42,12;,
  4;41,40,39,42;,
  4;13,32,29,14;,
  4;40,41,30,28;,
  4;32,34,27,29;,
  4;10,38,25,15;,
  4;34,36,26,27;,
  4;38,40,28,25;,
  4;15,25,23,17;,
  4;27,26,24,22;,
  4;25,28,21,23;,
  4;14,29,19,16;,
  4;28,30,20,21;,
  3;35,33,18;,
  4;18,37,11,35;,
  4;17,24,26,15;,
  4;15,26,36,10;,
  4;11,37,38,10;,
  4;16,20,30,14;,
  4;14,30,41,13;,
  4;12,31,32,13;;
 }
 MeshTextureCoords { 
 43;
 0.518101;0.976841;,
 0.591274;0.976841;,
 0.493913;0.930494;,
 0.493913;0.930494;,
 0.615462;0.930494;,
 0.615462;0.930494;,
 0.591274;0.884645;,
 0.518101;0.884645;,
 0.554687;0.992021;,
 0.554687;0.867397;,
 0.725750;0.859224;,
 0.667014;0.858999;,
 0.665395;0.985293;,
 0.724131;0.985518;,
 0.746618;0.970827;,
 0.747858;0.874086;,
 0.863188;0.952135;,
 0.863938;0.893670;,
 0.642300;0.901893;,
 0.863292;0.944044;,
 0.863292;0.944044;,
 0.863568;0.922535;,
 0.863568;0.922535;,
 0.863846;0.900792;,
 0.863846;0.900792;,
 0.747703;0.886187;,
 0.747703;0.886187;,
 0.747242;0.922088;,
 0.747242;0.922088;,
 0.746785;0.957756;,
 0.746785;0.957756;,
 0.665612;0.968376;,
 0.724348;0.968601;,
 0.666210;0.921778;,
 0.724946;0.922003;,
 0.666810;0.874945;,
 0.725546;0.875170;,
 0.666810;0.874945;,
 0.725546;0.875170;,
 0.666210;0.921778;,
 0.724946;0.922003;,
 0.724348;0.968601;,
 0.665612;0.968376;;
 }
}
}
Frame frm-cyl3 {
  FrameTransformMatrix {
-0.847060,-0.341700,0.407100,0.000000,
-0.200819,-0.503412,-0.840386,0.000000,
0.492099,-0.793611,0.357800,0.000000,
-0.365424,0.235466,1.308744,1.000000;;
 }
Mesh cyl3 {
 32;
 -0.053137;0.473282;-0.092037;,
 -0.106275;0.473282;-0.000000;,
 -0.106275;0.473282;-0.000000;,
 0.053138;0.473282;-0.092037;,
 0.106275;0.473282;-0.000000;,
 0.053138;0.473282;0.092037;,
 -0.053137;0.473282;0.092037;,
 -0.053137;0.473282;0.092037;,
 -0.053137;0.473282;0.092037;,
 0.053138;0.473282;0.092037;,
 0.106275;0.473282;-0.000000;,
 0.053138;0.473282;-0.092037;,
 -0.106275;0.473282;-0.000000;,
 -0.053137;0.473282;-0.092037;,
 -0.075434;0.213541;0.130655;,
 0.150868;0.213541;-0.000000;,
 0.075434;0.213541;0.130655;,
 0.075434;0.213541;-0.130656;,
 -0.150868;0.213541;-0.000000;,
 -0.075434;0.213541;-0.130656;,
 0.115696;0.161975;0.200392;,
 0.115696;0.011922;0.200392;,
 -0.115696;0.161975;0.200392;,
 -0.115696;-0.010107;0.200392;,
 -0.231393;0.161975;-0.000000;,
 -0.231393;-0.065567;-0.000000;,
 -0.115696;0.161975;-0.200392;,
 -0.115696;-0.088373;-0.200392;,
 0.115696;0.161975;-0.200392;,
 0.115696;-0.057015;-0.200392;,
 0.231393;0.161975;-0.000000;,
 0.231393;-0.002073;-0.000000;;

 19;
 4;18,14,7,2;,
 4;31,29,28,30;,
 6;5,4,3,0,1,6;,
 4;29,27,26,28;,
 4;27,25,24,26;,
 4;25,23,22,24;,
 4;23,21,20,22;,
 4;21,31,30,20;,
 4;26,24,18,19;,
 4;28,26,19,17;,
 4;20,30,15,16;,
 4;22,20,16,14;,
 4;24,22,14,18;,
 4;30,28,17,15;,
 4;19,18,12,13;,
 4;17,19,13,11;,
 4;15,17,11,10;,
 4;16,15,10,9;,
 4;14,16,9,8;;

 MeshMaterialList {
  2;
  19;
  0,
  0,
  1,
  0,
  0,
  0,
  0,
  0,
  0,
  0,
  0,
  0,
  0,
  0,
  0,
  0,
  0,
  0,
  0;
Material {
 1.000000;1.000000;1.000000;1.000000;;
 50.000000;
 1.000000;1.000000;1.000000;;
 0.0; 0.0; 0.0;;
 TextureFilename {
  "cap103.ppm";
 }
 }
Material {
 1.000000;1.000000;1.000000;1.000000;;
 50.000000;
 1.000000;1.000000;1.000000;;
 0.0; 0.0; 0.0;;
 TextureFilename {
  "cap103.ppm";
 }
 }
}
 MeshNormals {
  32;
  -0.413656;0.561743;-0.716473;,
  -0.827312;0.561743;-0.000000;,
  -0.827312;0.561743;-0.000000;,
  0.413656;0.561743;-0.716473;,
  0.827312;0.561743;-0.000000;,
  0.413656;0.561743;0.716473;,
  -0.413656;0.561743;0.716473;,
  -0.413656;0.561743;0.716473;,
  -0.413656;0.561743;0.716473;,
  0.413656;0.561743;0.716473;,
  0.827312;0.561743;-0.000000;,
  0.413656;0.561743;-0.716473;,
  -0.827312;0.561743;-0.000000;,
  -0.413656;0.561743;-0.716473;,
  -0.382162;0.644832;0.661925;,
  0.764325;0.644832;-0.000000;,
  0.382162;0.644832;0.661924;,
  0.382162;0.644832;-0.661925;,
  -0.764325;0.644832;0.000000;,
  -0.382162;0.644832;-0.661925;,
  0.399108;0.602371;0.691276;,
  0.336598;-0.763310;0.551416;,
  -0.399108;0.602371;0.691276;,
  -0.498683;-0.578606;0.645392;,
  -0.798217;0.602371;0.000000;,
  -1.000000;0.000000;0.000000;,
  -0.399108;0.602371;-0.691276;,
  -0.500000;-0.000000;-0.866025;,
  0.399108;0.602371;-0.691276;,
  0.500000;-0.000000;-0.866025;,
  0.798217;0.602371;-0.000000;,
  0.594663;-0.790752;0.145216;;

  19;
  4;18,14,7,2;,
  4;31,29,28,30;,
  6;5,4,3,0,1,6;,
  4;29,27,26,28;,
  4;27,25,24,26;,
  4;25,23,22,24;,
  4;23,21,20,22;,
  4;21,31,30,20;,
  4;26,24,18,19;,
  4;28,26,19,17;,
  4;20,30,15,16;,
  4;22,20,16,14;,
  4;24,22,14,18;,
  4;30,28,17,15;,
  4;19,18,12,13;,
  4;17,19,13,11;,
  4;15,17,11,10;,
  4;16,15,10,9;,
  4;14,16,9,8;;
 }
 MeshTextureCoords { 
 32;
 0.524208;0.873186;,
 0.495681;0.929688;,
 0.882793;0.905080;,
 0.581261;0.873186;,
 0.609788;0.929688;,
 0.581261;0.986189;,
 0.524208;0.986189;,
 0.882503;0.918972;,
 0.882503;0.918972;,
 0.881922;0.946758;,
 0.881632;0.960651;,
 0.881922;0.946758;,
 0.882793;0.905080;,
 0.882502;0.918972;,
 0.773360;0.910862;,
 0.772125;0.970028;,
 0.772537;0.950306;,
 0.772537;0.950306;,
 0.773772;0.891140;,
 0.773360;0.910862;,
 0.750625;0.960380;,
 0.687503;0.959062;,
 0.751888;0.899882;,
 0.679499;0.898371;,
 0.752519;0.869634;,
 0.656800;0.867635;,
 0.751888;0.899882;,
 0.646575;0.897684;,
 0.750625;0.960380;,
 0.658503;0.958457;,
 0.749993;0.990629;,
 0.680984;0.989188;;
 }
}
}
}
Frame frm-rt-wing4 {
  FrameTransformMatrix {
0.879662,-0.475600,0.000000,0.000000,
0.475600,0.879662,0.000000,0.000000,
0.000000,0.000000,1.000000,0.000000,
2.552570,0.175510,1.660314,1.000000;;
 }
Mesh rt-wing4 {
 36;
 -0.629648;-0.742201;0.034306;,
 -0.629648;-0.742201;0.034306;,
 -0.629648;-0.742201;0.034306;,
 -0.663319;-0.558745;-0.649571;,
 -0.663319;-0.558745;-0.649571;,
 -0.663319;-0.558745;-0.649571;,
 -0.663319;-0.558745;-0.649571;,
 -0.647979;-1.047558;-0.338011;,
 -0.647979;-1.047558;-0.338011;,
 -0.647979;-1.047558;-0.338011;,
 -0.757541;-0.932266;-0.775036;,
 -0.757541;-0.932266;-0.775036;,
 -0.757541;-0.932266;-0.775036;,
 -0.757541;-0.932266;-0.775036;,
 -1.423619;-1.485397;-0.231033;,
 -1.518452;-1.181739;-0.610840;,
 -1.509379;-0.842850;-0.083785;,
 -1.060924;-1.014928;-0.014211;,
 -1.495758;-1.597535;-0.921305;,
 -0.757541;-0.932266;-0.775036;,
 -0.647979;-1.047558;-0.338011;,
 -1.119331;-0.937161;-0.562123;,
 -0.539457;-0.935763;-0.441826;,
 -0.662706;-0.965742;-1.058377;,
 -0.634423;-0.776318;-1.220977;,
 -0.663319;-0.558745;-0.649571;,
 -0.550418;0.864138;1.893544;,
 -0.548925;-0.616388;-0.590993;,
 -0.604187;0.231182;0.135855;,
 -0.691333;0.231928;0.015442;,
 -0.629648;-0.742201;0.034306;,
 -0.513224;-0.676443;-0.028513;,
 -0.492286;0.474828;1.742433;,
 -0.410001;-0.399424;0.994168;,
 -0.525979;0.494639;1.830114;,
 -0.492685;-0.416296;1.089819;;

 32;
 3;24,27,22;,
 3;28,29,26;,
 3;2,9,31;,
 4;28,27,6,29;,
 3;24,5,27;,
 4;31,33,35,1;,
 4;33,32,34,35;,
 3;32,26,34;,
 3;18,14,15;,
 3;24,13,4;,
 3;8,12,22;,
 3;15,14,16;,
 3;7,22,31;,
 4;28,26,32,33;,
 4;29,3,0,35;,
 4;35,34,26,29;,
 3;21,30,25;,
 4;17,14,20,30;,
 3;18,15,21;,
 3;23,11,24;,
 3;23,22,10;,
 3;28,33,31;,
 3;31,22,27;,
 3;27,28,31;,
 4;14,18,19,20;,
 3;22,23,24;,
 3;25,19,21;,
 3;17,30,21;,
 3;15,16,17;,
 3;16,14,17;,
 3;21,19,18;,
 3;21,15,17;;

 MeshMaterialList {
  2;
  32;
  0,
  0,
  0,
  0,
  0,
  0,
  0,
  0,
  1,
  0,
  0,
  1,
  0,
  0,
  0,
  0,
  1,
  1,
  1,
  0,
  0,
  0,
  0,
  0,
  1,
  0,
  1,
  1,
  1,
  1,
  1,
  1;
Material {
 1.000000;1.000000;1.000000;1.000000;;
 50.000000;
 1.000000;1.000000;1.000000;;
 0.0; 0.0; 0.0;;
 TextureFilename {
  "cap103.ppm";
 }
 }
Material {
 1.000000;1.000000;1.000000;1.000000;;
 50.000000;
 1.000000;1.000000;1.000000;;
 0.0; 0.0; 0.0;;
 TextureFilename {
  "cap103.ppm";
 }
 }
}
 MeshNormals {
  36;
  -0.386522;-0.223771;0.894722;,
  -0.386522;-0.223771;0.894722;,
  -0.386522;-0.223771;0.894722;,
  -0.546304;0.741179;-0.390135;,
  -0.546304;0.741179;-0.390135;,
  -0.546304;0.741179;-0.390135;,
  -0.546304;0.741179;-0.390135;,
  0.637102;-0.743461;0.203388;,
  0.637102;-0.743461;0.203388;,
  0.637102;-0.743461;0.203388;,
  -0.572994;-0.412666;-0.708086;,
  -0.572994;-0.412666;-0.708086;,
  -0.572994;-0.412666;-0.708086;,
  -0.572994;-0.412666;-0.708086;,
  -0.292603;-0.733081;0.613984;,
  -0.754270;0.595541;-0.276418;,
  -0.785765;0.345352;0.513134;,
  -0.227291;0.655456;0.720219;,
  -0.587593;0.126843;-0.799153;,
  -0.572994;-0.412666;-0.708086;,
  0.637102;-0.743461;0.203388;,
  -0.543322;0.773020;-0.327477;,
  0.839978;-0.537909;-0.071347;,
  -0.091248;-0.956870;-0.275814;,
  0.568996;0.442294;-0.693267;,
  -0.546304;0.741179;-0.390135;,
  0.853832;0.520087;0.021923;,
  0.921642;0.305981;-0.238645;,
  0.887170;0.385387;-0.253785;,
  -0.523293;0.739865;-0.422805;,
  -0.386522;-0.223771;0.894722;,
  0.932372;-0.335964;0.133459;,
  0.959657;-0.068238;0.272767;,
  0.953579;-0.268747;0.135873;,
  0.571726;-0.363482;0.735534;,
  -0.341862;-0.789847;0.509188;;

  32;
  3;24,27,22;,
  3;28,29,26;,
  3;2,9,31;,
  4;28,27,6,29;,
  3;24,5,27;,
  4;31,33,35,1;,
  4;33,32,34,35;,
  3;32,26,34;,
  3;18,14,15;,
  3;24,13,4;,
  3;8,12,22;,
  3;15,14,16;,
  3;7,22,31;,
  4;28,26,32,33;,
  4;29,3,0,35;,
  4;35,34,26,29;,
  3;21,30,25;,
  4;17,14,20,30;,
  3;18,15,21;,
  3;23,11,24;,
  3;23,22,10;,
  3;28,33,31;,
  3;31,22,27;,
  3;27,28,31;,
  4;14,18,19,20;,
  3;22,23,24;,
  3;25,19,21;,
  3;17,30,21;,
  3;15,16,17;,
  3;16,14,17;,
  3;21,19,18;,
  3;21,15,17;;
 }
 MeshTextureCoords { 
 36;
 0.649859;0.255756;,
 0.649859;0.255756;,
 0.649859;0.255756;,
 0.525897;0.227340;,
 0.525897;0.227340;,
 0.525897;0.227340;,
 0.525897;0.227340;,
 0.599595;0.307825;,
 0.599595;0.307825;,
 0.599595;0.307825;,
 0.510848;0.283941;,
 0.510848;0.283941;,
 0.510848;0.283941;,
 0.510848;0.283941;,
 0.016602;0.239258;,
 0.028320;0.278320;,
 0.045898;0.215820;,
 0.086914;0.208008;,
 0.002930;0.325195;,
 0.127930;0.305664;,
 0.135623;0.239766;,
 0.088867;0.280273;,
 0.560496;0.296877;,
 0.450756;0.291317;,
 0.426987;0.262585;,
 0.161133;0.288086;,
 0.990593;0.007262;,
 0.537873;0.246443;,
 0.667712;0.102634;,
 0.650328;0.097305;,
 0.153254;0.201243;,
 0.640366;0.256823;,
 0.965663;0.072280;,
 0.829318;0.220412;,
 0.977082;0.067118;,
 0.838934;0.218587;;
 }
}
}
Frame frm-zz_base_1 {
  FrameTransformMatrix {
1.000000,0.000000,0.000000,0.000000,
0.000000,1.000000,0.000000,0.000000,
0.000000,0.000000,1.000000,0.000000,
0.000000,-0.018333,-1.774329,1.000000;;
 }
Mesh zz_base_1 {
 204;
 -1.260806;-1.225260;2.470063;,
 -1.260806;-1.225260;2.470063;,
 -1.260806;-1.225260;2.470063;,
 -1.260806;-1.225260;2.470063;,
 -0.000008;1.891877;3.515840;,
 -0.000008;1.891877;3.515840;,
 0.994930;-1.162611;2.480831;,
 0.994930;-1.162611;2.480831;,
 0.994930;-1.162611;2.480831;,
 0.994930;-1.162611;2.480831;,
 -1.135229;1.162908;2.455293;,
 -1.135229;1.162908;2.455293;,
 -1.135229;1.162908;2.455293;,
 -1.135229;1.162908;2.455293;,
 0.994930;1.163035;2.480831;,
 0.994930;1.163035;2.480831;,
 0.994930;1.163035;2.480831;,
 0.994930;1.163035;2.480831;,
 -1.135228;-1.162885;2.455293;,
 -1.135228;-1.162885;2.455293;,
 -1.135228;-1.162885;2.455293;,
 0.063531;0.654374;2.367373;,
 -0.082807;0.654338;2.358855;,
 0.063531;-0.654191;2.367373;,
 0.063531;-0.654191;2.367373;,
 -0.082807;-0.654269;2.358855;,
 -0.082807;-0.654269;2.358855;,
 -0.123223;-1.808527;3.402312;,
 -0.123223;-1.808527;3.402312;,
 -0.123223;-1.808527;3.402312;,
 -0.123223;-1.808527;3.402312;,
 -0.123223;-1.808527;3.402312;,
 -0.000008;-1.862380;3.515839;,
 0.108570;1.836328;3.433913;,
 0.108570;1.836328;3.433913;,
 0.108570;1.836328;3.433913;,
 0.108570;1.836328;3.433913;,
 0.108570;1.836328;3.433913;,
 -0.123223;1.836111;3.402312;,
 -0.123223;1.836111;3.402312;,
 -0.123223;1.836111;3.402312;,
 -0.123223;1.836111;3.402312;,
 -0.123223;1.836111;3.402312;,
 0.108570;-1.808128;3.433913;,
 0.108570;-1.808128;3.433913;,
 0.108570;-1.808128;3.433913;,
 0.108570;-1.808128;3.433913;,
 0.108570;-1.808128;3.433913;,
 0.467922;0.179487;1.528918;,
 0.467922;0.179487;1.528918;,
 0.467922;-0.179480;1.528918;,
 0.467922;-0.179480;1.528918;,
 -0.469558;0.179487;1.528918;,
 -0.469558;0.179487;1.528918;,
 -0.469558;-0.179480;1.528918;,
 -0.469558;-0.179480;1.528918;,
 -1.462174;-1.459915;3.080133;,
 -1.462174;-1.459915;3.080133;,
 -1.462174;-1.459915;3.080133;,
 1.281469;-1.459571;3.111444;,
 1.281469;-1.459571;3.111444;,
 1.281469;-1.459571;3.111444;,
 -1.462174;1.459943;3.080133;,
 -1.462174;1.459943;3.080133;,
 -1.462174;1.459943;3.080133;,
 1.281469;1.460103;3.111444;,
 1.281469;1.460103;3.111444;,
 1.281469;1.460103;3.111444;,
 -1.519261;-1.506265;3.031931;,
 -1.519261;-1.506265;3.031931;,
 1.331502;-1.505909;3.062777;,
 1.331502;-1.505909;3.062777;,
 1.331502;1.506459;3.062778;,
 1.331502;1.506459;3.062778;,
 -1.519262;1.506295;3.031931;,
 -1.519262;1.506295;3.031931;,
 0.989088;1.282899;2.618195;,
 0.989088;1.282899;2.618195;,
 0.989088;1.282899;2.618195;,
 0.989088;1.282899;2.618195;,
 -1.122582;1.282757;2.586595;,
 -1.122582;1.282757;2.586595;,
 -1.122582;1.282757;2.586595;,
 0.989088;-1.279294;2.618195;,
 0.989088;-1.279294;2.618195;,
 0.989088;-1.279294;2.618195;,
 -1.122582;-1.279593;2.586594;,
 -1.122582;-1.279593;2.586594;,
 -1.122582;-1.279593;2.586594;,
 -1.122582;-1.279593;2.586594;,
 -0.000023;0.591882;0.484813;,
 -0.000023;0.591882;0.484813;,
 -0.000023;0.591882;0.484813;,
 -0.000023;0.591882;0.484813;,
 -1.260806;1.225260;2.470064;,
 -1.260806;1.225260;2.470064;,
 -1.260806;1.225260;2.470064;,
 1.110874;1.225394;2.501664;,
 1.110874;1.225394;2.501664;,
 1.110874;1.225394;2.501664;,
 1.110874;1.225394;2.501664;,
 -0.000023;-0.591882;0.484813;,
 -0.000023;-0.591882;0.484813;,
 -0.000023;-0.591882;0.484813;,
 -0.000023;-0.591882;0.484813;,
 1.110874;-1.224970;2.501664;,
 1.110874;-1.224970;2.501664;,
 1.110874;-1.224970;2.501664;,
 0.361893;0.583608;0.967426;,
 0.361893;0.583608;0.967426;,
 0.361893;0.583608;0.967426;,
 0.361893;0.583608;0.967426;,
 -0.410736;0.583544;0.920786;,
 -0.410736;0.583544;0.920786;,
 -0.410736;0.583544;0.920786;,
 -0.410736;0.583544;0.920786;,
 -0.410736;-0.583544;0.920786;,
 -0.410736;-0.583544;0.920786;,
 -0.410736;-0.583544;0.920786;,
 -0.410736;-0.583544;0.920786;,
 0.361893;-0.583406;0.967426;,
 0.361893;-0.583406;0.967426;,
 0.361893;-0.583406;0.967426;,
 0.361893;-0.583406;0.967426;,
 0.256227;-0.414228;1.700396;,
 0.256227;-0.414228;1.700396;,
 0.256227;-0.414228;1.700396;,
 0.256227;-0.414228;1.700396;,
 0.256227;-0.414228;1.700396;,
 0.256227;-0.414228;1.700396;,
 -0.292358;-0.414326;1.683361;,
 -0.292358;-0.414326;1.683361;,
 -0.292358;-0.414326;1.683361;,
 -0.292358;-0.414326;1.683361;,
 -0.292358;-0.414326;1.683361;,
 -0.292358;-0.414326;1.683361;,
 -0.292358;0.414334;1.683361;,
 -0.292358;0.414334;1.683361;,
 -0.292358;0.414334;1.683361;,
 -0.292358;0.414334;1.683361;,
 -0.292358;0.414334;1.683361;,
 -0.292358;0.414334;1.683361;,
 0.256227;0.414379;1.700396;,
 0.256227;0.414379;1.700396;,
 0.256227;0.414379;1.700396;,
 0.256227;0.414379;1.700396;,
 0.256227;0.414379;1.700396;,
 0.256227;0.414379;1.700396;,
 0.256227;0.414379;1.700396;,
 -0.292358;0.414334;1.683361;,
 -0.292358;-0.414326;1.683361;,
 0.256227;-0.414228;1.700396;,
 -0.000000;-0.388004;-0.784483;,
 0.391730;0.064278;-0.762647;,
 -0.000000;0.240330;-0.757277;,
 0.361893;-0.583406;0.967426;,
 -0.410736;-0.583544;0.920786;,
 -0.410736;0.583544;0.920786;,
 0.361893;0.583608;0.967426;,
 -0.609321;-0.252785;0.574890;,
 -0.609321;0.252785;0.574890;,
 0.609321;0.252785;0.574891;,
 0.609321;-0.252785;0.574890;,
 0.438385;-0.202227;-0.768462;,
 -0.391731;0.064278;-0.762647;,
 1.110874;-1.224970;2.501664;,
 -0.000023;-0.591882;0.484813;,
 1.110874;1.225394;2.501664;,
 -1.260806;1.225260;2.470064;,
 -0.000023;0.591882;0.484813;,
 -0.000064;1.395934;2.409034;,
 -0.000051;-1.395934;2.409034;,
 -1.122582;-1.279593;2.586594;,
 0.989088;-1.279294;2.618195;,
 -1.122582;1.282757;2.586595;,
 0.989088;1.282899;2.618195;,
 -1.519262;1.506295;3.031931;,
 1.331502;1.506459;3.062778;,
 1.331502;-1.505909;3.062777;,
 -1.519261;-1.506265;3.031931;,
 1.281469;1.460103;3.111444;,
 -1.462174;1.459943;3.080133;,
 1.281469;-1.459571;3.111444;,
 -1.462174;-1.459915;3.080133;,
 -0.469558;-0.179480;1.528918;,
 -0.469558;0.179487;1.528918;,
 0.467922;-0.179480;1.528918;,
 0.467922;0.179487;1.528918;,
 0.108570;-1.808128;3.433913;,
 -0.123223;1.836111;3.402312;,
 0.108570;1.836328;3.433913;,
 -0.000008;-1.862380;3.515839;,
 -0.123223;-1.808527;3.402312;,
 -0.082807;-0.654269;2.358855;,
 0.063531;-0.654191;2.367373;,
 -0.082807;0.654338;2.358855;,
 0.063531;0.654374;2.367373;,
 -1.135228;-1.162885;2.455293;,
 0.994930;1.163035;2.480831;,
 -1.135229;1.162908;2.455293;,
 0.994930;-1.162611;2.480831;,
 -0.000008;1.891877;3.515840;,
 -1.260806;-1.225260;2.470063;,
 -0.438385;-0.202227;-0.768462;;

 77;
 3;163,153,161;,
 4;160,159,55,53;,
 3;119,159,203;,
 4;49,51,162,161;,
 3;160,115,164;,
 3;67,79,17;,
 3;111,161,153;,
 3;3,58,20;,
 3;100,73,66;,
 3;153,154,93;,
 3;92,164,114;,
 3;82,75,64;,
 3;57,89,19;,
 3;72,78,65;,
 3;2,69,56;,
 3;74,96,63;,
 3;68,88,183;,
 3;179,1,87;,
 3;9,47,85;,
 3;62,95,13;,
 3;177,99,77;,
 3;61,107,8;,
 3;12,42,81;,
 4;135,118,0,18;,
 3;31,26,134;,
 3;24,46,129;,
 4;25,23,128,133;,
 3;110,153,91;,
 3;163,123,104;,
 3;84,71,60;,
 4;21,22,141,147;,
 3;195,41,140;,
 3;37,196,146;,
 3;30,32,45;,
 3;161,162,163;,
 3;90,154,164;,
 3;98,180,16;,
 3;80,181,11;,
 3;103,152,163;,
 3;83,59,7;,
 8;145,139,52,54,132,127,50,48;,
 3;162,126,122;,
 3;144,187,161;,
 3;131,159,117;,
 3;186,125,162;,
 3;143,161,109;,
 3;130,184,159;,
 3;160,138,113;,
 3;44,6,124;,
 4;36,40,195,196;,
 3;185,137,160;,
 3;70,106,182;,
 3;142,15,35;,
 4;94,112,136,10;,
 3;150,197,29;,
 4;169,157,168,170;,
 4;97,14,148,108;,
 4;151,200,105,121;,
 4;170,167,158,169;,
 4;43,194,193,28;,
 4;171,202,116,102;,
 3;39,199,149;,
 4;101,120,165,171;,
 3;86,27,197;,
 5;191,192,172,202,171;,
 3;76,34,198;,
 5;5,33,175,167,170;,
 5;174,38,4,170,168;,
 3;174,168,176;,
 5;173,188,191,171,165;,
 3;173,165,178;,
 3;201,189,190;,
 3;160,164,203;,
 3;203,159,160;,
 3;162,155,163;,
 3;203,152,166;,
 3;203,166,156;;

 MeshMaterialList {
  4;
  77;
  0,
  0,
  0,
  0,
  0,
  1,
  0,
  2,
  2,
  0,
  0,
  1,
  1,
  1,
  2,
  2,
  1,
  3,
  1,
  2,
  3,
  2,
  1,
  2,
  1,
  1,
  2,
  0,
  0,
  1,
  2,
  1,
  1,
  1,
  0,
  0,
  2,
  1,
  0,
  1,
  3,
  0,
  0,
  0,
  0,
  0,
  0,
  0,
  1,
  1,
  0,
  2,
  1,
  2,
  1,
  3,
  2,
  2,
  3,
  1,
  3,
  1,
  3,
  1,
  3,
  1,
  3,
  3,
  3,
  3,
  3,
  1,
  0,
  0,
  0,
  0,
  0;
Material {
 1.000000;1.000000;1.000000;1.000000;;
 50.000000;
 1.000000;1.000000;1.000000;;
 0.0; 0.0; 0.0;;
 TextureFilename {
  "cap103.ppm";
 }
 }
Material {
 1.000000;1.000000;1.000000;1.000000;;
 50.000000;
 1.000000;1.000000;1.000000;;
 0.0; 0.0; 0.0;;
 TextureFilename {
  "cap103.ppm";
 }
 }
Material {
 1.000000;1.000000;1.000000;1.000000;;
 50.000000;
 1.000000;1.000000;1.000000;;
 0.0; 0.0; 0.0;;
 TextureFilename {
  "cap103.ppm";
 }
 }
Material {
 1.000000;1.000000;1.000000;1.000000;;
 50.000000;
 1.000000;1.000000;1.000000;;
 0.0; 0.0; 0.0;;
 TextureFilename {
  "cap103.ppm";
 }
 }
}
 MeshNormals {
  204;
  -0.896794;-0.121495;-0.425441;,
  -0.896794;-0.121495;-0.425441;,
  -0.896794;-0.121495;-0.425441;,
  -0.896794;-0.121495;-0.425441;,
  -0.026412;0.952051;-0.304798;,
  -0.026412;0.952051;-0.304798;,
  0.201498;0.864199;0.461042;,
  0.201498;0.864199;0.461042;,
  0.201498;0.864199;0.461042;,
  0.201498;0.864199;0.461042;,
  -0.189547;-0.862916;0.468453;,
  -0.189547;-0.862916;0.468453;,
  -0.189547;-0.862916;0.468453;,
  -0.189547;-0.862916;0.468453;,
  0.193975;-0.862247;0.467872;,
  0.193975;-0.862247;0.467872;,
  0.193975;-0.862247;0.467872;,
  0.193975;-0.862247;0.467872;,
  -0.196259;0.864939;0.461913;,
  -0.196259;0.864939;0.461913;,
  -0.196259;0.864939;0.461913;,
  0.285882;-0.771870;0.567881;,
  -0.352115;-0.750917;0.558694;,
  0.282599;0.776348;0.563402;,
  0.282599;0.776348;0.563402;,
  -0.349006;0.755519;0.554424;,
  -0.349006;0.755519;0.554424;,
  -0.353458;0.663751;0.659168;,
  -0.353458;0.663751;0.659168;,
  -0.353458;0.663751;0.659168;,
  -0.353458;0.663751;0.659168;,
  -0.353458;0.663751;0.659168;,
  -0.027402;-0.961736;-0.272605;,
  0.305886;-0.675025;0.671398;,
  0.305886;-0.675025;0.671398;,
  0.305886;-0.675025;0.671398;,
  0.305886;-0.675025;0.671398;,
  0.305886;-0.675025;0.671398;,
  -0.351255;-0.658826;0.665258;,
  -0.351255;-0.658826;0.665258;,
  -0.351255;-0.658826;0.665258;,
  -0.351255;-0.658826;0.665258;,
  -0.351255;-0.658826;0.665258;,
  0.307800;0.680229;0.665243;,
  0.307800;0.680229;0.665243;,
  0.307800;0.680229;0.665243;,
  0.307800;0.680229;0.665243;,
  0.307800;0.680229;0.665243;,
  0.786635;0.262925;0.558638;,
  0.786635;0.262925;0.558638;,
  0.786596;-0.263033;0.558641;,
  0.786596;-0.263033;0.558641;,
  -0.799977;0.228855;0.554674;,
  -0.799977;0.228855;0.554674;,
  -0.799976;-0.228854;0.554675;,
  -0.799976;-0.228854;0.554675;,
  -0.071329;0.868375;0.490752;,
  -0.071329;0.868375;0.490752;,
  -0.071329;0.868375;0.490752;,
  0.016123;0.850232;0.526162;,
  0.016123;0.850232;0.526162;,
  0.016123;0.850232;0.526162;,
  -0.065024;-0.866310;0.495257;,
  -0.065024;-0.866310;0.495257;,
  -0.065024;-0.866310;0.495257;,
  0.006841;-0.846447;0.532430;,
  0.006841;-0.846447;0.532430;,
  0.006841;-0.846447;0.532430;,
  -0.015571;-0.964752;-0.262701;,
  -0.015571;-0.964752;-0.262701;,
  0.001264;-0.963283;-0.268485;,
  0.001264;-0.963283;-0.268485;,
  0.016401;0.962634;-0.270308;,
  0.016401;0.962634;-0.270308;,
  -0.029400;0.963940;-0.264489;,
  -0.029400;0.963940;-0.264489;,
  -0.535264;0.801380;0.266989;,
  -0.535264;0.801380;0.266989;,
  -0.535264;0.801380;0.266989;,
  -0.535264;0.801380;0.266989;,
  0.486780;0.821811;0.296096;,
  0.486780;0.821811;0.296096;,
  0.486780;0.821811;0.296096;,
  -0.534609;-0.798606;0.276445;,
  -0.534609;-0.798606;0.276445;,
  -0.534609;-0.798606;0.276445;,
  0.485458;-0.819255;0.305207;,
  0.485458;-0.819255;0.305207;,
  0.485458;-0.819255;0.305207;,
  0.485458;-0.819255;0.305207;,
  0.017857;0.942259;-0.334410;,
  0.017857;0.942259;-0.334410;,
  0.017857;0.942259;-0.334410;,
  0.017857;0.942259;-0.334410;,
  -0.894365;0.114499;-0.432435;,
  -0.894365;0.114499;-0.432435;,
  -0.894365;0.114499;-0.432435;,
  0.910363;0.138318;-0.390010;,
  0.910363;0.138318;-0.390010;,
  0.910363;0.138318;-0.390010;,
  0.910363;0.138318;-0.390010;,
  0.015759;-0.962383;-0.271238;,
  0.015759;-0.962383;-0.271238;,
  0.015759;-0.962383;-0.271238;,
  0.015759;-0.962383;-0.271238;,
  0.912093;-0.145140;-0.383434;,
  0.912093;-0.145140;-0.383434;,
  0.912093;-0.145140;-0.383434;,
  0.769706;0.610330;-0.187216;,
  0.769706;0.610330;-0.187216;,
  0.769706;0.610330;-0.187216;,
  0.769706;0.610330;-0.187216;,
  -0.781991;0.589440;-0.202610;,
  -0.781991;0.589440;-0.202610;,
  -0.781991;0.589440;-0.202610;,
  -0.781991;0.589440;-0.202610;,
  -0.786586;-0.596552;-0.159401;,
  -0.786586;-0.596552;-0.159401;,
  -0.786586;-0.596552;-0.159401;,
  -0.786586;-0.596552;-0.159401;,
  0.772764;-0.617801;-0.145454;,
  0.772764;-0.617801;-0.145454;,
  0.772764;-0.617801;-0.145454;,
  0.772764;-0.617801;-0.145454;,
  0.710093;0.410305;0.572205;,
  0.710093;0.410305;0.572205;,
  0.710093;0.410305;0.572205;,
  0.710093;0.410305;0.572205;,
  0.710093;0.410305;0.572205;,
  0.710093;0.410305;0.572205;,
  -0.691149;0.457519;0.559454;,
  -0.691149;0.457519;0.559454;,
  -0.691149;0.457519;0.559454;,
  -0.691149;0.457519;0.559454;,
  -0.691149;0.457519;0.559454;,
  -0.691149;0.457519;0.559454;,
  -0.702025;-0.436852;0.562424;,
  -0.702025;-0.436852;0.562424;,
  -0.702025;-0.436852;0.562424;,
  -0.702025;-0.436852;0.562424;,
  -0.702025;-0.436852;0.562424;,
  -0.702025;-0.436852;0.562424;,
  0.709784;-0.408439;0.573920;,
  0.709784;-0.408439;0.573920;,
  0.709784;-0.408439;0.573920;,
  0.709784;-0.408439;0.573920;,
  0.709784;-0.408439;0.573920;,
  0.709784;-0.408439;0.573920;,
  0.709784;-0.408439;0.573920;,
  -0.702025;-0.436852;0.562424;,
  -0.691149;0.457519;0.559454;,
  0.710093;0.410305;0.572205;,
  0.000000;-0.987344;-0.158590;,
  0.643514;0.725486;-0.244049;,
  0.000001;0.962203;-0.272335;,
  0.772764;-0.617801;-0.145454;,
  -0.786586;-0.596552;-0.159401;,
  -0.781991;0.589440;-0.202610;,
  0.769706;0.610330;-0.187216;,
  -0.950556;-0.305181;0.057509;,
  -0.955340;0.295507;0.000810;,
  0.940790;0.338981;0.002364;,
  0.932270;-0.356601;0.060894;,
  0.804365;-0.565044;-0.183638;,
  -0.654801;0.712606;-0.251849;,
  0.912093;-0.145140;-0.383434;,
  0.015759;-0.962383;-0.271238;,
  0.910363;0.138318;-0.390010;,
  -0.894365;0.114499;-0.432435;,
  0.017857;0.942259;-0.334410;,
  0.022980;0.908018;-0.418300;,
  0.023017;-0.912856;-0.407632;,
  0.485458;-0.819255;0.305207;,
  -0.534609;-0.798606;0.276445;,
  0.486780;0.821811;0.296096;,
  -0.535264;0.801380;0.266989;,
  -0.029400;0.963940;-0.264489;,
  0.016401;0.962634;-0.270308;,
  0.001264;-0.963283;-0.268485;,
  -0.015571;-0.964752;-0.262701;,
  0.006841;-0.846447;0.532430;,
  -0.065024;-0.866310;0.495257;,
  0.016123;0.850232;0.526162;,
  -0.071329;0.868375;0.490752;,
  -0.799976;-0.228854;0.554675;,
  -0.799977;0.228855;0.554674;,
  0.786596;-0.263033;0.558641;,
  0.786635;0.262925;0.558638;,
  0.307800;0.680229;0.665243;,
  -0.351255;-0.658826;0.665258;,
  0.305886;-0.675025;0.671398;,
  -0.027402;-0.961736;-0.272605;,
  -0.353458;0.663751;0.659168;,
  -0.349006;0.755519;0.554424;,
  0.282599;0.776348;0.563402;,
  -0.352115;-0.750917;0.558694;,
  0.285882;-0.771870;0.567881;,
  -0.196259;0.864939;0.461913;,
  0.193975;-0.862247;0.467872;,
  -0.189547;-0.862916;0.468453;,
  0.201498;0.864199;0.461042;,
  -0.026412;0.952051;-0.304798;,
  -0.896794;-0.121495;-0.425441;,
  -0.813545;-0.549804;-0.189367;;

  77;
  3;163,153,161;,
  4;160,159,55,53;,
  3;119,159,203;,
  4;49,51,162,161;,
  3;160,115,164;,
  3;67,79,17;,
  3;111,161,153;,
  3;3,58,20;,
  3;100,73,66;,
  3;153,154,93;,
  3;92,164,114;,
  3;82,75,64;,
  3;57,89,19;,
  3;72,78,65;,
  3;2,69,56;,
  3;74,96,63;,
  3;68,88,183;,
  3;179,1,87;,
  3;9,47,85;,
  3;62,95,13;,
  3;177,99,77;,
  3;61,107,8;,
  3;12,42,81;,
  4;135,118,0,18;,
  3;31,26,134;,
  3;24,46,129;,
  4;25,23,128,133;,
  3;110,153,91;,
  3;163,123,104;,
  3;84,71,60;,
  4;21,22,141,147;,
  3;195,41,140;,
  3;37,196,146;,
  3;30,32,45;,
  3;161,162,163;,
  3;90,154,164;,
  3;98,180,16;,
  3;80,181,11;,
  3;103,152,163;,
  3;83,59,7;,
  8;145,139,52,54,132,127,50,48;,
  3;162,126,122;,
  3;144,187,161;,
  3;131,159,117;,
  3;186,125,162;,
  3;143,161,109;,
  3;130,184,159;,
  3;160,138,113;,
  3;44,6,124;,
  4;36,40,195,196;,
  3;185,137,160;,
  3;70,106,182;,
  3;142,15,35;,
  4;94,112,136,10;,
  3;150,197,29;,
  4;169,157,168,170;,
  4;97,14,148,108;,
  4;151,200,105,121;,
  4;170,167,158,169;,
  4;43,194,193,28;,
  4;171,202,116,102;,
  3;39,199,149;,
  4;101,120,165,171;,
  3;86,27,197;,
  5;191,192,172,202,171;,
  3;76,34,198;,
  5;5,33,175,167,170;,
  5;174,38,4,170,168;,
  3;174,168,176;,
  5;173,188,191,171,165;,
  3;173,165,178;,
  3;201,189,190;,
  3;160,164,203;,
  3;203,159,160;,
  3;162,155,163;,
  3;203,152,166;,
  3;203,166,156;;
 }
 MeshTextureCoords { 
 204;
 0.907227;0.194336;,
 0.757455;0.605556;,
 0.907227;0.194336;,
 0.907227;0.194336;,
 0.999023;0.383789;,
 0.999023;0.383789;,
 0.069336;0.825195;,
 0.069336;0.825195;,
 0.913086;0.202148;,
 0.069336;0.825195;,
 0.913086;0.202148;,
 0.541992;0.834961;,
 0.541992;0.834961;,
 0.913086;0.202148;,
 0.913086;0.202148;,
 0.069336;0.825195;,
 0.913086;0.202148;,
 0.069336;0.825195;,
 0.913086;0.202148;,
 0.541992;0.834961;,
 0.913086;0.202148;,
 0.764648;0.280273;,
 0.793945;0.280273;,
 0.793945;0.280273;,
 0.278320;0.942383;,
 0.764648;0.280273;,
 0.307617;0.940430;,
 0.327148;0.706055;,
 0.327148;0.706055;,
 0.327148;0.706055;,
 0.327148;0.706055;,
 0.327148;0.706055;,
 0.297852;0.717773;,
 0.972393;0.399217;,
 0.266602;0.706055;,
 0.266602;0.706055;,
 0.266602;0.706055;,
 0.266602;0.706055;,
 0.973420;0.399745;,
 0.327148;0.706055;,
 0.327148;0.706055;,
 0.327148;0.706055;,
 0.327148;0.706055;,
 0.266602;0.706055;,
 0.266602;0.706055;,
 0.266602;0.706055;,
 0.266602;0.706055;,
 0.266602;0.706055;,
 0.997070;0.606445;,
 0.433270;0.356204;,
 0.757455;0.605556;,
 0.433270;0.423607;,
 0.921542;0.779563;,
 0.433270;0.356204;,
 0.921542;0.779563;,
 0.433270;0.423607;,
 0.987305;0.143555;,
 0.602539;0.747070;,
 0.987305;0.143555;,
 0.002930;0.739258;,
 0.002930;0.739258;,
 0.987305;0.143555;,
 0.987305;0.143555;,
 0.987305;0.143555;,
 0.602539;0.747070;,
 0.002930;0.739258;,
 0.987305;0.143555;,
 0.002930;0.739258;,
 0.612305;0.750977;,
 0.980962;0.135652;,
 0.980962;0.135652;,
 0.000977;0.747070;,
 0.000977;0.747070;,
 0.980962;0.135652;,
 0.980962;0.135652;,
 0.612305;0.750977;,
 0.086914;0.788086;,
 0.770508;0.549805;,
 0.086914;0.788086;,
 0.086914;0.788086;,
 0.524414;0.790039;,
 0.524414;0.790039;,
 0.524414;0.790039;,
 0.086914;0.788086;,
 0.086914;0.788086;,
 0.086914;0.788086;,
 0.524414;0.790039;,
 0.770508;0.549805;,
 0.524414;0.790039;,
 0.524414;0.790039;,
 0.242115;0.278768;,
 0.242115;0.278768;,
 0.242115;0.278768;,
 0.242115;0.278768;,
 0.907227;0.194336;,
 0.907227;0.194336;,
 0.907227;0.194336;,
 0.907227;0.194336;,
 0.907227;0.194336;,
 0.757455;0.605556;,
 0.907227;0.194336;,
 0.999023;0.999023;,
 0.999023;0.999023;,
 0.242115;0.497138;,
 0.242115;0.497138;,
 0.907227;0.194336;,
 0.907227;0.194336;,
 0.907227;0.194336;,
 0.715820;0.311523;,
 0.330472;0.280322;,
 0.330472;0.280322;,
 0.330472;0.280322;,
 0.715820;0.311523;,
 0.321933;0.280334;,
 0.321933;0.280334;,
 0.321933;0.280334;,
 0.932617;0.907227;,
 0.321933;0.499479;,
 0.715820;0.311523;,
 0.321933;0.499479;,
 0.932617;0.907227;,
 0.715820;0.311523;,
 0.330472;0.499453;,
 0.330472;0.499453;,
 0.223633;0.999023;,
 0.464665;0.467686;,
 0.464665;0.467686;,
 0.932617;0.907227;,
 0.814516;0.362055;,
 0.223633;0.999023;,
 0.461546;0.467705;,
 0.461546;0.467705;,
 0.999023;0.999023;,
 0.741518;0.362055;,
 0.362305;0.999023;,
 0.817383;0.346680;,
 0.817383;0.346680;,
 0.461546;0.312107;,
 0.461546;0.312107;,
 0.921542;0.779563;,
 0.362305;0.999023;,
 0.814516;0.362055;,
 0.223633;0.999023;,
 0.464665;0.312098;,
 0.464665;0.312098;,
 0.921542;0.779563;,
 0.223633;0.999023;,
 0.741518;0.362055;,
 0.817383;0.346680;,
 0.362305;0.999023;,
 0.362305;0.999023;,
 0.817383;0.346680;,
 0.012662;0.458856;,
 0.013730;0.377837;,
 0.014713;0.344779;,
 0.330472;0.499453;,
 0.321933;0.499479;,
 0.932617;0.907227;,
 0.932617;0.907227;,
 0.258606;0.437372;,
 0.258606;0.342441;,
 0.258607;0.342441;,
 0.258606;0.437372;,
 0.012665;0.427879;,
 0.013730;0.377837;,
 0.757455;0.605556;,
 0.242115;0.497138;,
 0.757455;0.605556;,
 0.757306;0.605491;,
 0.999023;0.999023;,
 0.997070;0.606445;,
 0.997070;0.606445;,
 0.772461;0.549805;,
 0.770508;0.549805;,
 0.772461;0.549805;,
 0.770508;0.549805;,
 0.694336;0.479492;,
 0.694336;0.479492;,
 0.694336;0.479492;,
 0.694336;0.479492;,
 0.987305;0.143555;,
 0.602539;0.747070;,
 0.987305;0.143555;,
 0.602539;0.747070;,
 0.433270;0.423607;,
 0.433270;0.356204;,
 0.433270;0.423607;,
 0.433270;0.356204;,
 0.972393;0.399217;,
 0.327148;0.706055;,
 0.266602;0.706055;,
 0.999023;0.383789;,
 0.973420;0.399745;,
 0.307617;0.940430;,
 0.278320;0.942383;,
 0.307617;0.940430;,
 0.278320;0.942383;,
 0.541992;0.834961;,
 0.069336;0.825195;,
 0.541992;0.834961;,
 0.913086;0.202148;,
 0.297852;0.717773;,
 0.757306;0.605491;,
 0.012665;0.427879;;
 }
}
}
Frame frm-blthrust {
  FrameTransformMatrix {
1.000000,0.000000,0.000000,0.000000,
0.000000,1.000000,0.000000,0.000000,
0.000000,0.000000,1.000000,0.000000,
0.462192,-0.317524,2.331657,1.000000;;
 }
Mesh blthrust {
 4;
 -0.010228;-0.003616;-0.000000;,
 0.000000;0.010849;0.000000;,
 0.005114;-0.003616;0.008858;,
 0.005114;-0.003616;-0.008858;;

 4;
 3;2,1,0;,
 3;3,0,1;,
 3;0,3,2;,
 3;1,2,3;;

 MeshMaterialList {
  1;
  4;
  0,
  0,
  0,
  0;
Material {
 1.000000;1.000000;1.000000;1.000000;;
 50.000000;
 1.000000;1.000000;1.000000;;
 0.000000;0.000000;0.000000;;
 TextureFilename {
  "cap103.ppm";
 }
 }
}
 MeshNormals {
  4;
  -0.942809;-0.333333;0.000000;,
  0.000000;1.000000;-0.000000;,
  0.471404;-0.333333;0.816497;,
  0.471404;-0.333333;-0.816497;;

  4;
  3;2,1,0;,
  3;3,0,1;,
  3;0,3,2;,
  3;1,2,3;;
 }
 MeshTextureCoords { 
 4;
 0.000000;1.000000;,
 0.000000;1.000000;,
 0.000000;1.000000;,
 0.000000;1.000000;;
 }
}
}
Frame frm-brthrust {
  FrameTransformMatrix {
-1.000000,0.000000,-0.000000,0.000000,
0.000000,1.000000,0.000000,0.000000,
0.000000,0.000000,-1.000000,0.000000,
-0.462200,-0.317524,2.331657,1.000000;;
 }
Mesh brthrust {
 4;
 -0.010228;-0.003616;-0.000000;,
 0.000000;0.010849;-0.000000;,
 0.005114;-0.003616;-0.008858;,
 0.005114;-0.003616;0.008858;;

 4;
 3;0,1,2;,
 3;1,0,3;,
 3;2,3,0;,
 3;3,2,1;;

 MeshMaterialList {
  1;
  4;
  0,
  0,
  0,
  0;
Material {
 1.000000;1.000000;1.000000;1.000000;;
 50.000000;
 1.000000;1.000000;1.000000;;
 0.000000;0.000000;0.000000;;
 TextureFilename {
  "cap103.ppm";
 }
 }
}
 MeshNormals {
  4;
  -0.942809;-0.333333;-0.000000;,
  0.000000;1.000000;0.000000;,
  0.471404;-0.333333;-0.816497;,
  0.471404;-0.333333;0.816497;;

  4;
  3;0,1,2;,
  3;1,0,3;,
  3;2,3,0;,
  3;3,2,1;;
 }
 MeshTextureCoords { 
 4;
 0.000000;1.000000;,
 0.000000;1.000000;,
 0.000000;1.000000;,
 0.000000;1.000000;;
 }
}
}
Frame frm-cockpt {
  FrameTransformMatrix {
1.000000,0.000000,0.000000,0.000000,
0.000000,1.000000,0.000000,0.000000,
0.000000,0.000000,1.000000,0.000000,
-0.000000,0.006988,-3.780687,1.000000;;
 }
Mesh cockpt {
 4;
 -0.010228;-0.003616;-0.000000;,
 0.000000;0.010849;0.000000;,
 0.005114;-0.003616;0.008858;,
 0.005114;-0.003616;-0.008858;;

 4;
 3;2,1,0;,
 3;3,0,1;,
 3;0,3,2;,
 3;1,2,3;;

 MeshMaterialList {
  1;
  4;
  0,
  0,
  0,
  0;
Material {
 1.000000;1.000000;1.000000;1.000000;;
 50.000000;
 1.000000;1.000000;1.000000;;
 0.000000;0.000000;0.000000;;
 TextureFilename {
  "cap103.ppm";
 }
 }
}
 MeshNormals {
  4;
  -0.942809;-0.333333;0.000000;,
  0.000000;1.000000;-0.000000;,
  0.471404;-0.333333;0.816497;,
  0.471404;-0.333333;-0.816497;;

  4;
  3;2,1,0;,
  3;3,0,1;,
  3;0,3,2;,
  3;1,2,3;;
 }
 MeshTextureCoords { 
 4;
 0.000000;1.000000;,
 0.000000;1.000000;,
 0.000000;1.000000;,
 0.000000;1.000000;;
 }
}
}
Frame frm-lsmoke {
  FrameTransformMatrix {
1.000000,0.000000,0.000000,0.000000,
0.000000,1.000000,0.000000,0.000000,
0.000000,0.000000,1.000000,0.000000,
0.450599,0.612258,2.701064,1.000000;;
 }
Mesh lsmoke {
 4;
 -0.010228;-0.003616;-0.000000;,
 0.000000;0.010849;0.000000;,
 0.005114;-0.003616;0.008858;,
 0.005114;-0.003616;-0.008858;;

 4;
 3;2,1,0;,
 3;3,0,1;,
 3;0,3,2;,
 3;1,2,3;;

 MeshMaterialList {
  1;
  4;
  0,
  0,
  0,
  0;
Material {
 1.000000;1.000000;1.000000;1.000000;;
 50.000000;
 1.000000;1.000000;1.000000;;
 0.000000;0.000000;0.000000;;
 TextureFilename {
  "cap103.ppm";
 }
 }
}
 MeshNormals {
  4;
  -0.942809;-0.333333;0.000000;,
  0.000000;1.000000;-0.000000;,
  0.471404;-0.333333;0.816497;,
  0.471404;-0.333333;-0.816497;;

  4;
  3;2,1,0;,
  3;3,0,1;,
  3;0,3,2;,
  3;1,2,3;;
 }
 MeshTextureCoords { 
 4;
 0.000000;1.000000;,
 0.000000;1.000000;,
 0.000000;1.000000;,
 0.000000;1.000000;;
 }
}
}
Frame frm-lwepemt {
  FrameTransformMatrix {
1.000000,0.000000,0.000000,0.000000,
0.000000,1.000000,0.000000,0.000000,
0.000000,0.000000,1.000000,0.000000,
0.036623,-0.362103,-4.576992,1.000000;;
 }
Mesh lwepemt {
 4;
 -0.010228;-0.003616;-0.000000;,
 0.000000;0.010849;0.000000;,
 0.005114;-0.003616;0.008858;,
 0.005114;-0.003616;-0.008858;;

 4;
 3;2,1,0;,
 3;3,0,1;,
 3;0,3,2;,
 3;1,2,3;;

 MeshMaterialList {
  1;
  4;
  0,
  0,
  0,
  0;
Material {
 1.000000;1.000000;1.000000;1.000000;;
 50.000000;
 1.000000;1.000000;1.000000;;
 0.000000;0.000000;0.000000;;
 TextureFilename {
  "cap103.ppm";
 }
 }
}
 MeshNormals {
  4;
  -0.942809;-0.333333;0.000000;,
  0.000000;1.000000;-0.000000;,
  0.471404;-0.333333;0.816497;,
  0.471404;-0.333333;-0.816497;;

  4;
  3;2,1,0;,
  3;3,0,1;,
  3;0,3,2;,
  3;1,2,3;;
 }
 MeshTextureCoords { 
 4;
 0.000000;1.000000;,
 0.000000;1.000000;,
 0.000000;1.000000;,
 0.000000;1.000000;;
 }
}
}
Frame frm-missemt {
  FrameTransformMatrix {
1.000000,0.000000,0.000000,0.000000,
0.000000,1.000000,0.000000,0.000000,
0.000000,0.000000,1.000000,0.000000,
0.000000,-0.465934,-4.427157,1.000000;;
 }
Mesh missemt {
 4;
 -0.010228;-0.003616;-0.000000;,
 0.000000;0.010849;0.000000;,
 0.005114;-0.003616;0.008858;,
 0.005114;-0.003616;-0.008858;;

 4;
 3;2,1,0;,
 3;3,0,1;,
 3;0,3,2;,
 3;1,2,3;;

 MeshMaterialList {
  1;
  4;
  0,
  0,
  0,
  0;
Material {
 1.000000;1.000000;1.000000;1.000000;;
 50.000000;
 1.000000;1.000000;1.000000;;
 0.000000;0.000000;0.000000;;
 TextureFilename {
  "cap103.ppm";
 }
 }
}
 MeshNormals {
  4;
  -0.942809;-0.333333;0.000000;,
  0.000000;1.000000;-0.000000;,
  0.471404;-0.333333;0.816497;,
  0.471404;-0.333333;-0.816497;;

  4;
  3;2,1,0;,
  3;3,0,1;,
  3;0,3,2;,
  3;1,2,3;;
 }
 MeshTextureCoords { 
 4;
 0.000000;1.000000;,
 0.000000;1.000000;,
 0.000000;1.000000;,
 0.000000;1.000000;;
 }
}
}
Frame frm-rsmoke {
  FrameTransformMatrix {
-1.000000,0.000000,-0.000000,0.000000,
0.000000,1.000000,0.000000,0.000000,
0.000000,0.000000,-1.000000,0.000000,
-0.450178,0.612451,2.701031,1.000000;;
 }
Mesh rsmoke {
 4;
 -0.010228;-0.003616;0.000000;,
 0.000000;0.010849;0.000000;,
 0.005114;-0.003616;-0.008858;,
 0.005114;-0.003616;0.008858;;

 4;
 3;0,1,2;,
 3;1,0,3;,
 3;2,3,0;,
 3;3,2,1;;

 MeshMaterialList {
  1;
  4;
  0,
  0,
  0,
  0;
Material {
 1.000000;1.000000;1.000000;1.000000;;
 50.000000;
 1.000000;1.000000;1.000000;;
 0.000000;0.000000;0.000000;;
 TextureFilename {
  "cap103.ppm";
 }
 }
}
 MeshNormals {
  4;
  -0.942809;-0.333333;-0.000000;,
  0.000000;1.000000;0.000000;,
  0.471404;-0.333333;-0.816497;,
  0.471404;-0.333333;0.816497;;

  4;
  3;0,1,2;,
  3;1,0,3;,
  3;2,3,0;,
  3;3,2,1;;
 }
 MeshTextureCoords { 
 4;
 0.000000;1.000000;,
 0.000000;1.000000;,
 0.000000;1.000000;,
 0.000000;1.000000;;
 }
}
}
Frame frm-rwepemt {
  FrameTransformMatrix {
1.000000,0.000000,0.000000,0.000000,
0.000000,1.000000,0.000000,0.000000,
0.000000,0.000000,1.000000,0.000000,
-0.036600,-0.362103,-4.576992,1.000000;;
 }
Mesh rwepemt {
 4;
 -0.010228;-0.003616;-0.000000;,
 0.000000;0.010849;0.000000;,
 0.005114;-0.003616;0.008858;,
 0.005114;-0.003616;-0.008858;;

 4;
 3;2,1,0;,
 3;3,0,1;,
 3;0,3,2;,
 3;1,2,3;;

 MeshMaterialList {
  1;
  4;
  0,
  0,
  0,
  0;
Material {
 1.000000;1.000000;1.000000;1.000000;;
 50.000000;
 1.000000;1.000000;1.000000;;
 0.000000;0.000000;0.000000;;
 TextureFilename {
  "cap103.ppm";
 }
 }
}
 MeshNormals {
  4;
  -0.942809;-0.333333;0.000000;,
  0.000000;1.000000;-0.000000;,
  0.471404;-0.333333;0.816497;,
  0.471404;-0.333333;-0.816497;;

  4;
  3;2,1,0;,
  3;3,0,1;,
  3;0,3,2;,
  3;1,2,3;;
 }
 MeshTextureCoords { 
 4;
 0.000000;1.000000;,
 0.000000;1.000000;,
 0.000000;1.000000;,
 0.000000;1.000000;;
 }
}
}
Frame frm-SS01 {
  FrameTransformMatrix {
1.000000,0.000000,0.000000,0.000000,
0.000000,1.000000,0.000000,0.000000,
0.000000,0.000000,1.000000,0.000000,
2.488641,1.198022,3.529681,1.000000;;
 }
Mesh SS01 {
 4;
 0.007050;-0.008246;0.000000;,
 0.005424;0.009395;0.000000;,
 -0.006237;-0.000575;-0.008858;,
 -0.006237;-0.000575;0.008858;;

 4;
 3;2,1,0;,
 3;3,0,1;,
 3;0,3,2;,
 3;1,2,3;;

 MeshMaterialList {
  1;
  4;
  0,
  0,
  0,
  0;
Material {
 0.988701;0.005650;0.000000;1.000000;;
 0.000000;
 1.000000;0.000000;0.000000;;
 0.0; 0.0; 0.0;;
 }
}
 MeshNormals {
  4;
  0.649830;-0.760080;-0.000000;,
  0.500000;0.866026;0.000000;,
  -0.574915;-0.052973;-0.816497;,
  -0.574915;-0.052973;0.816497;;

  4;
  3;2,1,0;,
  3;3,0,1;,
  3;0,3,2;,
  3;1,2,3;;
 }
 MeshTextureCoords { 
 4;
 0.000000;0.000000;,
 0.000000;0.000000;,
 0.000000;0.000000;,
 0.000000;0.000000;;
 }
}
}
Frame frm-SS02 {
  FrameTransformMatrix {
1.000000,0.000000,0.000000,0.000000,
0.000000,1.000000,0.000000,0.000000,
0.000000,0.000000,1.000000,0.000000,
-2.486524,1.198022,3.529681,1.000000;;
 }
Mesh SS02 {
 4;
 0.003616;0.010228;-0.000000;,
 -0.010849;-0.000000;-0.000000;,
 0.003616;-0.005114;-0.008858;,
 0.003616;-0.005114;0.008858;;

 4;
 3;2,1,0;,
 3;3,0,1;,
 3;0,3,2;,
 3;1,2,3;;

 MeshMaterialList {
  1;
  4;
  0,
  0,
  0,
  0;
Material {
 0.000000;1.000000;0.000000;1.000000;;
 0.000000;
 0.000000;1.000000;0.000000;;
 0.0; 0.0; 0.0;;
 }
}
 MeshNormals {
  4;
  0.333333;0.942809;-0.000000;,
  -1.000000;-0.000000;0.000000;,
  0.333333;-0.471404;-0.816497;,
  0.333334;-0.471404;0.816497;;

  4;
  3;2,1,0;,
  3;3,0,1;,
  3;0,3,2;,
  3;1,2,3;;
 }
 MeshTextureCoords { 
 4;
 0.000000;0.000000;,
 0.000000;0.000000;,
 0.000000;0.000000;,
 0.000000;0.000000;;
 }
}
}
Frame frm-SS03 {
  FrameTransformMatrix {
-1.000000,0.000000,-0.000000,0.000000,
0.000000,1.000000,0.000000,0.000000,
0.000000,0.000000,-1.000000,0.000000,
0.706145,-0.137977,-2.685375,1.000000;;
 }
Mesh SS03 {
 4;
 0.003616;0.010228;-0.000000;,
 -0.010849;-0.000000;-0.000000;,
 0.003616;-0.005114;0.008858;,
 0.003616;-0.005114;-0.008858;;

 4;
 3;0,1,2;,
 3;1,0,3;,
 3;2,3,0;,
 3;3,2,1;;

 MeshMaterialList {
  1;
  4;
  0,
  0,
  0,
  0;
Material {
 0.988701;0.005650;0.000000;1.000000;;
 0.000000;
 1.000000;0.000000;0.000000;;
 0.0; 0.0; 0.0;;
 }
}
 MeshNormals {
  4;
  0.333333;0.942809;0.000000;,
  -1.000000;-0.000000;-0.000000;,
  0.333333;-0.471404;0.816497;,
  0.333334;-0.471404;-0.816497;;

  4;
  3;0,1,2;,
  3;1,0,3;,
  3;2,3,0;,
  3;3,2,1;;
 }
 MeshTextureCoords { 
 4;
 0.000000;0.000000;,
 0.000000;0.000000;,
 0.000000;0.000000;,
 0.000000;0.000000;;
 }
}
}
Frame frm-SS04 {
  FrameTransformMatrix {
1.000000,0.000000,0.000000,0.000000,
0.000000,1.000000,0.000000,0.000000,
0.000000,0.000000,1.000000,0.000000,
-0.706145,-0.137977,-2.685375,1.000000;;
 }
Mesh SS04 {
 4;
 0.003616;0.010228;-0.000000;,
 -0.010849;-0.000000;-0.000000;,
 0.003616;-0.005114;-0.008858;,
 0.003616;-0.005114;0.008858;;

 4;
 3;2,1,0;,
 3;3,0,1;,
 3;0,3,2;,
 3;1,2,3;;

 MeshMaterialList {
  1;
  4;
  0,
  0,
  0,
  0;
Material {
 0.000000;1.000000;0.000000;1.000000;;
 0.000000;
 0.000000;1.000000;0.000000;;
 0.0; 0.0; 0.0;;
 }
}
 MeshNormals {
  4;
  0.333333;0.942809;-0.000000;,
  -1.000000;-0.000000;0.000000;,
  0.333333;-0.471404;-0.816497;,
  0.333334;-0.471404;0.816497;;

  4;
  3;2,1,0;,
  3;3,0,1;,
  3;0,3,2;,
  3;1,2,3;;
 }
 MeshTextureCoords { 
 4;
 0.000000;0.000000;,
 0.000000;0.000000;,
 0.000000;0.000000;,
 0.000000;0.000000;;
 }
}
}
Frame frm-SS05 {
  FrameTransformMatrix {
-1.000000,0.000000,-0.000000,0.000000,
0.000000,1.000000,0.000000,0.000000,
0.000000,0.000000,-1.000000,0.000000,
1.056012,0.762874,1.719286,1.000000;;
 }
Mesh SS05 {
 4;
 0.003616;0.010228;-0.000000;,
 -0.010849;-0.000000;-0.000000;,
 0.003616;-0.005114;0.008858;,
 0.003616;-0.005114;-0.008858;;

 4;
 3;0,1,2;,
 3;1,0,3;,
 3;2,3,0;,
 3;3,2,1;;

 MeshMaterialList {
  1;
  4;
  0,
  0,
  0,
  0;
Material {
 0.988701;0.005650;0.000000;1.000000;;
 0.000000;
 1.000000;0.000000;0.000000;;
 0.0; 0.0; 0.0;;
 }
}
 MeshNormals {
  4;
  0.333333;0.942809;0.000000;,
  -1.000000;-0.000000;-0.000000;,
  0.333333;-0.471404;0.816497;,
  0.333334;-0.471404;-0.816497;;

  4;
  3;0,1,2;,
  3;1,0,3;,
  3;2,3,0;,
  3;3,2,1;;
 }
 MeshTextureCoords { 
 4;
 0.000000;0.000000;,
 0.000000;0.000000;,
 0.000000;0.000000;,
 0.000000;0.000000;;
 }
}
}
Frame frm-SS06 {
  FrameTransformMatrix {
1.000000,0.000000,0.000000,0.000000,
0.000000,1.000000,0.000000,0.000000,
0.000000,0.000000,1.000000,0.000000,
-1.056012,0.762874,1.719286,1.000000;;
 }
Mesh SS06 {
 4;
 0.003616;0.010228;-0.000000;,
 -0.010849;-0.000000;-0.000000;,
 0.003616;-0.005114;-0.008858;,
 0.003616;-0.005114;0.008858;;

 4;
 3;2,1,0;,
 3;3,0,1;,
 3;0,3,2;,
 3;1,2,3;;

 MeshMaterialList {
  1;
  4;
  0,
  0,
  0,
  0;
Material {
 0.000000;1.000000;0.000000;1.000000;;
 0.000000;
 0.000000;1.000000;0.000000;;
 0.0; 0.0; 0.0;;
 }
}
 MeshNormals {
  4;
  0.333333;0.942809;-0.000000;,
  -1.000000;-0.000000;0.000000;,
  0.333333;-0.471404;-0.816497;,
  0.333334;-0.471404;0.816497;;

  4;
  3;2,1,0;,
  3;3,0,1;,
  3;0,3,2;,
  3;1,2,3;;
 }
 MeshTextureCoords { 
 4;
 0.000000;0.000000;,
 0.000000;0.000000;,
 0.000000;0.000000;,
 0.000000;0.000000;;
 }
}
}
Frame frm-tlthrust {
  FrameTransformMatrix {
1.000000,0.000000,0.000000,0.000000,
0.000000,1.000000,0.000000,0.000000,
0.000000,0.000000,1.000000,0.000000,
0.450599,0.612258,2.701064,1.000000;;
 }
Mesh tlthrust {
 4;
 -0.010228;-0.003616;-0.000000;,
 0.000000;0.010849;0.000000;,
 0.005114;-0.003616;0.008858;,
 0.005114;-0.003616;-0.008858;;

 4;
 3;2,1,0;,
 3;3,0,1;,
 3;0,3,2;,
 3;1,2,3;;

 MeshMaterialList {
  1;
  4;
  0,
  0,
  0,
  0;
Material {
 1.000000;1.000000;1.000000;1.000000;;
 50.000000;
 1.000000;1.000000;1.000000;;
 0.000000;0.000000;0.000000;;
 TextureFilename {
  "cap103.ppm";
 }
 }
}
 MeshNormals {
  4;
  -0.942809;-0.333333;0.000000;,
  0.000000;1.000000;-0.000000;,
  0.471404;-0.333333;0.816497;,
  0.471404;-0.333333;-0.816497;;

  4;
  3;2,1,0;,
  3;3,0,1;,
  3;0,3,2;,
  3;1,2,3;;
 }
 MeshTextureCoords { 
 4;
 0.000000;1.000000;,
 0.000000;1.000000;,
 0.000000;1.000000;,
 0.000000;1.000000;;
 }
}
}
Frame frm-trail {
  FrameTransformMatrix {
1.000000,0.000000,0.000000,0.000000,
0.000000,1.000000,0.000000,0.000000,
0.000000,0.000000,1.000000,0.000000,
-0.000000,0.326374,2.422260,1.000000;;
 }
Mesh trail {
 4;
 -0.010228;-0.003616;-0.000000;,
 0.000000;0.010849;0.000000;,
 0.005114;-0.003616;0.008858;,
 0.005114;-0.003616;-0.008858;;

 4;
 3;2,1,0;,
 3;3,0,1;,
 3;0,3,2;,
 3;1,2,3;;

 MeshMaterialList {
  1;
  4;
  0,
  0,
  0,
  0;
Material {
 1.000000;1.000000;1.000000;1.000000;;
 50.000000;
 1.000000;1.000000;1.000000;;
 0.000000;0.000000;0.000000;;
 TextureFilename {
  "cap103.ppm";
 }
 }
}
 MeshNormals {
  4;
  -0.942809;-0.333333;0.000000;,
  0.000000;1.000000;-0.000000;,
  0.471404;-0.333333;0.816497;,
  0.471404;-0.333333;-0.816497;;

  4;
  3;2,1,0;,
  3;3,0,1;,
  3;0,3,2;,
  3;1,2,3;;
 }
 MeshTextureCoords { 
 4;
 0.000000;1.000000;,
 0.000000;1.000000;,
 0.000000;1.000000;,
 0.000000;1.000000;;
 }
}
}
Frame frm-trthrust {
  FrameTransformMatrix {
-1.000000,0.000000,-0.000000,0.000000,
0.000000,1.000000,0.000000,0.000000,
0.000000,0.000000,-1.000000,0.000000,
-0.450178,0.612451,2.701031,1.000000;;
 }
Mesh trthrust {
 4;
 -0.010228;-0.003616;0.000000;,
 0.000000;0.010849;0.000000;,
 0.005114;-0.003616;-0.008858;,
 0.005114;-0.003616;0.008858;;

 4;
 3;0,1,2;,
 3;1,0,3;,
 3;2,3,0;,
 3;3,2,1;;

 MeshMaterialList {
  1;
  4;
  0,
  0,
  0,
  0;
Material {
 1.000000;1.000000;1.000000;1.000000;;
 50.000000;
 1.000000;1.000000;1.000000;;
 0.000000;0.000000;0.000000;;
 TextureFilename {
  "cap103.ppm";
 }
 }
}
 MeshNormals {
  4;
  -0.942809;-0.333333;-0.000000;,
  0.000000;1.000000;0.000000;,
  0.471404;-0.333333;-0.816497;,
  0.471404;-0.333333;0.816497;;

  4;
  3;0,1,2;,
  3;1,0,3;,
  3;2,3,0;,
  3;3,2,1;;
 }
 MeshTextureCoords { 
 4;
 0.000000;1.000000;,
 0.000000;1.000000;,
 0.000000;1.000000;,
 0.000000;1.000000;;
 }
}
}
Frame frm-rt-wing7 {
  FrameTransformMatrix {
-0.879662,-0.475600,-0.000000,0.000000,
-0.475600,0.879662,0.000000,0.000000,
0.000000,0.000000,-1.000000,0.000000,
-2.552570,0.175510,1.660314,1.000000;;
 }
Mesh rt-wing7 {
 36;
 -0.629648;-0.742201;-0.034306;,
 -0.629648;-0.742201;-0.034306;,
 -0.629648;-0.742201;-0.034306;,
 -0.663319;-0.558745;0.649571;,
 -0.663319;-0.558745;0.649571;,
 -0.663319;-0.558745;0.649571;,
 -0.663319;-0.558745;0.649571;,
 -0.647979;-1.047558;0.338011;,
 -0.647979;-1.047558;0.338011;,
 -0.647979;-1.047558;0.338011;,
 -0.757541;-0.932266;0.775036;,
 -0.757541;-0.932266;0.775036;,
 -0.757541;-0.932266;0.775036;,
 -0.757541;-0.932266;0.775036;,
 -1.423619;-1.485397;0.231033;,
 -1.518452;-1.181739;0.610840;,
 -1.509379;-0.842850;0.083785;,
 -1.060924;-1.014928;0.014211;,
 -1.495758;-1.597535;0.921305;,
 -0.757541;-0.932266;0.775036;,
 -0.647979;-1.047558;0.338011;,
 -1.119331;-0.937161;0.562123;,
 -0.539457;-0.935763;0.441826;,
 -0.662706;-0.965742;1.058377;,
 -0.634423;-0.776318;1.220977;,
 -0.663319;-0.558745;0.649571;,
 -0.550418;0.864138;-1.893544;,
 -0.548925;-0.616388;0.590993;,
 -0.604187;0.231182;-0.135855;,
 -0.691333;0.231928;-0.015442;,
 -0.629648;-0.742201;-0.034306;,
 -0.513224;-0.676443;0.028513;,
 -0.492286;0.474828;-1.742433;,
 -0.410001;-0.399424;-0.994168;,
 -0.525979;0.494639;-1.830114;,
 -0.492685;-0.416296;-1.089819;;

 32;
 3;22,27,24;,
 3;26,29,28;,
 3;31,9,2;,
 4;29,6,27,28;,
 3;27,5,24;,
 4;1,35,33,31;,
 4;35,34,32,33;,
 3;34,26,32;,
 3;15,14,18;,
 3;4,13,24;,
 3;22,12,8;,
 3;16,14,15;,
 3;31,22,7;,
 4;33,32,26,28;,
 4;35,0,3,29;,
 4;29,26,34,35;,
 3;25,30,21;,
 4;30,20,14,17;,
 3;21,15,18;,
 3;24,11,23;,
 3;10,22,23;,
 3;31,33,28;,
 3;27,22,31;,
 3;31,28,27;,
 4;20,19,18,14;,
 3;24,23,22;,
 3;21,19,25;,
 3;21,30,17;,
 3;17,16,15;,
 3;17,14,16;,
 3;18,19,21;,
 3;17,15,21;;

 MeshMaterialList {
  2;
  32;
  0,
  0,
  0,
  0,
  0,
  0,
  0,
  0,
  1,
  0,
  0,
  1,
  0,
  0,
  0,
  0,
  1,
  1,
  1,
  0,
  0,
  0,
  0,
  0,
  1,
  0,
  1,
  1,
  1,
  1,
  1,
  1;
Material {
 1.000000;1.000000;1.000000;1.000000;;
 50.000000;
 1.000000;1.000000;1.000000;;
 0.0; 0.0; 0.0;;
 TextureFilename {
  "cap103.ppm";
 }
 }
Material {
 1.000000;1.000000;1.000000;1.000000;;
 50.000000;
 1.000000;1.000000;1.000000;;
 0.0; 0.0; 0.0;;
 TextureFilename {
  "cap103.ppm";
 }
 }
}
 MeshNormals {
  36;
  -0.386522;-0.223771;-0.894722;,
  -0.386522;-0.223771;-0.894722;,
  -0.386522;-0.223771;-0.894722;,
  -0.546304;0.741179;0.390135;,
  -0.546304;0.741179;0.390135;,
  -0.546304;0.741179;0.390135;,
  -0.546304;0.741179;0.390135;,
  0.637102;-0.743461;-0.203388;,
  0.637102;-0.743461;-0.203388;,
  0.637102;-0.743461;-0.203388;,
  -0.572994;-0.412666;0.708086;,
  -0.572994;-0.412666;0.708086;,
  -0.572994;-0.412666;0.708086;,
  -0.572994;-0.412666;0.708086;,
  -0.292603;-0.733081;-0.613984;,
  -0.754270;0.595541;0.276418;,
  -0.785765;0.345352;-0.513134;,
  -0.227291;0.655456;-0.720219;,
  -0.587593;0.126843;0.799153;,
  -0.572994;-0.412666;0.708086;,
  0.637102;-0.743461;-0.203388;,
  -0.543322;0.773020;0.327477;,
  0.839978;-0.537909;0.071347;,
  -0.091248;-0.956870;0.275814;,
  0.568996;0.442294;0.693267;,
  -0.546304;0.741179;0.390135;,
  0.853832;0.520087;-0.021923;,
  0.921642;0.305981;0.238645;,
  0.887170;0.385387;0.253785;,
  -0.523293;0.739865;0.422805;,
  -0.386522;-0.223771;-0.894722;,
  0.932372;-0.335964;-0.133459;,
  0.959657;-0.068238;-0.272767;,
  0.953579;-0.268747;-0.135873;,
  0.571726;-0.363482;-0.735534;,
  -0.341862;-0.789847;-0.509188;;

  32;
  3;22,27,24;,
  3;26,29,28;,
  3;31,9,2;,
  4;29,6,27,28;,
  3;27,5,24;,
  4;1,35,33,31;,
  4;35,34,32,33;,
  3;34,26,32;,
  3;15,14,18;,
  3;4,13,24;,
  3;22,12,8;,
  3;16,14,15;,
  3;31,22,7;,
  4;33,32,26,28;,
  4;35,0,3,29;,
  4;29,26,34,35;,
  3;25,30,21;,
  4;30,20,14,17;,
  3;21,15,18;,
  3;24,11,23;,
  3;10,22,23;,
  3;31,33,28;,
  3;27,22,31;,
  3;31,28,27;,
  4;20,19,18,14;,
  3;24,23,22;,
  3;21,19,25;,
  3;21,30,17;,
  3;17,16,15;,
  3;17,14,16;,
  3;18,19,21;,
  3;17,15,21;;
 }
 MeshTextureCoords { 
 36;
 0.649859;0.255756;,
 0.649859;0.255756;,
 0.649859;0.255756;,
 0.525897;0.227340;,
 0.525897;0.227340;,
 0.525897;0.227340;,
 0.525897;0.227340;,
 0.599595;0.307825;,
 0.599595;0.307825;,
 0.599595;0.307825;,
 0.510848;0.283941;,
 0.510848;0.283941;,
 0.510848;0.283941;,
 0.510848;0.283941;,
 0.016602;0.239258;,
 0.028320;0.278320;,
 0.045898;0.215820;,
 0.086914;0.208008;,
 0.002930;0.325195;,
 0.127930;0.305664;,
 0.135623;0.239766;,
 0.088867;0.280273;,
 0.560496;0.296877;,
 0.450756;0.291317;,
 0.426987;0.262585;,
 0.161133;0.288086;,
 0.990593;0.007262;,
 0.537873;0.246443;,
 0.667712;0.102634;,
 0.650328;0.097305;,
 0.153254;0.201243;,
 0.640366;0.256823;,
 0.965663;0.072280;,
 0.829318;0.220412;,
 0.977082;0.067118;,
 0.838934;0.218587;;
 }
}
}
}
AnimationSet {
 Animation anim-canopy_1_1_1 {
  {frm-canopy_1_1_1}
  AnimationKey {
  2;
  2;
  1; 3; 0.000000, 0.310433, -0.596694;;,
  100; 3; 0.000000, 0.310433, -0.596694;;;
  }
 }
 Animation anim-engine-nib {
  {frm-engine-nib}
  AnimationKey {
  2;
  2;
  1; 3; 0.000000, -2.788176, -1.856979;;,
  100; 3; 0.000000, -2.788176, -1.856979;;;
  }
 }
 Animation anim-extru2_1 {
  {frm-extru2_1}
  AnimationKey {
  0;
  2;
  1; 4; 0.780096, -0.625660, 0.000000, 0.000000;;,
  100; 4; 0.780096, -0.625660, 0.000000, 0.000000;;;
  }
  AnimationKey {
  2;
  2;
  1; 3; 0.000000, 0.262966, -3.783030;;,
  100; 3; 0.000000, 0.262966, -3.783030;;;
  }
 }
 Animation anim-cube3 {
  {frm-cube3}
  AnimationKey {
  0;
  2;
  1; 4; 0.992925, 0.118740, 0.000000, 0.000000;;,
  100; 4; 0.992925, 0.118740, 0.000000, 0.000000;;;
  }
  AnimationKey {
  2;
  2;
  1; 3; 0.000000, 0.938756, 1.531854;;,
  100; 3; 0.000000, 0.938756, 1.531854;;;
  }
 }
 Animation anim-null1 {
  {frm-null1}
  AnimationKey {
  2;
  2;
  1; 3; 0.000000, -0.310433, 0.596694;;,
  100; 3; 0.000000, -0.310433, 0.596694;;;
  }
 }
 Animation anim-cyl1 {
  {frm-cyl1}
  AnimationKey {
  0;
  2;
  1; 4; 0.496450, -0.822841, 0.042803, 0.273199;;,
  100; 4; 0.496450, -0.822841, 0.042803, 0.273199;;;
  }
  AnimationKey {
  2;
  2;
  1; 3; 0.365424, 0.235466, 1.308744;;,
  100; 3; 0.365424, 0.235466, 1.308744;;;
  }
 }
 Animation anim-l-t-engine4 {
  {frm-l-t-engine4}
  AnimationKey {
  0;
  2;
  1; 4; 0.707288, 0.706868, -0.006150, 0.006578;;,
  100; 4; 0.707288, 0.706868, -0.006150, 0.006578;;;
  }
  AnimationKey {
  2;
  2;
  1; 3; 0.451266, 0.931578, 1.335315;;,
  100; 3; 0.451266, 0.931578, 1.335315;;;
  }
 }
 Animation anim-l-t-engine7 {
  {frm-l-t-engine7}
  AnimationKey {
  0;
  2;
  1; 4; 0.006150, 0.006578, -0.707288, 0.706868;;,
  100; 4; 0.006150, 0.006578, -0.707288, 0.706868;;;
  }
  AnimationKey {
  2;
  2;
  1; 3; -0.451266, 0.931578, 1.335315;;,
  100; 3; -0.451266, 0.931578, 1.335315;;;
  }
 }
 Animation anim-cyl3 {
  {frm-cyl3}
  AnimationKey {
  0;
  2;
  1; 4; 0.042803, -0.273199, 0.496449, 0.822841;;,
  100; 4; 0.042803, -0.273199, 0.496449, 0.822841;;;
  }
  AnimationKey {
  2;
  2;
  1; 3; -0.365424, 0.235466, 1.308744;;,
  100; 3; -0.365424, 0.235466, 1.308744;;;
  }
 }
 Animation anim-rt-wing4 {
  {frm-rt-wing4}
  AnimationKey {
  0;
  2;
  1; 4; 0.969449, 0.000000, 0.000000, 0.245294;;,
  100; 4; 0.969449, 0.000000, 0.000000, 0.245294;;;
  }
  AnimationKey {
  2;
  2;
  1; 3; 2.552570, 0.175510, 1.660314;;,
  100; 3; 2.552570, 0.175510, 1.660314;;;
  }
 }
 Animation anim-zz_base_1 {
  {frm-zz_base_1}
  AnimationKey {
  2;
  2;
  1; 3; 0.000000, -0.018333, -1.774329;;,
  100; 3; 0.000000, -0.018333, -1.774329;;;
  }
 }
 Animation anim-blthrust {
  {frm-blthrust}
  AnimationKey {
  2;
  2;
  1; 3; 0.462192, -0.317524, 2.331657;;,
  100; 3; 0.462192, -0.317524, 2.331657;;;
  }
 }
 Animation anim-brthrust {
  {frm-brthrust}
  AnimationKey {
  0;
  2;
  1; 4; 0.000000, 0.000000, 1.000000, -0.000000;;,
  100; 4; 0.000000, 0.000000, 1.000000, -0.000000;;;
  }
  AnimationKey {
  2;
  2;
  1; 3; -0.462200, -0.317524, 2.331657;;,
  100; 3; -0.462200, -0.317524, 2.331657;;;
  }
 }
 Animation anim-cockpt {
  {frm-cockpt}
  AnimationKey {
  2;
  2;
  1; 3; -0.000000, 0.006988, -3.780687;;,
  100; 3; -0.000000, 0.006988, -3.780687;;;
  }
 }
 Animation anim-lsmoke {
  {frm-lsmoke}
  AnimationKey {
  2;
  2;
  1; 3; 0.450599, 0.612258, 2.701064;;,
  100; 3; 0.450599, 0.612258, 2.701064;;;
  }
 }
 Animation anim-lwepemt {
  {frm-lwepemt}
  AnimationKey {
  2;
  2;
  1; 3; 0.036623, -0.362103, -4.576992;;,
  100; 3; 0.036623, -0.362103, -4.576992;;;
  }
 }
 Animation anim-missemt {
  {frm-missemt}
  AnimationKey {
  2;
  2;
  1; 3; 0.000000, -0.465934, -4.427158;;,
  100; 3; 0.000000, -0.465934, -4.427158;;;
  }
 }
 Animation anim-rsmoke {
  {frm-rsmoke}
  AnimationKey {
  0;
  2;
  1; 4; 0.000000, 0.000000, 1.000000, -0.000000;;,
  100; 4; 0.000000, 0.000000, 1.000000, -0.000000;;;
  }
  AnimationKey {
  2;
  2;
  1; 3; -0.450178, 0.612451, 2.701031;;,
  100; 3; -0.450178, 0.612451, 2.701031;;;
  }
 }
 Animation anim-rwepemt {
  {frm-rwepemt}
  AnimationKey {
  2;
  2;
  1; 3; -0.036600, -0.362103, -4.576992;;,
  100; 3; -0.036600, -0.362103, -4.576992;;;
  }
 }
 Animation anim-SS01 {
  {frm-SS01}
  AnimationKey {
  2;
  2;
  1; 3; 2.488641, 1.198022, 3.529681;;,
  100; 3; 2.488641, 1.198022, 3.529681;;;
  }
 }
 Animation anim-SS02 {
  {frm-SS02}
  AnimationKey {
  2;
  2;
  1; 3; -2.486524, 1.198022, 3.529681;;,
  100; 3; -2.486524, 1.198022, 3.529681;;;
  }
 }
 Animation anim-SS03 {
  {frm-SS03}
  AnimationKey {
  0;
  2;
  1; 4; 0.000000, 0.000000, 1.000000, -0.000000;;,
  100; 4; 0.000000, 0.000000, 1.000000, -0.000000;;;
  }
  AnimationKey {
  2;
  2;
  1; 3; 0.706145, -0.137977, -2.685375;;,
  100; 3; 0.706145, -0.137977, -2.685375;;;
  }
 }
 Animation anim-SS04 {
  {frm-SS04}
  AnimationKey {
  2;
  2;
  1; 3; -0.706145, -0.137977, -2.685375;;,
  100; 3; -0.706145, -0.137977, -2.685375;;;
  }
 }
 Animation anim-SS05 {
  {frm-SS05}
  AnimationKey {
  0;
  2;
  1; 4; 0.000000, 0.000000, 1.000000, -0.000000;;,
  100; 4; 0.000000, 0.000000, 1.000000, -0.000000;;;
  }
  AnimationKey {
  2;
  2;
  1; 3; 1.056012, 0.762874, 1.719286;;,
  100; 3; 1.056012, 0.762874, 1.719286;;;
  }
 }
 Animation anim-SS06 {
  {frm-SS06}
  AnimationKey {
  2;
  2;
  1; 3; -1.056012, 0.762874, 1.719286;;,
  100; 3; -1.056012, 0.762874, 1.719286;;;
  }
 }
 Animation anim-tlthrust {
  {frm-tlthrust}
  AnimationKey {
  2;
  2;
  1; 3; 0.450599, 0.612258, 2.701064;;,
  100; 3; 0.450599, 0.612258, 2.701064;;;
  }
 }
 Animation anim-trail {
  {frm-trail}
  AnimationKey {
  2;
  2;
  1; 3; -0.000000, 0.326374, 2.422260;;,
  100; 3; -0.000000, 0.326374, 2.422260;;;
  }
 }
 Animation anim-trthrust {
  {frm-trthrust}
  AnimationKey {
  0;
  2;
  1; 4; 0.000000, 0.000000, 1.000000, -0.000000;;,
  100; 4; 0.000000, 0.000000, 1.000000, -0.000000;;;
  }
  AnimationKey {
  2;
  2;
  1; 3; -0.450178, 0.612451, 2.701031;;,
  100; 3; -0.450178, 0.612451, 2.701031;;;
  }
 }
 Animation anim-rt-wing7 {
  {frm-rt-wing7}
  AnimationKey {
  0;
  2;
  1; 4; 0.000000, -0.245294, 0.969449, -0.000000;;,
  100; 4; 0.000000, -0.245294, 0.969449, -0.000000;;;
  }
  AnimationKey {
  2;
  2;
  1; 3; -2.552570, 0.175510, 1.660314;;,
  100; 3; -2.552570, 0.175510, 1.660314;;;
  }
 }
}
