xof 0302txt 0032
template Header {
 <3D82AB43-62DA-11cf-AB39-0020AF71E433>
 WORD major;
 WORD minor;
 DWORD flags;
}

template Vector {
 <3D82AB5E-62DA-11cf-AB39-0020AF71E433>
 FLOAT x;
 FLOAT y;
 FLOAT z;
}

template Coords2d {
 <F6F23F44-7686-11cf-8F52-0040333594A3>
 FLOAT u;
 FLOAT v;
}

template Matrix4x4 {
 <F6F23F45-7686-11cf-8F52-0040333594A3>
 array FLOAT matrix[16];
}

template ColorRGBA {
 <35FF44E0-6C7C-11cf-8F52-0040333594A3>
 FLOAT red;
 FLOAT green;
 FLOAT blue;
 FLOAT alpha;
}

template ColorRGB {
 <D3E16E81-7835-11cf-8F52-0040333594A3>
 FLOAT red;
 FLOAT green;
 FLOAT blue;
}

template TextureFilename {
 <A42790E1-7810-11cf-8F52-0040333594A3>
 STRING filename;
}

template Material {
 <3D82AB4D-62DA-11cf-AB39-0020AF71E433>
 ColorRGBA faceColor;
 FLOAT power;
 ColorRGB specularColor;
 ColorRGB emissiveColor;
 [...]
}

template MeshFace {
 <3D82AB5F-62DA-11cf-AB39-0020AF71E433>
 DWORD nFaceVertexIndices;
 array DWORD faceVertexIndices[nFaceVertexIndices];
}

template MeshTextureCoords {
 <F6F23F40-7686-11cf-8F52-0040333594A3>
 DWORD nTextureCoords;
 array Coords2d textureCoords[nTextureCoords];
}

template MeshMaterialList {
 <F6F23F42-7686-11cf-8F52-0040333594A3>
 DWORD nMaterials;
 DWORD nFaceIndexes;
 array DWORD faceIndexes[nFaceIndexes];
 [Material]
}

template MeshNormals {
 <F6F23F43-7686-11cf-8F52-0040333594A3>
 DWORD nNormals;
 array Vector normals[nNormals];
 DWORD nFaceNormals;
 array MeshFace faceNormals[nFaceNormals];
}

template Mesh {
 <3D82AB44-62DA-11cf-AB39-0020AF71E433>
 DWORD nVertices;
 array Vector vertices[nVertices];
 DWORD nFaces;
 array MeshFace faces[nFaces];
 [...]
}

template FrameTransformMatrix {
 <F6F23F41-7686-11cf-8F52-0040333594A3>
 Matrix4x4 frameMatrix;
}

template Frame {
 <3D82AB46-62DA-11cf-AB39-0020AF71E433>
 [...]
}
template FloatKeys {
 <10DD46A9-775B-11cf-8F52-0040333594A3>
 DWORD nValues;
 array FLOAT values[nValues];
}

template TimedFloatKeys {
 <F406B180-7B3B-11cf-8F52-0040333594A3>
 DWORD time;
 FloatKeys tfkeys;
}

template AnimationKey {
 <10DD46A8-775B-11cf-8F52-0040333594A3>
 DWORD keyType;
 DWORD nKeys;
 array TimedFloatKeys keys[nKeys];
}

template AnimationOptions {
 <E2BF56C0-840F-11cf-8F52-0040333594A3>
 DWORD openclosed;
 DWORD positionquality;
}

template Animation {
 <3D82AB4F-62DA-11cf-AB39-0020AF71E433>
 [...]
}

template AnimationSet {
 <3D82AB50-62DA-11cf-AB39-0020AF71E433>
 [Animation]
}

Header {
 1;
 0;
 1;
}

Frame frm-cap302 {
  FrameTransformMatrix {
1.000000,0.000000,0.000000,0.000000,
0.000000,1.000000,0.000000,0.000000,
0.000000,0.000000,1.000000,0.000000,
0.000000,0.000000,0.000000,1.000000;;
 }
Frame frm-cube6 {
  FrameTransformMatrix {
1.000000,0.000000,0.000000,0.000000,
0.000000,1.000000,0.000000,0.000000,
0.000000,0.000000,1.000000,0.000000,
0.002161,0.037313,-0.003024,1.000000;;
 }
Mesh cube6 {
 160;
 -0.731964;-0.364831;3.351838;,
 -0.731964;-0.364831;3.351838;,
 -0.731964;-0.364831;-2.829308;,
 -0.731964;-0.364831;-2.829308;,
 -0.731964;-0.364831;-2.829308;,
 -0.731964;0.364831;3.354947;,
 -0.731964;0.364831;3.354947;,
 -0.536010;-0.211501;-3.341924;,
 -0.536010;-0.211501;-3.341924;,
 0.536019;-0.211501;-3.341924;,
 0.536019;-0.211501;-3.341924;,
 0.536019;-0.211501;-3.341924;,
 0.536019;0.247699;-3.963875;,
 0.536019;0.247699;-3.963875;,
 -0.536010;0.247699;-3.963875;,
 -0.536010;0.247699;-3.963875;,
 -0.536010;0.247699;-3.963875;,
 0.731973;-0.364831;-2.829308;,
 0.731973;-0.364831;-2.829308;,
 0.731973;-0.364831;3.351838;,
 0.731973;-0.364831;3.351838;,
 0.731973;-0.364831;3.351838;,
 0.731973;0.364831;3.354947;,
 0.731973;0.364831;3.354947;,
 0.771811;-0.241473;7.599813;,
 0.771811;-0.241473;7.599813;,
 -0.771802;-0.241473;7.599813;,
 -0.771802;-0.241473;7.599813;,
 -0.771802;-0.241473;7.599813;,
 -0.771802;0.745390;7.602301;,
 -0.771802;0.745390;7.602301;,
 -0.771802;0.745390;7.602301;,
 0.771811;0.745390;7.602301;,
 0.771811;0.745390;7.602301;,
 0.683697;-0.429213;3.351838;,
 0.683697;-0.429213;3.351838;,
 0.683697;-0.429213;3.351838;,
 -0.683688;-0.429213;3.351838;,
 -0.683688;-0.429213;3.351838;,
 -0.683688;-0.429213;3.351838;,
 -0.683688;0.429213;3.354947;,
 -0.683688;0.429213;3.354947;,
 -0.683688;0.429213;3.354947;,
 -0.683688;0.429213;-3.622613;,
 -0.683688;0.429213;-3.622613;,
 -0.683688;0.429213;-3.622613;,
 0.683697;0.429213;-3.622613;,
 0.683697;0.429213;-3.622613;,
 0.683697;0.429213;3.354947;,
 0.683697;0.429213;3.354947;,
 0.683697;0.429213;3.354947;,
 0.731973;-0.364831;-2.035789;,
 0.731973;-0.364831;-2.035789;,
 0.683697;-0.429213;-2.035789;,
 0.683697;-0.429213;-2.035789;,
 0.683697;-0.429213;-2.035789;,
 -0.683688;-0.429213;-2.035789;,
 -0.683688;-0.429213;-2.035789;,
 -0.683688;-0.429213;-2.035789;,
 -0.731964;-0.364831;-2.035789;,
 -0.731964;-0.364831;-2.035789;,
 -0.683688;-0.429213;0.033957;,
 -0.683688;-0.429213;0.033957;,
 -0.683688;-0.429213;0.033957;,
 -0.731964;-0.364831;0.033957;,
 -0.731964;-0.364831;0.033957;,
 0.731973;-0.364831;0.033957;,
 0.731973;-0.364831;0.033957;,
 0.683697;-0.429213;0.033957;,
 0.683697;-0.429213;0.033957;,
 0.683697;-0.429213;0.033957;,
 -0.683688;-0.429213;5.203605;,
 -0.683688;-0.429213;5.203605;,
 -0.683688;-0.429213;5.203605;,
 0.683697;-0.429213;5.203605;,
 0.683697;-0.429213;5.203605;,
 0.683697;-0.429213;5.203605;,
 0.731973;-0.364831;5.203605;,
 0.731973;-0.364831;5.203605;,
 0.683697;0.933131;5.206714;,
 0.683697;0.933131;5.206714;,
 -0.683688;0.933131;5.206714;,
 -0.683688;0.933131;5.206714;,
 -0.683688;0.933131;5.206714;,
 0.731973;0.868749;7.511890;,
 0.731973;0.868749;7.511890;,
 0.731973;-0.364831;7.508781;,
 0.731973;-0.364831;7.508781;,
 0.731973;-0.364831;7.508781;,
 -0.683688;0.933131;7.511890;,
 -0.683688;0.933131;7.511890;,
 -0.683688;0.933131;7.511890;,
 0.683697;0.933131;7.511890;,
 0.683697;0.933131;7.511890;,
 0.683697;0.933131;7.511890;,
 0.683697;-0.429213;7.508781;,
 0.683697;-0.429213;7.508781;,
 -0.683688;-0.429213;7.508781;,
 -0.683688;-0.429213;7.508781;,
 -0.683688;-0.429213;7.508781;,
 0.487834;-0.685071;-0.331185;,
 0.487834;-0.685071;-0.331185;,
 -0.479077;-0.685071;-0.331185;,
 -0.479077;-0.685071;-0.331185;,
 -0.479077;-0.685071;-1.494781;,
 -0.479077;-0.685071;-1.494781;,
 0.487834;-0.685071;-1.494781;,
 0.487834;-0.685071;-1.494781;,
 0.487834;-0.685071;-1.494781;,
 -0.479077;-0.685071;-1.494781;,
 -0.479077;-0.685071;-0.331185;,
 0.487834;-0.685071;-0.331185;,
 -0.683688;-0.429213;7.508781;,
 0.683697;-0.429213;7.508781;,
 0.683697;0.933131;7.511890;,
 -0.683688;0.933131;7.511890;,
 0.731973;-0.364831;7.508781;,
 0.731973;0.868749;7.511890;,
 -0.871422;0.688106;7.173861;,
 -0.871422;-0.184187;7.171663;,
 -0.871422;0.688106;5.543818;,
 -0.683688;0.933131;5.206714;,
 0.683697;0.933131;5.206714;,
 0.731973;0.868749;5.206714;,
 0.731973;-0.364831;5.203605;,
 0.683697;-0.429213;5.203605;,
 -0.871422;-0.184187;5.541618;,
 -0.683688;-0.429213;5.203605;,
 0.683697;-0.429213;0.033957;,
 0.731973;-0.364831;0.033957;,
 -0.731964;-0.364831;0.033957;,
 -0.683688;-0.429213;0.033957;,
 -0.731964;-0.364831;-2.035789;,
 -0.683688;-0.429213;-2.035789;,
 0.683697;-0.429213;-2.035789;,
 0.731973;-0.364831;-2.035789;,
 0.683697;0.429213;3.354947;,
 0.683697;0.429213;-3.622613;,
 -0.683688;0.429213;-3.622613;,
 -0.683688;0.429213;3.354947;,
 -0.683688;-0.429213;3.351838;,
 -0.683688;-0.429213;-2.829308;,
 0.683697;-0.429213;-2.829308;,
 0.683697;-0.429213;3.351838;,
 0.771811;0.745390;7.602301;,
 -0.771802;0.745390;7.602301;,
 -0.771802;-0.241473;7.599813;,
 0.771811;-0.241473;7.599813;,
 0.731973;0.364831;-3.622613;,
 0.731973;0.364831;3.354947;,
 0.731973;-0.364831;3.351838;,
 0.731973;-0.364831;-2.829308;,
 -0.536010;0.247699;-3.963875;,
 0.536019;0.247699;-3.963875;,
 0.536019;-0.211501;-3.341924;,
 -0.536010;-0.211501;-3.341924;,
 -0.731964;0.364831;3.354947;,
 -0.731964;0.364831;-3.622613;,
 -0.731964;-0.364831;-2.829308;,
 -0.731964;-0.364831;3.351838;;

 54;
 6;6,157,4,60,65,1;,
 4;16,13,11,8;,
 6;148,23,21,67,52,18;,
 4;33,31,28,25;,
 4;58,141,142,55;,
 4;50,47,45,42;,
 4;157,5,41,44;,
 4;118,119,27,30;,
 4;59,3,141,57;,
 4;2,157,15,7;,
 4;12,14,43,46;,
 4;155,10,142,141;,
 4;9,153,148,17;,
 4;22,148,137,49;,
 4;66,20,36,70;,
 4;88,85,32,24;,
 4;29,144,94,91;,
 4;147,26,99,96;,
 3;98,146,119;,
 3;141,158,155;,
 3;90,118,145;,
 3;138,152,157;,
 3;95,87,147;,
 3;142,154,151;,
 3;93,144,84;,
 3;137,148,153;,
 4;54,142,151,51;,
 4;69,35,39,63;,
 4;62,38,0,64;,
 4;86,113,76,78;,
 4;103,105,107,101;,
 4;92,117,123,80;,
 4;102,100,68,61;,
 4;106,104,56,53;,
 3;110,131,130;,
 3;109,132,133;,
 4;109,110,130,132;,
 3;111,129,128;,
 3;108,134,135;,
 4;111,108,135,129;,
 4;73,126,159,37;,
 4;75,72,140,34;,
 4;77,74,143,19;,
 4;79,123,149,48;,
 4;120,83,40,156;,
 4;82,122,136,139;,
 4;123,124,150,149;,
 4;126,120,156,159;,
 4;119,118,120,126;,
 4;117,116,124,123;,
 4;89,114,122,81;,
 4;113,97,71,125;,
 4;118,115,121,120;,
 4;112,119,126,127;;

 MeshMaterialList {
  4;
  54;
  0,
  1,
  0,
  1,
  1,
  1,
  0,
  0,
  1,
  0,
  1,
  1,
  0,
  0,
  1,
  0,
  1,
  1,
  0,
  1,
  0,
  0,
  1,
  1,
  1,
  0,
  1,
  1,
  0,
  1,
  1,
  0,
  2,
  2,
  3,
  3,
  3,
  3,
  3,
  3,
  0,
  1,
  1,
  0,
  0,
  1,
  0,
  0,
  0,
  0,
  1,
  1,
  0,
  0;
Material {
 1.000000;1.000000;1.000000;1.000000;;
 50.000000;
 1.000000;1.000000;1.000000;;
 0.0; 0.0; 0.0;;
 TextureFilename {
  "cap302.ppm";
 }
 }
Material {
 1.000000;1.000000;1.000000;1.000000;;
 50.000000;
 1.000000;1.000000;1.000000;;
 0.0; 0.0; 0.0;;
 TextureFilename {
  "cap302.ppm";
 }
 }
Material {
 1.000000;1.000000;1.000000;1.000000;;
 50.000000;
 1.000000;1.000000;1.000000;;
 0.0; 0.0; 0.0;;
 TextureFilename {
  "cap302.ppm";
 }
 }
Material {
 1.000000;1.000000;1.000000;1.000000;;
 50.000000;
 1.000000;1.000000;1.000000;;
 0.0; 0.0; 0.0;;
 TextureFilename {
  "cap302.ppm";
 }
 }
}
 MeshNormals {
  160;
  -0.947899;-0.318123;-0.016867;,
  -0.947899;-0.318123;-0.016867;,
  -0.879182;-0.423698;-0.217989;,
  -0.879182;-0.423698;-0.217989;,
  -0.879182;-0.423698;-0.217989;,
  -0.955802;0.289475;-0.051449;,
  -0.955802;0.289475;-0.051449;,
  -0.421353;-0.755675;-0.501414;,
  -0.421353;-0.755675;-0.501414;,
  0.421353;-0.755675;-0.501414;,
  0.421353;-0.755675;-0.501414;,
  0.421353;-0.755675;-0.501414;,
  0.589655;0.047423;-0.806262;,
  0.589655;0.047423;-0.806262;,
  -0.589655;0.047423;-0.806262;,
  -0.589655;0.047423;-0.806262;,
  -0.589655;0.047423;-0.806262;,
  0.879182;-0.423698;-0.217989;,
  0.879182;-0.423698;-0.217989;,
  0.955627;-0.294580;0.000000;,
  0.955627;-0.294580;0.000000;,
  0.955627;-0.294580;0.000000;,
  0.955333;0.292882;-0.039480;,
  0.955333;0.292882;-0.039480;,
  0.570054;-0.366892;0.735139;,
  0.570054;-0.366892;0.735139;,
  -0.604129;-0.298894;0.738708;,
  -0.604129;-0.298894;0.738708;,
  -0.604129;-0.298894;0.738708;,
  -0.604473;0.296129;0.739540;,
  -0.604473;0.296129;0.739540;,
  -0.604473;0.296129;0.739540;,
  0.569756;0.364549;0.736534;,
  0.569756;0.364549;0.736534;,
  0.486248;-0.873821;0.000000;,
  0.486248;-0.873821;0.000000;,
  0.486248;-0.873821;0.000000;,
  -0.445484;-0.895290;-0.000096;,
  -0.445484;-0.895290;-0.000096;,
  -0.445484;-0.895290;-0.000096;,
  -0.470936;0.874939;-0.112701;,
  -0.470936;0.874939;-0.112701;,
  -0.470936;0.874939;-0.112701;,
  -0.421650;0.857655;-0.294346;,
  -0.421650;0.857655;-0.294346;,
  -0.421650;0.857655;-0.294346;,
  0.421650;0.857655;-0.294346;,
  0.421650;0.857655;-0.294346;,
  0.484760;0.866885;-0.116268;,
  0.484760;0.866885;-0.116268;,
  0.484760;0.866885;-0.116268;,
  0.882867;-0.469621;0.001543;,
  0.882867;-0.469621;0.001543;,
  0.454920;-0.882429;-0.119862;,
  0.454920;-0.882429;-0.119862;,
  0.454920;-0.882429;-0.119862;,
  -0.455099;-0.882821;-0.116240;,
  -0.455099;-0.882821;-0.116240;,
  -0.455099;-0.882821;-0.116240;,
  -0.880799;-0.473465;0.004909;,
  -0.880799;-0.473465;0.004909;,
  -0.462423;-0.872506;0.157793;,
  -0.462423;-0.872506;0.157793;,
  -0.462423;-0.872506;0.157793;,
  -0.880790;-0.473451;-0.007273;,
  -0.880790;-0.473451;-0.007273;,
  0.882866;-0.469619;-0.002286;,
  0.882866;-0.469619;-0.002286;,
  0.462052;-0.871713;0.163170;,
  0.462052;-0.871713;0.163170;,
  0.462052;-0.871713;0.163170;,
  -0.443161;-0.896442;-0.000096;,
  -0.443161;-0.896442;-0.000096;,
  -0.443161;-0.896442;-0.000096;,
  0.486248;-0.873821;0.000000;,
  0.486248;-0.873821;0.000000;,
  0.486248;-0.873821;0.000000;,
  0.955627;-0.294580;0.000000;,
  0.955627;-0.294580;0.000000;,
  0.484760;0.866885;-0.116268;,
  0.484760;0.866885;-0.116268;,
  -0.468575;0.876223;-0.112563;,
  -0.468575;0.876223;-0.112563;,
  -0.468575;0.876223;-0.112563;,
  0.948855;0.315663;0.005602;,
  0.948855;0.315663;0.005602;,
  0.948995;-0.315253;0.004944;,
  0.948995;-0.315253;0.004944;,
  0.948995;-0.315253;0.004944;,
  -0.532718;0.790889;0.301174;,
  -0.532718;0.790889;0.301174;,
  -0.532718;0.790889;0.301174;,
  0.465816;0.787194;0.404155;,
  0.465816;0.787194;0.404155;,
  0.465816;0.787194;0.404155;,
  0.465886;-0.787797;0.402897;,
  0.465886;-0.787797;0.402897;,
  -0.532380;-0.791297;0.300700;,
  -0.532380;-0.791297;0.300700;,
  -0.532380;-0.791297;0.300700;,
  0.581562;-0.805794;0.111725;,
  0.581562;-0.805794;0.111725;,
  -0.578394;-0.809243;0.102887;,
  -0.578394;-0.809243;0.102887;,
  -0.574421;-0.815046;-0.075769;,
  -0.574421;-0.815046;-0.075769;,
  0.577756;-0.812105;-0.081754;,
  0.577756;-0.812105;-0.081754;,
  0.577756;-0.812105;-0.081754;,
  -0.574421;-0.815046;-0.075769;,
  -0.578394;-0.809243;0.102887;,
  0.581562;-0.805794;0.111725;,
  -0.532380;-0.791297;0.300700;,
  0.465886;-0.787797;0.402897;,
  0.465816;0.787194;0.404155;,
  -0.532718;0.790889;0.301174;,
  0.948995;-0.315253;0.004944;,
  0.948855;0.315663;0.005602;,
  -0.954053;0.283914;0.095793;,
  -0.953941;-0.284292;0.095786;,
  -0.955057;0.291915;-0.051497;,
  -0.468575;0.876223;-0.112563;,
  0.484760;0.866885;-0.116268;,
  0.955333;0.292882;-0.039480;,
  0.955627;-0.294580;0.000000;,
  0.486248;-0.873821;0.000000;,
  -0.947069;-0.320585;-0.016882;,
  -0.443161;-0.896442;-0.000096;,
  0.462052;-0.871713;0.163170;,
  0.882866;-0.469619;-0.002286;,
  -0.880790;-0.473451;-0.007273;,
  -0.462423;-0.872506;0.157793;,
  -0.880799;-0.473465;0.004909;,
  -0.455099;-0.882821;-0.116240;,
  0.454920;-0.882429;-0.119862;,
  0.882867;-0.469621;0.001543;,
  0.484760;0.866885;-0.116268;,
  0.421650;0.857655;-0.294346;,
  -0.421650;0.857655;-0.294346;,
  -0.470936;0.874939;-0.112701;,
  -0.445484;-0.895290;-0.000096;,
  -0.432330;-0.870451;-0.235385;,
  0.432330;-0.870451;-0.235385;,
  0.486248;-0.873821;0.000000;,
  0.569756;0.364549;0.736534;,
  -0.604473;0.296129;0.739540;,
  -0.604129;-0.298894;0.738708;,
  0.570054;-0.366892;0.735139;,
  0.944384;0.184905;-0.271936;,
  0.955333;0.292882;-0.039480;,
  0.955627;-0.294580;0.000000;,
  0.879182;-0.423698;-0.217989;,
  -0.589655;0.047423;-0.806262;,
  0.589655;0.047423;-0.806262;,
  0.421353;-0.755675;-0.501414;,
  -0.421353;-0.755675;-0.501414;,
  -0.955802;0.289475;-0.051449;,
  -0.944384;0.184905;-0.271936;,
  -0.879182;-0.423698;-0.217989;,
  -0.947899;-0.318123;-0.016867;;

  54;
  6;6,157,4,60,65,1;,
  4;16,13,11,8;,
  6;148,23,21,67,52,18;,
  4;33,31,28,25;,
  4;58,141,142,55;,
  4;50,47,45,42;,
  4;157,5,41,44;,
  4;118,119,27,30;,
  4;59,3,141,57;,
  4;2,157,15,7;,
  4;12,14,43,46;,
  4;155,10,142,141;,
  4;9,153,148,17;,
  4;22,148,137,49;,
  4;66,20,36,70;,
  4;88,85,32,24;,
  4;29,144,94,91;,
  4;147,26,99,96;,
  3;98,146,119;,
  3;141,158,155;,
  3;90,118,145;,
  3;138,152,157;,
  3;95,87,147;,
  3;142,154,151;,
  3;93,144,84;,
  3;137,148,153;,
  4;54,142,151,51;,
  4;69,35,39,63;,
  4;62,38,0,64;,
  4;86,113,76,78;,
  4;103,105,107,101;,
  4;92,117,123,80;,
  4;102,100,68,61;,
  4;106,104,56,53;,
  3;110,131,130;,
  3;109,132,133;,
  4;109,110,130,132;,
  3;111,129,128;,
  3;108,134,135;,
  4;111,108,135,129;,
  4;73,126,159,37;,
  4;75,72,140,34;,
  4;77,74,143,19;,
  4;79,123,149,48;,
  4;120,83,40,156;,
  4;82,122,136,139;,
  4;123,124,150,149;,
  4;126,120,156,159;,
  4;119,118,120,126;,
  4;117,116,124,123;,
  4;89,114,122,81;,
  4;113,97,71,125;,
  4;118,115,121,120;,
  4;112,119,126,127;;
 }
 MeshTextureCoords { 
 160;
 0.995117;0.094727;,
 0.995117;0.094727;,
 0.305664;0.096680;,
 0.073242;0.186523;,
 0.305664;0.096680;,
 0.995117;0.016602;,
 0.995117;0.016602;,
 0.252930;0.081055;,
 0.043945;0.196289;,
 0.252930;0.081055;,
 0.043945;0.250977;,
 0.043945;0.250977;,
 0.002365;0.976128;,
 0.006836;0.250977;,
 0.003806;0.866352;,
 0.182617;0.016602;,
 0.006836;0.196289;,
 0.305664;0.096680;,
 0.305664;0.096680;,
 0.008394;0.279515;,
 0.456055;0.262695;,
 0.995117;0.094727;,
 0.995117;0.016602;,
 0.995117;0.016602;,
 0.963867;0.249023;,
 0.468433;0.844090;,
 0.257567;0.360817;,
 0.963867;0.249023;,
 0.470491;0.673984;,
 0.470764;0.673985;,
 0.961681;0.138843;,
 0.470764;0.673985;,
 0.961681;0.138843;,
 0.468706;0.844092;,
 0.008724;0.282037;,
 0.456055;0.258789;,
 0.456055;0.258789;,
 0.485352;0.270508;,
 0.995117;0.102539;,
 0.456055;0.190430;,
 0.487305;0.174805;,
 0.995117;0.008789;,
 0.815406;0.854393;,
 0.041838;0.851377;,
 0.215820;0.008789;,
 0.041838;0.851377;,
 0.040001;0.991397;,
 0.040001;0.991397;,
 0.487305;0.174805;,
 0.995117;0.008789;,
 0.813569;0.994414;,
 0.124023;0.262695;,
 0.387695;0.096680;,
 0.826329;0.848648;,
 0.124023;0.258789;,
 0.124023;0.258789;,
 0.826603;0.993959;,
 0.124023;0.190430;,
 0.124023;0.190430;,
 0.124023;0.186523;,
 0.387695;0.096680;,
 0.605003;0.589499;,
 0.620178;0.103035;,
 0.250977;0.190430;,
 0.620178;0.096219;,
 0.620178;0.096219;,
 0.247070;0.262695;,
 0.620178;0.096219;,
 0.715741;0.589499;,
 0.250977;0.258789;,
 0.250977;0.258789;,
 0.118702;0.357306;,
 0.118702;0.357306;,
 0.694336;0.268555;,
 0.118290;0.281596;,
 0.117726;0.281605;,
 0.117726;0.281605;,
 0.118255;0.279113;,
 0.117692;0.278932;,
 0.695940;0.118968;,
 0.695940;0.118968;,
 0.207135;0.682581;,
 0.207135;0.682581;,
 0.695940;0.118968;,
 0.458814;0.839659;,
 0.954102;0.125977;,
 0.253384;0.278393;,
 0.251200;0.277098;,
 0.954102;0.260742;,
 0.460702;0.683653;,
 0.952148;0.118164;,
 0.460702;0.683653;,
 0.952148;0.118164;,
 0.458879;0.834339;,
 0.458879;0.834339;,
 0.251234;0.279786;,
 0.251234;0.279786;,
 0.254394;0.356767;,
 0.950195;0.268555;,
 0.252200;0.355932;,
 0.699879;0.646919;,
 0.227539;0.250977;,
 0.621573;0.646919;,
 0.227539;0.200195;,
 0.868523;0.975041;,
 0.155273;0.200195;,
 0.868789;0.874590;,
 0.155273;0.250977;,
 0.454165;0.137197;,
 0.454165;0.137197;,
 0.579542;0.137197;,
 0.579542;0.137197;,
 0.950195;0.268555;,
 0.253418;0.281066;,
 0.458879;0.834339;,
 0.952148;0.118164;,
 0.954102;0.260742;,
 0.954102;0.125977;,
 0.914154;0.144907;,
 0.913910;0.237252;,
 0.733335;0.144907;,
 0.695940;0.118968;,
 0.205312;0.833267;,
 0.695940;0.125784;,
 0.694336;0.262695;,
 0.117726;0.281605;,
 0.733091;0.237252;,
 0.694336;0.268555;,
 0.618886;0.106630;,
 0.618886;0.098939;,
 0.618886;0.098939;,
 0.618886;0.106630;,
 0.395871;0.098939;,
 0.395871;0.106630;,
 0.395871;0.106630;,
 0.395871;0.098939;,
 0.001619;0.832406;,
 0.215820;0.008789;,
 0.215820;0.008789;,
 0.003442;0.681720;,
 0.009700;0.357739;,
 0.073242;0.190430;,
 0.073242;0.258789;,
 0.008429;0.281998;,
 0.468706;0.844092;,
 0.961681;0.138843;,
 0.963867;0.249023;,
 0.256477;0.274858;,
 0.215820;0.014648;,
 0.487305;0.180664;,
 0.485352;0.262695;,
 0.073242;0.262695;,
 0.182617;0.016602;,
 0.182617;0.016602;,
 0.043945;0.250977;,
 0.043945;0.196289;,
 0.487305;0.180664;,
 0.215820;0.014648;,
 0.073242;0.186523;,
 0.485352;0.262695;;
 }
}
Frame frm-cube6_1 {
  FrameTransformMatrix {
1.000000,0.000000,0.000000,0.000000,
0.000000,1.000000,0.000000,0.000000,
0.000000,0.000000,1.000000,0.000000,
1.613029,0.000000,0.000000,1.000000;;
 }
Mesh cube6_1 {
 147;
 0.923590;0.264262;9.950757;,
 0.923590;0.264262;9.950757;,
 0.923590;0.264262;9.950757;,
 -0.783694;0.264262;9.950757;,
 -0.783694;0.264262;9.950757;,
 -0.783694;0.264262;9.950757;,
 -0.783694;0.868748;9.953873;,
 -0.783694;0.868748;9.953873;,
 -0.783694;0.868748;9.953873;,
 0.923590;0.868748;9.953873;,
 0.923590;0.868748;9.953873;,
 0.923590;0.868748;9.953873;,
 0.339713;-0.113668;3.351838;,
 0.339713;-0.113668;3.351838;,
 0.339713;-0.113668;3.351838;,
 -0.783694;-0.113668;3.351838;,
 -0.783694;-0.113668;3.351838;,
 -0.783694;-0.113668;3.351838;,
 -0.783694;0.429213;3.354947;,
 -0.783694;0.429213;3.354947;,
 -0.783694;0.429213;3.354947;,
 0.339713;0.429213;3.354947;,
 0.339713;0.429213;3.354947;,
 0.339713;0.429213;3.354947;,
 -0.783694;-0.113668;5.203605;,
 -0.783694;-0.113668;5.203605;,
 -0.783694;-0.113668;5.203605;,
 0.923589;0.933131;5.206714;,
 0.923589;0.933131;5.206714;,
 0.923589;0.933131;5.206714;,
 -0.783694;0.933131;5.206714;,
 -0.783694;0.933131;5.206714;,
 -0.783694;0.933131;5.206714;,
 -0.783694;0.933131;7.511890;,
 -0.783694;0.933131;7.511890;,
 0.923589;0.933131;7.511890;,
 0.923589;0.933131;7.511890;,
 0.923589;0.933131;7.511890;,
 0.923589;0.199880;7.508781;,
 0.923589;0.199880;7.508781;,
 0.923589;0.199880;7.508781;,
 -0.783694;0.199880;7.508781;,
 -0.783694;0.199880;7.508781;,
 -0.783694;0.199880;7.508781;,
 0.339713;-0.113668;4.165102;,
 0.395050;-0.049286;4.165102;,
 0.395050;-0.049286;4.165102;,
 0.395050;-0.049286;4.165102;,
 -0.058464;0.158620;5.078639;,
 -0.113805;0.217749;4.165102;,
 -0.113805;0.217749;4.165102;,
 0.978926;0.217882;5.205159;,
 0.978926;0.217882;5.205159;,
 0.395050;0.217987;4.166656;,
 0.395050;0.217987;4.166656;,
 0.395050;0.217987;4.166656;,
 0.395050;0.217987;4.166656;,
 -0.119392;-0.113668;4.165102;,
 -0.064051;-0.113668;5.203605;,
 -0.064051;-0.113668;5.203605;,
 0.120559;0.023278;3.213315;,
 0.120559;0.023278;3.213315;,
 0.120559;0.023278;3.213315;,
 0.120559;0.292267;3.215201;,
 0.120559;0.292267;3.215201;,
 0.120559;0.292267;3.215201;,
 -0.564540;0.292267;3.215201;,
 -0.564540;0.292267;3.215201;,
 -0.564540;0.292267;3.215201;,
 -0.564540;0.023278;3.213315;,
 -0.564540;0.023278;3.213315;,
 -0.564540;0.023278;3.213315;,
 0.923589;0.933131;9.863161;,
 0.923589;0.933131;9.863161;,
 0.923589;0.933131;9.863161;,
 -0.783694;0.933131;9.863161;,
 -0.783694;0.933131;9.863161;,
 -0.783694;0.199880;9.860052;,
 -0.783694;0.199880;9.860052;,
 -0.783694;0.199880;9.860052;,
 0.923589;0.199880;9.860052;,
 0.923589;0.199880;9.860052;,
 0.923589;0.199880;9.860052;,
 0.923589;-0.113668;5.203605;,
 0.923589;-0.113668;5.203605;,
 0.923589;-0.113668;5.203605;,
 0.923589;-0.113668;5.203605;,
 -0.190609;0.823485;9.714646;,
 0.282537;0.823485;9.714646;,
 0.289357;0.819596;7.494449;,
 -0.482109;0.819596;5.323410;,
 0.616528;0.819596;5.323410;,
 -0.195508;0.819596;7.494449;,
 -0.230540;0.868748;9.953873;,
 0.320912;0.868748;9.953873;,
 -0.237678;0.933131;9.863161;,
 0.330848;0.933131;9.863161;,
 -0.570284;0.933131;5.206714;,
 -0.236250;0.933131;7.511890;,
 0.328861;0.933131;7.511890;,
 0.710179;0.933131;5.206714;,
 0.923589;0.199880;9.860052;,
 -0.783694;0.199880;9.860052;,
 -0.783694;0.933131;9.863161;,
 0.923589;0.933131;9.863161;,
 -0.839031;0.868749;9.863161;,
 -0.839031;0.264262;9.860052;,
 0.978926;0.868749;9.863161;,
 0.978926;0.264262;9.860052;,
 -0.564540;0.023278;3.213315;,
 -0.564540;0.292267;3.215201;,
 0.120559;0.292267;3.215201;,
 0.120559;0.023278;3.213315;,
 0.978926;0.868749;5.206714;,
 -0.064051;-0.113668;5.203605;,
 -0.119392;-0.113668;4.165102;,
 0.395050;0.217987;4.166656;,
 0.978926;0.217882;5.205159;,
 -0.113805;0.217749;4.165102;,
 -0.058464;0.158620;5.078639;,
 0.395050;-0.049286;4.165102;,
 0.339713;-0.113668;4.165102;,
 -0.783694;0.199880;7.508781;,
 0.923589;0.199880;7.508781;,
 0.923589;0.933131;7.511890;,
 -0.783694;0.933131;7.511890;,
 0.978926;0.264262;7.508781;,
 0.978926;0.868749;7.511890;,
 -0.839031;0.868749;7.511890;,
 -0.839031;0.264262;7.508781;,
 -0.839031;0.868749;5.206714;,
 -0.783694;0.933131;5.206714;,
 0.923589;0.933131;5.206714;,
 -0.839031;-0.049286;5.203605;,
 -0.783694;-0.113668;5.203605;,
 0.339713;0.429213;3.354947;,
 -0.783694;0.429213;3.354947;,
 -0.783694;-0.113668;3.351838;,
 0.339713;-0.113668;3.351838;,
 0.923590;0.868748;9.953873;,
 -0.783694;0.868748;9.953873;,
 -0.783694;0.264262;9.950757;,
 0.923590;0.264262;9.950757;,
 0.395050;0.364831;3.354947;,
 0.395050;-0.049286;3.351838;,
 -0.839031;0.364831;3.354947;,
 -0.839031;-0.049286;3.351838;;

 62;
 3;126,40,85;,
 4;37,127,113,29;,
 4;43,129,133,26;,
 6;11,94,93,8,5,2;,
 4;128,34,32,130;,
 5;39,42,25,59,84;,
 4;99,36,28,100;,
 4;105,106,4,7;,
 5;127,126,83,52,113;,
 4;129,128,130,133;,
 4;133,130,145,146;,
 3;56,113,51;,
 6;31,97,100,27,23,20;,
 4;130,30,19,145;,
 4;132,113,143,22;,
 4;108,107,10,1;,
 4;94,9,74,96;,
 4;0,3,79,82;,
 3;78,141,106;,
 3;55,50,47;,
 3;76,105,6;,
 4;57,49,48,58;,
 3;81,108,142;,
 4;24,133,146,17;,
 3;73,139,107;,
 4;44,14,144,46;,
 4;54,45,144,143;,
 4;117,119,118,53;,
 6;114,134,16,13,121,115;,
 3;118,121,120;,
 4;90,91,100,97;,
 3;119,117,86;,
 3;118,115,121;,
 3;114,119,86;,
 4;68,71,146,145;,
 4;70,62,12,15;,
 4;61,65,143,144;,
 3;60,144,138;,
 3;69,137,146;,
 3;64,21,143;,
 3;67,145,18;,
 4;63,66,136,135;,
 4;111,112,109,110;,
 4;107,108,126,127;,
 4;106,105,128,129;,
 4;96,72,35,99;,
 4;80,77,41,38;,
 4;105,75,33,128;,
 4;102,106,129,122;,
 4;104,107,127,124;,
 4;108,101,123,126;,
 4;97,131,125,98;,
 4;92,89,91,90;,
 4;95,103,140,93;,
 4;87,88,89,92;,
 4;98,125,103,95;,
 5;87,92,98,95,93;,
 5;99,89,88,94,96;,
 4;88,87,93,94;,
 4;92,90,97,98;,
 4;91,89,99,100;,
 3;143,113,116;;

 MeshMaterialList {
  3;
  62;
  0,
  0,
  0,
  1,
  0,
  1,
  1,
  0,
  0,
  0,
  0,
  0,
  1,
  0,
  0,
  0,
  1,
  1,
  0,
  1,
  0,
  0,
  0,
  0,
  0,
  0,
  0,
  1,
  1,
  1,
  1,
  1,
  1,
  1,
  0,
  1,
  0,
  0,
  0,
  0,
  0,
  1,
  2,
  0,
  0,
  1,
  1,
  0,
  0,
  0,
  0,
  1,
  1,
  1,
  1,
  1,
  1,
  1,
  1,
  1,
  1,
  0;
Material {
 1.000000;1.000000;1.000000;1.000000;;
 50.000000;
 1.000000;1.000000;1.000000;;
 0.0; 0.0; 0.0;;
 TextureFilename {
  "cap302.ppm";
 }
 }
Material {
 1.000000;1.000000;1.000000;1.000000;;
 50.000000;
 1.000000;1.000000;1.000000;;
 0.0; 0.0; 0.0;;
 TextureFilename {
  "cap302.ppm";
 }
 }
Material {
 1.000000;1.000000;1.000000;1.000000;;
 50.000000;
 1.000000;1.000000;1.000000;;
 0.0; 0.0; 0.0;;
 TextureFilename {
  "cap302.ppm";
 }
 }
}
 MeshNormals {
  147;
  0.470789;-0.431990;0.769248;,
  0.470789;-0.431990;0.769248;,
  0.470789;-0.431990;0.769248;,
  -0.470789;-0.431990;0.769248;,
  -0.470789;-0.431990;0.769248;,
  -0.470789;-0.431990;0.769248;,
  -0.471764;0.428096;0.770826;,
  -0.471764;0.428096;0.770826;,
  -0.471764;0.428096;0.770826;,
  0.471765;0.428095;0.770826;,
  0.471765;0.428095;0.770826;,
  0.471765;0.428095;0.770826;,
  0.339107;-0.809620;-0.479084;,
  0.339107;-0.809620;-0.479084;,
  0.339107;-0.809620;-0.479084;,
  -0.339106;-0.809620;-0.479084;,
  -0.339106;-0.809620;-0.479084;,
  -0.339106;-0.809620;-0.479084;,
  -0.317613;0.753170;-0.576070;,
  -0.317613;0.753170;-0.576070;,
  -0.317613;0.753170;-0.576070;,
  0.297325;0.724763;-0.621544;,
  0.297325;0.724763;-0.621544;,
  0.297325;0.724763;-0.621544;,
  -0.416993;-0.906830;0.061454;,
  -0.416993;-0.906830;0.061454;,
  -0.416993;-0.906830;0.061454;,
  0.405997;0.895946;-0.180128;,
  0.405997;0.895946;-0.180128;,
  0.405997;0.895946;-0.180128;,
  -0.416242;0.901178;-0.120921;,
  -0.416242;0.901178;-0.120921;,
  -0.416242;0.901178;-0.120921;,
  -0.417236;0.908798;0.000000;,
  -0.417236;0.908798;0.000000;,
  0.417237;0.908798;0.000000;,
  0.417237;0.908798;0.000000;,
  0.417237;0.908798;0.000000;,
  0.416993;-0.906830;0.061454;,
  0.416993;-0.906830;0.061454;,
  0.416993;-0.906830;0.061454;,
  -0.416993;-0.906830;0.061454;,
  -0.416993;-0.906830;0.061454;,
  -0.416993;-0.906830;0.061454;,
  0.295031;-0.642617;0.707107;,
  0.662077;-0.247889;0.707252;,
  0.662077;-0.247889;0.707252;,
  0.662077;-0.247889;0.707252;,
  0.419316;-0.529771;-0.737236;,
  0.319294;-0.318506;0.892527;,
  0.319294;-0.318506;0.892527;,
  0.747453;-0.373496;-0.549377;,
  0.747453;-0.373496;-0.549377;,
  0.870883;-0.481876;0.096740;,
  0.870883;-0.481876;0.096740;,
  0.870883;-0.481876;0.096740;,
  0.870883;-0.481876;0.096740;,
  0.581410;-0.600339;0.549141;,
  0.360676;-0.882972;-0.300455;,
  0.360676;-0.882972;-0.300455;,
  0.219432;-0.271948;-0.936960;,
  0.219432;-0.271948;-0.936960;,
  0.219432;-0.271948;-0.936960;,
  0.219806;0.280281;-0.934413;,
  0.219806;0.280281;-0.934413;,
  0.219806;0.280281;-0.934413;,
  -0.219806;0.280281;-0.934413;,
  -0.219806;0.280281;-0.934413;,
  -0.219806;0.280281;-0.934413;,
  -0.219432;-0.271948;-0.936960;,
  -0.219432;-0.271948;-0.936960;,
  -0.219432;-0.271948;-0.936960;,
  0.410045;0.867027;0.283067;,
  0.410045;0.867027;0.283067;,
  0.410045;0.867027;0.283067;,
  -0.410045;0.867027;0.283067;,
  -0.410045;0.867027;0.283067;,
  -0.410044;-0.867024;0.283079;,
  -0.410044;-0.867024;0.283079;,
  -0.410044;-0.867024;0.283079;,
  0.410045;-0.867024;0.283079;,
  0.410045;-0.867024;0.283079;,
  0.410045;-0.867024;0.283079;,
  0.604563;-0.662746;-0.441896;,
  0.604563;-0.662746;-0.441896;,
  0.604563;-0.662746;-0.441896;,
  0.604563;-0.662746;-0.441896;,
  0.367000;0.927347;-0.073066;,
  -0.366727;0.927436;-0.073305;,
  -0.541054;0.839967;-0.041427;,
  0.347744;0.904336;0.247488;,
  -0.345626;0.906883;0.241052;,
  0.543183;0.838828;-0.036324;,
  0.319207;0.773939;0.546924;,
  -0.319043;0.774205;0.546642;,
  0.368647;0.897641;0.241539;,
  -0.368407;0.897825;0.241218;,
  0.249945;0.962987;0.100915;,
  0.543193;0.838844;-0.035803;,
  -0.541065;0.839985;-0.040907;,
  -0.248179;0.963927;0.096181;,
  0.410045;-0.867024;0.283079;,
  -0.410044;-0.867024;0.283079;,
  -0.410045;0.867027;0.283067;,
  0.410045;0.867027;0.283067;,
  -0.904405;0.340004;0.257776;,
  -0.903952;-0.341301;0.257653;,
  0.904406;0.340003;0.257776;,
  0.903952;-0.341301;0.257652;,
  -0.219432;-0.271948;-0.936960;,
  -0.219806;0.280281;-0.934413;,
  0.219806;0.280281;-0.934413;,
  0.219432;-0.271948;-0.936960;,
  0.962162;0.151231;-0.226657;,
  0.360676;-0.882972;-0.300455;,
  0.581410;-0.600339;0.549141;,
  0.870883;-0.481876;0.096740;,
  0.747453;-0.373496;-0.549377;,
  0.319294;-0.318506;0.892527;,
  0.419316;-0.529771;-0.737236;,
  0.662077;-0.247889;0.707252;,
  0.295031;-0.642617;0.707107;,
  -0.416993;-0.906830;0.061454;,
  0.416993;-0.906830;0.061454;,
  0.417237;0.908798;0.000000;,
  -0.417236;0.908798;0.000000;,
  0.934438;-0.355338;0.023677;,
  0.940631;0.339431;0.000188;,
  -0.937648;0.347587;0.000000;,
  -0.937513;-0.347150;0.023563;,
  -0.937121;0.345868;-0.046696;,
  -0.416242;0.901178;-0.120921;,
  0.405997;0.895946;-0.180128;,
  -0.937513;-0.347150;0.023563;,
  -0.416993;-0.906830;0.061454;,
  0.297325;0.724763;-0.621544;,
  -0.317613;0.753170;-0.576070;,
  -0.339106;-0.809620;-0.479084;,
  0.339107;-0.809620;-0.479084;,
  0.471765;0.428095;0.770826;,
  -0.471764;0.428096;0.770826;,
  -0.470789;-0.431990;0.769248;,
  0.470789;-0.431990;0.769248;,
  0.821404;0.091534;-0.562954;,
  0.795465;-0.295650;-0.528987;,
  -0.763379;0.286301;-0.579037;,
  -0.795464;-0.295651;-0.528987;;

  62;
  3;126,40,85;,
  4;37,127,113,29;,
  4;43,129,133,26;,
  6;11,94,93,8,5,2;,
  4;128,34,32,130;,
  5;39,42,25,59,84;,
  4;99,36,28,100;,
  4;105,106,4,7;,
  5;127,126,83,52,113;,
  4;129,128,130,133;,
  4;133,130,145,146;,
  3;56,113,51;,
  6;31,97,100,27,23,20;,
  4;130,30,19,145;,
  4;132,113,143,22;,
  4;108,107,10,1;,
  4;94,9,74,96;,
  4;0,3,79,82;,
  3;78,141,106;,
  3;55,50,47;,
  3;76,105,6;,
  4;57,49,48,58;,
  3;81,108,142;,
  4;24,133,146,17;,
  3;73,139,107;,
  4;44,14,144,46;,
  4;54,45,144,143;,
  4;117,119,118,53;,
  6;114,134,16,13,121,115;,
  3;118,121,120;,
  4;90,91,100,97;,
  3;119,117,86;,
  3;118,115,121;,
  3;114,119,86;,
  4;68,71,146,145;,
  4;70,62,12,15;,
  4;61,65,143,144;,
  3;60,144,138;,
  3;69,137,146;,
  3;64,21,143;,
  3;67,145,18;,
  4;63,66,136,135;,
  4;111,112,109,110;,
  4;107,108,126,127;,
  4;106,105,128,129;,
  4;96,72,35,99;,
  4;80,77,41,38;,
  4;105,75,33,128;,
  4;102,106,129,122;,
  4;104,107,127,124;,
  4;108,101,123,126;,
  4;97,131,125,98;,
  4;92,89,91,90;,
  4;95,103,140,93;,
  4;87,88,89,92;,
  4;98,125,103,95;,
  5;87,92,98,95,93;,
  5;99,89,88,94,96;,
  4;88,87,93,94;,
  4;92,90,97,98;,
  4;91,89,99,100;,
  3;143,113,116;;
 }
 MeshTextureCoords { 
 147;
 0.975586;0.690430;,
 0.975654;0.334852;,
 0.975586;0.690430;,
 0.973633;0.549805;,
 0.975654;0.334852;,
 0.973633;0.549805;,
 0.975922;0.285691;,
 0.975922;0.285691;,
 0.973633;0.549805;,
 0.975586;0.690430;,
 0.975922;0.285691;,
 0.975586;0.690430;,
 0.406309;0.434690;,
 0.406309;0.434690;,
 0.407762;0.365587;,
 0.406309;0.530421;,
 0.406309;0.530421;,
 0.407762;0.365587;,
 0.408029;0.321437;,
 0.408029;0.321437;,
 0.407227;0.543945;,
 0.408029;0.321437;,
 0.408029;0.321437;,
 0.407227;0.639648;,
 0.567122;0.365587;,
 0.567673;0.528467;,
 0.567122;0.365587;,
 0.565430;0.690430;,
 0.565430;0.690430;,
 0.567389;0.280455;,
 0.567389;0.280455;,
 0.567383;0.545898;,
 0.567389;0.280455;,
 0.765769;0.280455;,
 0.765769;0.280455;,
 0.764648;0.690430;,
 0.764648;0.690430;,
 0.765769;0.280455;,
 0.766426;0.383894;,
 0.766426;0.383894;,
 0.765502;0.340088;,
 0.764459;0.528467;,
 0.764459;0.528467;,
 0.765502;0.340088;,
 0.477750;0.365587;,
 0.477750;0.360351;,
 0.477750;0.360351;,
 0.477873;0.433529;,
 0.556368;0.343443;,
 0.477750;0.338634;,
 0.477296;0.475236;,
 0.567256;0.338624;,
 0.567256;0.338624;,
 0.478007;0.433528;,
 0.477884;0.338615;,
 0.478007;0.433528;,
 0.477884;0.338615;,
 0.477750;0.365587;,
 0.567122;0.365587;,
 0.566683;0.470000;,
 0.395841;0.354450;,
 0.395841;0.354450;,
 0.392533;0.452273;,
 0.393555;0.622070;,
 0.396003;0.332574;,
 0.396003;0.332574;,
 0.393555;0.563477;,
 0.396003;0.332574;,
 0.396003;0.332574;,
 0.395841;0.354450;,
 0.392533;0.510884;,
 0.395841;0.354450;,
 0.967773;0.690430;,
 0.968116;0.280455;,
 0.967773;0.690430;,
 0.968116;0.280455;,
 0.968116;0.280455;,
 0.971084;0.526514;,
 0.967848;0.340088;,
 0.967773;0.547852;,
 0.971084;0.383894;,
 0.967848;0.340088;,
 0.967773;0.690430;,
 0.567122;0.365587;,
 0.565705;0.383894;,
 0.567122;0.365587;,
 0.565705;0.383894;,
 0.959961;0.596680;,
 0.959961;0.633789;,
 0.762378;0.635861;,
 0.576158;0.570227;,
 0.577394;0.660248;,
 0.762695;0.596680;,
 0.973633;0.590820;,
 0.973633;0.639648;,
 0.967773;0.592773;,
 0.967773;0.639648;,
 0.567383;0.561523;,
 0.763276;0.592813;,
 0.763911;0.639118;,
 0.567383;0.672852;,
 0.967848;0.340088;,
 0.967848;0.340088;,
 0.967773;0.547852;,
 0.968116;0.280455;,
 0.968116;0.285691;,
 0.967848;0.334852;,
 0.968116;0.285691;,
 0.967848;0.334852;,
 0.401386;0.067620;,
 0.401386;0.046583;,
 0.449318;0.046583;,
 0.449318;0.067620;,
 0.567389;0.285691;,
 0.566683;0.470000;,
 0.477290;0.475694;,
 0.477884;0.338615;,
 0.565705;0.379987;,
 0.477296;0.475236;,
 0.555940;0.469681;,
 0.477873;0.433529;,
 0.477810;0.438065;,
 0.765502;0.340088;,
 0.765502;0.340088;,
 0.765769;0.280455;,
 0.762695;0.545898;,
 0.765502;0.334852;,
 0.765769;0.285691;,
 0.765769;0.285691;,
 0.765502;0.334852;,
 0.567389;0.285691;,
 0.567383;0.545898;,
 0.567389;0.280455;,
 0.567122;0.360351;,
 0.567673;0.528467;,
 0.407227;0.639648;,
 0.407227;0.543945;,
 0.407762;0.365587;,
 0.407762;0.365587;,
 0.975922;0.285691;,
 0.973633;0.549805;,
 0.975654;0.334852;,
 0.975654;0.334852;,
 0.408029;0.326673;,
 0.407762;0.360351;,
 0.408029;0.326673;,
 0.407762;0.360351;;
 }
}
Frame frm-cyl1_10 {
  FrameTransformMatrix {
1.000000,0.000000,0.000000,0.000000,
0.000000,1.000000,0.000000,0.000000,
0.000000,0.000000,1.000000,0.000000,
-0.474977,0.506992,10.289458,1.000000;;
 }
Mesh cyl1_10 {
 18;
 0.177026;0.143802;0.176469;,
 -0.000000;0.249183;0.176469;,
 -0.177026;0.143801;0.176469;,
 -0.177026;-0.059978;0.176469;,
 0.000000;-0.160971;0.176469;,
 0.177026;-0.059977;0.176469;,
 0.000000;-0.239258;-0.334203;,
 0.177026;-0.059977;0.176469;,
 0.000000;-0.160971;0.176469;,
 -0.177026;-0.059978;0.176469;,
 -0.177026;0.143801;0.176469;,
 -0.000000;0.249183;0.176469;,
 0.177026;0.143802;0.176469;,
 0.260666;-0.096445;-0.334203;,
 -0.260666;-0.096445;-0.334203;,
 -0.260666;0.203615;-0.334203;,
 -0.000000;0.358786;-0.334203;,
 0.260666;0.203615;-0.334203;;

 7;
 6;0,1,2,3,4,5;,
 4;16,15,10,11;,
 4;13,17,12,7;,
 4;15,14,9,10;,
 4;17,16,11,12;,
 4;7,8,6,13;,
 4;8,9,14,6;;

 MeshMaterialList {
  2;
  7;
  0,
  1,
  1,
  1,
  1,
  1,
  1;
Material {
 1.000000;1.000000;1.000000;1.000000;;
 50.000000;
 1.000000;1.000000;1.000000;;
 0.0; 0.0; 0.0;;
 TextureFilename {
  "cap302.ppm";
 }
 }
Material {
 1.000000;1.000000;1.000000;1.000000;;
 50.000000;
 1.000000;1.000000;1.000000;;
 0.0; 0.0; 0.0;;
 TextureFilename {
  "cap302.ppm";
 }
 }
}
 MeshNormals {
  18;
  0.709187;0.402234;0.579018;,
  -0.000001;0.778461;0.627693;,
  -0.709188;0.402233;0.579018;,
  -0.685454;-0.403837;0.605862;,
  0.000001;-0.833008;0.553262;,
  0.685455;-0.403836;0.605862;,
  0.000001;-0.987751;0.156038;,
  0.685455;-0.403836;0.605862;,
  0.000001;-0.833008;0.553262;,
  -0.685454;-0.403837;0.605862;,
  -0.709188;0.402233;0.579018;,
  -0.000001;0.778461;0.627693;,
  0.709187;0.402234;0.579018;,
  0.848693;-0.500008;0.172374;,
  -0.848692;-0.500009;0.172374;,
  -0.852900;0.483743;0.196352;,
  -0.000001;0.977734;0.209848;,
  0.852900;0.483744;0.196352;;

  7;
  6;0,1,2,3,4,5;,
  4;16,15,10,11;,
  4;13,17,12,7;,
  4;15,14,9,10;,
  4;17,16,11,12;,
  4;7,8,6,13;,
  4;8,9,14,6;;
 }
 MeshTextureCoords { 
 18;
 0.145269;0.061357;,
 0.095703;0.032379;,
 0.046138;0.061357;,
 0.046138;0.117395;,
 0.095703;0.145167;,
 0.145269;0.117395;,
 0.089757;0.457050;,
 0.158912;0.432896;,
 0.158912;0.446503;,
 0.158912;0.432896;,
 0.158912;0.405441;,
 0.158912;0.391244;,
 0.158912;0.405441;,
 0.089757;0.437809;,
 0.089757;0.437809;,
 0.089757;0.397383;,
 0.089757;0.376477;,
 0.089757;0.397383;;
 }
}
}
Frame frm-sphere8 {
  FrameTransformMatrix {
1.000000,0.000000,0.000000,0.000000,
0.000000,1.000000,0.000000,0.000000,
0.000000,0.000000,1.000000,0.000000,
0.904424,0.408070,5.283686,1.000000;;
 }
Mesh sphere8 {
 7;
 0.070934;-0.059569;0.034392;,
 0.070934;-0.059569;-0.034392;,
 0.070934;-0.000000;-0.068785;,
 0.070934;0.059569;-0.034392;,
 0.070934;0.059569;0.034392;,
 0.070934;-0.000000;0.068785;,
 0.110985;-0.000000;-0.000000;;

 6;
 3;6,5,0;,
 3;6,0,1;,
 3;6,1,2;,
 3;6,2,3;,
 3;6,3,4;,
 3;6,4,5;;

 MeshMaterialList {
  1;
  6;
  0,
  0,
  0,
  0,
  0,
  0;
Material {
 1.000000;1.000000;1.000000;1.000000;;
 50.000000;
 1.000000;1.000000;1.000000;;
 0.000000;0.000000;0.000000;;
 TextureFilename {
  "cap302.ppm";
 }
 }
}
 MeshNormals {
  7;
  0.864176;-0.435775;0.251595;,
  0.864176;-0.435775;-0.251594;,
  0.864176;-0.000000;-0.503189;,
  0.864176;0.435775;-0.251595;,
  0.864176;0.435775;0.251595;,
  0.864176;0.000000;0.503189;,
  1.000000;-0.000000;0.000000;;

  6;
  3;6,5,0;,
  3;6,0,1;,
  3;6,1,2;,
  3;6,2,3;,
  3;6,3,4;,
  3;6,4,5;;
 }
 MeshTextureCoords { 
 7;
 0.000000;1.000000;,
 0.000000;1.000000;,
 0.000000;1.000000;,
 0.000000;1.000000;,
 0.000000;1.000000;,
 0.000000;1.000000;,
 0.000000;1.000000;;
 }
}
}
Frame frm-cyl1_14 {
  FrameTransformMatrix {
1.000000,0.000000,0.000000,0.000000,
0.000000,1.000000,0.000000,0.000000,
0.000000,0.000000,1.000000,0.000000,
0.068539,0.506992,10.289458,1.000000;;
 }
Mesh cyl1_14 {
 18;
 0.177026;0.143802;0.176469;,
 -0.000000;0.249183;0.176469;,
 -0.177026;0.143801;0.176469;,
 -0.177026;-0.059978;0.176469;,
 0.000000;-0.160971;0.176469;,
 0.177026;-0.059977;0.176469;,
 0.000000;-0.239258;-0.334203;,
 0.177026;-0.059977;0.176469;,
 0.000000;-0.160971;0.176469;,
 -0.177026;-0.059978;0.176469;,
 -0.177026;0.143801;0.176469;,
 -0.000000;0.249183;0.176469;,
 0.177026;0.143802;0.176469;,
 0.260666;-0.096445;-0.334203;,
 -0.260666;-0.096445;-0.334203;,
 -0.260666;0.203615;-0.334203;,
 -0.000000;0.358786;-0.334203;,
 0.260666;0.203615;-0.334203;;

 7;
 6;0,1,2,3,4,5;,
 4;16,15,10,11;,
 4;13,17,12,7;,
 4;15,14,9,10;,
 4;17,16,11,12;,
 4;7,8,6,13;,
 4;8,9,14,6;;

 MeshMaterialList {
  2;
  7;
  0,
  1,
  1,
  1,
  1,
  1,
  1;
Material {
 1.000000;1.000000;1.000000;1.000000;;
 50.000000;
 1.000000;1.000000;1.000000;;
 0.0; 0.0; 0.0;;
 TextureFilename {
  "cap302.ppm";
 }
 }
Material {
 1.000000;1.000000;1.000000;1.000000;;
 50.000000;
 1.000000;1.000000;1.000000;;
 0.0; 0.0; 0.0;;
 TextureFilename {
  "cap302.ppm";
 }
 }
}
 MeshNormals {
  18;
  0.709187;0.402234;0.579018;,
  -0.000001;0.778461;0.627693;,
  -0.709188;0.402233;0.579018;,
  -0.685454;-0.403837;0.605862;,
  0.000001;-0.833008;0.553262;,
  0.685455;-0.403836;0.605862;,
  0.000001;-0.987751;0.156038;,
  0.685455;-0.403836;0.605862;,
  0.000001;-0.833008;0.553262;,
  -0.685454;-0.403837;0.605862;,
  -0.709188;0.402233;0.579018;,
  -0.000001;0.778461;0.627693;,
  0.709187;0.402234;0.579018;,
  0.848693;-0.500008;0.172374;,
  -0.848692;-0.500009;0.172374;,
  -0.852900;0.483743;0.196352;,
  -0.000001;0.977734;0.209848;,
  0.852900;0.483744;0.196352;;

  7;
  6;0,1,2,3,4,5;,
  4;16,15,10,11;,
  4;13,17,12,7;,
  4;15,14,9,10;,
  4;17,16,11,12;,
  4;7,8,6,13;,
  4;8,9,14,6;;
 }
 MeshTextureCoords { 
 18;
 0.147457;0.058915;,
 0.091797;0.027392;,
 0.036137;0.058915;,
 0.036137;0.119872;,
 0.091797;0.150083;,
 0.147457;0.119872;,
 0.089757;0.457050;,
 0.158912;0.432896;,
 0.158912;0.446503;,
 0.158912;0.432896;,
 0.158912;0.405441;,
 0.158912;0.391244;,
 0.158912;0.405441;,
 0.089757;0.437809;,
 0.089757;0.437809;,
 0.089757;0.397383;,
 0.089757;0.376477;,
 0.089757;0.397383;;
 }
}
}
Frame frm-cyl1_15 {
  FrameTransformMatrix {
1.000000,0.000000,0.000000,0.000000,
0.000000,1.000000,0.000000,0.000000,
0.000000,0.000000,1.000000,0.000000,
0.614837,0.506992,10.289458,1.000000;;
 }
Mesh cyl1_15 {
 18;
 0.177026;0.143802;0.176469;,
 -0.000000;0.249183;0.176469;,
 -0.177026;0.143801;0.176469;,
 -0.177026;-0.059978;0.176469;,
 0.000000;-0.160971;0.176469;,
 0.177026;-0.059977;0.176469;,
 0.000000;-0.239258;-0.334203;,
 0.177026;-0.059977;0.176469;,
 0.000000;-0.160971;0.176469;,
 -0.177026;-0.059978;0.176469;,
 -0.177026;0.143801;0.176469;,
 -0.000000;0.249183;0.176469;,
 0.177026;0.143802;0.176469;,
 0.260666;-0.096445;-0.334203;,
 -0.260666;-0.096445;-0.334203;,
 -0.260666;0.203615;-0.334203;,
 -0.000000;0.358786;-0.334203;,
 0.260666;0.203615;-0.334203;;

 7;
 6;0,1,2,3,4,5;,
 4;16,15,10,11;,
 4;13,17,12,7;,
 4;15,14,9,10;,
 4;17,16,11,12;,
 4;7,8,6,13;,
 4;8,9,14,6;;

 MeshMaterialList {
  2;
  7;
  0,
  1,
  1,
  1,
  1,
  1,
  1;
Material {
 1.000000;1.000000;1.000000;1.000000;;
 50.000000;
 1.000000;1.000000;1.000000;;
 0.0; 0.0; 0.0;;
 TextureFilename {
  "cap302.ppm";
 }
 }
Material {
 1.000000;1.000000;1.000000;1.000000;;
 50.000000;
 1.000000;1.000000;1.000000;;
 0.0; 0.0; 0.0;;
 TextureFilename {
  "cap302.ppm";
 }
 }
}
 MeshNormals {
  18;
  0.709187;0.402234;0.579018;,
  -0.000001;0.778461;0.627693;,
  -0.709188;0.402233;0.579018;,
  -0.685454;-0.403837;0.605862;,
  0.000001;-0.833008;0.553262;,
  0.685455;-0.403836;0.605862;,
  0.000001;-0.987751;0.156038;,
  0.685455;-0.403836;0.605862;,
  0.000001;-0.833008;0.553262;,
  -0.685454;-0.403837;0.605862;,
  -0.709188;0.402233;0.579018;,
  -0.000001;0.778461;0.627693;,
  0.709187;0.402234;0.579018;,
  0.848693;-0.500008;0.172374;,
  -0.848692;-0.500009;0.172374;,
  -0.852900;0.483743;0.196352;,
  -0.000001;0.977734;0.209848;,
  0.852900;0.483744;0.196352;;

  7;
  6;0,1,2,3,4,5;,
  4;16,15,10,11;,
  4;13,17,12,7;,
  4;15,14,9,10;,
  4;17,16,11,12;,
  4;7,8,6,13;,
  4;8,9,14,6;;
 }
 MeshTextureCoords { 
 18;
 0.151791;0.062322;,
 0.097656;0.030278;,
 0.043521;0.062322;,
 0.043521;0.124285;,
 0.097656;0.154995;,
 0.151791;0.124285;,
 0.089757;0.457050;,
 0.158912;0.432896;,
 0.158912;0.446503;,
 0.158912;0.432896;,
 0.158912;0.405441;,
 0.158912;0.391244;,
 0.158912;0.405441;,
 0.089757;0.437809;,
 0.089757;0.437809;,
 0.089757;0.397383;,
 0.089757;0.376477;,
 0.089757;0.397383;;
 }
}
}
}
Frame frm-sphere5 {
  FrameTransformMatrix {
1.000000,0.000000,0.000000,0.000000,
0.000000,1.000000,0.000000,0.000000,
0.000000,0.000000,1.000000,0.000000,
-0.016487,-0.592951,3.892179,1.000000;;
 }
Mesh sphere5 {
 21;
 0.000000;-0.452591;-0.775718;,
 0.257955;0.172497;-0.775718;,
 -0.257955;0.172496;-0.775718;,
 -0.000000;0.172497;-0.839631;,
 0.449858;0.172497;-0.593709;,
 0.587767;0.172497;-0.321313;,
 -0.423503;0.172496;-0.593709;,
 -0.553334;0.172496;-0.321313;,
 -0.553334;0.172496;3.168863;,
 0.587767;0.172496;3.168863;,
 -0.553334;-0.000000;2.806102;,
 0.587767;0.000000;2.806102;,
 -0.429851;-0.676416;2.806102;,
 0.000000;-0.926348;2.806102;,
 0.429852;-0.676415;2.806102;,
 0.337035;-0.591339;-0.593709;,
 0.429852;-0.676415;-0.321313;,
 0.000000;-0.749307;-0.593709;,
 0.000000;-0.926348;-0.321313;,
 -0.337034;-0.591339;-0.593709;,
 -0.429851;-0.676415;-0.321313;;

 18;
 5;10,12,13,14,11;,
 4;12,10,7,20;,
 4;11,14,16,5;,
 3;3,1,0;,
 4;0,1,4,15;,
 4;6,19,20,7;,
 4;2,0,19,6;,
 3;3,0,2;,
 4;15,4,5,16;,
 4;13,12,20,18;,
 4;14,13,18,16;,
 3;8,7,10;,
 3;0,15,17;,
 4;19,17,18,20;,
 3;0,17,19;,
 3;5,9,11;,
 4;17,15,16,18;,
 4;9,8,10,11;;

 MeshMaterialList {
  1;
  18;
  0,
  0,
  0,
  0,
  0,
  0,
  0,
  0,
  0,
  0,
  0,
  0,
  0,
  0,
  0,
  0,
  0,
  0;
Material {
 1.000000;1.000000;1.000000;1.000000;;
 50.000000;
 1.000000;1.000000;1.000000;;
 0.0; 0.0; 0.0;;
 TextureFilename {
  "cap302.ppm";
 }
 }
}
 MeshNormals {
  21;
  -0.002690;-0.363825;-0.931463;,
  0.392663;-0.122498;-0.911488;,
  -0.403796;-0.120150;-0.906925;,
  0.000000;-0.101716;-0.994813;,
  0.748672;-0.153322;-0.644967;,
  0.982725;-0.120795;-0.140217;,
  -0.764457;-0.133604;-0.630679;,
  -0.986348;-0.094775;-0.134664;,
  -0.707107;-0.638588;0.303654;,
  0.707107;-0.638587;0.303654;,
  -0.746288;-0.398100;0.533452;,
  0.740911;-0.412210;0.530221;,
  -0.737742;-0.507243;0.445468;,
  0.000000;-0.865641;0.500665;,
  0.726675;-0.523355;0.445020;,
  0.575378;-0.436936;-0.691395;,
  0.788790;-0.564799;-0.242514;,
  0.000000;-0.711888;-0.702293;,
  0.000000;-0.964777;-0.263068;,
  -0.586632;-0.428518;-0.687194;,
  -0.801018;-0.548284;-0.240323;;

  18;
  5;10,12,13,14,11;,
  4;12,10,7,20;,
  4;11,14,16,5;,
  3;3,1,0;,
  4;0,1,4,15;,
  4;6,19,20,7;,
  4;2,0,19,6;,
  3;3,0,2;,
  4;15,4,5,16;,
  4;13,12,20,18;,
  4;14,13,18,16;,
  3;8,7,10;,
  3;0,15,17;,
  4;19,17,18,20;,
  3;0,17,19;,
  3;5,9,11;,
  4;17,15,16,18;,
  4;9,8,10,11;;
 }
 MeshTextureCoords { 
 21;
 0.016485;0.611139;,
 0.016484;0.556334;,
 0.016484;0.556334;,
 0.010683;0.556334;,
 0.033006;0.556334;,
 0.057731;0.556334;,
 0.033006;0.556334;,
 0.057731;0.556334;,
 0.374537;0.556335;,
 0.374537;0.556334;,
 0.341609;0.571458;,
 0.341609;0.571458;,
 0.341609;0.630763;,
 0.341609;0.652676;,
 0.341609;0.630763;,
 0.033006;0.623304;,
 0.057731;0.630763;,
 0.033006;0.637154;,
 0.057731;0.652676;,
 0.033006;0.623304;,
 0.057731;0.630763;;
 }
}
Frame frm-cyl1_8 {
  FrameTransformMatrix {
1.000000,0.000000,0.000000,0.000000,
0.000000,1.000000,0.000000,0.000000,
0.000000,0.000000,1.000000,0.000000,
0.000001,-0.543649,2.480225,1.000000;;
 }
Mesh cyl1_8 {
 18;
 0.299293;0.233788;0.795120;,
 -0.000000;0.411953;0.795120;,
 -0.299293;0.233787;0.795120;,
 -0.299293;-0.110737;0.795120;,
 0.000000;-0.281484;0.795120;,
 0.299293;-0.110736;0.795120;,
 -0.000000;-0.352731;0.323017;,
 0.299293;-0.110736;0.795120;,
 0.000000;-0.281484;0.795120;,
 -0.299293;-0.110737;0.795120;,
 -0.299293;0.233787;0.795120;,
 -0.000000;0.411953;0.795120;,
 0.299293;0.233788;0.795120;,
 0.384292;-0.142186;0.323017;,
 -0.384292;-0.142186;0.323017;,
 -0.384293;0.300183;0.323017;,
 -0.000000;0.528948;0.323017;,
 0.384292;0.300184;0.323017;;

 7;
 6;0,1,2,3,4,5;,
 4;16,15,10,11;,
 4;13,17,12,7;,
 4;15,14,9,10;,
 4;17,16,11,12;,
 4;7,8,6,13;,
 4;8,9,14,6;;

 MeshMaterialList {
  2;
  7;
  0,
  1,
  1,
  1,
  1,
  1,
  1;
Material {
 1.000000;1.000000;1.000000;1.000000;;
 50.000000;
 1.000000;1.000000;1.000000;;
 0.0; 0.0; 0.0;;
 TextureFilename {
  "cap302.ppm";
 }
 }
Material {
 1.000000;1.000000;1.000000;1.000000;;
 50.000000;
 1.000000;1.000000;1.000000;;
 0.0; 0.0; 0.0;;
 TextureFilename {
  "cap302.ppm";
 }
 }
}
 MeshNormals {
  18;
  0.699994;0.396300;0.594100;,
  -0.000000;0.764669;0.644423;,
  -0.699994;0.396299;0.594100;,
  -0.681777;-0.402106;0.611139;,
  0.000001;-0.832592;0.553887;,
  0.681777;-0.402106;0.611139;,
  0.000001;-0.987598;0.157006;,
  0.681777;-0.402106;0.611139;,
  0.000001;-0.832592;0.553887;,
  -0.681777;-0.402106;0.611139;,
  -0.699994;0.396299;0.594100;,
  -0.000000;0.764669;0.644423;,
  0.699994;0.396300;0.594100;,
  0.847003;-0.499554;0.181747;,
  -0.847002;-0.499555;0.181748;,
  -0.848816;0.480554;0.220408;,
  -0.000001;0.970639;0.240540;,
  0.848815;0.480555;0.220408;;

  7;
  6;0,1,2,3,4,5;,
  4;16,15,10,11;,
  4;13,17,12,7;,
  4;15,14,9,10;,
  4;17,16,11,12;,
  4;7,8,6,13;,
  4;8,9,14,6;;
 }
 MeshTextureCoords { 
 18;
 0.147843;0.059945;,
 0.095703;0.029369;,
 0.043563;0.059945;,
 0.043563;0.119069;,
 0.095703;0.148372;,
 0.147844;0.119069;,
 0.035021;0.450021;,
 0.071705;0.429730;,
 0.071705;0.444047;,
 0.071705;0.429730;,
 0.071705;0.400841;,
 0.071705;0.385902;,
 0.071705;0.400841;,
 0.035021;0.432367;,
 0.035021;0.432367;,
 0.035021;0.395274;,
 0.035021;0.376092;,
 0.035021;0.395274;;
 }
}
}
}
Frame frm-cyl14 {
  FrameTransformMatrix {
1.000000,0.000000,0.000000,0.000000,
0.000000,1.000000,0.000000,0.000000,
0.000000,0.000000,1.000000,0.000000,
-1.309949,0.290299,4.857539,1.000000;;
 }
Mesh cyl14 {
 52;
 -0.228030;-0.228030;1.798599;,
 -0.322484;-0.000000;1.798599;,
 0.000000;-0.322484;1.798599;,
 0.228030;-0.228030;1.798599;,
 0.322484;0.000000;1.798599;,
 -0.228030;0.228030;1.798599;,
 -0.000000;0.322484;1.798599;,
 0.228030;0.228031;1.798599;,
 0.281743;-0.281743;-2.024881;,
 0.398445;0.000000;-2.024881;,
 0.000000;-0.398445;-2.024881;,
 -0.281743;-0.281743;-2.024881;,
 -0.398445;-0.000000;-2.024881;,
 -0.281743;0.281743;-2.024881;,
 -0.000000;0.398445;-2.024881;,
 0.281743;0.281743;-2.024881;,
 0.595604;-0.000000;-1.489010;,
 0.595604;0.000000;0.597139;,
 0.580860;0.275980;-0.741527;,
 0.580860;0.275980;0.297375;,
 0.580860;-0.275980;-0.741527;,
 0.580860;-0.275980;0.297375;,
 0.281743;0.281743;-2.024881;,
 -0.000000;0.398445;-2.024881;,
 -0.281743;0.281743;-2.024881;,
 -0.398445;-0.000000;-2.024881;,
 -0.281743;-0.281743;-2.024881;,
 0.000000;-0.398445;-2.024881;,
 0.398445;0.000000;-2.024881;,
 0.281743;-0.281743;-2.024881;,
 0.228030;0.228031;1.798599;,
 -0.000000;0.322484;1.798599;,
 -0.228030;0.228030;1.798599;,
 0.322484;0.000000;1.798599;,
 0.228030;-0.228030;1.798599;,
 0.000000;-0.322484;1.798599;,
 -0.322484;-0.000000;1.798599;,
 -0.228030;-0.228030;1.798599;,
 0.421156;-0.421156;-1.489010;,
 0.421156;-0.421156;0.597139;,
 0.000000;-0.595604;-1.489010;,
 0.000000;-0.595604;0.597139;,
 -0.421156;-0.421156;-1.489010;,
 -0.421156;-0.421156;0.597139;,
 -0.595604;-0.000000;-1.489010;,
 -0.595604;0.000000;0.597139;,
 -0.421156;0.421156;-1.489010;,
 -0.421156;0.421156;0.597139;,
 0.000000;0.595604;-1.489010;,
 0.000000;0.595604;0.597139;,
 0.421156;0.421156;-1.489010;,
 0.421156;0.421156;0.597139;;

 30;
 3;18,16,50;,
 4;50,48,49,51;,
 4;48,46,47,49;,
 4;46,44,45,47;,
 8;7,6,5,1,0,2,3,4;,
 4;44,42,43,45;,
 8;10,11,12,13,14,15,9,8;,
 4;42,40,41,43;,
 4;40,38,39,41;,
 3;17,19,51;,
 4;37,36,45,43;,
 4;35,37,43,41;,
 4;34,35,41,39;,
 4;33,34,39,17;,
 4;36,32,47,45;,
 4;32,31,49,47;,
 4;31,30,51,49;,
 4;30,33,17,51;,
 4;29,28,16,38;,
 4;27,29,38,40;,
 4;26,27,40,42;,
 4;25,26,42,44;,
 4;24,25,44,46;,
 4;23,24,46,48;,
 4;22,23,48,50;,
 4;28,22,50,16;,
 4;20,21,39,38;,
 3;16,20,38;,
 3;21,17,39;,
 4;19,18,50,51;;

 MeshMaterialList {
  3;
  30;
  0,
  0,
  0,
  0,
  1,
  0,
  2,
  0,
  0,
  0,
  0,
  0,
  0,
  0,
  0,
  0,
  0,
  0,
  0,
  0,
  0,
  0,
  0,
  0,
  0,
  0,
  0,
  0,
  0,
  0;
Material {
 1.000000;1.000000;1.000000;1.000000;;
 50.000000;
 1.000000;1.000000;1.000000;;
 0.0; 0.0; 0.0;;
 TextureFilename {
  "cap302.ppm";
 }
 }
Material {
 1.000000;1.000000;1.000000;1.000000;;
 50.000000;
 1.000000;1.000000;1.000000;;
 0.0; 0.0; 0.0;;
 TextureFilename {
  "cap302.ppm";
 }
 }
Material {
 1.000000;1.000000;1.000000;1.000000;;
 50.000000;
 1.000000;1.000000;1.000000;;
 0.0; 0.0; 0.0;;
 TextureFilename {
  "cap302.ppm";
 }
 }
}
 MeshNormals {
  52;
  -0.568380;-0.568380;0.594885;,
  -0.803811;-0.000000;0.594885;,
  0.000000;-0.803811;0.594885;,
  0.568380;-0.568380;0.594885;,
  0.803811;0.000000;0.594885;,
  -0.568381;0.568380;0.594885;,
  -0.000000;0.803811;0.594885;,
  0.568380;0.568380;0.594885;,
  0.525408;-0.525407;-0.669249;,
  0.743039;0.000000;-0.669249;,
  0.000000;-0.743039;-0.669249;,
  -0.525408;-0.525408;-0.669249;,
  -0.743039;-0.000000;-0.669249;,
  -0.525408;0.525407;-0.669249;,
  -0.000000;0.743038;-0.669249;,
  0.525408;0.525408;-0.669249;,
  0.988274;-0.000000;-0.152694;,
  0.977310;-0.000000;0.211813;,
  0.909966;0.412454;-0.042945;,
  0.905689;0.410983;0.104018;,
  0.909966;-0.412454;-0.042945;,
  0.905689;-0.410983;0.104018;,
  0.525408;0.525408;-0.669249;,
  -0.000000;0.743038;-0.669249;,
  -0.525408;0.525407;-0.669249;,
  -0.743039;-0.000000;-0.669249;,
  -0.525408;-0.525408;-0.669249;,
  0.000000;-0.743039;-0.669249;,
  0.743039;0.000000;-0.669249;,
  0.525408;-0.525407;-0.669249;,
  0.568380;0.568380;0.594885;,
  -0.000000;0.803811;0.594885;,
  -0.568381;0.568380;0.594885;,
  0.803811;0.000000;0.594885;,
  0.568380;-0.568380;0.594885;,
  0.000000;-0.803811;0.594885;,
  -0.803811;-0.000000;0.594885;,
  -0.568380;-0.568380;0.594885;,
  0.689752;-0.705091;-0.164588;,
  0.689180;-0.708702;0.150904;,
  0.000000;-0.984366;-0.176137;,
  0.000000;-0.993738;0.111731;,
  -0.696052;-0.696052;-0.176137;,
  -0.702679;-0.702679;0.111731;,
  -0.984366;-0.000000;-0.176137;,
  -0.993738;-0.000000;0.111731;,
  -0.696052;0.696051;-0.176137;,
  -0.702679;0.702679;0.111731;,
  -0.000000;0.984366;-0.176137;,
  -0.000000;0.993738;0.111731;,
  0.689752;0.705091;-0.164588;,
  0.689180;0.708702;0.150904;;

  30;
  3;18,16,50;,
  4;50,48,49,51;,
  4;48,46,47,49;,
  4;46,44,45,47;,
  8;7,6,5,1,0,2,3,4;,
  4;44,42,43,45;,
  8;10,11,12,13,14,15,9,8;,
  4;42,40,41,43;,
  4;40,38,39,41;,
  3;17,19,51;,
  4;37,36,45,43;,
  4;35,37,43,41;,
  4;34,35,41,39;,
  4;33,34,39,17;,
  4;36,32,47,45;,
  4;32,31,49,47;,
  4;31,30,51,49;,
  4;30,33,17,51;,
  4;29,28,16,38;,
  4;27,29,38,40;,
  4;26,27,40,42;,
  4;25,26,42,44;,
  4;24,25,44,46;,
  4;23,24,46,48;,
  4;22,23,48,50;,
  4;28,22,50,16;,
  4;20,21,39,38;,
  3;16,20,38;,
  3;21,17,39;,
  4;19,18,50,51;;
 }
 MeshTextureCoords { 
 52;
 0.051577;0.130345;,
 0.034108;0.087891;,
 0.093750;0.147930;,
 0.135923;0.130345;,
 0.153392;0.087891;,
 0.051577;0.045436;,
 0.093750;0.027851;,
 0.135923;0.045436;,
 0.358135;0.361388;,
 0.372184;0.328125;,
 0.324219;0.375166;,
 0.290303;0.361388;,
 0.276254;0.328125;,
 0.290302;0.294862;,
 0.324219;0.281084;,
 0.358135;0.294862;,
 0.597601;0.769531;,
 0.829942;0.769531;,
 0.680850;0.739837;,
 0.796556;0.739837;,
 0.680850;0.799225;,
 0.796556;0.799225;,
 0.537919;0.739217;,
 0.537919;0.726661;,
 0.537919;0.739217;,
 0.537919;0.769531;,
 0.537919;0.799845;,
 0.537919;0.812401;,
 0.537919;0.769531;,
 0.537919;0.799845;,
 0.963752;0.744996;,
 0.963752;0.734834;,
 0.963752;0.744997;,
 0.963752;0.769531;,
 0.963752;0.794066;,
 0.963752;0.804228;,
 0.963752;0.769531;,
 0.963752;0.794066;,
 0.597601;0.814845;,
 0.829942;0.814845;,
 0.597601;0.833615;,
 0.829942;0.833615;,
 0.597601;0.814845;,
 0.829942;0.814845;,
 0.597601;0.769531;,
 0.829942;0.769531;,
 0.597601;0.724217;,
 0.829942;0.724217;,
 0.597601;0.705448;,
 0.829942;0.705448;,
 0.597601;0.724217;,
 0.829942;0.724217;;
 }
}
}
Frame frm-cube17 {
  FrameTransformMatrix {
1.000000,0.000000,0.000000,0.000000,
0.000000,1.000000,0.000000,0.000000,
0.000000,0.000000,1.000000,0.000000,
-0.388792,0.454274,-2.581972,1.000000;;
 }
Mesh cube17 {
 8;
 -0.341000;0.029600;-0.198884;,
 -0.341000;0.029600;0.467803;,
 0.341000;0.029600;-0.198884;,
 0.341000;0.029600;0.467803;,
 -0.341000;-0.029600;-0.198884;,
 -0.341000;-0.029600;0.467803;,
 0.341000;-0.029600;-0.198884;,
 0.341000;-0.029600;0.467803;;

 6;
 4;5,4,6,7;,
 4;4,0,2,6;,
 4;0,1,3,2;,
 4;1,5,7,3;,
 4;7,6,2,3;,
 4;1,0,4,5;;

 MeshMaterialList {
  1;
  6;
  0,
  0,
  0,
  0,
  0,
  0;
Material {
 1.000000;1.000000;1.000000;1.000000;;
 50.000000;
 1.000000;1.000000;1.000000;;
 0.0; 0.0; 0.0;;
 TextureFilename {
  "cap302.ppm";
 }
 }
}
 MeshNormals {
  8;
  -0.577350;0.577350;-0.577350;,
  -0.577350;0.577350;0.577350;,
  0.577350;0.577350;-0.577350;,
  0.577350;0.577350;0.577350;,
  -0.577350;-0.577350;-0.577350;,
  -0.577350;-0.577350;0.577350;,
  0.577350;-0.577350;-0.577350;,
  0.577350;-0.577350;0.577350;;

  6;
  4;5,4,6,7;,
  4;4,0,2,6;,
  4;0,1,3,2;,
  4;1,5,7,3;,
  4;7,6,2,3;,
  4;1,0,4,5;;
 }
 MeshTextureCoords { 
 8;
 0.133489;0.840926;,
 0.133489;0.920793;,
 0.206355;0.840926;,
 0.206355;0.920793;,
 0.133489;0.840926;,
 0.133489;0.920793;,
 0.206355;0.840926;,
 0.206355;0.920793;;
 }
}
}
Frame frm-cube13 {
  FrameTransformMatrix {
1.000000,0.000000,0.000000,0.000000,
0.000000,1.000000,0.000000,0.000000,
0.000000,0.000000,1.000000,0.000000,
0.769578,-0.282837,-2.699710,1.000000;;
 }
Mesh cube13 {
 8;
 -0.003777;0.050017;0.702598;,
 -0.038268;-0.300042;-0.661130;,
 -0.003777;-0.269681;0.518189;,
 -0.038268;0.080378;-0.925989;,
 -0.038268;0.080155;0.792080;,
 -0.003777;-0.269164;-0.595624;,
 -0.038268;-0.299820;0.573627;,
 -0.003777;0.049500;-0.806208;;

 6;
 4;6,4,3,1;,
 4;6,2,0,4;,
 4;0,2,5,7;,
 4;5,1,3,7;,
 4;2,6,1,5;,
 4;4,0,7,3;;

 MeshMaterialList {
  1;
  6;
  0,
  0,
  0,
  0,
  0,
  0;
Material {
 1.000000;1.000000;1.000000;1.000000;;
 50.000000;
 1.000000;1.000000;1.000000;;
 0.0; 0.0; 0.0;;
 TextureFilename {
  "cap302.ppm";
 }
 }
}
 MeshNormals {
  8;
  0.968029;0.193980;0.159037;,
  0.520249;-0.806937;-0.279632;,
  0.921048;-0.358853;0.151310;,
  0.679921;0.613325;-0.401920;,
  0.633758;0.598187;0.490431;,
  0.927566;-0.353062;-0.122348;,
  0.488345;-0.804094;0.339045;,
  0.972248;0.195680;-0.128232;;

  6;
  4;6,4,3,1;,
  4;6,2,0,4;,
  4;0,2,5,7;,
  4;5,1,3,7;,
  4;2,6,1,5;,
  4;4,0,7,3;;
 }
 MeshTextureCoords { 
 8;
 0.381981;0.395227;,
 0.213541;0.436475;,
 0.359204;0.432898;,
 0.180827;0.391650;,
 0.393033;0.391676;,
 0.221632;0.432837;,
 0.366051;0.436449;,
 0.195622;0.395288;;
 }
}
}
Frame frm-sphere6 {
  FrameTransformMatrix {
1.000000,0.000000,0.000000,0.000000,
0.000000,1.000000,0.000000,0.000000,
0.000000,0.000000,1.000000,0.000000,
-0.002161,0.851747,7.114967,1.000000;;
 }
Mesh sphere6 {
 7;
 0.038696;0.079810;-0.067024;,
 -0.038696;0.079810;-0.067024;,
 -0.077392;0.079810;-0.000000;,
 -0.038696;0.079810;0.067024;,
 0.038696;0.079810;0.067024;,
 0.077392;0.079810;0.000000;,
 0.000000;0.124874;0.000000;;

 6;
 3;6,5,0;,
 3;6,0,1;,
 3;6,1,2;,
 3;6,2,3;,
 3;6,3,4;,
 3;6,4,5;;

 MeshMaterialList {
  1;
  6;
  0,
  0,
  0,
  0,
  0,
  0;
Material {
 1.000000;1.000000;1.000000;1.000000;;
 50.000000;
 1.000000;1.000000;1.000000;;
 0.000000;0.000000;0.000000;;
 TextureFilename {
  "cap302.ppm";
 }
 }
}
 MeshNormals {
  7;
  0.251595;0.864176;-0.435775;,
  -0.251595;0.864176;-0.435775;,
  -0.503189;0.864176;-0.000000;,
  -0.251595;0.864176;0.435775;,
  0.251595;0.864176;0.435775;,
  0.503189;0.864176;0.000000;,
  0.000000;1.000000;-0.000000;;

  6;
  3;6,5,0;,
  3;6,0,1;,
  3;6,1,2;,
  3;6,2,3;,
  3;6,3,4;,
  3;6,4,5;;
 }
 MeshTextureCoords { 
 7;
 0.000000;1.000000;,
 0.000000;1.000000;,
 0.000000;1.000000;,
 0.000000;1.000000;,
 0.000000;1.000000;,
 0.000000;1.000000;,
 0.000000;1.000000;;
 }
}
}
Frame frm-sphere7 {
  FrameTransformMatrix {
1.000000,0.000000,0.000000,0.000000,
0.000000,1.000000,0.000000,0.000000,
0.000000,0.000000,1.000000,0.000000,
-0.021857,-0.611502,-0.974969,1.000000;;
 }
Mesh sphere7 {
 7;
 0.034740;-0.071650;0.060171;,
 -0.034740;-0.071650;0.060171;,
 -0.069479;-0.071650;0.000000;,
 -0.034740;-0.071650;-0.060171;,
 0.034740;-0.071650;-0.060171;,
 0.069479;-0.071650;0.000000;,
 0.000000;-0.112107;0.000000;;

 6;
 3;6,5,0;,
 3;6,0,1;,
 3;6,1,2;,
 3;6,2,3;,
 3;6,3,4;,
 3;6,4,5;;

 MeshMaterialList {
  1;
  6;
  0,
  0,
  0,
  0,
  0,
  0;
Material {
 1.000000;1.000000;1.000000;1.000000;;
 50.000000;
 1.000000;1.000000;1.000000;;
 0.000000;0.000000;0.000000;;
 TextureFilename {
  "cap302.ppm";
 }
 }
}
 MeshNormals {
  7;
  0.251595;-0.864176;0.435775;,
  -0.251595;-0.864176;0.435775;,
  -0.503189;-0.864176;0.000000;,
  -0.251595;-0.864176;-0.435775;,
  0.251595;-0.864176;-0.435775;,
  0.503189;-0.864176;0.000000;,
  0.000000;-1.000000;0.000000;;

  6;
  3;6,5,0;,
  3;6,0,1;,
  3;6,1,2;,
  3;6,2,3;,
  3;6,3,4;,
  3;6,4,5;;
 }
 MeshTextureCoords { 
 7;
 0.000000;1.000000;,
 0.000000;1.000000;,
 0.000000;1.000000;,
 0.000000;1.000000;,
 0.000000;1.000000;,
 0.000000;1.000000;,
 0.000000;1.000000;;
 }
}
}
Frame frm-cyl1_13 {
  FrameTransformMatrix {
1.000000,0.000000,0.000000,0.000000,
0.000000,1.000000,0.000000,0.000000,
0.000000,0.000000,1.000000,0.000000,
-0.001194,-0.574303,-2.647064,1.000000;;
 }
Mesh cyl1_13 {
 24;
 0.034851;0.021284;0.882824;,
 0.034851;-0.018834;0.970961;,
 -0.000000;-0.038717;1.007161;,
 -0.034851;-0.018834;0.970961;,
 -0.000000;0.042030;0.831045;,
 -0.034851;0.021284;0.882824;,
 -0.019575;0.011126;0.090077;,
 0.019575;0.011126;0.090077;,
 -0.000000;0.022778;0.090077;,
 0.019575;-0.011407;0.090077;,
 -0.019575;-0.011407;0.090077;,
 -0.000000;-0.022132;0.090077;,
 -0.000000;-0.059394;0.301286;,
 0.034851;-0.018834;0.359166;,
 0.000000;-0.038717;0.359166;,
 -0.034851;-0.018834;0.359166;,
 -0.034851;0.021284;0.359166;,
 -0.000000;0.042030;0.359166;,
 0.034851;0.021284;0.359166;,
 0.052353;-0.030710;0.301286;,
 -0.052353;-0.030711;0.301286;,
 -0.052353;0.029555;0.301286;,
 -0.000000;0.060720;0.301286;,
 0.052353;0.029555;0.301286;;

 19;
 4;4,0,18,17;,
 4;22,21,16,17;,
 4;19,23,18,13;,
 4;21,20,15,16;,
 4;23,22,17,18;,
 4;13,14,12,19;,
 4;14,15,20,12;,
 6;7,9,11,10,6,8;,
 4;10,11,12,20;,
 4;11,9,19,12;,
 4;7,8,22,23;,
 4;6,10,20,21;,
 4;9,7,23,19;,
 4;8,6,21,22;,
 4;5,4,17,16;,
 4;3,5,16,15;,
 4;2,3,15,14;,
 4;1,2,14,13;,
 4;0,1,13,18;;

 MeshMaterialList {
  1;
  19;
  0,
  0,
  0,
  0,
  0,
  0,
  0,
  0,
  0,
  0,
  0,
  0,
  0,
  0,
  0,
  0,
  0,
  0,
  0;
Material {
 1.000000;1.000000;1.000000;1.000000;;
 50.000000;
 1.000000;1.000000;1.000000;;
 0.0; 0.0; 0.0;;
 TextureFilename {
  "cap302.ppm";
 }
 }
}
 MeshNormals {
  24;
  0.869343;0.494209;0.000000;,
  0.864735;-0.502229;0.000000;,
  0.000001;-1.000000;-0.000000;,
  -0.864734;-0.502230;-0.000000;,
  -0.000001;1.000000;0.000000;,
  -0.869344;0.494208;-0.000000;,
  -0.716879;0.407608;-0.565633;,
  0.716878;0.407609;-0.565634;,
  -0.000001;0.823987;-0.566609;,
  0.708751;-0.419887;-0.566893;,
  -0.708751;-0.419887;-0.566892;,
  -0.000000;-0.825333;-0.564646;,
  0.000001;-0.996515;0.083408;,
  0.850765;-0.496198;0.173163;,
  0.000001;-0.984388;0.176013;,
  -0.850765;-0.496200;0.173163;,
  -0.857518;0.488539;0.161219;,
  -0.000000;0.987677;0.156505;,
  0.857518;0.488540;0.161219;,
  0.859098;-0.505425;0.080598;,
  -0.859098;-0.505426;0.080598;,
  -0.866280;0.494646;0.069894;,
  -0.000001;0.997896;0.064838;,
  0.866279;0.494647;0.069894;;

  19;
  4;4,0,18,17;,
  4;22,21,16,17;,
  4;19,23,18,13;,
  4;21,20,15,16;,
  4;23,22,17,18;,
  4;13,14,12,19;,
  4;14,15,20,12;,
  6;7,9,11,10,6,8;,
  4;10,11,12,20;,
  4;11,9,19,12;,
  4;7,8,22,23;,
  4;6,10,20,21;,
  4;9,7,23,19;,
  4;8,6,21,22;,
  4;5,4,17,16;,
  4;3,5,16,15;,
  4;2,3,15,14;,
  4;1,2,14,13;,
  4;0,1,13,18;;
 }
 MeshTextureCoords { 
 24;
 0.362952;0.134823;,
 0.384835;0.139768;,
 0.393822;0.142218;,
 0.384835;0.139768;,
 0.350096;0.132265;,
 0.362952;0.134823;,
 0.166128;0.136075;,
 0.166128;0.136075;,
 0.166128;0.134638;,
 0.166128;0.138852;,
 0.166128;0.138852;,
 0.166128;0.140174;,
 0.218567;0.144767;,
 0.232937;0.139768;,
 0.232937;0.142218;,
 0.232937;0.139768;,
 0.232937;0.134823;,
 0.232937;0.132265;,
 0.232937;0.134823;,
 0.218567;0.141231;,
 0.218567;0.141231;,
 0.218567;0.133803;,
 0.218567;0.129962;,
 0.218567;0.133803;;
 }
}
}
Frame frm-cube19 {
  FrameTransformMatrix {
1.000000,0.000000,0.000000,0.000000,
0.000000,1.000000,0.000000,0.000000,
0.000000,0.000000,1.000000,0.000000,
0.026842,-0.495465,1.786718,1.000000;;
 }
Mesh cube19 {
 8;
 0.173522;0.078085;0.895014;,
 0.097867;-0.044040;0.819359;,
 0.173522;0.078085;-1.371474;,
 0.097867;-0.044040;-1.295818;,
 -0.173522;0.078085;0.895014;,
 -0.097867;-0.044040;0.819359;,
 -0.173522;0.078085;-1.371474;,
 -0.097867;-0.044040;-1.295818;;

 5;
 4;5,4,6,7;,
 4;1,0,4,5;,
 4;0,1,3,2;,
 4;1,5,7,3;,
 4;7,6,2,3;;

 MeshMaterialList {
  1;
  5;
  0,
  0,
  0,
  0,
  0;
Material {
 1.000000;1.000000;1.000000;1.000000;;
 50.000000;
 1.000000;1.000000;1.000000;;
 0.0; 0.0; 0.0;;
 TextureFilename {
  "cap302.ppm";
 }
 }
}
 MeshNormals {
  8;
  0.531863;-0.658972;0.531863;,
  0.357284;-0.862958;0.357284;,
  0.531863;-0.658972;-0.531863;,
  0.357284;-0.862958;-0.357284;,
  -0.531863;-0.658972;0.531863;,
  -0.357284;-0.862958;0.357284;,
  -0.531863;-0.658972;-0.531863;,
  -0.357284;-0.862958;-0.357284;;

  5;
  4;5,4,6,7;,
  4;1,0,4,5;,
  4;0,1,3,2;,
  4;1,5,7,3;,
  4;7,6,2,3;;
 }
 MeshTextureCoords { 
 8;
 0.338052;0.165391;,
 0.334123;0.166523;,
 0.220575;0.165347;,
 0.224489;0.166482;,
 0.338019;0.170591;,
 0.334105;0.169456;,
 0.220542;0.170546;,
 0.224471;0.169414;;
 }
}
}
Frame frm-cube18 {
  FrameTransformMatrix {
1.000000,0.000000,0.000000,0.000000,
0.000000,1.000000,0.000000,0.000000,
0.000000,0.000000,1.000000,0.000000,
0.004017,0.260115,7.792552,1.000000;;
 }
Mesh cube18 {
 8;
 0.444000;0.444000;-0.199800;,
 0.250416;0.250416;0.112687;,
 0.444000;-0.444000;-0.199800;,
 0.250416;-0.250416;0.112687;,
 -0.444000;0.444000;-0.199800;,
 -0.250416;0.250416;0.112687;,
 -0.444000;-0.444000;-0.199800;,
 -0.250416;-0.250416;0.112687;;

 5;
 4;5,4,6,7;,
 4;1,0,4,5;,
 4;0,1,3,2;,
 4;1,5,7,3;,
 4;7,6,2,3;;

 MeshMaterialList {
  1;
  5;
  0,
  0,
  0,
  0,
  0;
Material {
 1.000000;1.000000;1.000000;1.000000;;
 50.000000;
 1.000000;1.000000;1.000000;;
 0.0; 0.0; 0.0;;
 TextureFilename {
  "cap302.ppm";
 }
 }
}
 MeshNormals {
  8;
  0.531863;0.531863;0.658972;,
  0.357284;0.357284;0.862958;,
  0.531863;-0.531863;0.658972;,
  0.357284;-0.357284;0.862958;,
  -0.531863;0.531863;0.658972;,
  -0.357284;0.357284;0.862958;,
  -0.531863;-0.531863;0.658972;,
  -0.357284;-0.357284;0.862958;;

  5;
  4;5,4,6,7;,
  4;1,0,4,5;,
  4;0,1,3,2;,
  4;1,5,7,3;,
  4;7,6,2,3;;
 }
 MeshTextureCoords { 
 8;
 0.395479;0.716177;,
 0.372074;0.736885;,
 0.395479;0.811166;,
 0.372074;0.790459;,
 0.288114;0.716177;,
 0.311520;0.736885;,
 0.288114;0.811166;,
 0.311520;0.790459;;
 }
}
}
Frame frm-sphere9 {
  FrameTransformMatrix {
1.000000,0.000000,0.000000,0.000000,
0.000000,1.000000,0.000000,0.000000,
0.000000,0.000000,1.000000,0.000000,
-0.907508,0.133602,-2.465132,1.000000;;
 }
Mesh sphere9 {
 7;
 -0.070934;-0.059569;0.034392;,
 -0.070934;-0.059569;-0.034392;,
 -0.070934;-0.000000;-0.068785;,
 -0.070934;0.059569;-0.034392;,
 -0.070934;0.059569;0.034392;,
 -0.070934;-0.000000;0.068785;,
 -0.110985;-0.000000;0.000000;;

 6;
 3;0,5,6;,
 3;1,0,6;,
 3;2,1,6;,
 3;3,2,6;,
 3;4,3,6;,
 3;5,4,6;;

 MeshMaterialList {
  1;
  6;
  0,
  0,
  0,
  0,
  0,
  0;
Material {
 1.000000;1.000000;1.000000;1.000000;;
 50.000000;
 1.000000;1.000000;1.000000;;
 0.000000;0.000000;0.000000;;
 TextureFilename {
  "cap302.ppm";
 }
 }
}
 MeshNormals {
  7;
  -0.864176;-0.435775;0.251595;,
  -0.864176;-0.435775;-0.251595;,
  -0.864176;-0.000000;-0.503189;,
  -0.864176;0.435774;-0.251595;,
  -0.864176;0.435775;0.251595;,
  -0.864176;-0.000000;0.503189;,
  -1.000000;-0.000000;-0.000000;;

  6;
  3;0,5,6;,
  3;1,0,6;,
  3;2,1,6;,
  3;3,2,6;,
  3;4,3,6;,
  3;5,4,6;;
 }
 MeshTextureCoords { 
 7;
 0.000000;1.000000;,
 0.000000;1.000000;,
 0.000000;1.000000;,
 0.000000;1.000000;,
 0.000000;1.000000;,
 0.000000;1.000000;,
 0.000000;1.000000;;
 }
}
}
Frame frm-cube16 {
  FrameTransformMatrix {
1.000000,0.000000,0.000000,0.000000,
0.000000,1.000000,0.000000,0.000000,
0.000000,0.000000,1.000000,0.000000,
-0.808550,0.140744,-2.863252,1.000000;;
 }
Mesh cube16 {
 8;
 0.073346;0.341000;-1.205599;,
 0.073346;0.341000;2.175749;,
 0.073346;-0.341000;-1.205599;,
 0.073346;-0.341000;2.175749;,
 -0.170723;0.292578;-1.104146;,
 -0.170723;0.292578;1.992656;,
 -0.170723;-0.292578;-1.104146;,
 -0.170723;-0.292578;1.992656;;

 6;
 4;5,4,6,7;,
 4;4,0,2,6;,
 4;0,1,3,2;,
 4;1,5,7,3;,
 4;7,6,2,3;,
 4;1,0,4,5;;

 MeshMaterialList {
  1;
  6;
  0,
  0,
  0,
  0,
  0,
  0;
Material {
 1.000000;1.000000;1.000000;1.000000;;
 50.000000;
 1.000000;1.000000;1.000000;;
 0.0; 0.0; 0.0;;
 TextureFilename {
  "cap302.ppm";
 }
 }
}
 MeshNormals {
  8;
  0.298649;0.694890;-0.654169;,
  0.160118;0.764966;0.623850;,
  0.298649;-0.694890;-0.654169;,
  0.160118;-0.764966;0.623850;,
  -0.760636;0.472679;-0.444980;,
  -0.831072;0.410982;0.374717;,
  -0.760636;-0.472679;-0.444980;,
  -0.831072;-0.410982;0.374717;;

  6;
  4;5,4,6,7;,
  4;4,0,2,6;,
  4;0,1,3,2;,
  4;1,5,7,3;,
  4;7,6,2,3;,
  4;1,0,4,5;;
 }
 MeshTextureCoords { 
 8;
 0.002474;0.464641;,
 0.376690;0.464641;,
 0.002474;0.539266;,
 0.376690;0.539266;,
 0.013702;0.469939;,
 0.356427;0.469939;,
 0.013702;0.533967;,
 0.356427;0.533967;;
 }
}
}
Frame frm-cube22 {
  FrameTransformMatrix {
1.000000,0.000000,0.000000,0.000000,
0.000000,1.000000,0.000000,0.000000,
0.000000,0.000000,1.000000,0.000000,
-0.075969,0.459311,0.249712,1.000000;;
 }
Mesh cube22 {
 10;
 0.147817;-0.037707;-0.480212;,
 0.087175;0.020530;-0.398670;,
 -0.551383;-0.026267;-0.479829;,
 -0.481238;0.031124;-0.398316;,
 0.467248;-0.043788;-0.161014;,
 0.397882;0.014900;-0.110899;,
 -0.551240;-0.039510;0.572696;,
 -0.481119;0.020054;0.481523;,
 0.467347;-0.053014;0.572244;,
 0.397962;0.007452;0.481101;;

 6;
 4;7,6,8,9;,
 4;3,2,6,7;,
 4;1,5,4,0;,
 5;3,7,9,5,1;,
 4;9,8,4,5;,
 4;0,2,3,1;;

 MeshMaterialList {
  1;
  6;
  0,
  0,
  0,
  0,
  0,
  0;
Material {
 1.000000;1.000000;1.000000;1.000000;;
 50.000000;
 1.000000;1.000000;1.000000;;
 0.0; 0.0; 0.0;;
 TextureFilename {
  "cap302.ppm";
 }
 }
}
 MeshNormals {
  10;
  0.225471;0.850774;-0.474706;,
  0.138773;0.951960;-0.272973;,
  -0.348730;0.881984;-0.317005;,
  -0.252955;0.947212;-0.196984;,
  0.561097;0.815310;-0.142967;,
  0.388109;0.916856;-0.093523;,
  -0.346932;0.885509;0.309050;,
  -0.290494;0.946744;0.138884;,
  0.364466;0.878756;0.308142;,
  0.311346;0.940170;0.138359;;

  6;
  4;7,6,8,9;,
  4;3,2,6,7;,
  4;1,5,4,0;,
  5;3,7,9,5,1;,
  4;9,8,4,5;,
  4;0,2,3,1;;
 }
 MeshTextureCoords { 
 10;
 0.456798;0.965560;,
 0.463236;0.956849;,
 0.531026;0.965519;,
 0.523582;0.956811;,
 0.422886;0.931460;,
 0.430250;0.926107;,
 0.531013;0.853079;,
 0.523569;0.862819;,
 0.422873;0.853127;,
 0.430241;0.862864;;
 }
}
}
Frame frm-cube20 {
  FrameTransformMatrix {
1.000000,0.000000,0.000000,0.000000,
0.000000,1.000000,0.000000,0.000000,
0.000000,0.000000,1.000000,0.000000,
-0.075969,0.459311,2.118475,1.000000;;
 }
Mesh cube20 {
 10;
 0.147817;-0.037707;0.480212;,
 0.087175;0.020530;0.398670;,
 -0.551383;-0.026267;0.479829;,
 -0.481238;0.031124;0.398316;,
 0.467248;-0.043788;0.161014;,
 0.397882;0.014900;0.110899;,
 -0.551240;-0.039510;-0.572696;,
 -0.481119;0.020054;-0.481523;,
 0.467347;-0.053014;-0.572244;,
 0.397962;0.007452;-0.481101;;

 6;
 4;9,8,6,7;,
 4;7,6,2,3;,
 4;0,4,5,1;,
 5;1,5,9,7,3;,
 4;5,4,8,9;,
 4;1,3,2,0;;

 MeshMaterialList {
  1;
  6;
  0,
  0,
  0,
  0,
  0,
  0;
Material {
 1.000000;1.000000;1.000000;1.000000;;
 50.000000;
 1.000000;1.000000;1.000000;;
 0.0; 0.0; 0.0;;
 TextureFilename {
  "cap302.ppm";
 }
 }
}
 MeshNormals {
  10;
  0.225471;0.850774;0.474706;,
  0.138773;0.951960;0.272973;,
  -0.348730;0.881984;0.317005;,
  -0.252955;0.947212;0.196984;,
  0.561097;0.815310;0.142967;,
  0.388109;0.916856;0.093523;,
  -0.346932;0.885509;-0.309050;,
  -0.290494;0.946744;-0.138884;,
  0.364466;0.878756;-0.308142;,
  0.311346;0.940170;-0.138359;;

  6;
  4;9,8,6,7;,
  4;7,6,2,3;,
  4;0,4,5,1;,
  5;1,5,9,7,3;,
  4;5,4,8,9;,
  4;1,3,2,0;;
 }
 MeshTextureCoords { 
 10;
 0.729492;0.924805;,
 0.719727;0.920898;,
 0.729492;0.850586;,
 0.719727;0.860352;,
 0.696289;0.961914;,
 0.688477;0.954102;,
 0.616211;0.850586;,
 0.627930;0.860352;,
 0.616211;0.961914;,
 0.627930;0.954102;;
 }
}
}
}
}
AnimationSet {
 Animation anim-cube6 {
  {frm-cube6}
  AnimationKey {
  2;
  2;
  1; 3; 0.002161, 0.037313, -0.003024;;,
  100; 3; 0.002161, 0.037313, -0.003024;;;
  }
 }
 Animation anim-cube6_1 {
  {frm-cube6_1}
  AnimationKey {
  2;
  2;
  1; 3; 1.613029, 0.000000, 0.000000;;,
  100; 3; 1.613029, 0.000000, 0.000000;;;
  }
 }
 Animation anim-cyl1_10 {
  {frm-cyl1_10}
  AnimationKey {
  2;
  2;
  1; 3; -0.474977, 0.506992, 10.289459;;,
  100; 3; -0.474977, 0.506992, 10.289459;;;
  }
 }
 Animation anim-sphere8 {
  {frm-sphere8}
  AnimationKey {
  2;
  2;
  1; 3; 0.904424, 0.408070, 5.283686;;,
  100; 3; 0.904424, 0.408070, 5.283686;;;
  }
 }
 Animation anim-cyl1_14 {
  {frm-cyl1_14}
  AnimationKey {
  2;
  2;
  1; 3; 0.068539, 0.506992, 10.289459;;,
  100; 3; 0.068539, 0.506992, 10.289459;;;
  }
 }
 Animation anim-cyl1_15 {
  {frm-cyl1_15}
  AnimationKey {
  2;
  2;
  1; 3; 0.614837, 0.506992, 10.289459;;,
  100; 3; 0.614837, 0.506992, 10.289459;;;
  }
 }
 Animation anim-sphere5 {
  {frm-sphere5}
  AnimationKey {
  2;
  2;
  1; 3; -0.016487, -0.592951, 3.892180;;,
  100; 3; -0.016487, -0.592951, 3.892180;;;
  }
 }
 Animation anim-cyl1_8 {
  {frm-cyl1_8}
  AnimationKey {
  2;
  2;
  1; 3; 0.000001, -0.543649, 2.480225;;,
  100; 3; 0.000001, -0.543649, 2.480225;;;
  }
 }
 Animation anim-cyl14 {
  {frm-cyl14}
  AnimationKey {
  2;
  2;
  1; 3; -1.309949, 0.290299, 4.857539;;,
  100; 3; -1.309949, 0.290299, 4.857539;;;
  }
 }
 Animation anim-cube17 {
  {frm-cube17}
  AnimationKey {
  2;
  2;
  1; 3; -0.388792, 0.454274, -2.581972;;,
  100; 3; -0.388792, 0.454274, -2.581972;;;
  }
 }
 Animation anim-cube13 {
  {frm-cube13}
  AnimationKey {
  2;
  2;
  1; 3; 0.769578, -0.282837, -2.699710;;,
  100; 3; 0.769578, -0.282837, -2.699710;;;
  }
 }
 Animation anim-sphere6 {
  {frm-sphere6}
  AnimationKey {
  2;
  2;
  1; 3; -0.002161, 0.851747, 7.114967;;,
  100; 3; -0.002161, 0.851747, 7.114967;;;
  }
 }
 Animation anim-sphere7 {
  {frm-sphere7}
  AnimationKey {
  2;
  2;
  1; 3; -0.021857, -0.611502, -0.974969;;,
  100; 3; -0.021857, -0.611502, -0.974969;;;
  }
 }
 Animation anim-cyl1_13 {
  {frm-cyl1_13}
  AnimationKey {
  2;
  2;
  1; 3; -0.001194, -0.574303, -2.647064;;,
  100; 3; -0.001194, -0.574303, -2.647064;;;
  }
 }
 Animation anim-cube19 {
  {frm-cube19}
  AnimationKey {
  2;
  2;
  1; 3; 0.026842, -0.495465, 1.786718;;,
  100; 3; 0.026842, -0.495465, 1.786718;;;
  }
 }
 Animation anim-cube18 {
  {frm-cube18}
  AnimationKey {
  2;
  2;
  1; 3; 0.004017, 0.260115, 7.792552;;,
  100; 3; 0.004017, 0.260115, 7.792552;;;
  }
 }
 Animation anim-sphere9 {
  {frm-sphere9}
  AnimationKey {
  2;
  2;
  1; 3; -0.907508, 0.133602, -2.465132;;,
  100; 3; -0.907508, 0.133602, -2.465132;;;
  }
 }
 Animation anim-cube16 {
  {frm-cube16}
  AnimationKey {
  2;
  2;
  1; 3; -0.808550, 0.140744, -2.863252;;,
  100; 3; -0.808550, 0.140744, -2.863252;;;
  }
 }
 Animation anim-cube22 {
  {frm-cube22}
  AnimationKey {
  2;
  2;
  1; 3; -0.075969, 0.459311, 0.249712;;,
  100; 3; -0.075969, 0.459311, 0.249712;;;
  }
 }
 Animation anim-cube20 {
  {frm-cube20}
  AnimationKey {
  2;
  2;
  1; 3; -0.075969, 0.459311, 2.118475;;,
  100; 3; -0.075969, 0.459311, 2.118475;;;
  }
 }
}
