xof 0302txt 0032
template Header {
 <3D82AB43-62DA-11cf-AB39-0020AF71E433>
 WORD major;
 WORD minor;
 DWORD flags;
}

template Vector {
 <3D82AB5E-62DA-11cf-AB39-0020AF71E433>
 FLOAT x;
 FLOAT y;
 FLOAT z;
}

template Coords2d {
 <F6F23F44-7686-11cf-8F52-0040333594A3>
 FLOAT u;
 FLOAT v;
}

template Matrix4x4 {
 <F6F23F45-7686-11cf-8F52-0040333594A3>
 array FLOAT matrix[16];
}

template ColorRGBA {
 <35FF44E0-6C7C-11cf-8F52-0040333594A3>
 FLOAT red;
 FLOAT green;
 FLOAT blue;
 FLOAT alpha;
}

template ColorRGB {
 <D3E16E81-7835-11cf-8F52-0040333594A3>
 FLOAT red;
 FLOAT green;
 FLOAT blue;
}

template TextureFilename {
 <A42790E1-7810-11cf-8F52-0040333594A3>
 STRING filename;
}

template Material {
 <3D82AB4D-62DA-11cf-AB39-0020AF71E433>
 ColorRGBA faceColor;
 FLOAT power;
 ColorRGB specularColor;
 ColorRGB emissiveColor;
 [...]
}

template MeshFace {
 <3D82AB5F-62DA-11cf-AB39-0020AF71E433>
 DWORD nFaceVertexIndices;
 array DWORD faceVertexIndices[nFaceVertexIndices];
}

template MeshTextureCoords {
 <F6F23F40-7686-11cf-8F52-0040333594A3>
 DWORD nTextureCoords;
 array Coords2d textureCoords[nTextureCoords];
}

template MeshMaterialList {
 <F6F23F42-7686-11cf-8F52-0040333594A3>
 DWORD nMaterials;
 DWORD nFaceIndexes;
 array DWORD faceIndexes[nFaceIndexes];
 [Material]
}

template MeshNormals {
 <F6F23F43-7686-11cf-8F52-0040333594A3>
 DWORD nNormals;
 array Vector normals[nNormals];
 DWORD nFaceNormals;
 array MeshFace faceNormals[nFaceNormals];
}

template Mesh {
 <3D82AB44-62DA-11cf-AB39-0020AF71E433>
 DWORD nVertices;
 array Vector vertices[nVertices];
 DWORD nFaces;
 array MeshFace faces[nFaces];
 [...]
}

template FrameTransformMatrix {
 <F6F23F41-7686-11cf-8F52-0040333594A3>
 Matrix4x4 frameMatrix;
}

template Frame {
 <3D82AB46-62DA-11cf-AB39-0020AF71E433>
 [...]
}
template FloatKeys {
 <10DD46A9-775B-11cf-8F52-0040333594A3>
 DWORD nValues;
 array FLOAT values[nValues];
}

template TimedFloatKeys {
 <F406B180-7B3B-11cf-8F52-0040333594A3>
 DWORD time;
 FloatKeys tfkeys;
}

template AnimationKey {
 <10DD46A8-775B-11cf-8F52-0040333594A3>
 DWORD keyType;
 DWORD nKeys;
 array TimedFloatKeys keys[nKeys];
}

template AnimationOptions {
 <E2BF56C0-840F-11cf-8F52-0040333594A3>
 DWORD openclosed;
 DWORD positionquality;
}

template Animation {
 <3D82AB4F-62DA-11cf-AB39-0020AF71E433>
 [...]
}

template AnimationSet {
 <3D82AB50-62DA-11cf-AB39-0020AF71E433>
 [Animation]
}

Header {
 1;
 0;
 1;
}

Frame frm-dummyRoot {
  FrameTransformMatrix {
1.000000,0.000000,0.000000,0.000000,
0.000000,1.000000,0.000000,0.000000,
0.000000,0.000000,1.000000,0.000000,
0.000000,0.000000,0.000000,1.000000;;
 }
Frame frm-wepemt {
  FrameTransformMatrix {
0.696000,0.000000,0.000000,0.000000,
0.000000,0.000000,0.696000,0.000000,
0.000000,-0.696000,0.000000,0.000000,
-0.014232,-1.395335,-9.210105,1.000000;;
 }
Mesh wepemt {
 4;
 -0.037712;-0.013333;0.000000;,
 0.000000;0.040000;0.000000;,
 0.018856;-0.013333;0.032660;,
 0.018856;-0.013333;-0.032660;;

 4;
 3;2,1,0;,
 3;3,0,1;,
 3;0,3,2;,
 3;1,2,3;;

 MeshNormals {
  4;
  -0.942809;-0.333333;0.000000;,
  0.000000;1.000000;-0.000000;,
  0.471404;-0.333333;0.816497;,
  0.471404;-0.333333;-0.816497;;

  4;
  3;2,1,0;,
  3;3,0,1;,
  3;0,3,2;,
  3;1,2,3;;
 }
}
}
Frame frm-missemt {
  FrameTransformMatrix {
1.000000,0.000000,0.000000,0.000000,
0.000000,1.000000,0.000000,0.000000,
0.000000,0.000000,1.000000,0.000000,
-0.020449,3.485626,4.375158,1.000000;;
 }
Mesh missemt {
 4;
 -0.037712;-0.013333;0.000000;,
 0.000000;0.040000;0.000000;,
 0.018856;-0.013333;0.032660;,
 0.018856;-0.013333;-0.032660;;

 4;
 3;2,1,0;,
 3;3,0,1;,
 3;0,3,2;,
 3;1,2,3;;

 MeshNormals {
  4;
  -0.942809;-0.333333;0.000000;,
  0.000000;1.000000;-0.000000;,
  0.471404;-0.333333;0.816497;,
  0.471404;-0.333333;-0.816497;;

  4;
  3;2,1,0;,
  3;3,0,1;,
  3;0,3,2;,
  3;1,2,3;;
 }
}
}
Frame frm-cockpt {
  FrameTransformMatrix {
1.000000,0.000000,0.000000,0.000000,
0.000000,1.000000,0.000000,0.000000,
0.000000,0.000000,1.000000,0.000000,
0.000000,1.504557,-8.146655,1.000000;;
 }
Mesh cockpt {
 4;
 -0.037712;-0.013333;0.000000;,
 0.000000;0.040000;0.000000;,
 0.018856;-0.013333;0.032660;,
 0.018856;-0.013333;-0.032660;;

 4;
 3;2,1,0;,
 3;3,0,1;,
 3;0,3,2;,
 3;1,2,3;;

 MeshNormals {
  4;
  -0.942809;-0.333333;0.000000;,
  0.000000;1.000000;-0.000000;,
  0.471404;-0.333333;0.816497;,
  0.471404;-0.333333;-0.816497;;

  4;
  3;2,1,0;,
  3;3,0,1;,
  3;0,3,2;,
  3;1,2,3;;
 }
}
}
Frame frm-trail {
  FrameTransformMatrix {
1.000000,0.000000,0.000000,0.000000,
0.000000,1.000000,0.000000,0.000000,
0.000000,0.000000,1.000000,0.000000,
0.000000,3.959895,14.989380,1.000000;;
 }
Mesh trail {
 4;
 -0.037712;-0.013333;0.000000;,
 0.000000;0.040000;0.000000;,
 0.018856;-0.013333;0.032660;,
 0.018856;-0.013333;-0.032660;;

 4;
 3;2,1,0;,
 3;3,0,1;,
 3;0,3,2;,
 3;1,2,3;;

 MeshNormals {
  4;
  -0.942809;-0.333333;0.000000;,
  0.000000;1.000000;-0.000000;,
  0.471404;-0.333333;0.816497;,
  0.471404;-0.333333;-0.816497;;

  4;
  3;2,1,0;,
  3;3,0,1;,
  3;0,3,2;,
  3;1,2,3;;
 }
}
}
Frame frm-fuselg1 {
  FrameTransformMatrix {
1.000000,0.000000,0.000000,0.000000,
0.000000,1.000000,0.000000,0.000000,
0.000000,0.000000,1.000000,0.000000,
0.017815,-1.861236,-6.311845,1.000000;;
 }
Mesh fuselg1 {
 120;
 -3.358067;-0.010910;6.320470;,
 -3.358067;-0.010910;6.320470;,
 -3.354607;1.741871;6.320470;,
 -3.354607;1.741871;6.320470;,
 -2.891947;3.942346;6.320470;,
 -2.891947;3.942346;6.320470;,
 -0.583621;1.816338;-4.048643;,
 -0.583621;1.816338;-4.048643;,
 -1.167241;5.243789;6.320470;,
 -1.167241;5.243789;6.320470;,
 -1.167241;5.243789;6.320470;,
 1.176655;5.243789;6.320470;,
 1.176655;5.243789;6.320470;,
 1.176655;5.243789;6.320470;,
 -0.845014;0.584780;-3.012338;,
 -0.845014;0.584780;-3.012338;,
 2.891947;3.942346;6.320470;,
 2.891947;3.942346;6.320470;,
 3.301961;1.741871;6.320470;,
 3.301961;1.741871;6.320470;,
 3.291076;-0.010910;6.320470;,
 3.291076;-0.010910;6.320470;,
 -3.358067;-0.010910;3.288409;,
 -3.358067;-0.010910;3.288409;,
 -3.358067;-0.010910;3.288409;,
 -1.094096;5.243789;3.288409;,
 -1.094096;5.243789;3.288409;,
 -1.094096;5.243789;3.288409;,
 1.102920;5.243789;3.288409;,
 1.102920;5.243789;3.288409;,
 3.291076;-0.010910;3.288409;,
 3.291076;-0.010910;3.288409;,
 3.291076;-0.010910;3.288409;,
 -3.264282;-0.008104;2.628024;,
 -3.264282;-0.008104;2.628024;,
 1.594329;-0.007566;-2.641850;,
 1.594329;-0.007566;-2.641850;,
 1.594329;-0.007566;-2.641850;,
 0.588327;1.816338;-4.048643;,
 0.588327;1.816338;-4.048643;,
 -1.053435;4.783298;2.628024;,
 -1.053435;4.783298;2.628024;,
 -1.053435;4.783298;2.628024;,
 1.061931;4.783298;2.628024;,
 1.061931;4.783298;2.628024;,
 1.061931;4.783298;2.628024;,
 0.845014;0.584780;-3.012338;,
 0.845014;0.584780;-3.012338;,
 1.257138;0.402142;-2.891066;,
 1.257138;0.402142;-2.891066;,
 3.230585;-0.008104;2.628024;,
 3.230585;-0.008104;2.628024;,
 -2.958687;-0.010261;1.116427;,
 -2.958687;-0.010261;1.116427;,
 -0.968717;4.511493;0.096581;,
 0.976530;4.511493;0.096581;,
 2.958687;-0.010261;1.116427;,
 2.958687;-0.010261;1.116427;,
 2.958687;-0.010261;1.116427;,
 -2.516752;0.000579;-0.271857;,
 -2.516752;0.000579;-0.271857;,
 -2.516752;0.000579;-0.271857;,
 2.516752;0.000579;-0.271857;,
 2.516752;0.000579;-0.271857;,
 2.516752;0.000579;-0.271857;,
 -1.594329;-0.007566;-2.641850;,
 -1.594329;-0.007566;-2.641850;,
 -1.594329;-0.007566;-2.641850;,
 -1.257138;0.402142;-2.891066;,
 -1.257138;0.402142;-2.891066;,
 -1.257138;0.402142;-2.891066;,
 -1.594329;-0.007566;-2.641850;,
 2.516752;0.000579;-0.271857;,
 2.474703;1.094217;-0.884068;,
 1.984475;1.776501;-1.261405;,
 1.183019;2.055369;-1.410577;,
 0.823658;3.537940;-2.270194;,
 -0.817069;3.537940;-2.270194;,
 -1.183019;2.055369;-1.410577;,
 -1.984475;1.776501;-1.261405;,
 -2.514159;1.094217;-0.884068;,
 -2.516752;0.000579;-0.271857;,
 2.958687;-0.010261;1.116427;,
 2.909255;1.397572;0.795086;,
 2.424311;2.754577;0.492023;,
 1.419623;3.124966;0.406452;,
 0.976530;4.511493;0.096581;,
 -0.968717;4.511493;0.096581;,
 -1.419623;3.124966;0.406452;,
 -2.424311;2.754577;0.492023;,
 -2.955639;1.397572;0.795086;,
 -2.958687;-0.010261;1.116427;,
 3.230585;-0.008104;2.628024;,
 1.257138;0.402142;-2.891066;,
 0.845014;0.584780;-3.012338;,
 1.061931;4.783298;2.628024;,
 -1.053435;4.783298;2.628024;,
 0.588327;1.816338;-4.048643;,
 1.594329;-0.007566;-2.641850;,
 -3.264282;-0.008104;2.628024;,
 3.291076;-0.010910;3.288409;,
 3.301961;1.741871;3.288409;,
 2.834964;3.616905;3.288409;,
 1.690027;4.135678;3.288409;,
 1.102920;5.243789;3.288409;,
 -1.094096;5.243789;3.288409;,
 -1.690027;4.135678;3.288409;,
 -2.834964;3.616905;3.288409;,
 -3.354607;1.741871;3.288409;,
 -3.358067;-0.010910;3.288409;,
 3.291076;-0.010910;6.320470;,
 3.301961;1.741871;6.320470;,
 2.891947;3.942346;6.320470;,
 -0.845014;0.584780;-3.012338;,
 1.176655;5.243789;6.320470;,
 -1.167241;5.243789;6.320470;,
 -0.583621;1.816338;-4.048643;,
 -2.891947;3.942346;6.320470;,
 -3.354607;1.741871;6.320470;,
 -3.358067;-0.010910;6.320470;;

 49;
 4;21,1,24,32;,
 4;0,3,108,23;,
 4;2,5,107,108;,
 3;10,27,106;,
 4;9,13,29,26;,
 4;12,17,102,103;,
 4;16,19,101,102;,
 4;18,20,31,101;,
 4;30,22,34,51;,
 4;108,107,89,90;,
 4;107,106,88,89;,
 3;106,25,42;,
 4;105,28,45,41;,
 3;44,104,103;,
 4;103,102,84,85;,
 5;101,100,50,58,83;,
 4;92,33,53,57;,
 4;40,43,55,54;,
 4;56,52,61,64;,
 4;91,90,80,60;,
 4;90,89,79,80;,
 4;89,88,78,79;,
 4;88,87,77,78;,
 4;87,86,76,77;,
 4;86,85,75,76;,
 4;85,84,74,75;,
 4;84,83,73,74;,
 4;83,82,63,73;,
 4;62,59,67,37;,
 4;66,80,79,69;,
 3;81,80,65;,
 4;79,78,15,68;,
 4;78,77,7,14;,
 4;77,76,39,6;,
 4;76,75,47,38;,
 4;75,74,49,46;,
 3;73,72,36;,
 4;113,116,97,94;,
 3;71,70,113;,
 4;48,74,73,35;,
 4;83,84,102,101;,
 5;90,91,99,109,108;,
 4;106,107,4,8;,
 3;103,104,11;,
 4;96,87,88,106;,
 4;103,85,86,95;,
 3;94,93,98;,
 4;98,71,113,94;,
 8;115,117,118,119,110,111,112,114;;

 MeshMaterialList {
  5;
  49;
  0,
  1,
  1,
  1,
  2,
  1,
  1,
  1,
  0,
  1,
  1,
  1,
  3,
  1,
  1,
  1,
  0,
  3,
  0,
  1,
  1,
  1,
  1,
  1,
  1,
  1,
  1,
  1,
  0,
  1,
  1,
  1,
  1,
  1,
  1,
  1,
  1,
  0,
  0,
  1,
  1,
  1,
  1,
  1,
  1,
  1,
  0,
  0,
  4;
Material {
 1.000000;1.000000;1.000000;1.000000;;
 0.000000;
 1.000000;1.000000;1.000000;;
 0.0; 0.0; 0.0;;
 TextureFilename {
  "utl27.ppm";
 }
 }
Material {
 1.000000;1.000000;1.000000;1.000000;;
 0.000000;
 1.000000;1.000000;1.000000;;
 0.0; 0.0; 0.0;;
 TextureFilename {
  "utl27.ppm";
 }
 }
Material {
 1.000000;1.000000;1.000000;1.000000;;
 0.000000;
 1.000000;1.000000;1.000000;;
 0.0; 0.0; 0.0;;
 TextureFilename {
  "utl27.ppm";
 }
 }
Material {
 1.000000;1.000000;1.000000;1.000000;;
 0.000000;
 1.000000;1.000000;1.000000;;
 0.0; 0.0; 0.0;;
 TextureFilename {
  "utl27.ppm";
 }
 }
Material {
 1.000000;1.000000;1.000000;1.000000;;
 0.000000;
 1.000000;1.000000;1.000000;;
 0.0; 0.0; 0.0;;
 TextureFilename {
  "utl27.ppm";
 }
 }
}
 MeshNormals {
  120;
  -0.577729;-0.576590;0.577730;,
  -0.577729;-0.576590;0.577730;,
  -0.891932;0.106852;0.439364;,
  -0.891932;0.106852;0.439364;,
  -0.754977;0.537350;0.375852;,
  -0.754977;0.537350;0.375852;,
  -0.497713;0.072138;-0.864337;,
  -0.497713;0.072138;-0.864337;,
  -0.505551;0.815237;0.282501;,
  -0.505551;0.815237;0.282501;,
  -0.505551;0.815237;0.282501;,
  0.507743;0.813905;0.282409;,
  0.507743;0.813905;0.282409;,
  0.507743;0.813905;0.282409;,
  -0.397398;-0.228010;-0.888868;,
  -0.397398;-0.228010;-0.888868;,
  0.761986;0.527407;0.375792;,
  0.761986;0.527407;0.375792;,
  0.893340;0.092217;0.439818;,
  0.893340;0.092217;0.439818;,
  0.576148;-0.579737;0.576159;,
  0.576148;-0.579737;0.576159;,
  -0.703642;-0.707941;-0.060880;,
  -0.703642;-0.707941;-0.060880;,
  -0.703642;-0.707941;-0.060880;,
  -0.506699;0.814227;-0.283355;,
  -0.506699;0.814227;-0.283355;,
  -0.506699;0.814227;-0.283355;,
  0.509484;0.812568;-0.283123;,
  0.509484;0.812568;-0.283123;,
  0.705306;-0.706696;-0.055894;,
  0.705306;-0.706696;-0.055894;,
  0.705306;-0.706696;-0.055894;,
  -0.439599;-0.894974;-0.075986;,
  -0.439599;-0.894974;-0.075986;,
  0.443728;-0.541434;-0.714111;,
  0.443728;-0.541434;-0.714111;,
  0.443728;-0.541434;-0.714111;,
  0.498398;0.070847;-0.864049;,
  0.498398;0.070847;-0.864049;,
  -0.508172;0.786010;-0.352065;,
  -0.508172;0.786010;-0.352065;,
  -0.508172;0.786010;-0.352065;,
  0.510899;0.784437;-0.351625;,
  0.510899;0.784437;-0.351625;,
  0.510899;0.784437;-0.351625;,
  0.397875;-0.228581;-0.888508;,
  0.397875;-0.228581;-0.888508;,
  0.493526;0.168802;-0.853193;,
  0.493526;0.168802;-0.853193;,
  0.443328;-0.893618;-0.070052;,
  0.443328;-0.893618;-0.070052;,
  -0.671566;-0.725139;-0.152224;,
  -0.671566;-0.725139;-0.152224;,
  -0.572872;0.778803;-0.255506;,
  0.574990;0.777346;-0.255187;,
  0.680977;-0.716869;-0.149561;,
  0.680977;-0.716869;-0.149561;,
  0.680977;-0.716869;-0.149561;,
  -0.619474;-0.757192;-0.207151;,
  -0.619474;-0.757192;-0.207151;,
  -0.619474;-0.757192;-0.207151;,
  0.630949;-0.746468;-0.211397;,
  0.630949;-0.746468;-0.211397;,
  0.630949;-0.746468;-0.211397;,
  -0.439806;-0.543933;-0.714639;,
  -0.439806;-0.543933;-0.714639;,
  -0.439806;-0.543933;-0.714639;,
  -0.486917;0.172516;-0.856242;,
  -0.486917;0.172516;-0.856242;,
  -0.486917;0.172516;-0.856242;,
  -0.439806;-0.543933;-0.714639;,
  0.630949;-0.746468;-0.211397;,
  0.914298;0.089519;-0.395026;,
  0.639651;0.527933;-0.558689;,
  0.756438;0.471308;-0.453509;,
  0.620944;0.618179;-0.481957;,
  -0.619499;0.619347;-0.482317;,
  -0.755247;0.472711;-0.454033;,
  -0.630123;0.536123;-0.561709;,
  -0.911832;0.083587;-0.401966;,
  -0.619474;-0.757192;-0.207151;,
  0.680977;-0.716869;-0.149561;,
  0.960621;0.130218;-0.245458;,
  0.697847;0.607034;-0.380157;,
  0.713534;0.619698;-0.326869;,
  0.574990;0.777346;-0.255187;,
  -0.572872;0.778803;-0.255506;,
  -0.711741;0.621580;-0.327205;,
  -0.687551;0.617729;-0.381687;,
  -0.958267;0.132210;-0.253467;,
  -0.671566;-0.725139;-0.152224;,
  0.443328;-0.893618;-0.070052;,
  0.493526;0.168802;-0.853193;,
  0.397875;-0.228581;-0.888508;,
  0.510899;0.784437;-0.351625;,
  -0.508172;0.786010;-0.352065;,
  0.498398;0.070847;-0.864049;,
  0.443728;-0.541434;-0.714111;,
  -0.439599;-0.894974;-0.075986;,
  0.705306;-0.706696;-0.055894;,
  0.988306;0.119173;-0.095124;,
  0.777593;0.597531;-0.195718;,
  0.741880;0.635009;-0.215355;,
  0.509484;0.812568;-0.283123;,
  -0.506699;0.814227;-0.283355;,
  -0.739178;0.638003;-0.215796;,
  -0.769188;0.608095;-0.196395;,
  -0.986362;0.130200;-0.100691;,
  -0.703642;-0.707941;-0.060880;,
  0.576148;-0.579737;0.576159;,
  0.893340;0.092217;0.439818;,
  0.761986;0.527407;0.375792;,
  -0.397398;-0.228010;-0.888868;,
  0.507743;0.813905;0.282409;,
  -0.505551;0.815237;0.282501;,
  -0.497713;0.072138;-0.864337;,
  -0.754977;0.537350;0.375852;,
  -0.891932;0.106852;0.439364;,
  -0.577729;-0.576590;0.577730;;

  49;
  4;21,1,24,32;,
  4;0,3,108,23;,
  4;2,5,107,108;,
  3;10,27,106;,
  4;9,13,29,26;,
  4;12,17,102,103;,
  4;16,19,101,102;,
  4;18,20,31,101;,
  4;30,22,34,51;,
  4;108,107,89,90;,
  4;107,106,88,89;,
  3;106,25,42;,
  4;105,28,45,41;,
  3;44,104,103;,
  4;103,102,84,85;,
  5;101,100,50,58,83;,
  4;92,33,53,57;,
  4;40,43,55,54;,
  4;56,52,61,64;,
  4;91,90,80,60;,
  4;90,89,79,80;,
  4;89,88,78,79;,
  4;88,87,77,78;,
  4;87,86,76,77;,
  4;86,85,75,76;,
  4;85,84,74,75;,
  4;84,83,73,74;,
  4;83,82,63,73;,
  4;62,59,67,37;,
  4;66,80,79,69;,
  3;81,80,65;,
  4;79,78,15,68;,
  4;78,77,7,14;,
  4;77,76,39,6;,
  4;76,75,47,38;,
  4;75,74,49,46;,
  3;73,72,36;,
  4;113,116,97,94;,
  3;71,70,113;,
  4;48,74,73,35;,
  4;83,84,102,101;,
  5;90,91,99,109,108;,
  4;106,107,4,8;,
  3;103,104,11;,
  4;96,87,88,106;,
  4;103,85,86,95;,
  3;94,93,98;,
  4;98,71,113,94;,
  8;115,117,118,119,110,111,112,114;;
 }
 MeshTextureCoords { 
 120;
 0.570358;0.664681;,
 0.746094;0.695313;,
 0.570358;0.525112;,
 0.570358;0.525112;,
 0.570358;0.349894;,
 0.570358;0.349894;,
 0.938477;0.490234;,
 0.938477;0.490234;,
 0.569336;0.246745;,
 0.668945;0.193359;,
 0.569336;0.246745;,
 0.569336;0.246745;,
 0.569336;0.246745;,
 0.668945;0.021484;,
 0.902511;0.599820;,
 0.902511;0.599820;,
 0.570358;0.349894;,
 0.570358;0.349894;,
 0.570358;0.525112;,
 0.570358;0.525112;,
 0.570358;0.664681;,
 0.746094;0.980469;,
 0.810547;0.695313;,
 0.670065;0.664681;,
 0.810547;0.695313;,
 0.665039;0.249349;,
 0.774414;0.185547;,
 0.665039;0.249349;,
 0.667969;0.027344;,
 0.774414;0.029297;,
 0.810547;0.980469;,
 0.670065;0.664681;,
 0.810547;0.980469;,
 0.824219;0.699219;,
 0.824219;0.699219;,
 0.884177;0.664414;,
 0.884177;0.664414;,
 0.934570;0.904297;,
 0.938477;0.490234;,
 0.938477;0.490234;,
 0.697266;0.187500;,
 0.697266;0.187500;,
 0.693257;0.276421;,
 0.697266;0.031250;,
 0.693257;0.276421;,
 0.697266;0.031250;,
 0.902511;0.599820;,
 0.902511;0.599820;,
 0.893175;0.631791;,
 0.893175;0.631791;,
 0.693908;0.664457;,
 0.824219;0.976563;,
 0.857422;0.714844;,
 0.857422;0.714844;,
 0.789063;0.179688;,
 0.789063;0.039063;,
 0.857422;0.964844;,
 0.857422;0.964844;,
 0.748484;0.664629;,
 0.886719;0.734375;,
 0.798608;0.663766;,
 0.886719;0.734375;,
 0.886719;0.945313;,
 0.798608;0.663766;,
 0.886719;0.945313;,
 0.884177;0.664414;,
 0.884177;0.664414;,
 0.934570;0.779297;,
 0.893175;0.631791;,
 0.893175;0.631791;,
 0.946289;0.779297;,
 0.934570;0.779297;,
 0.798608;0.663766;,
 0.820712;0.576683;,
 0.834336;0.522354;,
 0.839722;0.500149;,
 0.875977;0.365234;,
 0.875977;0.365234;,
 0.839722;0.500149;,
 0.834336;0.522354;,
 0.820712;0.576683;,
 0.798608;0.663766;,
 0.748484;0.664629;,
 0.760086;0.552527;,
 0.771028;0.444473;,
 0.774118;0.414980;,
 0.793945;0.302734;,
 0.793945;0.302734;,
 0.774118;0.414980;,
 0.771028;0.444473;,
 0.760086;0.552527;,
 0.748484;0.664629;,
 0.824219;0.976563;,
 0.946289;0.904297;,
 0.950195;0.873047;,
 0.693257;0.276421;,
 0.693257;0.276421;,
 0.985352;0.865234;,
 0.934570;0.904297;,
 0.693908;0.664457;,
 0.670065;0.664681;,
 0.670065;0.525112;,
 0.670065;0.375808;,
 0.670065;0.334500;,
 0.665039;0.249349;,
 0.667969;0.191406;,
 0.670065;0.334500;,
 0.670065;0.375808;,
 0.670065;0.525112;,
 0.670065;0.664681;,
 0.743999;0.966789;,
 0.744139;0.884345;,
 0.738850;0.780844;,
 0.950195;0.810547;,
 0.716720;0.719629;,
 0.686481;0.719629;,
 0.985352;0.818359;,
 0.664230;0.780844;,
 0.658261;0.884345;,
 0.658216;0.966789;;
 }
}
Frame frm-lthrust1 {
  FrameTransformMatrix {
-1.000000,0.000000,-0.000000,0.000000,
0.000000,1.000000,0.000000,0.000000,
0.000000,0.000000,-1.000000,0.000000,
3.214633,0.147629,4.169702,1.000000;;
 }
Mesh lthrust1 {
 25;
 -0.464332;0.000000;-2.741399;,
 -0.464332;0.000000;-2.741399;,
 1.021569;0.000000;2.741399;,
 0.478048;0.000000;-2.741399;,
 -0.464332;1.903605;-2.217839;,
 -0.464332;1.903605;-2.217839;,
 -0.464332;3.080098;-0.847139;,
 -0.464332;3.080098;-0.847139;,
 -0.464332;3.080098;0.847139;,
 -0.464332;3.080098;0.847139;,
 -0.464332;1.903605;2.217839;,
 -0.464332;0.000000;2.741399;,
 -0.464332;0.000000;2.741399;,
 -0.464332;0.000000;2.741399;,
 0.478049;1.903605;2.217839;,
 -0.464332;1.903605;2.217839;,
 0.478048;3.080098;0.847139;,
 -0.464332;3.080098;0.847139;,
 0.478048;3.080098;-0.847139;,
 -0.464332;3.080098;-0.847139;,
 0.478048;1.903605;-2.217839;,
 -0.464332;1.903605;-2.217839;,
 0.478048;0.000000;-2.741399;,
 1.021569;0.000000;2.741399;,
 -0.464332;0.000000;-2.741399;;

 7;
 4;5,20,3,1;,
 4;12,0,22,2;,
 4;7,18,20,4;,
 4;9,16,18,6;,
 6;11,10,8,19,21,24;,
 4;15,14,16,17;,
 4;13,23,14,15;;

 MeshMaterialList {
  2;
  7;
  0,
  0,
  0,
  0,
  1,
  0,
  0;
Material {
 1.000000;1.000000;1.000000;1.000000;;
 0.000000;
 1.000000;1.000000;1.000000;;
 0.0; 0.0; 0.0;;
 TextureFilename {
  "utl27.ppm";
 }
 }
Material {
 1.000000;1.000000;1.000000;1.000000;;
 0.000000;
 1.000000;1.000000;1.000000;;
 0.0; 0.0; 0.0;;
 TextureFilename {
  "utl27.ppm";
 }
 }
}
 MeshNormals {
  25;
  -0.636053;-0.467130;-0.614188;,
  -0.636053;-0.467130;-0.614188;,
  -0.000000;-0.606140;0.795358;,
  0.000000;-0.606140;-0.795358;,
  -0.446973;0.552954;-0.703177;,
  -0.446973;0.552954;-0.703177;,
  -0.446995;0.870587;-0.205605;,
  -0.446995;0.870587;-0.205605;,
  -0.446995;0.794522;0.411012;,
  -0.446995;0.794522;0.411012;,
  -0.446972;0.399939;0.800165;,
  -0.636053;-0.467130;0.614188;,
  -0.636053;-0.467130;0.614188;,
  -0.636053;-0.467130;0.614188;,
  0.000000;0.618199;0.786021;,
  -0.446972;0.399939;0.800165;,
  0.000000;0.973246;0.229765;,
  -0.446995;0.794522;0.411012;,
  0.000000;0.888162;-0.459530;,
  -0.446995;0.870587;-0.205605;,
  0.000000;0.447032;-0.894518;,
  -0.446973;0.552954;-0.703177;,
  0.000000;-0.606140;-0.795358;,
  -0.000000;-0.606140;0.795358;,
  -0.636053;-0.467130;-0.614188;;

  7;
  4;5,20,3,1;,
  4;12,0,22,2;,
  4;7,18,20,4;,
  4;9,16,18,6;,
  6;11,10,8,19,21,24;,
  4;15,14,16,17;,
  4;13,23,14,15;;
 }
 MeshTextureCoords { 
 25;
 0.392578;0.742188;,
 0.480469;0.687500;,
 0.300781;0.781250;,
 0.480469;0.734375;,
 0.447266;0.687500;,
 0.447266;0.687500;,
 0.416016;0.687500;,
 0.416016;0.687500;,
 0.085938;0.738281;,
 0.375000;0.687500;,
 0.033203;0.828125;,
 0.013672;0.972656;,
 0.484375;0.742188;,
 0.306641;0.687500;,
 0.337891;0.734375;,
 0.337891;0.687500;,
 0.375000;0.734375;,
 0.375000;0.687500;,
 0.416016;0.734375;,
 0.150391;0.738281;,
 0.447266;0.734375;,
 0.201172;0.828125;,
 0.392578;0.742188;,
 0.306641;0.753906;,
 0.220703;0.972656;;
 }
}
Frame frm-lthrust2 {
  FrameTransformMatrix {
-1.000000,0.000000,-0.000000,0.000000,
-0.000000,0.994323,0.106400,0.000000,
0.000000,0.106400,-0.994323,0.000000,
3.064981,1.709213,0.080114,1.000000;;
 }
Mesh lthrust2 {
 47;
 6.086550;0.537838;2.864616;,
 6.086550;0.537838;2.864616;,
 6.167854;-0.631636;-1.333535;,
 6.167854;-0.631636;-1.333535;,
 4.971519;1.136332;-1.378743;,
 4.971519;1.136332;-1.378743;,
 5.045242;1.532021;-0.503762;,
 5.045242;1.532021;-0.503762;,
 5.045242;1.532021;-0.503762;,
 4.890215;1.039265;2.819410;,
 4.890215;1.039265;2.819410;,
 6.167854;0.621931;-1.333536;,
 6.167854;0.621931;-1.333536;,
 3.775187;0.621931;-1.423947;,
 3.775187;0.621931;-1.423947;,
 3.693881;0.537838;2.774205;,
 3.693881;0.537838;2.774205;,
 4.971519;-1.145164;-1.378742;,
 4.971519;-1.145164;-1.378742;,
 6.086550;-0.465016;2.864617;,
 6.086550;-0.465016;2.864617;,
 3.775188;-0.631637;-1.423946;,
 3.775188;-0.631637;-1.423946;,
 3.693881;-0.465016;2.774205;,
 3.693881;-0.465016;2.774205;,
 5.045242;-1.465756;-0.503761;,
 5.045242;-1.465756;-0.503761;,
 4.890215;-0.966443;2.819411;,
 4.890215;-0.966443;2.819411;,
 4.890215;-0.966443;2.819411;,
 5.045242;-1.465756;-0.503761;,
 3.693881;-0.465016;2.774205;,
 3.455991;-0.787155;-0.556325;,
 3.775188;-0.631637;-1.423946;,
 6.086550;-0.465016;2.864617;,
 4.971519;-1.145164;-1.378742;,
 3.693881;0.537838;2.774205;,
 3.455990;0.859974;-0.556326;,
 3.775187;0.621931;-1.423947;,
 6.167854;0.621931;-1.333536;,
 6.436328;-0.787155;-0.451196;,
 4.890215;1.039265;2.819410;,
 5.045242;1.532021;-0.503762;,
 4.971519;1.136332;-1.378743;,
 6.436328;0.859975;-0.451196;,
 6.167854;-0.631636;-1.333535;,
 6.086550;0.537838;2.864616;;

 14;
 4;44,8,10,1;,
 4;22,18,26,32;,
 4;5,14,37,7;,
 4;6,37,16,9;,
 4;40,44,0,20;,
 4;32,25,28,24;,
 4;17,3,40,30;,
 4;12,4,42,44;,
 4;13,21,32,37;,
 4;37,32,23,15;,
 4;2,11,44,40;,
 4;30,40,19,27;,
 6;35,33,38,43,39,45;,
 6;34,46,41,36,31,29;;

 MeshMaterialList {
  3;
  14;
  0,
  0,
  0,
  0,
  0,
  0,
  0,
  0,
  0,
  0,
  0,
  0,
  1,
  2;
Material {
 1.000000;1.000000;1.000000;1.000000;;
 0.000000;
 1.000000;1.000000;1.000000;;
 0.0; 0.0; 0.0;;
 TextureFilename {
  "utl27.ppm";
 }
 }
Material {
 1.000000;1.000000;1.000000;1.000000;;
 0.000000;
 1.000000;1.000000;1.000000;;
 0.0; 0.0; 0.0;;
 TextureFilename {
  "utl27.ppm";
 }
 }
Material {
 1.000000;1.000000;1.000000;1.000000;;
 0.000000;
 1.000000;1.000000;1.000000;;
 0.0; 0.0; 0.0;;
 TextureFilename {
  "utl27.ppm";
 }
 }
}
 MeshNormals {
  47;
  0.662500;0.439769;0.606380;,
  0.662500;0.439769;0.606380;,
  0.620879;-0.413091;-0.666232;,
  0.620879;-0.413091;-0.666232;,
  0.031871;0.712940;-0.700501;,
  0.031871;0.712940;-0.700501;,
  0.015567;0.990616;-0.135784;,
  0.015567;0.990616;-0.135784;,
  0.015567;0.990616;-0.135784;,
  -0.009364;0.839610;0.543110;,
  -0.009364;0.839610;0.543110;,
  0.606993;0.395864;-0.689095;,
  0.606993;0.395864;-0.689095;,
  -0.548553;0.376640;-0.746480;,
  -0.548553;0.376640;-0.746480;,
  -0.688992;0.442047;0.574355;,
  -0.688992;0.442047;0.574355;,
  0.031204;-0.751704;-0.658762;,
  0.031204;-0.751704;-0.658762;,
  0.594168;-0.484223;0.642256;,
  0.594168;-0.484223;0.642256;,
  -0.563297;-0.392060;-0.727313;,
  -0.563297;-0.392060;-0.727313;,
  -0.689424;-0.441340;0.574381;,
  -0.689424;-0.441340;0.574381;,
  0.014504;-0.995262;-0.096140;,
  0.014504;-0.995262;-0.096140;,
  -0.010232;-0.826661;0.562607;,
  -0.010232;-0.826661;0.562607;,
  -0.010232;-0.826661;0.562607;,
  0.014504;-0.995262;-0.096140;,
  -0.689424;-0.441340;0.574381;,
  -0.824291;-0.549055;-0.138141;,
  -0.563297;-0.392060;-0.727313;,
  0.594168;-0.484223;0.642256;,
  0.031204;-0.751704;-0.658762;,
  -0.688992;0.442047;0.574355;,
  -0.821380;0.547361;-0.160406;,
  -0.548553;0.376640;-0.746480;,
  0.606993;0.395864;-0.689095;,
  0.817200;-0.566231;-0.107552;,
  -0.009364;0.839610;0.543110;,
  0.015567;0.990616;-0.135784;,
  0.031871;0.712940;-0.700501;,
  0.817140;0.561642;-0.129772;,
  0.620879;-0.413091;-0.666232;,
  0.662500;0.439769;0.606380;;

  14;
  4;44,8,10,1;,
  4;22,18,26,32;,
  4;5,14,37,7;,
  4;6,37,16,9;,
  4;40,44,0,20;,
  4;32,25,28,24;,
  4;17,3,40,30;,
  4;12,4,42,44;,
  4;13,21,32,37;,
  4;37,32,23,15;,
  4;2,11,44,40;,
  4;30,40,19,27;,
  6;35,33,38,43,39,45;,
  6;34,46,41,36,31,29;;
 }
 MeshTextureCoords { 
 47;
 0.371094;0.917969;,
 0.371094;0.917969;,
 0.240234;0.843750;,
 0.240234;0.843750;,
 0.240234;0.953125;,
 0.240234;0.812500;,
 0.267578;0.792969;,
 0.267578;0.792969;,
 0.267578;0.980469;,
 0.371094;0.824219;,
 0.371094;0.949219;,
 0.240234;0.921875;,
 0.240234;0.921875;,
 0.240234;0.843750;,
 0.240234;0.843750;,
 0.371094;0.855469;,
 0.371094;0.855469;,
 0.240234;0.812500;,
 0.240234;0.953125;,
 0.371094;0.855469;,
 0.371094;0.855469;,
 0.240234;0.921875;,
 0.240234;0.921875;,
 0.371094;0.917969;,
 0.371094;0.917969;,
 0.267578;0.980469;,
 0.267578;0.980469;,
 0.371094;0.824219;,
 0.371094;0.949219;,
 0.052734;0.753906;,
 0.267578;0.792969;,
 0.103516;0.710938;,
 0.267578;0.937500;,
 0.285156;0.625000;,
 0.001953;0.710938;,
 0.224609;0.574219;,
 0.103516;0.628906;,
 0.267578;0.832031;,
 0.285156;0.750000;,
 0.164063;0.750000;,
 0.267578;0.832031;,
 0.052734;0.585938;,
 0.267578;0.980469;,
 0.224609;0.804688;,
 0.267578;0.937500;,
 0.164063;0.625000;,
 0.001953;0.628906;;
 }
}
Frame frm-lthrust {
  FrameTransformMatrix {
1.000000,0.000000,0.000000,0.000000,
0.000000,0.000000,1.000000,0.000000,
0.000000,-1.000000,0.000000,0.000000,
5.025856,-0.010060,2.817408,1.000000;;
 }
Mesh lthrust {
 4;
 -0.037712;-0.013333;0.000000;,
 0.000000;0.040000;0.000000;,
 0.018856;-0.013333;0.032660;,
 0.018856;-0.013333;-0.032660;;

 4;
 3;2,1,0;,
 3;3,0,1;,
 3;0,3,2;,
 3;1,2,3;;

 MeshMaterialList {
  1;
  4;
  0,
  0,
  0,
  0;
Material {
 1.000000;1.000000;1.000000;1.000000;;
 0.000000;
 1.000000;1.000000;1.000000;;
 0.000000;0.000000;0.000000;;
 TextureFilename {
  "utl27.ppm";
 }
 }
}
 MeshNormals {
  4;
  -0.942809;-0.333333;0.000000;,
  0.000000;1.000000;-0.000000;,
  0.471404;-0.333333;0.816497;,
  0.471404;-0.333333;-0.816497;;

  4;
  3;2,1,0;,
  3;3,0,1;,
  3;0,3,2;,
  3;1,2,3;;
 }
 MeshTextureCoords { 
 4;
 0.000000;1.000000;,
 0.000000;1.000000;,
 0.000000;1.000000;,
 0.000000;1.000000;;
 }
}
}
}
}
Frame frm-rthrust1 {
  FrameTransformMatrix {
1.000000,0.000000,0.000000,0.000000,
0.000000,1.000000,0.000000,0.000000,
0.000000,0.000000,1.000000,0.000000,
-3.250267,0.147629,4.169702,1.000000;;
 }
Mesh rthrust1 {
 25;
 -0.464332;0.000000;2.741399;,
 -0.464332;0.000000;2.741399;,
 1.021569;0.000000;-2.741399;,
 0.478048;0.000000;2.741399;,
 -0.464332;1.903605;2.217839;,
 -0.464332;1.903605;2.217839;,
 -0.464332;3.080098;0.847139;,
 -0.464332;3.080098;0.847139;,
 -0.464332;3.080098;-0.847139;,
 -0.464332;3.080098;-0.847139;,
 -0.464332;1.903605;-2.217839;,
 -0.464332;0.000000;-2.741399;,
 -0.464332;0.000000;-2.741399;,
 -0.464332;0.000000;-2.741399;,
 0.478049;1.903605;-2.217839;,
 -0.464332;1.903605;-2.217839;,
 0.478048;3.080098;-0.847139;,
 -0.464332;3.080098;-0.847139;,
 0.478048;3.080098;0.847139;,
 -0.464332;3.080098;0.847139;,
 0.478048;1.903605;2.217839;,
 -0.464332;1.903605;2.217839;,
 0.478048;0.000000;2.741399;,
 1.021569;0.000000;-2.741399;,
 -0.464332;0.000000;2.741399;;

 7;
 4;1,3,20,5;,
 4;2,22,0,12;,
 4;4,20,18,7;,
 4;6,18,16,9;,
 6;11,24,21,19,8,10;,
 4;17,16,14,15;,
 4;15,14,23,13;;

 MeshMaterialList {
  2;
  7;
  0,
  0,
  0,
  0,
  1,
  0,
  0;
Material {
 1.000000;1.000000;1.000000;1.000000;;
 0.000000;
 1.000000;1.000000;1.000000;;
 0.0; 0.0; 0.0;;
 TextureFilename {
  "utl27.ppm";
 }
 }
Material {
 1.000000;1.000000;1.000000;1.000000;;
 0.000000;
 1.000000;1.000000;1.000000;;
 0.0; 0.0; 0.0;;
 TextureFilename {
  "utl27.ppm";
 }
 }
}
 MeshNormals {
  25;
  -0.636053;-0.467130;0.614188;,
  -0.636053;-0.467130;0.614188;,
  -0.000000;-0.606140;-0.795358;,
  0.000000;-0.606140;0.795358;,
  -0.446973;0.552954;0.703177;,
  -0.446973;0.552954;0.703177;,
  -0.446995;0.870587;0.205605;,
  -0.446995;0.870587;0.205605;,
  -0.446995;0.794522;-0.411012;,
  -0.446995;0.794522;-0.411012;,
  -0.446972;0.399939;-0.800165;,
  -0.636053;-0.467130;-0.614188;,
  -0.636053;-0.467130;-0.614188;,
  -0.636053;-0.467130;-0.614188;,
  0.000000;0.618199;-0.786021;,
  -0.446972;0.399939;-0.800165;,
  0.000000;0.973246;-0.229765;,
  -0.446995;0.794522;-0.411012;,
  0.000000;0.888162;0.459530;,
  -0.446995;0.870587;0.205605;,
  0.000000;0.447032;0.894518;,
  -0.446973;0.552954;0.703177;,
  0.000000;-0.606140;0.795358;,
  -0.000000;-0.606140;-0.795358;,
  -0.636053;-0.467130;0.614188;;

  7;
  4;1,3,20,5;,
  4;2,22,0,12;,
  4;4,20,18,7;,
  4;6,18,16,9;,
  6;11,24,21,19,8,10;,
  4;17,16,14,15;,
  4;15,14,23,13;;
 }
 MeshTextureCoords { 
 25;
 0.484375;0.679688;,
 0.480469;0.687500;,
 0.392578;0.742188;,
 0.480469;0.734375;,
 0.447266;0.687500;,
 0.447266;0.687500;,
 0.416016;0.687500;,
 0.416016;0.687500;,
 0.150391;0.738281;,
 0.375000;0.687500;,
 0.201172;0.828125;,
 0.220703;0.972656;,
 0.300781;0.679688;,
 0.306641;0.687500;,
 0.337891;0.734375;,
 0.337891;0.687500;,
 0.375000;0.734375;,
 0.375000;0.687500;,
 0.416016;0.734375;,
 0.085938;0.738281;,
 0.447266;0.734375;,
 0.033203;0.828125;,
 0.484375;0.742188;,
 0.306641;0.753906;,
 0.013672;0.972656;;
 }
}
Frame frm-rthrust2 {
  FrameTransformMatrix {
-1.000000,0.000000,-0.000000,0.000000,
0.000000,0.994323,-0.106400,0.000000,
0.000000,-0.106400,-0.994323,0.000000,
3.064989,1.709213,-0.080114,1.000000;;
 }
Mesh rthrust2 {
 47;
 6.086550;0.537838;-2.864616;,
 6.086550;0.537838;-2.864616;,
 6.167854;-0.631636;1.333535;,
 6.167854;-0.631636;1.333535;,
 4.971519;1.136332;1.378743;,
 4.971519;1.136332;1.378743;,
 5.045242;1.532021;0.503762;,
 5.045242;1.532021;0.503762;,
 5.045242;1.532021;0.503762;,
 4.890215;1.039265;-2.819410;,
 4.890215;1.039265;-2.819410;,
 6.167854;0.621931;1.333536;,
 6.167854;0.621931;1.333536;,
 3.775187;0.621931;1.423947;,
 3.775187;0.621931;1.423947;,
 3.693881;0.537838;-2.774205;,
 3.693881;0.537838;-2.774205;,
 4.971519;-1.145164;1.378742;,
 4.971519;-1.145164;1.378742;,
 6.086550;-0.465016;-2.864617;,
 6.086550;-0.465016;-2.864617;,
 3.775188;-0.631637;1.423946;,
 3.775188;-0.631637;1.423946;,
 3.693881;-0.465016;-2.774205;,
 3.693881;-0.465016;-2.774205;,
 5.045242;-1.465756;0.503761;,
 5.045242;-1.465756;0.503761;,
 4.890215;-0.966443;-2.819411;,
 4.890215;-0.966443;-2.819411;,
 4.890215;-0.966443;-2.819411;,
 5.045242;-1.465756;0.503761;,
 3.693881;-0.465016;-2.774205;,
 3.455991;-0.787155;0.556325;,
 3.775188;-0.631637;1.423946;,
 6.086550;-0.465016;-2.864617;,
 4.971519;-1.145164;1.378742;,
 3.693881;0.537838;-2.774205;,
 3.455990;0.859974;0.556326;,
 3.775187;0.621931;1.423947;,
 6.167854;0.621931;1.333536;,
 6.436328;-0.787155;0.451196;,
 4.890215;1.039265;-2.819410;,
 5.045242;1.532021;0.503762;,
 4.971519;1.136332;1.378743;,
 6.436328;0.859975;0.451196;,
 6.167854;-0.631636;1.333535;,
 6.086550;0.537838;-2.864616;;

 14;
 4;1,10,8,44;,
 4;32,26,18,22;,
 4;7,37,14,5;,
 4;9,16,37,6;,
 4;20,0,44,40;,
 4;24,28,25,32;,
 4;30,40,3,17;,
 4;44,42,4,12;,
 4;37,32,21,13;,
 4;15,23,32,37;,
 4;40,44,11,2;,
 4;27,19,40,30;,
 6;45,39,43,38,33,35;,
 6;29,31,36,41,46,34;;

 MeshMaterialList {
  3;
  14;
  0,
  0,
  0,
  0,
  0,
  0,
  0,
  0,
  0,
  0,
  0,
  0,
  1,
  2;
Material {
 1.000000;1.000000;1.000000;1.000000;;
 0.000000;
 1.000000;1.000000;1.000000;;
 0.0; 0.0; 0.0;;
 TextureFilename {
  "utl27.ppm";
 }
 }
Material {
 1.000000;1.000000;1.000000;1.000000;;
 0.000000;
 1.000000;1.000000;1.000000;;
 0.0; 0.0; 0.0;;
 TextureFilename {
  "utl27.ppm";
 }
 }
Material {
 1.000000;1.000000;1.000000;1.000000;;
 0.000000;
 1.000000;1.000000;1.000000;;
 0.0; 0.0; 0.0;;
 TextureFilename {
  "utl27.ppm";
 }
 }
}
 MeshNormals {
  47;
  0.662500;0.439769;-0.606380;,
  0.662500;0.439769;-0.606380;,
  0.620879;-0.413091;0.666232;,
  0.620879;-0.413091;0.666232;,
  0.031871;0.712940;0.700501;,
  0.031871;0.712940;0.700501;,
  0.015567;0.990616;0.135784;,
  0.015567;0.990616;0.135784;,
  0.015567;0.990616;0.135784;,
  -0.009364;0.839610;-0.543110;,
  -0.009364;0.839610;-0.543110;,
  0.606993;0.395864;0.689095;,
  0.606993;0.395864;0.689095;,
  -0.548553;0.376640;0.746480;,
  -0.548553;0.376640;0.746480;,
  -0.688992;0.442047;-0.574355;,
  -0.688992;0.442047;-0.574355;,
  0.031204;-0.751704;0.658762;,
  0.031204;-0.751704;0.658762;,
  0.594168;-0.484223;-0.642256;,
  0.594168;-0.484223;-0.642256;,
  -0.563297;-0.392060;0.727313;,
  -0.563297;-0.392060;0.727313;,
  -0.689424;-0.441340;-0.574381;,
  -0.689424;-0.441340;-0.574381;,
  0.014504;-0.995262;0.096140;,
  0.014504;-0.995262;0.096140;,
  -0.010232;-0.826661;-0.562607;,
  -0.010232;-0.826661;-0.562607;,
  -0.010232;-0.826661;-0.562607;,
  0.014504;-0.995262;0.096140;,
  -0.689424;-0.441340;-0.574381;,
  -0.824291;-0.549055;0.138141;,
  -0.563297;-0.392060;0.727313;,
  0.594168;-0.484223;-0.642256;,
  0.031204;-0.751704;0.658762;,
  -0.688992;0.442047;-0.574355;,
  -0.821380;0.547361;0.160406;,
  -0.548553;0.376640;0.746480;,
  0.606993;0.395864;0.689095;,
  0.817200;-0.566231;0.107552;,
  -0.009364;0.839610;-0.543110;,
  0.015567;0.990616;0.135784;,
  0.031871;0.712940;0.700501;,
  0.817140;0.561642;0.129772;,
  0.620879;-0.413091;0.666232;,
  0.662500;0.439769;-0.606380;;

  14;
  4;1,10,8,44;,
  4;32,26,18,22;,
  4;7,37,14,5;,
  4;9,16,37,6;,
  4;20,0,44,40;,
  4;24,28,25,32;,
  4;30,40,3,17;,
  4;44,42,4,12;,
  4;37,32,21,13;,
  4;15,23,32,37;,
  4;40,44,11,2;,
  4;27,19,40,30;,
  6;45,39,43,38,33,35;,
  6;29,31,36,41,46,34;;
 }
 MeshTextureCoords { 
 47;
 0.371094;0.917969;,
 0.371094;0.917969;,
 0.240234;0.843750;,
 0.240234;0.843750;,
 0.240234;0.953125;,
 0.240234;0.812500;,
 0.267578;0.792969;,
 0.267578;0.792969;,
 0.267578;0.980469;,
 0.371094;0.824219;,
 0.371094;0.949219;,
 0.240234;0.921875;,
 0.240234;0.921875;,
 0.240234;0.843750;,
 0.240234;0.843750;,
 0.371094;0.855469;,
 0.371094;0.855469;,
 0.240234;0.812500;,
 0.240234;0.953125;,
 0.371094;0.855469;,
 0.371094;0.855469;,
 0.240234;0.921875;,
 0.240234;0.921875;,
 0.371094;0.917969;,
 0.371094;0.917969;,
 0.267578;0.980469;,
 0.267578;0.980469;,
 0.371094;0.824219;,
 0.371094;0.949219;,
 0.052734;0.753906;,
 0.265625;0.792969;,
 0.001953;0.710938;,
 0.267578;0.937500;,
 0.164063;0.625000;,
 0.103516;0.710938;,
 0.224609;0.574219;,
 0.001953;0.628906;,
 0.267578;0.832031;,
 0.164063;0.750000;,
 0.285156;0.750000;,
 0.267578;0.832031;,
 0.052734;0.585938;,
 0.267578;0.980469;,
 0.224609;0.804688;,
 0.267578;0.937500;,
 0.285156;0.625000;,
 0.103516;0.628906;;
 }
}
Frame frm-rthrust {
  FrameTransformMatrix {
-1.000000,0.000000,-0.000000,0.000000,
0.000000,0.000000,-1.000000,0.000000,
0.000000,-1.000000,-0.000000,0.000000,
4.807652,-0.010060,-2.817409,1.000000;;
 }
Mesh rthrust {
 4;
 -0.037712;-0.013333;0.000000;,
 0.000000;0.040000;0.000000;,
 0.018856;-0.013333;0.032660;,
 0.018856;-0.013333;-0.032660;;

 4;
 3;2,1,0;,
 3;3,0,1;,
 3;0,3,2;,
 3;1,2,3;;

 MeshMaterialList {
  1;
  4;
  0,
  0,
  0,
  0;
Material {
 1.000000;1.000000;1.000000;1.000000;;
 0.000000;
 1.000000;1.000000;1.000000;;
 0.000000;0.000000;0.000000;;
 TextureFilename {
  "utl27.ppm";
 }
 }
}
 MeshNormals {
  4;
  -0.942809;-0.333333;0.000000;,
  0.000000;1.000000;-0.000000;,
  0.471404;-0.333333;0.816497;,
  0.471404;-0.333333;-0.816497;;

  4;
  3;2,1,0;,
  3;3,0,1;,
  3;0,3,2;,
  3;1,2,3;;
 }
 MeshTextureCoords { 
 4;
 0.000000;1.000000;,
 0.000000;1.000000;,
 0.000000;1.000000;,
 0.000000;1.000000;;
 }
}
}
}
}
Frame frm-SSf {
  FrameTransformMatrix {
0.000010,0.000000,0.000000,0.000000,
0.000000,0.000010,0.000000,0.000000,
0.000000,0.000000,0.000010,0.000000,
-0.017814,-0.070852,-2.629254,1.000000;;
 }
Mesh SSf {
 6;
 0.000000;0.000000;0.100000;,
 0.000000;0.000000;-0.100000;,
 0.000000;-0.100000;0.000000;,
 0.000000;0.100000;0.000000;,
 -0.100000;0.000000;0.000000;,
 0.100000;0.000000;0.000000;;

 8;
 3;1,3,5;,
 3;0,5,3;,
 3;1,5,2;,
 3;0,2,5;,
 3;1,4,3;,
 3;0,3,4;,
 3;1,2,4;,
 3;0,4,2;;

 MeshMaterialList {
  1;
  8;
  0,
  0,
  0,
  0,
  0,
  0,
  0,
  0;
Material {
 1.000000;1.000000;1.000000;0.500000;;
 0.000000;
 1.000000;1.000000;1.000000;;
 0.0; 0.0; 0.0;;
 }
}
 MeshNormals {
  6;
  0.000000;0.000000;1.000000;,
  0.000000;0.000000;-1.000000;,
  0.000000;-1.000000;0.000000;,
  0.000000;1.000000;0.000000;,
  -1.000000;0.000000;0.000000;,
  1.000000;0.000000;0.000000;;

  8;
  3;1,3,5;,
  3;0,5,3;,
  3;1,5,2;,
  3;0,2,5;,
  3;1,4,3;,
  3;0,3,4;,
  3;1,2,4;,
  3;0,4,2;;
 }
 MeshTextureCoords { 
 6;
 0.000000;0.000000;,
 0.000000;0.000000;,
 0.000000;0.000000;,
 0.000000;0.000000;,
 0.000000;0.000000;,
 0.000000;0.000000;;
 }
}
}
Frame frm-SSm {
  FrameTransformMatrix {
-0.000010,0.000000,-0.000000,0.000000,
0.000000,0.000010,0.000000,0.000000,
0.000000,0.000000,-0.000010,0.000000,
-0.028053,5.294311,3.283414,1.000000;;
 }
Mesh SSm {
 6;
 0.000000;0.000000;-0.100000;,
 0.000000;0.000000;0.100000;,
 0.000000;-0.100000;0.000000;,
 0.000000;0.100000;0.000000;,
 -0.100000;0.000000;0.000000;,
 0.100000;0.000000;0.000000;;

 8;
 3;5,3,1;,
 3;3,5,0;,
 3;2,5,1;,
 3;5,2,0;,
 3;3,4,1;,
 3;4,3,0;,
 3;4,2,1;,
 3;2,4,0;;

 MeshMaterialList {
  1;
  8;
  0,
  0,
  0,
  0,
  0,
  0,
  0,
  0;
Material {
 1.000000;1.000000;1.000000;0.500000;;
 0.000000;
 1.000000;1.000000;1.000000;;
 0.0; 0.0; 0.0;;
 }
}
 MeshNormals {
  6;
  0.000000;0.000000;-1.000000;,
  0.000000;0.000000;1.000000;,
  0.000000;-1.000000;0.000000;,
  0.000000;1.000000;0.000000;,
  -1.000000;0.000000;0.000000;,
  1.000000;0.000000;0.000000;;

  8;
  3;5,3,1;,
  3;3,5,0;,
  3;2,5,1;,
  3;5,2,0;,
  3;3,4,1;,
  3;4,3,0;,
  3;4,2,1;,
  3;2,4,0;;
 }
 MeshTextureCoords { 
 6;
 0.000000;0.000000;,
 0.000000;0.000000;,
 0.000000;0.000000;,
 0.000000;0.000000;,
 0.000000;0.000000;,
 0.000000;0.000000;;
 }
}
}
Frame frm-bmerge2 {
  FrameTransformMatrix {
1.000000,0.000000,0.000000,0.000000,
0.000000,1.000000,0.000000,0.000000,
0.000000,0.000000,1.000000,0.000000,
-0.027553,3.901852,13.826985,1.000000;;
 }
Mesh bmerge2 {
 24;
 -1.120096;1.138005;1.131905;,
 -1.120096;1.138005;1.131905;,
 -1.139003;1.343106;-7.507061;,
 1.203149;1.341560;-7.507061;,
 1.199413;1.336281;1.082114;,
 -1.146083;1.107478;-7.506515;,
 1.165035;1.137344;1.131905;,
 1.165035;1.137344;1.131905;,
 1.190610;1.107478;-7.506515;,
 1.190610;1.107478;-7.506515;,
 1.165035;1.137344;1.131905;,
 -1.135296;1.337364;1.082115;,
 -1.135296;1.337364;1.082115;,
 -1.146083;1.107478;-7.506515;,
 1.199413;1.336281;1.082114;,
 -2.809338;0.270106;-2.031914;,
 2.919500;0.040493;-7.506515;,
 1.203149;1.341560;-7.507061;,
 -1.139003;1.343106;-7.507061;,
 -2.864394;0.040493;-7.506515;,
 -1.120096;1.138005;1.131905;,
 2.864961;0.268220;-2.031914;,
 -2.800324;0.573461;1.131905;,
 2.855942;0.572140;1.131905;;

 14;
 3;15,22,12;,
 3;1,22,15;,
 4;3,2,11,4;,
 3;14,23,21;,
 3;21,23,7;,
 4;5,8,6,0;,
 3;18,19,15;,
 3;15,12,18;,
 3;21,16,17;,
 3;17,14,21;,
 3;15,19,13;,
 3;13,20,15;,
 3;9,16,21;,
 3;21,10,9;;

 MeshMaterialList {
  2;
  14;
  0,
  0,
  1,
  0,
  0,
  1,
  0,
  0,
  0,
  0,
  0,
  0,
  0,
  0;
Material {
 1.000000;1.000000;1.000000;1.000000;;
 0.000000;
 1.000000;1.000000;1.000000;;
 0.0; 0.0; 0.0;;
 TextureFilename {
  "utl27.ppm";
 }
 }
Material {
 1.000000;1.000000;1.000000;1.000000;;
 0.000000;
 1.000000;1.000000;1.000000;;
 0.0; 0.0; 0.0;;
 TextureFilename {
  "utl27.ppm";
 }
 }
}
 MeshNormals {
  24;
  0.262452;-0.964405;0.032283;,
  0.262452;-0.964405;0.032283;,
  -0.396580;0.917956;-0.009031;,
  0.398258;0.917230;-0.008946;,
  0.330267;0.943444;-0.028949;,
  0.337225;-0.941345;0.012227;,
  -0.261375;-0.964695;0.032338;,
  -0.261375;-0.964695;0.032338;,
  -0.335789;-0.941859;0.012155;,
  -0.335789;-0.941859;0.012155;,
  -0.261375;-0.964695;0.032338;,
  0.000624;1.000000;0.000641;,
  -0.479665;0.876421;-0.042513;,
  0.337225;-0.941345;0.012227;,
  0.330267;0.943444;-0.028949;,
  -0.877684;-0.478124;0.032703;,
  0.824991;-0.564257;0.031690;,
  0.398258;0.917230;-0.008946;,
  -0.396580;0.917956;-0.009031;,
  -0.824768;-0.564567;0.031973;,
  0.262452;-0.964405;0.032283;,
  0.877658;-0.478222;0.031941;,
  -0.929847;-0.366005;0.037743;,
  0.929754;-0.366232;0.037831;;

  14;
  3;15,22,12;,
  3;1,22,15;,
  4;3,2,11,4;,
  3;14,23,21;,
  3;21,23,7;,
  4;5,8,6,0;,
  3;18,19,15;,
  3;15,12,18;,
  3;21,16,17;,
  3;17,14,21;,
  3;15,19,13;,
  3;13,20,15;,
  3;9,16,21;,
  3;21,10,9;;
 }
 MeshTextureCoords { 
 24;
 0.360352;0.177734;,
 0.247070;0.248047;,
 0.665039;0.037109;,
 0.665039;0.177734;,
 0.360352;0.177734;,
 0.665039;0.177734;,
 0.360352;0.037109;,
 0.247070;0.248047;,
 0.665039;0.037109;,
 0.571289;0.248047;,
 0.247070;0.248047;,
 0.360352;0.037109;,
 0.247070;0.248047;,
 0.571289;0.248047;,
 0.247070;0.248047;,
 0.361399;0.342018;,
 0.571289;0.341797;,
 0.571289;0.248047;,
 0.571289;0.248047;,
 0.571289;0.341797;,
 0.247070;0.248047;,
 0.361399;0.342018;,
 0.247070;0.302734;,
 0.247070;0.302734;;
 }
}
Frame frm-bmerge1 {
  FrameTransformMatrix {
1.000000,0.000000,0.000000,0.000000,
0.000000,1.000000,0.000000,0.000000,
0.000000,0.000000,1.000000,0.000000,
0.000000,1.254012,1.067875,1.000000;;
 }
Mesh bmerge1 {
 89;
 -1.752686;-2.410907;2.813183;,
 -1.752686;-2.410907;2.813183;,
 -3.316925;-2.410907;0.064030;,
 -3.316925;-2.410907;0.064030;,
 -3.316925;-2.410907;0.064030;,
 -3.316925;-2.410907;0.064030;,
 -2.800324;-0.680552;0.064030;,
 -2.800324;-0.680552;0.064030;,
 1.622019;-0.101788;0.014239;,
 1.622019;-0.101788;0.014239;,
 -1.526255;-0.091294;0.014240;,
 -1.526255;-0.091294;0.014240;,
 3.319516;-2.411992;0.064030;,
 3.319516;-2.411992;0.064030;,
 1.779840;-2.411992;2.813182;,
 1.779840;-2.411992;2.813182;,
 1.779840;-2.411992;2.813182;,
 -0.287650;1.130129;6.439187;,
 -0.287650;1.130129;6.439187;,
 -0.406968;1.127042;2.763392;,
 -0.406968;1.127042;2.763392;,
 -0.406968;1.127042;2.763392;,
 0.345200;1.129659;6.439187;,
 0.345200;1.129659;6.439187;,
 0.465442;1.125960;2.763392;,
 0.465442;1.125960;2.763392;,
 0.465442;1.125960;2.763392;,
 0.465442;1.125960;2.763392;,
 0.794222;0.426549;6.439187;,
 0.794222;0.426549;6.439187;,
 0.794222;0.426549;6.439187;,
 0.794222;0.426549;6.439187;,
 -0.738974;0.427118;6.439187;,
 -0.738974;0.427118;6.439187;,
 1.774639;-3.638154;2.813182;,
 1.774639;-3.638154;2.813182;,
 3.309742;-3.638154;0.064030;,
 3.309742;-3.638154;0.064030;,
 3.309742;-3.638154;0.064030;,
 -1.754066;-3.638100;2.813183;,
 -1.754066;-3.638100;2.813183;,
 -3.319516;-3.638100;0.064030;,
 -3.319516;-3.638100;0.064030;,
 2.855942;-0.681872;0.064030;,
 2.855942;-0.681872;0.064030;,
 2.855942;-0.681872;0.064030;,
 1.533084;-0.441713;2.787730;,
 1.533084;-0.441713;2.787730;,
 1.533084;-0.441713;2.787730;,
 1.533084;-0.441713;2.787730;,
 1.533084;-0.441713;2.787730;,
 1.533084;-0.441713;2.787730;,
 1.199413;0.082269;0.014239;,
 1.199413;0.082269;0.014239;,
 1.199413;0.082269;0.014239;,
 1.199413;0.082269;0.014239;,
 -1.135296;0.083351;0.014240;,
 -1.477703;-0.440393;2.787730;,
 -1.477703;-0.440393;2.787730;,
 -1.477703;-0.440393;2.787730;,
 -1.477703;-0.440393;2.787730;,
 -1.477703;-0.440393;2.787730;,
 -1.477703;-0.440393;2.787730;,
 -1.135296;0.083351;0.014240;,
 -1.135296;0.083351;0.014240;,
 -1.477703;-0.440393;2.787730;,
 -0.603170;0.947341;2.763392;,
 -1.135296;0.083351;0.014240;,
 1.199413;0.082269;0.014239;,
 1.533084;-0.441713;2.787730;,
 2.855942;-0.681872;0.064030;,
 -3.319516;-3.638100;0.064030;,
 0.657794;0.947434;2.763392;,
 -1.754066;-3.638100;2.813183;,
 3.309742;-3.638154;0.064030;,
 1.774639;-3.638154;2.813182;,
 -0.738974;0.427118;6.439187;,
 0.794222;0.426549;6.439187;,
 0.465442;1.125960;2.763392;,
 0.345200;1.129659;6.439187;,
 -0.406968;1.127042;2.763392;,
 -0.287650;1.130129;6.439187;,
 1.779840;-2.411992;2.813182;,
 3.319516;-2.411992;0.064030;,
 -1.526255;-0.091294;0.014240;,
 1.622019;-0.101788;0.014239;,
 -2.800324;-0.680552;0.064030;,
 -3.316925;-2.410907;0.064030;,
 -1.752686;-2.410907;2.813183;;

 34;
 4;5,42,40,1;,
 3;7,4,62;,
 3;38,41,3;,
 3;0,61,2;,
 3;11,6,60;,
 3;45,16,13;,
 3;59,56,10;,
 3;15,44,51;,
 4;23,27,21,18;,
 3;50,43,9;,
 4;33,31,22,17;,
 3;30,26,79;,
 4;35,37,12,14;,
 3;8,55,49;,
 3;72,29,48;,
 4;82,47,58,88;,
 3;81,20,66;,
 4;57,46,28,32;,
 4;88,39,34,82;,
 4;36,75,73,71;,
 3;72,54,25;,
 3;65,66,63;,
 3;69,53,72;,
 3;24,77,72;,
 4;52,64,19,78;,
 3;66,80,63;,
 4;65,76,81,66;,
 3;85,70,83;,
 3;83,87,86;,
 3;83,84,67;,
 3;86,84,83;,
 3;83,67,68;,
 3;83,68,85;,
 3;87,83,74;;

 MeshMaterialList {
  5;
  34;
  0,
  0,
  1,
  0,
  0,
  0,
  0,
  0,
  2,
  0,
  3,
  0,
  0,
  0,
  0,
  3,
  0,
  4,
  3,
  4,
  0,
  0,
  0,
  0,
  2,
  0,
  0,
  1,
  1,
  1,
  1,
  1,
  1,
  1;
Material {
 1.000000;1.000000;1.000000;1.000000;;
 0.000000;
 1.000000;1.000000;1.000000;;
 0.0; 0.0; 0.0;;
 TextureFilename {
  "utl27.ppm";
 }
 }
Material {
 1.000000;1.000000;1.000000;1.000000;;
 0.000000;
 1.000000;1.000000;1.000000;;
 0.0; 0.0; 0.0;;
 TextureFilename {
  "utl27.ppm";
 }
 }
Material {
 1.000000;1.000000;1.000000;1.000000;;
 0.000000;
 1.000000;1.000000;1.000000;;
 0.0; 0.0; 0.0;;
 TextureFilename {
  "utl27.ppm";
 }
 }
Material {
 1.000000;1.000000;1.000000;1.000000;;
 0.000000;
 1.000000;1.000000;1.000000;;
 0.0; 0.0; 0.0;;
 TextureFilename {
  "utl27.ppm";
 }
 }
Material {
 0.988700;0.988700;0.988700;1.000000;;
 0.000000;
 1.000000;1.000000;1.000000;;
 0.0; 0.0; 0.0;;
 TextureFilename {
  "utl27.ppm";
 }
 }
}
 MeshNormals {
  89;
  -0.501753;0.040850;0.864046;,
  -0.501753;0.040850;0.864046;,
  -0.846674;0.126565;-0.516841;,
  -0.846674;0.126565;-0.516841;,
  -0.846674;0.126565;-0.516841;,
  -0.846674;0.126565;-0.516841;,
  -0.606853;0.520149;-0.600977;,
  -0.606853;0.520149;-0.600977;,
  0.320222;0.677159;-0.662506;,
  0.320222;0.677159;-0.662506;,
  -0.316903;0.668492;-0.672823;,
  -0.316903;0.668492;-0.672823;,
  0.279718;0.019278;-0.959889;,
  0.279718;0.019278;-0.959889;,
  0.610623;0.082289;0.787634;,
  0.610623;0.082289;0.787634;,
  0.610623;0.082289;0.787634;,
  -0.522984;0.783153;0.336391;,
  -0.522984;0.783153;0.336391;,
  -0.364879;0.923551;-0.117973;,
  -0.364879;0.923551;-0.117973;,
  -0.364879;0.923551;-0.117973;,
  0.427519;0.779516;0.457802;,
  0.427519;0.779516;0.457802;,
  0.486636;0.870232;-0.076697;,
  0.486636;0.870232;-0.076697;,
  0.486636;0.870232;-0.076697;,
  0.486636;0.870232;-0.076697;,
  0.827235;0.292503;0.479713;,
  0.827235;0.292503;0.479713;,
  0.827235;0.292503;0.479713;,
  0.827235;0.292503;0.479713;,
  -0.530381;-0.274993;0.801920;,
  -0.530381;-0.274993;0.801920;,
  0.437108;-0.503496;0.745271;,
  0.437108;-0.503496;0.745271;,
  0.433239;-0.499040;-0.750508;,
  0.433239;-0.499040;-0.750508;,
  0.433239;-0.499040;-0.750508;,
  -0.435272;-0.500137;0.748599;,
  -0.435272;-0.500137;0.748599;,
  -0.613333;-0.704733;-0.356614;,
  -0.613333;-0.704733;-0.356614;,
  0.867896;0.494266;0.049574;,
  0.867896;0.494266;0.049574;,
  0.867896;0.494266;0.049574;,
  0.771484;0.479104;0.418655;,
  0.771484;0.479104;0.418655;,
  0.771484;0.479104;0.418655;,
  0.771484;0.479104;0.418655;,
  0.771484;0.479104;0.418655;,
  0.771484;0.479104;0.418655;,
  0.453737;0.727911;-0.514070;,
  0.453737;0.727911;-0.514070;,
  0.453737;0.727911;-0.514070;,
  0.453737;0.727911;-0.514070;,
  -0.189468;0.414671;-0.890028;,
  -0.783028;0.442472;0.437133;,
  -0.783028;0.442472;0.437133;,
  -0.783028;0.442472;0.437133;,
  -0.783028;0.442472;0.437133;,
  -0.783028;0.442472;0.437133;,
  -0.783028;0.442472;0.437133;,
  -0.766715;0.639823;-0.052675;,
  0.000631;0.934895;-0.354924;,
  -0.783028;0.442472;0.437133;,
  -0.767085;0.641472;-0.009695;,
  -0.189468;0.414671;-0.890028;,
  0.453737;0.727911;-0.514070;,
  0.771484;0.479104;0.418655;,
  0.867896;0.494266;0.049574;,
  -0.613333;-0.704733;-0.356614;,
  0.769703;0.638370;0.006392;,
  -0.435272;-0.500137;0.748599;,
  0.433239;-0.499040;-0.750508;,
  0.437108;-0.503496;0.745271;,
  -0.530381;-0.274993;0.801920;,
  0.827235;0.292503;0.479713;,
  0.486636;0.870232;-0.076697;,
  0.427519;0.779516;0.457802;,
  -0.364879;0.923551;-0.117973;,
  -0.522984;0.783153;0.336391;,
  0.610623;0.082289;0.787634;,
  0.279718;0.019278;-0.959889;,
  -0.316903;0.668492;-0.672823;,
  0.320222;0.677159;-0.662506;,
  -0.606853;0.520149;-0.600977;,
  -0.846674;0.126565;-0.516841;,
  -0.501753;0.040850;0.864046;;

  34;
  4;5,42,40,1;,
  3;7,4,62;,
  3;38,41,3;,
  3;0,61,2;,
  3;11,6,60;,
  3;45,16,13;,
  3;59,56,10;,
  3;15,44,51;,
  4;23,27,21,18;,
  3;50,43,9;,
  4;33,31,22,17;,
  3;30,26,79;,
  4;35,37,12,14;,
  3;8,55,49;,
  3;72,29,48;,
  4;82,47,58,88;,
  3;81,20,66;,
  4;57,46,28,32;,
  4;88,39,34,82;,
  4;36,75,73,71;,
  3;72,54,25;,
  3;65,66,63;,
  3;69,53,72;,
  3;24,77,72;,
  4;52,64,19,78;,
  3;66,80,63;,
  4;65,76,81,66;,
  3;85,70,83;,
  3;83,87,86;,
  3;83,84,67;,
  3;86,84,83;,
  3;83,67,68;,
  3;83,68,85;,
  3;87,83,74;;
 }
 MeshTextureCoords { 
 89;
 0.141993;0.426712;,
 0.141993;0.426712;,
 0.236952;0.426712;,
 0.588683;0.961765;,
 0.236952;0.426712;,
 0.236952;0.426712;,
 0.238905;0.283428;,
 0.238905;0.283428;,
 0.238672;0.256354;,
 0.238672;0.256354;,
 0.238672;0.255580;,
 0.238672;0.255580;,
 0.236952;0.426792;,
 0.236952;0.426792;,
 0.141993;0.426792;,
 0.141993;0.426792;,
 0.141993;0.426792;,
 0.618833;0.476272;,
 0.008789;0.083984;,
 0.141602;0.083984;,
 0.143713;0.165696;,
 0.141602;0.083984;,
 0.637779;0.476297;,
 0.008789;0.138672;,
 0.143713;0.165776;,
 0.143713;0.165776;,
 0.143713;0.165776;,
 0.141602;0.138672;,
 0.008789;0.130859;,
 0.012840;0.217376;,
 0.012840;0.217376;,
 0.651221;0.514182;,
 0.008789;0.091797;,
 0.605322;0.514151;,
 0.491119;0.967569;,
 0.141993;0.517254;,
 0.247070;0.201172;,
 0.236952;0.517254;,
 0.627536;0.720416;,
 0.385480;0.967566;,
 0.141993;0.517250;,
 0.627382;0.962017;,
 0.236952;0.517250;,
 0.238905;0.283526;,
 0.238905;0.283526;,
 0.238905;0.283526;,
 0.141602;0.138672;,
 0.483888;0.795340;,
 0.142872;0.302266;,
 0.142872;0.302266;,
 0.142872;0.302266;,
 0.142872;0.302266;,
 0.243164;0.193359;,
 0.238672;0.242775;,
 0.238672;0.242775;,
 0.238672;0.242775;,
 0.238672;0.242695;,
 0.141602;0.083984;,
 0.393753;0.795269;,
 0.142872;0.302169;,
 0.142872;0.302169;,
 0.142872;0.302169;,
 0.142872;0.302169;,
 0.238672;0.242695;,
 0.243164;0.021484;,
 0.142872;0.302169;,
 0.143713;0.178954;,
 0.510076;0.881936;,
 0.510164;0.796848;,
 0.142872;0.302266;,
 0.534299;0.736575;,
 0.247070;0.029297;,
 0.143713;0.178947;,
 0.141602;0.083984;,
 0.627536;0.720416;,
 0.141602;0.138672;,
 0.012840;0.217334;,
 0.012840;0.217376;,
 0.141602;0.138672;,
 0.012840;0.165503;,
 0.143713;0.165696;,
 0.012840;0.165468;,
 0.491275;0.901502;,
 0.588869;0.719902;,
 0.515575;0.896207;,
 0.515978;0.781470;,
 0.534128;0.942715;,
 0.588683;0.961765;,
 0.385521;0.901443;;
 }
}
Frame frm-rwingzz {
  FrameTransformMatrix {
1.000000,0.000000,0.000000,0.000000,
0.000000,-1.000000,0.000000,0.000000,
0.000000,-0.000000,-1.000000,0.000000,
-0.678725,0.740009,3.640358,1.000000;;
 }
Mesh rwingzz {
 8;
 -7.533352;0.121573;2.583154;,
 -7.533352;-0.116154;2.583154;,
 -7.533352;-0.001191;3.238355;,
 -7.533352;-0.001191;1.927956;,
 0.000000;-0.000515;0.058577;,
 -0.000000;-0.230441;-1.251823;,
 -0.000000;-0.000515;-2.562224;,
 -0.000000;0.245014;-1.251823;;

 4;
 4;4,7,0,2;,
 4;7,6,3,0;,
 4;6,5,1,3;,
 4;5,4,2,1;;

 MeshMaterialList {
  2;
  4;
  0,
  0,
  1,
  1;
Material {
 1.000000;1.000000;1.000000;1.000000;;
 0.000000;
 1.000000;1.000000;1.000000;;
 0.0; 0.0; 0.0;;
 TextureFilename {
  "utl27.ppm";
 }
 }
Material {
 1.000000;1.000000;1.000000;1.000000;;
 0.000000;
 1.000000;1.000000;1.000000;;
 0.0; 0.0; 0.0;;
 TextureFilename {
  "utl27.ppm";
 }
 }
}
 MeshNormals {
  8;
  -0.047906;0.996925;-0.062016;,
  0.014680;-0.998175;0.058584;,
  0.388864;-0.006187;0.921274;,
  -0.511980;-0.006678;-0.858971;,
  0.388864;-0.006187;0.921274;,
  -0.044721;-0.997307;-0.058127;,
  -0.511981;-0.006679;-0.858971;,
  0.015503;0.997920;0.062575;;

  4;
  4;4,7,0,2;,
  4;7,6,3,0;,
  4;6,5,1,3;,
  4;5,4,2,1;;
 }
 MeshTextureCoords { 
 8;
 0.138672;0.660156;,
 0.138672;0.660156;,
 0.156250;0.660156;,
 0.123047;0.660156;,
 0.074219;0.277344;,
 0.041016;0.277344;,
 0.007813;0.277344;,
 0.041016;0.277344;;
 }
}
Frame frm-rfinzzz {
  FrameTransformMatrix {
0.946672,0.322200,0.000000,0.000000,
0.322200,-0.946672,0.000000,0.000000,
0.000000,-0.000000,-1.000000,0.000000,
-7.663849,0.131288,5.340931,1.000000;;
 }
Mesh rfinzzz {
 46;
 -0.312755;2.541123;3.266388;,
 -0.312755;2.541123;3.266388;,
 -0.312755;2.541123;3.266388;,
 -0.190450;0.864454;3.884077;,
 -0.190450;0.864454;3.884077;,
 -0.190450;0.864454;3.884077;,
 -0.190450;0.864454;3.884077;,
 -0.116622;-0.051996;4.411178;,
 -0.116622;-0.051996;4.411178;,
 -0.116622;-0.051996;4.411178;,
 -0.116622;-0.051996;4.411178;,
 -0.045386;0.864454;3.884077;,
 -0.045386;0.864454;3.884077;,
 -0.045386;0.864454;3.884077;,
 -0.196135;1.740102;1.664476;,
 -0.196135;1.740102;1.664476;,
 -0.196135;1.740102;1.664476;,
 -0.196135;1.740102;1.664476;,
 -0.196135;1.740102;1.664476;,
 -0.196135;1.740102;1.664476;,
 -0.073829;-0.362149;1.662833;,
 -0.073829;-0.362149;1.662833;,
 -0.073829;-0.362149;1.662833;,
 -0.000001;-1.481567;1.974589;,
 -0.000001;-1.481567;1.974589;,
 -0.000001;-1.481567;1.974589;,
 -0.000001;-1.481567;1.974589;,
 0.071234;-0.362149;1.662833;,
 0.071234;-0.362149;1.662833;,
 0.071234;-0.362149;1.662833;,
 -0.024768;-1.203766;1.663310;,
 -0.024768;-1.203766;1.663310;,
 -0.024768;-1.203766;1.663310;,
 0.028262;-1.203699;1.663310;,
 0.028262;-1.203699;1.663310;,
 0.028262;-1.203699;1.663310;,
 0.028262;-1.203699;1.663310;,
 -0.024768;-1.203766;1.663310;,
 0.071234;-0.362149;1.662833;,
 -0.000001;-1.481567;1.974589;,
 -0.073829;-0.362149;1.662833;,
 -0.196135;1.740102;1.664476;,
 -0.045386;0.864454;3.884077;,
 -0.116622;-0.051996;4.411178;,
 -0.190450;0.864454;3.884077;,
 -0.312755;2.541123;3.266388;;

 16;
 3;19,2,13;,
 3;29,18,12;,
 3;22,6,1;,
 3;17,21,0;,
 3;26,10,5;,
 3;32,25,4;,
 3;20,31,3;,
 3;28,11,9;,
 3;35,27,8;,
 3;24,34,7;,
 3;44,43,42;,
 3;45,44,42;,
 3;30,40,16;,
 3;23,37,15;,
 3;33,39,14;,
 3;38,36,41;;

 MeshMaterialList {
  5;
  16;
  0,
  0,
  1,
  1,
  1,
  1,
  1,
  0,
  0,
  0,
  2,
  2,
  3,
  4,
  4,
  4;
Material {
 1.000000;1.000000;1.000000;1.000000;;
 0.000000;
 1.000000;1.000000;1.000000;;
 0.0; 0.0; 0.0;;
 TextureFilename {
  "utl27.ppm";
 }
 }
Material {
 1.000000;1.000000;1.000000;1.000000;;
 0.000000;
 1.000000;1.000000;1.000000;;
 0.0; 0.0; 0.0;;
 TextureFilename {
  "utl27.ppm";
 }
 }
Material {
 1.000000;1.000000;1.000000;1.000000;;
 0.000000;
 1.000000;1.000000;1.000000;;
 0.0; 0.0; 0.0;;
 TextureFilename {
  "utl27.ppm";
 }
 }
Material {
 1.000000;1.000000;1.000000;1.000000;;
 0.000000;
 1.000000;1.000000;1.000000;;
 0.0; 0.0; 0.0;;
 }
Material {
 1.000000;1.000000;1.000000;1.000000;;
 0.000000;
 1.000000;1.000000;1.000000;;
 0.0; 0.0; 0.0;;
 TextureFilename {
  "utl27.ppm";
 }
 }
}
 MeshNormals {
  46;
  -0.726565;0.264536;0.634132;,
  -0.726565;0.264536;0.634132;,
  -0.726565;0.264536;0.634132;,
  -0.905685;0.124389;0.405292;,
  -0.905685;0.124389;0.405292;,
  -0.905685;0.124389;0.405292;,
  -0.905685;0.124389;0.405292;,
  0.872070;0.132232;0.471178;,
  0.872070;0.132232;0.471178;,
  0.872070;0.132232;0.471178;,
  0.872070;0.132232;0.471178;,
  0.810757;0.296687;0.504629;,
  0.810757;0.296687;0.504629;,
  0.810757;0.296687;0.504629;,
  0.824237;0.109905;-0.555477;,
  0.824237;0.109905;-0.555477;,
  0.824237;0.109905;-0.555477;,
  0.824237;0.109905;-0.555477;,
  0.824237;0.109905;-0.555477;,
  0.824237;0.109905;-0.555477;,
  -0.994571;-0.067061;-0.079565;,
  -0.994571;-0.067061;-0.079565;,
  -0.994571;-0.067061;-0.079565;,
  -0.971388;-0.208233;-0.114215;,
  -0.971388;-0.208233;-0.114215;,
  -0.971388;-0.208233;-0.114215;,
  -0.971388;-0.208233;-0.114215;,
  0.959999;0.012643;-0.279718;,
  0.959999;0.012643;-0.279718;,
  0.959999;0.012643;-0.279718;,
  -0.010979;-0.199343;-0.979868;,
  -0.010979;-0.199343;-0.979868;,
  -0.010979;-0.199343;-0.979868;,
  0.697171;-0.107906;-0.708738;,
  0.697171;-0.107906;-0.708738;,
  0.697171;-0.107906;-0.708738;,
  0.697171;-0.107906;-0.708738;,
  -0.010979;-0.199343;-0.979868;,
  0.959999;0.012643;-0.279718;,
  -0.971388;-0.208233;-0.114215;,
  -0.994571;-0.067061;-0.079565;,
  0.824237;0.109905;-0.555477;,
  0.810757;0.296687;0.504629;,
  0.872070;0.132232;0.471178;,
  -0.905685;0.124389;0.405292;,
  -0.726565;0.264536;0.634132;;

  16;
  3;19,2,13;,
  3;29,18,12;,
  3;22,6,1;,
  3;17,21,0;,
  3;26,10,5;,
  3;32,25,4;,
  3;20,31,3;,
  3;28,11,9;,
  3;35,27,8;,
  3;24,34,7;,
  3;44,43,42;,
  3;45,44,42;,
  3;30,40,16;,
  3;23,37,15;,
  3;33,39,14;,
  3;38,36,41;;
 }
 MeshTextureCoords { 
 46;
 0.933594;0.531250;,
 0.933594;0.531250;,
 0.933594;0.531250;,
 0.919922;0.636719;,
 0.919922;0.636719;,
 0.919922;0.636719;,
 0.919922;0.636719;,
 0.900391;0.687500;,
 0.900391;0.687500;,
 0.900391;0.687500;,
 0.900391;0.687500;,
 0.916016;0.632813;,
 0.916016;0.632813;,
 0.916016;0.632813;,
 0.598347;0.213813;,
 0.594471;0.208385;,
 0.000000;0.000000;,
 0.982422;0.578125;,
 0.982422;0.578125;,
 0.982422;0.578125;,
 0.982422;0.707031;,
 0.982422;0.707031;,
 0.982422;0.707031;,
 0.739064;0.216699;,
 0.972656;0.773438;,
 0.972656;0.773438;,
 0.972656;0.773438;,
 0.982422;0.707031;,
 0.982422;0.707031;,
 0.982422;0.707031;,
 0.000000;0.000000;,
 0.982422;0.757813;,
 0.982422;0.757813;,
 0.745066;0.231831;,
 0.982422;0.757813;,
 0.982422;0.757813;,
 0.734118;0.211429;,
 0.742085;0.224720;,
 0.729395;0.205174;,
 0.747299;0.240845;,
 0.000000;0.000000;,
 0.594471;0.208385;,
 0.062500;0.023438;,
 0.009766;0.031250;,
 0.062500;0.039063;,
 0.150391;0.050781;;
 }
}
Frame frm-SSr {
  FrameTransformMatrix {
-0.750005,0.000000,-0.000000,0.000000,
0.000000,0.750005,0.000000,0.000000,
0.000000,0.000000,-0.750005,0.000000,
-0.344263,2.600480,3.238195,1.000000;;
 }
Mesh SSr {
 6;
 0.000000;0.000000;-0.100000;,
 0.000000;0.000000;0.100000;,
 0.000000;-0.100000;0.000000;,
 0.000000;0.100000;0.000000;,
 -0.100000;0.000000;0.000000;,
 0.100000;0.000000;0.000000;;

 8;
 3;5,3,1;,
 3;3,5,0;,
 3;2,5,1;,
 3;5,2,0;,
 3;3,4,1;,
 3;4,3,0;,
 3;4,2,1;,
 3;2,4,0;;

 MeshMaterialList {
  1;
  8;
  0,
  0,
  0,
  0,
  0,
  0,
  0,
  0;
Material {
 0.000002;1.000000;0.000000;0.500000;;
 0.000000;
 1.000000;1.000000;1.000000;;
 0.0; 0.0; 0.0;;
 }
}
 MeshNormals {
  6;
  0.000000;0.000000;-1.000000;,
  0.000000;0.000000;1.000000;,
  0.000000;-1.000000;0.000000;,
  0.000000;1.000000;0.000000;,
  -1.000000;0.000000;0.000000;,
  1.000000;0.000000;0.000000;;

  8;
  3;5,3,1;,
  3;3,5,0;,
  3;2,5,1;,
  3;5,2,0;,
  3;3,4,1;,
  3;4,3,0;,
  3;4,2,1;,
  3;2,4,0;;
 }
 MeshTextureCoords { 
 6;
 0.000000;0.000000;,
 0.000000;0.000000;,
 0.000000;0.000000;,
 0.000000;0.000000;,
 0.000000;0.000000;,
 0.000000;0.000000;;
 }
}
}
}
}
Frame frm-lwingzz {
  FrameTransformMatrix {
-1.000000,0.000000,0.000000,0.000000,
-0.000000,-1.000000,0.000000,0.000000,
0.000000,0.000000,1.000000,0.000000,
0.698190,0.740009,3.640358,1.000000;;
 }
Mesh lwingzz {
 8;
 -7.533352;0.121573;-2.583154;,
 -7.533352;-0.116154;-2.583154;,
 -7.533352;-0.001191;-3.238355;,
 -7.533352;-0.001191;-1.927956;,
 0.000000;-0.000515;-0.058577;,
 -0.000000;-0.230441;1.251823;,
 -0.000000;-0.000515;2.562224;,
 -0.000000;0.245014;1.251823;;

 4;
 4;2,0,7,4;,
 4;0,3,6,7;,
 4;3,1,5,6;,
 4;1,2,4,5;;

 MeshMaterialList {
  2;
  4;
  0,
  0,
  1,
  1;
Material {
 1.000000;1.000000;1.000000;1.000000;;
 0.000000;
 1.000000;1.000000;1.000000;;
 0.0; 0.0; 0.0;;
 TextureFilename {
  "utl27.ppm";
 }
 }
Material {
 1.000000;1.000000;1.000000;1.000000;;
 0.000000;
 1.000000;1.000000;1.000000;;
 0.0; 0.0; 0.0;;
 TextureFilename {
  "utl27.ppm";
 }
 }
}
 MeshNormals {
  8;
  -0.047906;0.996925;0.062016;,
  0.014680;-0.998175;-0.058584;,
  0.388864;-0.006186;-0.921274;,
  -0.511980;-0.006678;0.858971;,
  0.388864;-0.006187;-0.921274;,
  -0.044721;-0.997307;0.058127;,
  -0.511981;-0.006678;0.858971;,
  0.015503;0.997920;-0.062575;;

  4;
  4;2,0,7,4;,
  4;0,3,6,7;,
  4;3,1,5,6;,
  4;1,2,4,5;;
 }
 MeshTextureCoords { 
 8;
 0.138672;0.660156;,
 0.138672;0.660156;,
 0.156250;0.660156;,
 0.123047;0.660156;,
 0.074219;0.277344;,
 0.041016;0.277344;,
 0.007813;0.277344;,
 0.041016;0.277344;;
 }
}
Frame frm-lfinzzz {
  FrameTransformMatrix {
0.946706,0.322100,0.000000,0.000000,
0.322100,-0.946706,0.000000,0.000000,
0.000000,-0.000000,-1.000000,0.000000,
-7.663849,0.131288,-5.340933,1.000000;;
 }
Mesh lfinzzz {
 46;
 -0.312763;2.541123;-3.266388;,
 -0.312763;2.541123;-3.266388;,
 -0.312763;2.541123;-3.266388;,
 -0.190458;0.864455;-3.884077;,
 -0.190458;0.864455;-3.884077;,
 -0.190458;0.864455;-3.884077;,
 -0.190458;0.864455;-3.884077;,
 -0.116630;-0.051995;-4.411178;,
 -0.116630;-0.051995;-4.411178;,
 -0.116630;-0.051995;-4.411178;,
 -0.116630;-0.051995;-4.411178;,
 -0.045395;0.864455;-3.884077;,
 -0.045395;0.864455;-3.884077;,
 -0.045395;0.864455;-3.884077;,
 -0.196143;1.740103;-1.664476;,
 -0.196143;1.740103;-1.664476;,
 -0.196143;1.740103;-1.664476;,
 -0.196143;1.740103;-1.664476;,
 -0.196143;1.740103;-1.664476;,
 -0.196143;1.740103;-1.664476;,
 -0.073838;-0.362148;-1.662832;,
 -0.073838;-0.362148;-1.662832;,
 -0.073838;-0.362148;-1.662832;,
 -0.000010;-1.481566;-1.974588;,
 -0.000010;-1.481566;-1.974588;,
 -0.000010;-1.481566;-1.974588;,
 -0.000010;-1.481566;-1.974588;,
 0.071226;-0.362148;-1.662832;,
 0.071226;-0.362148;-1.662832;,
 0.071226;-0.362148;-1.662832;,
 -0.024776;-1.203765;-1.663309;,
 -0.024776;-1.203765;-1.663309;,
 -0.024776;-1.203765;-1.663309;,
 0.028253;-1.203698;-1.663309;,
 0.028253;-1.203698;-1.663309;,
 0.028253;-1.203698;-1.663309;,
 0.028253;-1.203698;-1.663309;,
 -0.024776;-1.203765;-1.663309;,
 0.071226;-0.362148;-1.662832;,
 -0.000010;-1.481566;-1.974588;,
 -0.073838;-0.362148;-1.662832;,
 -0.196143;1.740103;-1.664476;,
 -0.045395;0.864455;-3.884077;,
 -0.116630;-0.051995;-4.411178;,
 -0.190458;0.864455;-3.884077;,
 -0.312763;2.541123;-3.266388;;

 16;
 3;13,2,19;,
 3;12,18,29;,
 3;1,6,22;,
 3;0,21,17;,
 3;5,10,26;,
 3;4,25,32;,
 3;3,31,20;,
 3;9,11,28;,
 3;8,27,35;,
 3;7,34,24;,
 3;42,43,44;,
 3;42,44,45;,
 3;16,40,30;,
 3;15,37,23;,
 3;14,39,33;,
 3;41,36,38;;

 MeshMaterialList {
  5;
  16;
  0,
  0,
  1,
  1,
  1,
  1,
  1,
  0,
  0,
  0,
  2,
  2,
  3,
  4,
  4,
  4;
Material {
 1.000000;1.000000;1.000000;1.000000;;
 0.000000;
 1.000000;1.000000;1.000000;;
 0.0; 0.0; 0.0;;
 TextureFilename {
  "utl27.ppm";
 }
 }
Material {
 1.000000;1.000000;1.000000;1.000000;;
 0.000000;
 1.000000;1.000000;1.000000;;
 0.0; 0.0; 0.0;;
 TextureFilename {
  "utl27.ppm";
 }
 }
Material {
 1.000000;1.000000;1.000000;1.000000;;
 0.000000;
 1.000000;1.000000;1.000000;;
 0.0; 0.0; 0.0;;
 TextureFilename {
  "utl27.ppm";
 }
 }
Material {
 1.000000;1.000000;1.000000;1.000000;;
 0.000000;
 1.000000;1.000000;1.000000;;
 0.0; 0.0; 0.0;;
 }
Material {
 1.000000;1.000000;1.000000;1.000000;;
 0.000000;
 1.000000;1.000000;1.000000;;
 0.0; 0.0; 0.0;;
 TextureFilename {
  "utl27.ppm";
 }
 }
}
 MeshNormals {
  46;
  -0.726565;0.264536;-0.634132;,
  -0.726565;0.264536;-0.634132;,
  -0.726565;0.264536;-0.634132;,
  -0.905685;0.124389;-0.405292;,
  -0.905685;0.124389;-0.405292;,
  -0.905685;0.124389;-0.405292;,
  -0.905685;0.124389;-0.405292;,
  0.872070;0.132232;-0.471178;,
  0.872070;0.132232;-0.471178;,
  0.872070;0.132232;-0.471178;,
  0.872070;0.132232;-0.471178;,
  0.810757;0.296687;-0.504629;,
  0.810757;0.296687;-0.504629;,
  0.810757;0.296687;-0.504629;,
  0.824237;0.109905;0.555477;,
  0.824237;0.109905;0.555477;,
  0.824237;0.109905;0.555477;,
  0.824237;0.109905;0.555477;,
  0.824237;0.109905;0.555477;,
  0.824237;0.109905;0.555477;,
  -0.994571;-0.067061;0.079565;,
  -0.994571;-0.067061;0.079565;,
  -0.994571;-0.067061;0.079565;,
  -0.971388;-0.208233;0.114215;,
  -0.971388;-0.208233;0.114215;,
  -0.971388;-0.208233;0.114215;,
  -0.971388;-0.208233;0.114215;,
  0.959999;0.012643;0.279718;,
  0.959999;0.012643;0.279718;,
  0.959999;0.012643;0.279718;,
  -0.010979;-0.199343;0.979868;,
  -0.010979;-0.199343;0.979868;,
  -0.010979;-0.199343;0.979868;,
  0.697171;-0.107906;0.708738;,
  0.697171;-0.107906;0.708738;,
  0.697171;-0.107906;0.708738;,
  0.697171;-0.107906;0.708738;,
  -0.010979;-0.199343;0.979868;,
  0.959999;0.012643;0.279718;,
  -0.971388;-0.208233;0.114215;,
  -0.994571;-0.067061;0.079565;,
  0.824237;0.109905;0.555477;,
  0.810757;0.296687;-0.504629;,
  0.872070;0.132232;-0.471178;,
  -0.905685;0.124389;-0.405292;,
  -0.726565;0.264536;-0.634132;;

  16;
  3;13,2,19;,
  3;12,18,29;,
  3;1,6,22;,
  3;0,21,17;,
  3;5,10,26;,
  3;4,25,32;,
  3;3,31,20;,
  3;9,11,28;,
  3;8,27,35;,
  3;7,34,24;,
  3;42,43,44;,
  3;42,44,45;,
  3;16,40,30;,
  3;15,37,23;,
  3;14,39,33;,
  3;41,36,38;;
 }
 MeshTextureCoords { 
 46;
 0.933594;0.531250;,
 0.933594;0.531250;,
 0.932424;0.526042;,
 0.919922;0.636719;,
 0.919922;0.636719;,
 0.919922;0.636719;,
 0.919922;0.636719;,
 0.897669;0.686013;,
 0.897669;0.686013;,
 0.897669;0.686013;,
 0.900391;0.687500;,
 0.914096;0.630251;,
 0.914096;0.630251;,
 0.914096;0.630251;,
 0.592082;0.209269;,
 0.592082;0.209269;,
 0.000000;0.000000;,
 0.982422;0.578125;,
 0.983228;0.578623;,
 0.983228;0.578623;,
 0.982422;0.707031;,
 0.982422;0.707031;,
 0.982422;0.707031;,
 0.739015;0.216960;,
 0.971957;0.777778;,
 0.972656;0.773438;,
 0.972656;0.773438;,
 0.982198;0.697568;,
 0.982198;0.697568;,
 0.982198;0.697568;,
 0.000000;0.000000;,
 0.982422;0.757813;,
 0.982422;0.757813;,
 0.746548;0.232591;,
 0.982218;0.758121;,
 0.982218;0.758121;,
 0.746548;0.232591;,
 0.735106;0.207636;,
 0.746724;0.240000;,
 0.739015;0.216960;,
 0.000000;0.000000;,
 0.592082;0.209269;,
 0.062500;0.023438;,
 0.009766;0.031250;,
 0.062500;0.039063;,
 0.150391;0.050781;;
 }
}
Frame frm-SSl {
  FrameTransformMatrix {
0.000010,0.000000,0.000000,0.000000,
0.000000,0.000010,0.000000,0.000000,
0.000000,0.000000,0.000010,0.000000,
-0.309744,2.603700,-3.254016,1.000000;;
 }
Mesh SSl {
 6;
 0.000000;0.000000;0.100000;,
 0.000000;0.000000;-0.100000;,
 0.000000;-0.100000;0.000000;,
 0.000000;0.100000;0.000000;,
 -0.100000;0.000000;0.000000;,
 0.100000;0.000000;0.000000;;

 8;
 3;1,3,5;,
 3;0,5,3;,
 3;1,5,2;,
 3;0,2,5;,
 3;1,4,3;,
 3;0,3,4;,
 3;1,2,4;,
 3;0,4,2;;

 MeshMaterialList {
  1;
  8;
  0,
  0,
  0,
  0,
  0,
  0,
  0,
  0;
Material {
 1.000000;0.000000;0.000000;0.500000;;
 0.000000;
 1.000000;1.000000;1.000000;;
 0.0; 0.0; 0.0;;
 }
}
 MeshNormals {
  6;
  0.000000;0.000000;1.000000;,
  0.000000;0.000000;-1.000000;,
  0.000000;-1.000000;0.000000;,
  0.000000;1.000000;0.000000;,
  -1.000000;0.000000;0.000000;,
  1.000000;0.000000;0.000000;;

  8;
  3;1,3,5;,
  3;0,5,3;,
  3;1,5,2;,
  3;0,2,5;,
  3;1,4,3;,
  3;0,3,4;,
  3;1,2,4;,
  3;0,4,2;;
 }
 MeshTextureCoords { 
 6;
 0.000000;0.000000;,
 0.000000;0.000000;,
 0.000000;0.000000;,
 0.000000;0.000000;,
 0.000000;0.000000;,
 0.000000;0.000000;;
 }
}
}
}
}
}
}
}
}
AnimationSet {
 Animation anim-wepemt {
  {frm-wepemt}
  AnimationKey {
  0;
  2;
  1; 4; 0.707107, 0.707107, 0.000000, 0.000000;;,
  60; 4; 0.707107, 0.707107, 0.000000, 0.000000;;;
  }
  AnimationKey {
  1;
  2;
  1; 3; 0.696000, 0.696000, 0.696000;;,
  60; 3; 0.696000, 0.696000, 0.696000;;;
  }
  AnimationKey {
  2;
  2;
  1; 3; -0.014232, -1.395335, -9.210105;;,
  60; 3; -0.014232, -1.395335, -9.210105;;;
  }
 }
 Animation anim-missemt {
  {frm-missemt}
  AnimationKey {
  2;
  2;
  1; 3; -0.020449, 3.485626, 4.375158;;,
  60; 3; -0.020449, 3.485626, 4.375158;;;
  }
 }
 Animation anim-cockpt {
  {frm-cockpt}
  AnimationKey {
  2;
  2;
  1; 3; 0.000000, 1.504557, -8.146655;;,
  60; 3; 0.000000, 1.504557, -8.146655;;;
  }
 }
 Animation anim-trail {
  {frm-trail}
  AnimationKey {
  2;
  2;
  1; 3; 0.000000, 3.959895, 14.989380;;,
  60; 3; 0.000000, 3.959895, 14.989380;;;
  }
 }
 Animation anim-fuselg1 {
  {frm-fuselg1}
  AnimationKey {
  2;
  2;
  1; 3; 0.017815, -1.861236, -6.311845;;,
  60; 3; 0.017815, -1.861236, -6.311845;;;
  }
 }
 Animation anim-lthrust1 {
  {frm-lthrust1}
  AnimationKey {
  0;
  2;
  1; 4; 0.000000, 0.000000, 1.000000, -0.000000;;,
  60; 4; 0.000000, 0.000000, 1.000000, -0.000000;;;
  }
  AnimationKey {
  2;
  2;
  1; 3; 3.214633, 0.147629, 4.169702;;,
  60; 3; 3.214633, 0.147629, 4.169702;;;
  }
 }
 Animation anim-lthrust2 {
  {frm-lthrust2}
  AnimationKey {
  0;
  2;
  1; 4; -0.000000, -0.000000, -0.998580, 0.053276;;,
  60; 4; -0.000000, -0.000000, -0.998580, 0.053276;;;
  }
  AnimationKey {
  2;
  2;
  1; 3; 3.064981, 1.709213, 0.080114;;,
  60; 3; 3.064981, 1.709213, 0.080114;;;
  }
 }
 Animation anim-lthrust {
  {frm-lthrust}
  AnimationKey {
  0;
  2;
  1; 4; 0.707107, 0.707107, 0.000000, 0.000000;;,
  60; 4; 0.707107, 0.707107, 0.000000, 0.000000;;;
  }
  AnimationKey {
  2;
  2;
  1; 3; 5.025856, -0.010060, 2.817408;;,
  60; 3; 5.025856, -0.010060, 2.817408;;;
  }
 }
 Animation anim-rthrust1 {
  {frm-rthrust1}
  AnimationKey {
  2;
  2;
  1; 3; -3.250267, 0.147629, 4.169702;;,
  60; 3; -3.250267, 0.147629, 4.169702;;;
  }
 }
 Animation anim-rthrust2 {
  {frm-rthrust2}
  AnimationKey {
  0;
  2;
  1; 4; 0.000000, 0.000000, 0.998580, 0.053276;;,
  60; 4; 0.000000, 0.000000, 0.998580, 0.053276;;;
  }
  AnimationKey {
  2;
  2;
  1; 3; 3.064989, 1.709213, -0.080114;;,
  60; 3; 3.064989, 1.709213, -0.080114;;;
  }
 }
 Animation anim-rthrust {
  {frm-rthrust}
  AnimationKey {
  0;
  2;
  1; 4; 0.000000, 0.000000, 0.707107, 0.707107;;,
  60; 4; 0.000000, 0.000000, 0.707107, 0.707107;;;
  }
  AnimationKey {
  2;
  2;
  1; 3; 4.807652, -0.010060, -2.817409;;,
  60; 3; 4.807652, -0.010060, -2.817409;;;
  }
 }
 Animation anim-SSf {
  {frm-SSf}
  AnimationKey {
  1;
  2;
  1; 3; 0.000010, 0.000010, 0.000010;;,
  60; 3; 0.000010, 0.000010, 0.000010;;;
  }
  AnimationKey {
  2;
  2;
  1; 3; -0.017814, -0.070852, -2.629254;;,
  60; 3; -0.017814, -0.070852, -2.629254;;;
  }
 }
 Animation anim-SSm {
  {frm-SSm}
  AnimationKey {
  0;
  2;
  1; 4; 0.000000, 0.000000, 1.000000, -0.000000;;,
  60; 4; 0.000000, 0.000000, 1.000000, -0.000000;;;
  }
  AnimationKey {
  1;
  2;
  1; 3; 0.000010, 0.000010, 0.000010;;,
  60; 3; 0.000010, 0.000010, 0.000010;;;
  }
  AnimationKey {
  2;
  2;
  1; 3; -0.028053, 5.294311, 3.283414;;,
  60; 3; -0.028053, 5.294311, 3.283414;;;
  }
 }
 Animation anim-bmerge2 {
  {frm-bmerge2}
  AnimationKey {
  2;
  2;
  1; 3; -0.027553, 3.901852, 13.826985;;,
  60; 3; -0.027553, 3.901852, 13.826985;;;
  }
 }
 Animation anim-bmerge1 {
  {frm-bmerge1}
  AnimationKey {
  2;
  2;
  1; 3; 0.000000, 1.254012, 1.067875;;,
  60; 3; 0.000000, 1.254012, 1.067875;;;
  }
 }
 Animation anim-rwingzz {
  {frm-rwingzz}
  AnimationKey {
  0;
  2;
  1; 4; 0.000000, 1.000000, 0.000000, 0.000000;;,
  60; 4; 0.000000, 1.000000, 0.000000, 0.000000;;;
  }
  AnimationKey {
  2;
  2;
  1; 3; -0.678725, 0.740009, 3.640358;;,
  60; 3; -0.678725, 0.740009, 3.640358;;;
  }
 }
 Animation anim-rfinzzz {
  {frm-rfinzzz}
  AnimationKey {
  0;
  2;
  1; 4; 0.000000, 0.986578, 0.163292, -0.000000;;,
  60; 4; 0.000000, 0.986578, 0.163292, -0.000000;;;
  }
  AnimationKey {
  2;
  2;
  1; 3; -7.663849, 0.131288, 5.340931;;,
  60; 3; -7.663849, 0.131288, 5.340931;;;
  }
 }
 Animation anim-SSr {
  {frm-SSr}
  AnimationKey {
  0;
  2;
  1; 4; 0.000000, 0.000000, 1.000000, -0.000000;;,
  60; 4; 0.000000, 0.000000, 1.000000, -0.000000;;;
  }
  AnimationKey {
  1;
  2;
  1; 3; 0.750005, 0.750005, 0.750005;;,
  60; 3; 0.750005, 0.750005, 0.750005;;;
  }
  AnimationKey {
  2;
  2;
  1; 3; -0.344263, 2.600480, 3.238195;;,
  60; 3; -0.344263, 2.600480, 3.238195;;;
  }
 }
 Animation anim-lwingzz {
  {frm-lwingzz}
  AnimationKey {
  0;
  2;
  1; 4; 0.000000, 0.000000, 0.000000, -1.000000;;,
  60; 4; 0.000000, 0.000000, 0.000000, -1.000000;;;
  }
  AnimationKey {
  2;
  2;
  1; 3; 0.698190, 0.740009, 3.640358;;,
  60; 3; 0.698190, 0.740009, 3.640358;;;
  }
 }
 Animation anim-lfinzzz {
  {frm-lfinzzz}
  AnimationKey {
  0;
  2;
  1; 4; 0.000000, 0.986586, 0.163240, -0.000000;;,
  60; 4; 0.000000, 0.986586, 0.163240, -0.000000;;;
  }
  AnimationKey {
  2;
  2;
  1; 3; -7.663849, 0.131288, -5.340933;;,
  60; 3; -7.663849, 0.131288, -5.340933;;;
  }
 }
 Animation anim-SSl {
  {frm-SSl}
  AnimationKey {
  1;
  2;
  1; 3; 0.000010, 0.000010, 0.000010;;,
  60; 3; 0.000010, 0.000010, 0.000010;;;
  }
  AnimationKey {
  2;
  2;
  1; 3; -0.309744, 2.603700, -3.254016;;,
  60; 3; -0.309744, 2.603700, -3.254016;;;
  }
 }
}
