xof 0302txt 0032
template Header {
 <3D82AB43-62DA-11cf-AB39-0020AF71E433>
 WORD major;
 WORD minor;
 DWORD flags;
}

template Vector {
 <3D82AB5E-62DA-11cf-AB39-0020AF71E433>
 FLOAT x;
 FLOAT y;
 FLOAT z;
}

template Coords2d {
 <F6F23F44-7686-11cf-8F52-0040333594A3>
 FLOAT u;
 FLOAT v;
}

template Matrix4x4 {
 <F6F23F45-7686-11cf-8F52-0040333594A3>
 array FLOAT matrix[16];
}

template ColorRGBA {
 <35FF44E0-6C7C-11cf-8F52-0040333594A3>
 FLOAT red;
 FLOAT green;
 FLOAT blue;
 FLOAT alpha;
}

template ColorRGB {
 <D3E16E81-7835-11cf-8F52-0040333594A3>
 FLOAT red;
 FLOAT green;
 FLOAT blue;
}

template TextureFilename {
 <A42790E1-7810-11cf-8F52-0040333594A3>
 STRING filename;
}

template Material {
 <3D82AB4D-62DA-11cf-AB39-0020AF71E433>
 ColorRGBA faceColor;
 FLOAT power;
 ColorRGB specularColor;
 ColorRGB emissiveColor;
 [...]
}

template MeshFace {
 <3D82AB5F-62DA-11cf-AB39-0020AF71E433>
 DWORD nFaceVertexIndices;
 array DWORD faceVertexIndices[nFaceVertexIndices];
}

template MeshTextureCoords {
 <F6F23F40-7686-11cf-8F52-0040333594A3>
 DWORD nTextureCoords;
 array Coords2d textureCoords[nTextureCoords];
}

template MeshMaterialList {
 <F6F23F42-7686-11cf-8F52-0040333594A3>
 DWORD nMaterials;
 DWORD nFaceIndexes;
 array DWORD faceIndexes[nFaceIndexes];
 [Material]
}

template MeshNormals {
 <F6F23F43-7686-11cf-8F52-0040333594A3>
 DWORD nNormals;
 array Vector normals[nNormals];
 DWORD nFaceNormals;
 array MeshFace faceNormals[nFaceNormals];
}

template Mesh {
 <3D82AB44-62DA-11cf-AB39-0020AF71E433>
 DWORD nVertices;
 array Vector vertices[nVertices];
 DWORD nFaces;
 array MeshFace faces[nFaces];
 [...]
}

template FrameTransformMatrix {
 <F6F23F41-7686-11cf-8F52-0040333594A3>
 Matrix4x4 frameMatrix;
}

template Frame {
 <3D82AB46-62DA-11cf-AB39-0020AF71E433>
 [...]
}
template FloatKeys {
 <10DD46A9-775B-11cf-8F52-0040333594A3>
 DWORD nValues;
 array FLOAT values[nValues];
}

template TimedFloatKeys {
 <F406B180-7B3B-11cf-8F52-0040333594A3>
 DWORD time;
 FloatKeys tfkeys;
}

template AnimationKey {
 <10DD46A8-775B-11cf-8F52-0040333594A3>
 DWORD keyType;
 DWORD nKeys;
 array TimedFloatKeys keys[nKeys];
}

template AnimationOptions {
 <E2BF56C0-840F-11cf-8F52-0040333594A3>
 DWORD openclosed;
 DWORD positionquality;
}

template Animation {
 <3D82AB4F-62DA-11cf-AB39-0020AF71E433>
 [...]
}

template AnimationSet {
 <3D82AB50-62DA-11cf-AB39-0020AF71E433>
 [Animation]
}

Header {
 1;
 0;
 1;
}

Frame frm-fuselg3 {
  FrameTransformMatrix {
1.000000,0.000000,0.000000,0.000000,
0.000000,1.000000,0.000000,0.000000,
0.000000,0.000000,1.000000,0.000000,
0.000000,0.000000,0.000000,1.000000;;
 }
Mesh fuselg3 {
 48;
 3.275139;-1.834703;0.092138;,
 3.275139;-1.834703;0.092138;,
 3.285914;-0.116977;0.092138;,
 3.285914;-0.116977;0.092138;,
 2.880082;2.039488;0.092138;,
 2.880082;2.039488;0.092138;,
 2.880082;2.039488;0.092138;,
 -2.844816;2.039488;0.092138;,
 -2.844816;2.039488;0.092138;,
 -2.844816;2.039488;0.092138;,
 -2.844816;2.039488;0.092138;,
 -3.302757;-0.116977;0.092138;,
 -3.302757;-0.116977;0.092138;,
 -3.302757;-0.116977;0.092138;,
 -3.306181;-1.834703;0.092138;,
 -3.306181;-1.834703;0.092138;,
 3.276704;-1.876134;5.457247;,
 -3.305859;-1.876059;5.457247;,
 -1.155822;3.148094;0.008626;,
 -1.155822;3.148094;0.008626;,
 -1.155822;3.148094;0.008626;,
 -1.155822;3.148094;0.008626;,
 1.180871;3.148094;0.008626;,
 1.180871;3.148094;0.008626;,
 1.180871;3.148094;0.008626;,
 -1.129835;3.178621;8.647045;,
 -1.129835;3.178621;8.647045;,
 1.180871;3.148094;0.008626;,
 1.155297;3.177961;8.647045;,
 -1.155822;3.148094;0.008626;,
 -3.295296;-0.336602;8.557790;,
 -3.292731;0.866047;8.557790;,
 -2.781399;2.561796;8.557790;,
 2.817172;2.560502;8.557790;,
 3.276017;0.864984;8.557790;,
 3.266343;-0.336654;8.557790;,
 -3.305859;-1.876059;5.457247;,
 -3.303285;-0.157989;5.457247;,
 -2.790322;2.264508;5.457247;,
 2.826099;2.262660;5.457247;,
 3.286405;-0.159508;5.457247;,
 3.276704;-1.876134;5.457247;,
 -3.306181;-1.834703;0.092138;,
 -3.302757;-0.116977;0.092138;,
 -2.844816;2.039488;0.092138;,
 2.880082;2.039488;0.092138;,
 3.285914;-0.116977;0.092138;,
 3.275139;-1.834703;0.092138;;

 22;
 4;15,1,16,17;,
 4;0,3,40,41;,
 4;2,6,39,40;,
 3;13,46,47;,
 4;10,12,37,38;,
 4;11,14,36,37;,
 4;41,40,34,35;,
 4;40,39,33,34;,
 3;39,5,24;,
 3;46,43,9;,
 4;38,37,31,32;,
 4;37,36,30,31;,
 3;47,42,43;,
 4;21,25,28,23;,
 3;8,4,46;,
 3;45,7,20;,
 3;19,44,38;,
 3;28,33,39;,
 3;39,22,28;,
 3;38,32,26;,
 3;26,18,38;,
 3;29,27,45;;

 MeshMaterialList {
  3;
  22;
  0,
  1,
  1,
  2,
  1,
  1,
  1,
  1,
  1,
  2,
  1,
  1,
  2,
  1,
  2,
  2,
  1,
  1,
  1,
  1,
  1,
  2;
Material {
 1.000000;1.000000;1.000000;1.000000;;
 0.000000;
 1.000000;1.000000;1.000000;;
 0.0; 0.0; 0.0;;
 TextureFilename {
  "utl27.ppm";
 }
 }
Material {
 1.000000;1.000000;1.000000;1.000000;;
 0.000000;
 1.000000;1.000000;1.000000;;
 0.0; 0.0; 0.0;;
 TextureFilename {
  "utl27.ppm";
 }
 }
Material {
 1.000000;1.000000;1.000000;1.000000;;
 0.000000;
 1.000000;1.000000;1.000000;;
 0.0; 0.0; 0.0;;
 TextureFilename {
  "utl27.ppm";
 }
 }
}
 MeshNormals {
  48;
  0.406759;-0.409182;-0.816773;,
  0.406759;-0.409182;-0.816773;,
  0.552626;0.050149;-0.831919;,
  0.552626;0.050149;-0.831919;,
  0.463906;0.268092;-0.844345;,
  0.463906;0.268092;-0.844345;,
  0.463906;0.268092;-0.844345;,
  -0.457929;0.291610;-0.839800;,
  -0.457929;0.291610;-0.839800;,
  -0.457929;0.291610;-0.839800;,
  -0.457929;0.291610;-0.839800;,
  -0.551799;0.058344;-0.831934;,
  -0.551799;0.058344;-0.831934;,
  -0.551799;0.058344;-0.831934;,
  -0.576205;-0.575180;-0.580651;,
  -0.576205;-0.575180;-0.580651;,
  0.892168;-0.451704;-0.000831;,
  -0.895057;-0.445946;-0.002257;,
  -0.304396;0.762098;-0.571446;,
  -0.304396;0.762098;-0.571446;,
  -0.304396;0.762098;-0.571446;,
  -0.304396;0.762098;-0.571446;,
  0.343856;0.882336;-0.321320;,
  0.343856;0.882336;-0.321320;,
  0.343856;0.882336;-0.321320;,
  -0.279921;0.959830;-0.019271;,
  -0.279921;0.959830;-0.019271;,
  0.343856;0.882336;-0.321320;,
  0.281365;0.959406;-0.019317;,
  -0.304396;0.762098;-0.571446;,
  -0.999995;0.001759;0.002678;,
  -0.992220;0.122356;-0.023000;,
  -0.742880;0.664929;-0.077452;,
  0.750486;0.656582;-0.075306;,
  0.994166;0.106218;-0.018768;,
  0.999959;-0.006639;0.006091;,
  -0.895057;-0.445946;-0.002257;,
  -0.993446;0.113755;-0.011146;,
  -0.731028;0.681361;-0.036690;,
  0.736120;0.675908;-0.035719;,
  0.995117;0.098297;-0.008990;,
  0.892168;-0.451704;-0.000831;,
  -0.576205;-0.575180;-0.580651;,
  -0.551799;0.058344;-0.831934;,
  -0.457929;0.291610;-0.839800;,
  0.463906;0.268092;-0.844345;,
  0.552626;0.050149;-0.831919;,
  0.406759;-0.409182;-0.816773;;

  22;
  4;15,1,16,17;,
  4;0,3,40,41;,
  4;2,6,39,40;,
  3;13,46,47;,
  4;10,12,37,38;,
  4;11,14,36,37;,
  4;41,40,34,35;,
  4;40,39,33,34;,
  3;39,5,24;,
  3;46,43,9;,
  4;38,37,31,32;,
  4;37,36,30,31;,
  3;47,42,43;,
  4;21,25,28,23;,
  3;8,4,46;,
  3;45,7,20;,
  3;19,44,38;,
  3;28,33,39;,
  3;39,22,28;,
  3;38,32,26;,
  3;26,18,38;,
  3;29,27,45;;
 }
 MeshTextureCoords { 
 48;
 0.570331;0.626490;,
 0.813477;0.974609;,
 0.570331;0.512330;,
 0.570331;0.512330;,
 0.630477;0.706541;,
 0.570331;0.369012;,
 0.570331;0.369012;,
 0.564071;0.706541;,
 0.564335;0.706420;,
 0.564335;0.706420;,
 0.570331;0.369012;,
 0.570331;0.512330;,
 0.570331;0.512330;,
 0.559065;0.847418;,
 0.570331;0.626490;,
 0.813477;0.708984;,
 0.715820;0.974609;,
 0.715820;0.708984;,
 0.568955;0.350022;,
 0.568955;0.350022;,
 0.577718;0.693611;,
 0.571289;0.349609;,
 0.568955;0.350022;,
 0.571289;0.349964;,
 0.568955;0.350022;,
 0.317028;0.333984;,
 0.317383;0.333984;,
 0.615453;0.694118;,
 0.317383;0.333984;,
 0.577718;0.693611;,
 0.317753;0.526926;,
 0.317753;0.446998;,
 0.317753;0.334300;,
 0.317753;0.334386;,
 0.317753;0.447069;,
 0.317753;0.526930;,
 0.407784;0.629238;,
 0.407784;0.515056;,
 0.407784;0.354057;,
 0.407784;0.354180;,
 0.407784;0.515157;,
 0.407784;0.629243;,
 0.559035;0.959759;,
 0.559065;0.847418;,
 0.570331;0.369012;,
 0.629960;0.705639;,
 0.635140;0.847517;,
 0.635028;0.959763;;
 }
}
Frame frm-fuselg3_1 {
  FrameTransformMatrix {
0.989800,0.000000,0.000000,0.000000,
0.000000,0.980000,0.000000,0.000000,
0.000000,0.000000,0.980000,0.000000,
0.000000,3.092154,8.435653,1.000000;;
 }
Mesh fuselg3_1 {
 8;
 -1.141478;0.088232;0.215706;,
 1.167202;0.087558;0.215706;,
 -3.329254;-3.498731;0.124629;,
 -3.326663;-2.271537;0.124629;,
 -2.810062;-0.541182;0.124629;,
 2.846204;-0.542502;0.124629;,
 3.309777;-2.272622;0.124629;,
 3.300003;-3.498784;0.124629;;

 6;
 3;2,7,6;,
 3;4,3,2;,
 3;2,5,1;,
 3;2,1,0;,
 3;2,0,4;,
 3;6,5,2;;

 MeshMaterialList {
  1;
  6;
  0,
  0,
  0,
  0,
  0,
  0;
Material {
 1.000000;1.000000;1.000000;1.000000;;
 0.000000;
 1.000000;1.000000;1.000000;;
 0.0; 0.0; 0.0;;
 TextureFilename {
  "utl27.ppm";
 }
 }
}
 MeshNormals {
  8;
  -0.029196;-0.007572;0.999545;,
  0.015167;-0.044384;0.998899;,
  -0.004674;-0.013092;0.999903;,
  0.000000;0.000000;1.000000;,
  -0.029189;0.005124;0.999561;,
  0.015176;-0.031702;0.999382;,
  0.000000;0.000000;1.000000;,
  0.000000;0.000000;1.000000;;

  6;
  3;2,7,6;,
  3;4,3,2;,
  3;2,5,1;,
  3;2,1,0;,
  3;2,0,4;,
  3;6,5,2;;
 }
 MeshTextureCoords { 
 8;
 0.275751;0.015923;,
 0.336306;0.016410;,
 0.241259;0.178438;,
 0.241309;0.121523;,
 0.251245;0.041273;,
 0.360039;0.041334;,
 0.368955;0.121573;,
 0.368767;0.178440;;
 }
}
}
Frame frm-fuselg3_2 {
  FrameTransformMatrix {
0.989800,0.000000,0.000000,0.000000,
0.000000,0.980000,0.000000,0.000000,
0.000000,0.000000,0.980000,0.000000,
0.000000,-1.877757,5.456776,1.000000;;
 }
Mesh fuselg3_2 {
 4;
 -3.329254;1.572607;3.164300;,
 3.300003;1.572554;3.164300;,
 -3.339926;0.001733;0.000481;,
 3.310471;0.001656;0.000481;;

 2;
 3;3,1,0;,
 3;0,2,3;;

 MeshMaterialList {
  1;
  2;
  0,
  0;
Material {
 1.000000;1.000000;1.000000;1.000000;;
 0.000000;
 1.000000;1.000000;1.000000;;
 0.0; 0.0; 0.0;;
 TextureFilename {
  "utl27.ppm";
 }
 }
}
 MeshNormals {
  4;
  -0.000009;-0.895672;0.444715;,
  -0.000007;-0.895671;0.444718;,
  -0.000010;-0.895673;0.444713;,
  -0.000009;-0.895672;0.444715;;

  2;
  3;3,1,0;,
  3;0,2,3;;
 }
 MeshTextureCoords { 
 4;
 0.633789;0.708984;,
 0.633789;0.974609;,
 0.715820;0.708984;,
 0.715820;0.974609;;
 }
}
}
Frame frm-trail {
  FrameTransformMatrix {
1.000000,0.000000,0.000000,0.000000,
0.000000,1.000000,0.000000,0.000000,
0.000000,0.000000,1.000000,0.000000,
0.000000,1.480079,8.553987,1.000000;;
 }
Mesh trail {
 4;
 -0.029292;-0.010356;0.000000;,
 0.000000;0.031069;0.000000;,
 0.014646;-0.010356;0.025368;,
 0.014646;-0.010356;-0.025368;;

 4;
 3;2,1,0;,
 3;3,0,1;,
 3;0,3,2;,
 3;1,2,3;;

 MeshMaterialList {
  1;
  4;
  0,
  0,
  0,
  0;
Material {
 1.000000;1.000000;1.000000;1.000000;;
 0.000000;
 1.000000;1.000000;1.000000;;
 0.000000;0.000000;0.000000;;
 TextureFilename {
  "utl27.ppm";
 }
 }
}
 MeshNormals {
  4;
  -0.942809;-0.333333;0.000000;,
  0.000000;1.000000;-0.000000;,
  0.471404;-0.333333;0.816497;,
  0.471404;-0.333333;-0.816497;;

  4;
  3;2,1,0;,
  3;3,0,1;,
  3;0,3,2;,
  3;1,2,3;;
 }
 MeshTextureCoords { 
 4;
 0.000000;1.000000;,
 0.000000;1.000000;,
 0.000000;1.000000;,
 0.000000;1.000000;;
 }
}
}
}
AnimationSet {
 Animation anim-fuselg3_1 {
  {frm-fuselg3_1}
  AnimationKey {
  1;
  2;
  1; 3; 0.989800, 0.980000, 0.980000;;,
  60; 3; 0.989800, 0.980000, 0.980000;;;
  }
  AnimationKey {
  2;
  2;
  1; 3; 0.000000, 3.092154, 8.435653;;,
  60; 3; 0.000000, 3.092154, 8.435653;;;
  }
 }
 Animation anim-fuselg3_2 {
  {frm-fuselg3_2}
  AnimationKey {
  1;
  2;
  1; 3; 0.989800, 0.980000, 0.980000;;,
  60; 3; 0.989800, 0.980000, 0.980000;;;
  }
  AnimationKey {
  2;
  2;
  1; 3; 0.000000, -1.877757, 5.456776;;,
  60; 3; 0.000000, -1.877757, 5.456776;;;
  }
 }
 Animation anim-trail {
  {frm-trail}
  AnimationKey {
  2;
  2;
  1; 3; 0.000000, 1.480079, 8.553987;;,
  60; 3; 0.000000, 1.480079, 8.553987;;;
  }
 }
}
