xof 0302txt 0032
template Header {
 <3D82AB43-62DA-11cf-AB39-0020AF71E433>
 WORD major;
 WORD minor;
 DWORD flags;
}

template Vector {
 <3D82AB5E-62DA-11cf-AB39-0020AF71E433>
 FLOAT x;
 FLOAT y;
 FLOAT z;
}

template Coords2d {
 <F6F23F44-7686-11cf-8F52-0040333594A3>
 FLOAT u;
 FLOAT v;
}

template Matrix4x4 {
 <F6F23F45-7686-11cf-8F52-0040333594A3>
 array FLOAT matrix[16];
}

template ColorRGBA {
 <35FF44E0-6C7C-11cf-8F52-0040333594A3>
 FLOAT red;
 FLOAT green;
 FLOAT blue;
 FLOAT alpha;
}

template ColorRGB {
 <D3E16E81-7835-11cf-8F52-0040333594A3>
 FLOAT red;
 FLOAT green;
 FLOAT blue;
}

template TextureFilename {
 <A42790E1-7810-11cf-8F52-0040333594A3>
 STRING filename;
}

template Material {
 <3D82AB4D-62DA-11cf-AB39-0020AF71E433>
 ColorRGBA faceColor;
 FLOAT power;
 ColorRGB specularColor;
 ColorRGB emissiveColor;
 [...]
}

template MeshFace {
 <3D82AB5F-62DA-11cf-AB39-0020AF71E433>
 DWORD nFaceVertexIndices;
 array DWORD faceVertexIndices[nFaceVertexIndices];
}

template MeshTextureCoords {
 <F6F23F40-7686-11cf-8F52-0040333594A3>
 DWORD nTextureCoords;
 array Coords2d textureCoords[nTextureCoords];
}

template MeshMaterialList {
 <F6F23F42-7686-11cf-8F52-0040333594A3>
 DWORD nMaterials;
 DWORD nFaceIndexes;
 array DWORD faceIndexes[nFaceIndexes];
 [Material]
}

template MeshNormals {
 <F6F23F43-7686-11cf-8F52-0040333594A3>
 DWORD nNormals;
 array Vector normals[nNormals];
 DWORD nFaceNormals;
 array MeshFace faceNormals[nFaceNormals];
}

template Mesh {
 <3D82AB44-62DA-11cf-AB39-0020AF71E433>
 DWORD nVertices;
 array Vector vertices[nVertices];
 DWORD nFaces;
 array MeshFace faces[nFaces];
 [...]
}

template FrameTransformMatrix {
 <F6F23F41-7686-11cf-8F52-0040333594A3>
 Matrix4x4 frameMatrix;
}

template Frame {
 <3D82AB46-62DA-11cf-AB39-0020AF71E433>
 [...]
}
template FloatKeys {
 <10DD46A9-775B-11cf-8F52-0040333594A3>
 DWORD nValues;
 array FLOAT values[nValues];
}

template TimedFloatKeys {
 <F406B180-7B3B-11cf-8F52-0040333594A3>
 DWORD time;
 FloatKeys tfkeys;
}

template AnimationKey {
 <10DD46A8-775B-11cf-8F52-0040333594A3>
 DWORD keyType;
 DWORD nKeys;
 array TimedFloatKeys keys[nKeys];
}

template AnimationOptions {
 <E2BF56C0-840F-11cf-8F52-0040333594A3>
 DWORD openclosed;
 DWORD positionquality;
}

template Animation {
 <3D82AB4F-62DA-11cf-AB39-0020AF71E433>
 [...]
}

template AnimationSet {
 <3D82AB50-62DA-11cf-AB39-0020AF71E433>
 [Animation]
}

Header {
 1;
 0;
 1;
}

Frame frm-afuselg {
  FrameTransformMatrix {
0.682273,0.493400,-0.539500,0.000000,
-0.729782,0.503866,-0.462100,0.000000,
0.043836,0.708996,0.703849,0.000000,
-5.272871,-5.431124,11.965603,1.000000;;
 }
Mesh afuselg {
 88;
 1.978353;2.271877;6.417895;,
 1.978353;2.271877;6.417895;,
 4.155155;0.521040;-6.415725;,
 4.155155;0.521040;-6.415725;,
 4.155155;0.521040;-6.415725;,
 4.403480;-1.007833;-7.282502;,
 4.403480;-1.007833;-7.282502;,
 1.852669;-0.315301;2.216373;,
 1.852669;-0.315301;2.216373;,
 1.852669;-0.315301;2.216373;,
 2.505102;-1.706504;0.021625;,
 2.505102;-1.706504;0.021625;,
 2.505102;-1.706504;0.021625;,
 -1.995386;2.283845;6.405704;,
 -1.995386;2.283845;6.405704;,
 3.044915;1.907383;-2.652663;,
 3.044915;1.907383;-2.652663;,
 3.044915;1.907383;-2.652663;,
 2.751920;2.106102;2.087450;,
 2.751920;2.106102;2.087450;,
 2.751920;2.106102;2.087450;,
 2.751920;2.106102;2.087450;,
 -3.032313;1.921595;-2.674466;,
 -3.032313;1.921595;-2.674466;,
 -3.032313;1.921595;-2.674466;,
 -3.032313;1.921595;-2.674466;,
 2.470241;-0.663807;2.744653;,
 2.470241;-0.663807;2.744653;,
 2.470241;-0.663807;2.744653;,
 -2.513849;2.066903;1.955163;,
 -2.513849;2.066903;1.955163;,
 -2.513849;2.066903;1.955163;,
 -2.513849;2.066903;1.955163;,
 2.463865;0.193312;5.401418;,
 2.463865;0.193312;5.401418;,
 -4.136697;0.540436;-6.445469;,
 -4.136697;0.540436;-6.445469;,
 -4.136697;0.540436;-6.445469;,
 -4.383717;-0.987277;-7.314023;,
 -4.383717;-0.987277;-7.314023;,
 -2.491199;0.208266;5.386246;,
 -2.491199;0.208266;5.386246;,
 -2.484345;-0.652218;2.726880;,
 -2.484345;-0.652218;2.726880;,
 -1.861395;-0.306613;2.203051;,
 -1.861395;-0.306613;2.203051;,
 -1.861395;-0.306613;2.203051;,
 -1.888962;-1.349167;-0.520202;,
 -1.888962;-1.349167;-0.520202;,
 -2.521287;-1.694747;0.003595;,
 -2.521287;-1.694747;0.003595;,
 -2.521287;-1.694747;0.003595;,
 1.878148;-1.357980;-0.506689;,
 1.878148;-1.357980;-0.506689;,
 1.878148;-1.357980;-0.506689;,
 2.559372;-2.061592;-4.223611;,
 2.559372;-2.061592;-4.223611;,
 2.559372;-2.061592;-4.223611;,
 2.708053;-2.458353;-5.542158;,
 2.708053;-2.458353;-5.542158;,
 -2.580026;-2.049570;-4.242045;,
 -2.580026;-2.049570;-4.242045;,
 -2.727620;-2.445637;-5.561656;,
 -2.727620;-2.445637;-5.561656;,
 -2.727620;-2.445637;-5.561656;,
 -2.580026;-2.049570;-4.242045;,
 2.708053;-2.458353;-5.542158;,
 2.559372;-2.061592;-4.223611;,
 1.878148;-1.357980;-0.506689;,
 -2.521287;-1.694747;0.003595;,
 -1.888962;-1.349167;-0.520202;,
 -1.861395;-0.306613;2.203051;,
 -2.484345;-0.652218;2.726880;,
 -2.491199;0.208266;5.386246;,
 -4.383717;-0.987277;-7.314023;,
 -4.136697;0.540436;-6.445469;,
 2.463865;0.193312;5.401418;,
 -2.513849;2.066903;1.955163;,
 2.470241;-0.663807;2.744653;,
 -3.032313;1.921595;-2.674466;,
 2.751920;2.106102;2.087450;,
 3.044915;1.907383;-2.652663;,
 -1.995386;2.283845;6.405704;,
 2.505102;-1.706504;0.021625;,
 1.852669;-0.315301;2.216373;,
 4.403480;-1.007833;-7.282502;,
 4.155155;0.521040;-6.415725;,
 1.978353;2.271877;6.417895;;

 24;
 3;17,54,12;,
 4;9,28,43,46;,
 4;6,4,57,59;,
 4;21,16,25,32;,
 4;58,56,61,63;,
 4;27,34,41,42;,
 3;51,48,24;,
 4;33,1,14,40;,
 4;47,45,31,23;,
 3;44,72,30;,
 4;55,11,50,60;,
 4;72,73,13,29;,
 4;20,0,76,26;,
 4;10,53,70,49;,
 4;62,65,37,39;,
 3;19,78,8;,
 4;71,70,52,7;,
 4;38,5,66,64;,
 4;77,82,87,18;,
 4;3,85,74,36;,
 4;15,2,35,22;,
 4;81,80,84,68;,
 4;79,75,65,69;,
 4;83,67,86,81;;

 MeshMaterialList {
  3;
  24;
  0,
  1,
  0,
  2,
  1,
  1,
  0,
  1,
  0,
  0,
  1,
  0,
  0,
  1,
  0,
  0,
  1,
  1,
  2,
  2,
  2,
  0,
  0,
  0;
Material {
 1.000000;1.000000;1.000000;1.000000;;
 0.000000;
 1.000000;1.000000;1.000000;;
 0.0; 0.0; 0.0;;
 TextureFilename {
  "utl99.bmp";
 }
 }
Material {
 1.000000;1.000000;1.000000;1.000000;;
 0.000000;
 1.000000;1.000000;1.000000;;
 0.0; 0.0; 0.0;;
 TextureFilename {
  "utl99.bmp";
 }
 }
Material {
 1.000000;1.000000;1.000000;1.000000;;
 0.000000;
 1.000000;1.000000;1.000000;;
 0.0; 0.0; 0.0;;
 TextureFilename {
  "utl99.bmp";
 }
 }
}
 MeshNormals {
  88;
  0.658479;0.395374;0.640379;,
  0.658479;0.395374;0.640379;,
  0.841501;0.466628;-0.272275;,
  0.841501;0.466628;-0.272275;,
  0.841501;0.466628;-0.272275;,
  0.574165;-0.378658;-0.725915;,
  0.574165;-0.378658;-0.725915;,
  0.513383;-0.799873;-0.310871;,
  0.513383;-0.799873;-0.310871;,
  0.513383;-0.799873;-0.310871;,
  0.528312;0.810959;0.251460;,
  0.528312;0.810959;0.251460;,
  0.528312;0.810959;0.251460;,
  -0.665722;0.434375;0.606740;,
  -0.665722;0.434375;0.606740;,
  0.916829;0.393353;0.068538;,
  0.916829;0.393353;0.068538;,
  0.916829;0.393353;0.068538;,
  0.859911;0.444682;-0.250623;,
  0.859911;0.444682;-0.250623;,
  0.859911;0.444682;-0.250623;,
  0.859911;0.444682;-0.250623;,
  -0.592396;0.769843;0.237506;,
  -0.592396;0.769843;0.237506;,
  -0.592396;0.769843;0.237506;,
  -0.592396;0.769843;0.237506;,
  0.510631;-0.775352;-0.371597;,
  0.510631;-0.775352;-0.371597;,
  0.510631;-0.775352;-0.371597;,
  -0.818776;0.524887;-0.232593;,
  -0.818776;0.524887;-0.232593;,
  -0.818776;0.524887;-0.232593;,
  -0.818776;0.524887;-0.232593;,
  0.433901;-0.650672;0.623183;,
  0.433901;-0.650672;0.623183;,
  -0.824615;0.471173;-0.313058;,
  -0.824615;0.471173;-0.313058;,
  -0.824615;0.471173;-0.313058;,
  -0.571739;-0.373279;-0.730601;,
  -0.571739;-0.373279;-0.730601;,
  -0.453547;-0.641697;0.618483;,
  -0.453547;-0.641697;0.618483;,
  -0.517763;-0.760612;-0.391651;,
  -0.517763;-0.760612;-0.391651;,
  -0.475396;-0.812904;-0.336430;,
  -0.475396;-0.812904;-0.336430;,
  -0.475396;-0.812904;-0.336430;,
  -0.341956;0.138332;0.929479;,
  -0.341956;0.138332;0.929479;,
  -0.382007;0.163594;0.909565;,
  -0.382007;0.163594;0.909565;,
  -0.382007;0.163594;0.909565;,
  0.899224;-0.214943;0.381046;,
  0.899224;-0.214943;0.381046;,
  0.899224;-0.214943;0.381046;,
  0.679171;-0.661365;0.318313;,
  0.679171;-0.661365;0.318313;,
  0.679171;-0.661365;0.318313;,
  0.355094;-0.934805;0.006940;,
  0.355094;-0.934805;0.006940;,
  -0.577689;-0.758725;0.301018;,
  -0.577689;-0.758725;0.301018;,
  -0.360729;-0.932663;0.003829;,
  -0.360729;-0.932663;0.003829;,
  -0.360729;-0.932663;0.003829;,
  -0.577689;-0.758725;0.301018;,
  0.355094;-0.934805;0.006940;,
  0.679171;-0.661365;0.318313;,
  0.899224;-0.214943;0.381046;,
  -0.382007;0.163594;0.909565;,
  -0.341956;0.138332;0.929479;,
  -0.475396;-0.812904;-0.336430;,
  -0.517763;-0.760612;-0.391651;,
  -0.453547;-0.641697;0.618483;,
  -0.571739;-0.373279;-0.730601;,
  -0.824615;0.471173;-0.313058;,
  0.433901;-0.650672;0.623183;,
  -0.818776;0.524887;-0.232593;,
  0.510631;-0.775352;-0.371597;,
  -0.592396;0.769843;0.237506;,
  0.859911;0.444682;-0.250623;,
  0.916829;0.393353;0.068538;,
  -0.665722;0.434375;0.606740;,
  0.528312;0.810959;0.251460;,
  0.513383;-0.799873;-0.310871;,
  0.574165;-0.378658;-0.725915;,
  0.841501;0.466628;-0.272275;,
  0.658479;0.395374;0.640379;;

  24;
  3;17,54,12;,
  4;9,28,43,46;,
  4;6,4,57,59;,
  4;21,16,25,32;,
  4;58,56,61,63;,
  4;27,34,41,42;,
  3;51,48,24;,
  4;33,1,14,40;,
  4;47,45,31,23;,
  3;44,72,30;,
  4;55,11,50,60;,
  4;72,73,13,29;,
  4;20,0,76,26;,
  4;10,53,70,49;,
  4;62,65,37,39;,
  3;19,78,8;,
  4;71,70,52,7;,
  4;38,5,66,64;,
  4;77,82,87,18;,
  4;3,85,74,36;,
  4;15,2,35,22;,
  4;81,80,84,68;,
  4;79,75,65,69;,
  4;83,67,86,81;;
 }
 MeshTextureCoords { 
 88;
 0.219458;0.241248;,
 0.518844;0.581256;,
 0.775391;0.541016;,
 0.775391;0.541016;,
 0.779297;0.283203;,
 0.738474;0.572002;,
 0.919922;0.388672;,
 0.529297;0.439453;,
 0.517578;0.474609;,
 0.529297;0.439453;,
 0.607422;0.455078;,
 0.607422;0.455078;,
 0.576172;0.513672;,
 0.219713;0.240213;,
 0.518844;0.961713;,
 0.619141;0.482422;,
 0.619141;0.482422;,
 0.611328;0.205078;,
 0.517578;0.470703;,
 0.517578;0.236328;,
 0.517578;0.236328;,
 0.517578;0.470703;,
 0.603516;0.291016;,
 0.611328;0.205078;,
 0.611328;0.205078;,
 0.603516;0.291016;,
 0.517578;0.474609;,
 0.525391;0.462891;,
 0.525391;0.462891;,
 0.517578;0.236328;,
 0.517578;0.236328;,
 0.517578;0.236328;,
 0.517578;0.310547;,
 0.242875;0.581256;,
 0.310547;0.466797;,
 0.787109;0.255859;,
 0.787109;0.255859;,
 0.779297;0.283203;,
 0.554495;0.572002;,
 0.919922;0.388672;,
 0.242875;0.961713;,
 0.310547;0.294922;,
 0.521484;0.298828;,
 0.521484;0.298828;,
 0.591797;0.416016;,
 0.517578;0.474609;,
 0.533203;0.314453;,
 0.603516;0.486328;,
 0.603516;0.486328;,
 0.607422;0.287109;,
 0.607422;0.287109;,
 0.576172;0.513672;,
 0.611328;0.435547;,
 0.611328;0.435547;,
 0.603516;0.486328;,
 0.744141;0.455078;,
 0.744141;0.455078;,
 0.751953;0.470703;,
 0.919498;0.455135;,
 0.880859;0.494141;,
 0.744141;0.279297;,
 0.744141;0.279297;,
 0.880859;0.494141;,
 0.919908;0.278276;,
 0.554495;0.963154;,
 0.751953;0.470703;,
 0.738474;0.963154;,
 0.751953;0.470703;,
 0.603516;0.486328;,
 0.576172;0.513672;,
 0.607422;0.314453;,
 0.533203;0.314453;,
 0.517578;0.474609;,
 0.310547;0.404297;,
 0.916582;0.264097;,
 0.779297;0.283203;,
 0.310547;0.404297;,
 0.517578;0.310547;,
 0.591797;0.416016;,
 0.611328;0.205078;,
 0.517578;0.236328;,
 0.611328;0.205078;,
 0.216797;0.341797;,
 0.576172;0.513672;,
 0.517578;0.474609;,
 0.919252;0.533620;,
 0.779297;0.283203;,
 0.216797;0.427734;;
 }
}
Frame frm-tetra2 {
  FrameTransformMatrix {
0.994773,0.069300,0.075000,0.000000,
0.025927,-0.881806,0.470900,0.000000,
0.098769,-0.466494,-0.878993,0.000000,
-5.150361,-10.711552,0.901477,1.000000;;
 }
Mesh tetra2 {
 18;
 0.030852;-0.286961;-4.669866;,
 1.016953;-2.354192;2.757775;,
 1.016953;-2.354192;2.757775;,
 0.349787;-1.320858;-0.647208;,
 0.349787;-1.320858;-0.647208;,
 0.349787;-1.320858;-0.647208;,
 0.349787;-1.320858;-0.647208;,
 -3.724155;-2.557969;1.171964;,
 -3.724155;-2.557969;1.171964;,
 2.358987;-2.277554;-2.184889;,
 -3.104611;-0.247576;-2.404462;,
 -3.104611;-0.247576;-2.404462;,
 -3.104611;-0.247576;-2.404462;,
 2.358987;-2.277554;-2.184889;,
 -3.724155;-2.557969;1.171964;,
 0.349787;-1.320858;-0.647208;,
 1.016953;-2.354192;2.757775;,
 0.030852;-0.286961;-4.669866;;

 6;
 3;2,6,8;,
 3;11,7,5;,
 5;14,10,0,9,1;,
 3;4,16,13;,
 3;13,17,3;,
 3;15,17,12;;

 MeshMaterialList {
  1;
  6;
  0,
  0,
  0,
  0,
  0,
  0;
Material {
 1.000000;1.000000;1.000000;1.000000;;
 0.000000;
 1.000000;1.000000;1.000000;;
 0.0; 0.0; 0.0;;
 TextureFilename {
  "utl99.bmp";
 }
 }
}
 MeshNormals {
  18;
  0.528978;0.844407;0.084615;,
  0.232268;0.956874;0.174482;,
  0.232268;0.956874;0.174482;,
  0.224462;0.928086;0.297110;,
  0.224462;0.928086;0.297110;,
  0.224462;0.928086;0.297110;,
  0.224462;0.928086;0.297110;,
  -0.302940;0.807983;0.505362;,
  -0.302940;0.807983;0.505362;,
  0.765919;0.642929;0.003409;,
  0.004850;0.888030;0.459761;,
  0.004850;0.888030;0.459761;,
  0.004850;0.888030;0.459761;,
  0.765919;0.642929;0.003409;,
  -0.302940;0.807983;0.505362;,
  0.224462;0.928086;0.297110;,
  0.232268;0.956874;0.174482;,
  0.528978;0.844407;0.084615;;

  6;
  3;2,6,8;,
  3;11,7,5;,
  5;14,10,0,9,1;,
  3;4,16,13;,
  3;13,17,3;,
  3;15,17,12;;
 }
 MeshTextureCoords { 
 18;
 0.511927;0.890255;,
 0.511927;0.890255;,
 0.511927;0.890255;,
 0.511927;0.890255;,
 0.511927;0.890255;,
 0.410086;0.665317;,
 0.410086;0.665317;,
 0.268559;0.858203;,
 0.268559;0.858203;,
 0.511927;0.890255;,
 0.426236;0.686710;,
 0.268559;0.858203;,
 0.268559;0.858203;,
 0.426236;0.686710;,
 0.426236;0.686710;,
 0.410086;0.665317;,
 0.426236;0.686710;,
 0.426236;0.686710;;
 }
}
}
Frame frm-tetra1 {
  FrameTransformMatrix {
0.623216,-0.614600,-0.483600,0.000000,
-0.284205,-0.754085,0.592100,0.000000,
-0.728580,-0.231564,-0.644630,0.000000,
8.396452,-0.483371,-4.883704,1.000000;;
 }
Mesh tetra1 {
 4;
 -4.081593;-1.613690;0.647618;,
 -0.226400;-0.056793;-0.625374;,
 1.016953;-2.354192;2.757775;,
 0.030852;-0.286961;-4.669866;;

 4;
 3;2,1,0;,
 3;3,0,1;,
 3;0,3,2;,
 3;1,2,3;;

 MeshMaterialList {
  1;
  4;
  0,
  0,
  0,
  0;
Material {
 1.000000;1.000000;1.000000;1.000000;;
 0.000000;
 1.000000;1.000000;1.000000;;
 0.0; 0.0; 0.0;;
 TextureFilename {
  "utl99.bmp";
 }
 }
}
 MeshNormals {
  4;
  -0.540932;0.799729;0.260434;,
  0.123780;0.963713;0.236506;,
  0.821860;0.396088;0.409464;,
  0.618450;0.646633;-0.446525;;

  4;
  3;2,1,0;,
  3;3,0,1;,
  3;0,3,2;,
  3;1,2,3;;
 }
 MeshTextureCoords { 
 4;
 0.268559;0.858203;,
 0.410086;0.665317;,
 0.511927;0.890255;,
 0.426236;0.686710;;
 }
}
}
Frame frm-cube1 {
  FrameTransformMatrix {
0.682200,-0.729852,0.043800,0.000000,
0.493430,0.503765,0.709047,0.000000,
-0.539564,-0.462099,0.703800,0.000000,
-0.656266,-13.091380,-11.024717,1.000000;;
 }
Mesh cube1 {
 32;
 -0.464498;-2.111344;1.307037;,
 -0.464498;-2.111344;1.307037;,
 -0.464498;-2.111344;1.307037;,
 -0.955051;-2.367653;-1.383832;,
 -0.955051;-2.367653;-1.383832;,
 -0.955051;-2.367653;-1.383832;,
 -2.217477;1.612382;2.084252;,
 -2.217477;1.612382;2.084252;,
 -2.217477;1.612382;2.084252;,
 -1.794291;2.496377;-2.088308;,
 -1.794291;2.496377;-2.088308;,
 -1.794291;2.496377;-2.088308;,
 1.176838;-2.270542;1.317060;,
 1.176838;-2.270542;1.317060;,
 1.176838;-2.270542;1.317060;,
 0.531711;-1.671940;-1.335074;,
 0.531711;-1.671940;-1.335074;,
 0.531711;-1.671940;-1.335074;,
 2.116738;2.930986;2.086858;,
 2.116738;2.930986;2.086858;,
 2.116738;2.930986;2.086858;,
 2.103851;2.084066;-2.034378;,
 2.103851;2.084066;-2.034378;,
 2.103851;2.084066;-2.034378;,
 2.103851;2.084066;-2.034378;,
 2.116738;2.930986;2.086858;,
 0.531711;-1.671940;-1.335074;,
 1.176838;-2.270542;1.317060;,
 -1.794291;2.496377;-2.088308;,
 -2.217477;1.612382;2.084252;,
 -0.955051;-2.367653;-1.383832;,
 -0.464498;-2.111344;1.307037;;

 12;
 3;11,5,2;,
 3;8,10,1;,
 3;23,17,4;,
 3;9,22,3;,
 3;20,14,16;,
 3;21,19,15;,
 3;7,0,13;,
 3;18,6,12;,
 3;30,26,27;,
 3;31,30,27;,
 3;24,28,29;,
 3;25,24,29;;

 MeshMaterialList {
  1;
  12;
  0,
  0,
  0,
  0,
  0,
  0,
  0,
  0,
  0,
  0,
  0,
  0;
Material {
 1.000000;1.000000;1.000000;1.000000;;
 0.000000;
 1.000000;1.000000;1.000000;;
 0.0; 0.0; 0.0;;
 TextureFilename {
  "utl99.bmp";
 }
 }
}
 MeshNormals {
  32;
  -0.664970;-0.669673;0.330685;,
  -0.664970;-0.669673;0.330685;,
  -0.664970;-0.669673;0.330685;,
  -0.164183;-0.751863;-0.638550;,
  -0.164183;-0.751863;-0.638550;,
  -0.164183;-0.751863;-0.638550;,
  -0.424167;0.518555;0.742417;,
  -0.424167;0.518555;0.742417;,
  -0.424167;0.518555;0.742417;,
  -0.884655;0.112307;-0.452519;,
  -0.884655;0.112307;-0.452519;,
  -0.884655;0.112307;-0.452519;,
  0.405034;-0.763608;0.502842;,
  0.405034;-0.763608;0.502842;,
  0.405034;-0.763608;0.502842;,
  0.710669;-0.564153;-0.420335;,
  0.710669;-0.564153;-0.420335;,
  0.710669;-0.564153;-0.420335;,
  0.904615;0.142072;0.401854;,
  0.904615;0.142072;0.401854;,
  0.904615;0.142072;0.401854;,
  0.304875;0.534047;-0.788572;,
  0.304875;0.534047;-0.788572;,
  0.304875;0.534047;-0.788572;,
  0.304875;0.534047;-0.788572;,
  0.904615;0.142072;0.401854;,
  0.710669;-0.564153;-0.420335;,
  0.405034;-0.763608;0.502842;,
  -0.884655;0.112307;-0.452519;,
  -0.424167;0.518555;0.742417;,
  -0.164183;-0.751863;-0.638550;,
  -0.664970;-0.669673;0.330685;;

  12;
  3;11,5,2;,
  3;8,10,1;,
  3;23,17,4;,
  3;9,22,3;,
  3;20,14,16;,
  3;21,19,15;,
  3;7,0,13;,
  3;18,6,12;,
  3;30,26,27;,
  3;31,30,27;,
  3;24,28,29;,
  3;25,24,29;;
 }
 MeshTextureCoords { 
 32;
 0.736328;0.966797;,
 0.220703;0.982422;,
 0.220703;0.982422;,
 0.557286;0.971100;,
 0.557286;0.971100;,
 0.525391;0.974609;,
 0.751953;0.583984;,
 0.751953;0.583984;,
 0.212891;0.560547;,
 0.557286;0.579681;,
 0.533203;0.568359;,
 0.533203;0.568359;,
 0.564453;0.966797;,
 0.564453;0.966797;,
 0.494141;0.966797;,
 0.259766;0.951172;,
 0.259766;0.951172;,
 0.735683;0.971100;,
 0.558980;0.583801;,
 0.509766;0.583984;,
 0.509766;0.583984;,
 0.236328;0.568359;,
 0.735683;0.579681;,
 0.735683;0.579681;,
 0.001953;0.435547;,
 0.197266;0.435547;,
 0.009766;0.662109;,
 0.173828;0.677734;,
 0.001953;0.279297;,
 0.197266;0.279297;,
 0.009766;0.873047;,
 0.197266;0.849609;;
 }
}
}
Frame frm-sheet_metal {
  FrameTransformMatrix {
-0.407000,-0.834112,0.372300,0.000000,
0.882942,-0.254833,0.394300,0.000000,
-0.234016,0.489200,0.840191,0.000000,
2.683121,-7.082980,-5.166112,1.000000;;
 }
Mesh sheet_metal {
 41;
 1.394708;-0.034882;1.274341;,
 1.394708;-0.034882;1.274341;,
 1.409758;0.370216;1.218875;,
 1.254506;0.509711;3.585748;,
 1.254506;0.509711;3.585748;,
 -1.178459;4.616168;11.393279;,
 -1.178459;4.616168;11.393279;,
 0.652166;3.949693;7.815772;,
 0.652166;3.949693;7.815772;,
 0.652166;3.949693;7.815772;,
 1.072159;4.930236;10.007432;,
 1.072159;4.930236;10.007432;,
 0.581115;4.263255;7.620309;,
 0.581115;4.263255;7.620309;,
 0.581115;4.263255;7.620309;,
 0.983121;4.389864;9.556563;,
 0.983121;4.389864;9.556563;,
 0.983121;4.389864;9.556563;,
 1.264274;0.916367;3.574755;,
 1.264274;0.916367;3.574755;,
 0.806339;1.774004;6.160373;,
 0.806339;1.774004;6.160373;,
 0.806339;1.774004;6.160373;,
 0.818088;2.024650;5.878873;,
 0.818088;2.024650;5.878873;,
 0.818088;2.024650;5.878873;,
 -1.395720;1.894901;5.897810;,
 0.818088;2.024650;5.878873;,
 0.806339;1.774004;6.160373;,
 1.264274;0.916367;3.574755;,
 0.983121;4.389864;9.556563;,
 0.581115;4.263255;7.620309;,
 1.072159;4.930236;10.007432;,
 -1.438332;0.412616;3.195111;,
 0.652166;3.949693;7.815772;,
 -1.237400;4.175318;7.653312;,
 -1.178459;4.616168;11.393279;,
 1.254506;0.509711;3.585748;,
 1.409758;0.370216;1.218875;,
 1.394708;-0.034882;1.274341;,
 -1.525559;-0.007736;0.894138;;

 17;
 3;1,4,33;,
 4;26,33,3,22;,
 3;33,40,0;,
 3;17,6,35;,
 4;37,39,2,19;,
 4;14,11,16,9;,
 3;35,8,15;,
 4;21,37,18,25;,
 3;5,30,10;,
 3;32,13,35;,
 4;26,35,12,24;,
 3;40,33,29;,
 3;35,36,32;,
 3;29,38,40;,
 4;23,31,7,20;,
 4;28,34,35,26;,
 4;27,29,33,26;;

 MeshMaterialList {
  2;
  17;
  0,
  0,
  0,
  0,
  1,
  1,
  0,
  1,
  1,
  0,
  0,
  0,
  0,
  0,
  1,
  0,
  0;
Material {
 1.000000;1.000000;1.000000;1.000000;;
 0.000000;
 1.000000;1.000000;1.000000;;
 0.0; 0.0; 0.0;;
 TextureFilename {
  "utl99.bmp";
 }
 }
Material {
 1.000000;1.000000;1.000000;1.000000;;
 0.000000;
 1.000000;1.000000;1.000000;;
 0.0; 0.0; 0.0;;
 TextureFilename {
  "utl99.bmp";
 }
 }
}
 MeshNormals {
  41;
  0.426969;-0.879725;0.209240;,
  0.426969;-0.879725;0.209240;,
  0.684367;0.718402;-0.124658;,
  0.726984;-0.624136;0.286266;,
  0.726984;-0.624136;0.286266;,
  -0.053124;-0.953231;0.297539;,
  -0.053124;-0.953231;0.297539;,
  0.693023;-0.672240;0.260408;,
  0.693023;-0.672240;0.260408;,
  0.693023;-0.672240;0.260408;,
  0.327877;0.944719;-0.001608;,
  0.327877;0.944719;-0.001608;,
  0.770831;0.561085;-0.301668;,
  0.770831;0.561085;-0.301668;,
  0.770831;0.561085;-0.301668;,
  0.330606;-0.931316;0.152804;,
  0.330606;-0.931316;0.152804;,
  0.330606;-0.931316;0.152804;,
  0.481997;0.862500;-0.154185;,
  0.481997;0.862500;-0.154185;,
  0.905137;-0.278990;0.320766;,
  0.905137;-0.278990;0.320766;,
  0.905137;-0.278990;0.320766;,
  0.673567;0.631677;-0.383786;,
  0.673567;0.631677;-0.383786;,
  0.673567;0.631677;-0.383786;,
  -0.999382;-0.009775;-0.033767;,
  0.673567;0.631677;-0.383786;,
  0.905137;-0.278990;0.320766;,
  0.481997;0.862500;-0.154185;,
  0.330606;-0.931316;0.152804;,
  0.770831;0.561085;-0.301668;,
  0.327877;0.944719;-0.001608;,
  -0.327538;-0.918185;0.222835;,
  0.693023;-0.672240;0.260408;,
  -0.998928;-0.045175;0.010111;,
  -0.053124;-0.953231;0.297539;,
  0.726984;-0.624136;0.286266;,
  0.684367;0.718402;-0.124658;,
  0.426969;-0.879725;0.209240;,
  -0.289011;0.934388;-0.208309;;

  17;
  3;1,4,33;,
  4;26,33,3,22;,
  3;33,40,0;,
  3;17,6,35;,
  4;37,39,2,19;,
  4;14,11,16,9;,
  3;35,8,15;,
  4;21,37,18,25;,
  3;5,30,10;,
  3;32,13,35;,
  4;26,35,12,24;,
  3;40,33,29;,
  3;35,36,32;,
  3;29,38,40;,
  4;23,31,7,20;,
  4;28,34,35,26;,
  4;27,29,33,26;;
 }
 MeshTextureCoords { 
 41;
 0.193107;0.072599;,
 0.193107;0.072599;,
 0.197266;0.998047;,
 0.184279;0.261868;,
 0.184279;0.261868;,
 0.001953;0.021484;,
 0.031086;0.972555;,
 0.001953;0.216797;,
 0.146352;0.685167;,
 0.001953;0.216797;,
 0.197266;0.021484;,
 0.197266;0.021484;,
 0.141878;0.680484;,
 0.141878;0.680484;,
 0.197266;0.216797;,
 0.167191;0.828657;,
 0.001953;0.021484;,
 0.167191;0.828657;,
 0.197266;0.783203;,
 0.197266;0.783203;,
 0.001953;0.490234;,
 0.001953;0.490234;,
 0.156060;0.493396;,
 0.197266;0.490234;,
 0.156800;0.480325;,
 0.197266;0.490234;,
 0.017406;0.477651;,
 0.156800;0.480325;,
 0.156060;0.493396;,
 0.184894;0.273852;,
 0.197266;0.080078;,
 0.197266;0.216797;,
 0.172797;0.879244;,
 0.014723;0.229721;,
 0.146352;0.685167;,
 0.027374;0.680173;,
 0.031086;0.972555;,
 0.001953;0.783203;,
 0.194054;0.081223;,
 0.001953;0.998047;,
 0.009230;0.045142;;
 }
}
Frame frm-large_cyl {
  FrameTransformMatrix {
1.000000,0.000000,0.000000,0.000000,
0.000000,1.000000,0.000000,0.000000,
0.000000,0.000000,1.000000,0.000000,
0.165563,-0.029816,0.300597,1.000000;;
 }
Mesh large_cyl {
 28;
 3.126907;-0.085588;-0.725630;,
 3.126907;-0.085588;-0.725630;,
 -2.240431;-0.059803;-1.262774;,
 -2.240431;-0.059803;-1.262774;,
 2.829142;1.220756;0.029197;,
 2.829142;1.220756;0.029197;,
 -2.356073;1.005956;-0.594151;,
 -2.356073;1.005956;-0.594151;,
 2.398832;0.429392;1.140829;,
 2.398832;0.429392;1.140829;,
 -2.576365;0.518666;0.327905;,
 2.302003;-0.645081;1.101903;,
 2.302003;-0.645081;1.101903;,
 -2.622976;-0.596675;0.564980;,
 2.510845;-1.109673;-0.114234;,
 2.510845;-1.109673;-0.114234;,
 -2.633602;-0.955228;-0.680274;,
 -2.633602;-0.955228;-0.680274;,
 -2.633602;-0.955228;-0.680274;,
 2.510845;-1.109673;-0.114234;,
 -2.622976;-0.596675;0.564980;,
 2.302003;-0.645081;1.101903;,
 -2.576365;0.518666;0.327905;,
 2.398832;0.429392;1.140829;,
 -2.356073;1.005956;-0.594151;,
 2.829142;1.220756;0.029197;,
 -2.240431;-0.059803;-1.262774;,
 3.126907;-0.085588;-0.725630;;

 7;
 5;13,10,7,3,17;,
 4;6,22,9,5;,
 4;22,20,12,8;,
 5;15,1,4,23,11;,
 4;20,16,14,21;,
 4;18,2,0,19;,
 4;26,24,25,27;;

 MeshMaterialList {
  1;
  7;
  0,
  0,
  0,
  0,
  0,
  0,
  0;
Material {
 1.000000;1.000000;1.000000;1.000000;;
 0.000000;
 1.000000;1.000000;1.000000;;
 0.0; 0.0; 0.0;;
 TextureFilename {
  "utl99.bmp";
 }
 }
}
 MeshNormals {
  28;
  0.615870;-0.066306;-0.785053;,
  0.615870;-0.066306;-0.785053;,
  -0.386955;0.094345;-0.917259;,
  -0.386955;0.094345;-0.917259;,
  0.574259;0.818482;-0.017718;,
  0.574259;0.818482;-0.017718;,
  -0.489517;0.828853;-0.270878;,
  -0.489517;0.828853;-0.270878;,
  0.294548;0.419394;0.858691;,
  0.294548;0.419394;0.858691;,
  -0.536867;0.541368;0.647066;,
  0.358131;-0.478757;0.801582;,
  0.358131;-0.478757;0.801582;,
  -0.655301;-0.414422;0.631534;,
  0.510292;-0.853992;-0.101484;,
  0.510292;-0.853992;-0.101484;,
  -0.528557;-0.748027;-0.401352;,
  -0.528557;-0.748027;-0.401352;,
  -0.528557;-0.748027;-0.401352;,
  0.510292;-0.853992;-0.101484;,
  -0.655301;-0.414422;0.631534;,
  0.358131;-0.478757;0.801582;,
  -0.536867;0.541368;0.647066;,
  0.294548;0.419394;0.858691;,
  -0.489517;0.828853;-0.270878;,
  0.574259;0.818482;-0.017718;,
  -0.386955;0.094345;-0.917259;,
  0.615870;-0.066306;-0.785053;;

  7;
  5;13,10,7,3,17;,
  4;6,22,9,5;,
  4;22,20,12,8;,
  5;15,1,4,23,11;,
  4;20,16,14,21;,
  4;18,2,0,19;,
  4;26,24,25,27;;
 }
 MeshTextureCoords { 
 28;
 0.978516;0.177734;,
 0.077600;0.386728;,
 0.648128;0.184681;,
 0.142254;0.494136;,
 0.148719;0.425786;,
 0.939453;0.138672;,
 0.275391;0.138672;,
 0.148719;0.425786;,
 0.880859;0.099609;,
 0.880859;0.099609;,
 0.077600;0.386728;,
 0.077600;0.523429;,
 0.919922;0.060547;,
 0.032343;0.464843;,
 0.939453;0.001953;,
 0.032343;0.464843;,
 0.236328;0.001953;,
 0.077600;0.523429;,
 0.579573;0.179302;,
 0.939453;0.216797;,
 0.255859;0.060547;,
 0.919922;0.060547;,
 0.275391;0.099609;,
 0.142254;0.494136;,
 0.939453;0.138672;,
 0.978516;0.177734;,
 0.632016;0.137523;,
 0.648128;0.184681;;
 }
}
Frame frm-small_cyl {
  FrameTransformMatrix {
1.000000,0.000000,0.000000,0.000000,
0.000000,1.000000,0.000000,0.000000,
0.000000,0.000000,1.000000,0.000000,
-3.628316,-0.000001,-0.477294,1.000000;;
 }
Mesh small_cyl {
 24;
 1.489709;-0.418329;0.681945;,
 -1.623315;-0.387198;0.272417;,
 1.581328;-0.598241;-0.028169;,
 1.581328;-0.598241;-0.028169;,
 -1.531696;-0.567110;-0.437698;,
 -1.531696;-0.567110;-0.437698;,
 1.638652;0.027085;-0.416379;,
 1.638652;0.027085;-0.416379;,
 -1.246210;0.302654;-0.825908;,
 1.582461;0.593470;0.053809;,
 1.582461;0.593470;0.053809;,
 -0.968049;0.921758;-0.355720;,
 1.490409;0.318188;0.732611;,
 -1.650042;0.714805;0.323082;,
 -1.650042;0.714805;0.323082;,
 1.490409;0.318188;0.732611;,
 -0.968049;0.921758;-0.355720;,
 1.582461;0.593470;0.053809;,
 -1.246210;0.302654;-0.825908;,
 1.638652;0.027085;-0.416379;,
 -1.531696;-0.567110;-0.437698;,
 1.581328;-0.598241;-0.028169;,
 -1.623315;-0.387198;0.272417;,
 1.489709;-0.418329;0.681945;;

 7;
 5;11,8,5,1,13;,
 4;4,18,7,3;,
 4;18,16,10,6;,
 5;12,0,2,19,9;,
 4;16,14,15,17;,
 4;14,22,23,15;,
 4;22,20,21,23;;

 MeshMaterialList {
  1;
  7;
  0,
  0,
  0,
  0,
  0,
  0,
  0;
Material {
 1.000000;1.000000;1.000000;1.000000;;
 0.000000;
 1.000000;1.000000;1.000000;;
 0.0; 0.0; 0.0;;
 TextureFilename {
  "utl99.bmp";
 }
 }
}
 MeshNormals {
  24;
  0.430959;-0.546796;0.717835;,
  -0.675373;-0.487233;0.553602;,
  0.561502;-0.782000;-0.270538;,
  0.561502;-0.782000;-0.270538;,
  -0.482503;-0.678846;-0.553497;,
  -0.482503;-0.678846;-0.553497;,
  0.637857;0.052057;-0.768393;,
  0.637857;0.052057;-0.768393;,
  -0.294232;0.168940;-0.940684;,
  0.628646;0.763763;-0.146532;,
  0.628646;0.763763;-0.146532;,
  -0.323333;0.868428;-0.375884;,
  0.473329;0.441684;0.762152;,
  -0.542545;0.622618;0.563908;,
  -0.542545;0.622618;0.563908;,
  0.473329;0.441684;0.762152;,
  -0.323333;0.868428;-0.375884;,
  0.628646;0.763763;-0.146532;,
  -0.294232;0.168940;-0.940684;,
  0.637857;0.052057;-0.768393;,
  -0.482503;-0.678846;-0.553497;,
  0.561502;-0.782000;-0.270538;,
  -0.675373;-0.487233;0.553602;,
  0.430959;-0.546796;0.717835;;

  7;
  5;11,8,5,1,13;,
  4;4,18,7,3;,
  4;18,16,10,6;,
  5;12,0,2,19,9;,
  4;16,14,15,17;,
  4;14,22,23,15;,
  4;22,20,21,23;;
 }
 MeshTextureCoords { 
 24;
 0.134727;0.762646;,
 0.047078;0.724902;,
 0.103497;0.724902;,
 0.189189;0.980757;,
 0.010030;0.980757;,
 0.103497;0.724902;,
 0.189189;0.897263;,
 0.189189;0.897263;,
 0.134727;0.762646;,
 0.058822;0.782733;,
 0.189189;0.780371;,
 0.117602;0.782414;,
 0.117602;0.782414;,
 0.058822;0.782733;,
 0.010030;0.746973;,
 0.189189;0.713575;,
 0.010030;0.805419;,
 0.189189;0.780371;,
 0.010030;0.863865;,
 0.047078;0.724902;,
 0.010030;0.563286;,
 0.189189;0.563286;,
 0.010030;0.638431;,
 0.189189;0.646780;;
 }
}
}
}
}
}
AnimationSet {
 Animation anim-afuselg {
  {frm-afuselg}
  AnimationKey {
  0;
  2;
  1; 4; 0.849998, -0.344441, 0.171570, -0.359760;;,
  91; 4; 0.849998, -0.344441, 0.171570, -0.359760;;;
  }
  AnimationKey {
  2;
  2;
  1; 3; -5.272871, -5.431124, 11.965603;;,
  91; 3; -5.272871, -5.431124, 11.965603;;;
  }
 }
 Animation anim-tetra2 {
  {frm-tetra2}
  AnimationKey {
  0;
  2;
  1; 4; 0.241854, 0.968965, 0.024569, -0.044834;;,
  91; 4; 0.241854, 0.968965, 0.024569, -0.044834;;;
  }
  AnimationKey {
  2;
  2;
  1; 3; -5.150360, -10.711552, 0.901477;;,
  91; 3; -5.150360, -10.711552, 0.901477;;;
  }
 }
 Animation anim-tetra1 {
  {frm-tetra1}
  AnimationKey {
  0;
  2;
  1; 4; 0.236907, 0.869185, -0.258520, 0.348654;;,
  91; 4; 0.236907, 0.869185, -0.258520, 0.348654;;;
  }
  AnimationKey {
  2;
  2;
  1; 3; 8.396452, -0.483371, -4.883704;;,
  91; 3; 8.396452, -0.483371, -4.883704;;;
  }
 }
 Animation anim-cube1 {
  {frm-cube1}
  AnimationKey {
  0;
  2;
  1; 4; 0.849966, 0.344469, -0.171585, 0.359804;;,
  91; 4; 0.849966, 0.344469, -0.171585, 0.359804;;;
  }
  AnimationKey {
  2;
  2;
  1; 3; -0.656266, -13.091380, -11.024718;;,
  91; 3; -0.656266, -13.091380, -11.024718;;;
  }
 }
 Animation anim-sheet_metal {
  {frm-sheet_metal}
  AnimationKey {
  0;
  2;
  1; 4; 0.542761, -0.043712, -0.279274, 0.790889;;,
  91; 4; 0.542761, -0.043712, -0.279274, 0.790889;;;
  }
  AnimationKey {
  2;
  2;
  1; 3; 2.683121, -7.082980, -5.166112;;,
  91; 3; 2.683121, -7.082980, -5.166112;;;
  }
 }
 Animation anim-large_cyl {
  {frm-large_cyl}
  AnimationKey {
  2;
  2;
  1; 3; 0.165563, -0.029816, 0.300597;;,
  91; 3; 0.165563, -0.029816, 0.300597;;;
  }
 }
 Animation anim-small_cyl {
  {frm-small_cyl}
  AnimationKey {
  2;
  2;
  1; 3; -3.628316, -0.000001, -0.477294;;,
  91; 3; -3.628316, -0.000001, -0.477294;;;
  }
 }
}

